<?xml version="1.0"?>
<VTKFile type="UnstructuredGrid" version="0.1" byte_order="LittleEndian">
<UnstructuredGrid>
<Piece NumberOfPoints="360" NumberOfCells="124">
<Points>
<DataArray type="Float64" NumberOfComponents="3" format="ascii">
7.500000000000000e-01 1.000000000000000e+00 0.000000000000000e+00 6.875000000000000e-01 8.750000000000000e-01 0.000000000000000e+00 6.875000000000000e-01 8.750000000000000e-01 0.000000000000000e+00 6.250000000000000e-01 7.500000000000000e-01 0.000000000000000e+00 6.250000000000000e-01 7.500000000000000e-01 0.000000000000000e+00 5.625000000000000e-01 6.250000000000000e-01 0.000000000000000e+00 5.625000000000000e-01 6.250000000000000e-01 0.000000000000000e+00 5.000000000000000e-01 5.000000000000000e-01 -0.000000000000000e+00 0.000000000000000e+00 2.500000000000000e-01 0.000000000000000e+00 1.249999999997599e-01 3.124999999998800e-01 0.000000000000000e+00 1.249999999997599e-01 3.124999999998800e-01 0.000000000000000e+00 2.499999999996086e-01 3.749999999998043e-01 0.000000000000000e+00 2.499999999996086e-01 3.749999999998043e-01 0.000000000000000e+00 3.749999999997349e-01 4.374999999998674e-01 0.000000000000000e+00 3.749999999997349e-01 4.374999999998674e-01 0.000000000000000e+00 5.000000000000000e-01 5.000000000000000e-01 -0.000000000000000e+00 5.000000000000000e-01 5.000000000000000e-01 -0.000000000000000e+00 4.375000000000694e-01 3.750000000001388e-01 0.000000000000000e+00 4.375000000000694e-01 3.750000000001388e-01 0.000000000000000e+00 3.750000000002776e-01 2.500000000005551e-01 0.000000000000000e+00 3.750000000002776e-01 2.500000000005551e-01 0.000000000000000e+00 3.125000000002082e-01 1.250000000004163e-01 0.000000000000000e+00 3.125000000002082e-01 1.250000000004163e-01 0.000000000000000e+00 2.500000000000000e-01 -0.000000000000000e+00 0.000000000000000e+00 3.749999999997349e-01 4.374999999998674e-01 0.000000000000000e+00 4.139414069912184e-01 6.056325264010037e-01 0.000000000000000e+00 2.645244370067465e-01 5.156353158163987e-01 0.000000000000000e+00 3.749999999997349e-01 4.374999999998674e-01 0.000000000000000e+00 5.000000000000000e-01 5.000000000000000e-01 -0.000000000000000e+00 4.139414069912184e-01 6.056325264010037e-01 0.000000000000000e+00 0.000000000000000e+00 2.500000000000000e-01 0.000000000000000e+00 1.249999999997599e-01 3.124999999998800e-01 0.000000000000000e+00 0.000000000000000e+00 4.375000000003469e-01 0.000000000000000e+00 6.875000000000000e-01 8.750000000000000e-01 0.000000000000000e+00 7.500000000000000e-01 1.000000000000000e+00 0.000000000000000e+00 5.625000000008674e-01 1.000000000000000e+00 0.000000000000000e+00 4.139414069912184e-01 6.056325264010037e-01 0.000000000000000e+00 2.758946705068648e-01 6.605885315643570e-01 0.000000000000000e+00 2.645244370067465e-01 5.156353158163987e-01 0.000000000000000e+00 2.798796021293082e-01 8.344274147057053e-01 0.000000000000000e+00 1.390078959961168e-01 7.261831610706000e-01 0.000000000000000e+00 2.758946705068648e-01 6.605885315643570e-01 0.000000000000000e+00 0.000000000000000e+00 4.375000000003469e-01 0.000000000000000e+00 1.492912418697525e-01 4.458279356810638e-01 0.000000000000000e+00 1.392858751591214e-01 5.733980610567744e-01 0.000000000000000e+00 3.750000000006939e-01 1.000000000000000e+00 0.000000000000000e+00 4.492710539671537e-01 8.556512408515589e-01 0.000000000000000e+00 5.625000000008674e-01 1.000000000000000e+00 0.000000000000000e+00 0.000000000000000e+00 4.375000000003469e-01 0.000000000000000e+00 1.392858751591214e-01 5.733980610567744e-01 0.000000000000000e+00 0.000000000000000e+00 6.250000000006939e-01 0.000000000000000e+00 3.750000000006939e-01 1.000000000000000e+00 0.000000000000000e+00 2.798796021293082e-01 8.344274147057053e-01 0.000000000000000e+00 4.492710539671537e-01 8.556512408515589e-01 0.000000000000000e+00 3.750000000006939e-01 1.000000000000000e+00 0.000000000000000e+00 1.875000000005205e-01 1.000000000000000e+00 0.000000000000000e+00 2.798796021293082e-01 8.344274147057053e-01 0.000000000000000e+00 2.798796021293082e-01 8.344274147057053e-01 0.000000000000000e+00 2.758946705068648e-01 6.605885315643570e-01 0.000000000000000e+00 3.813620468049507e-01 7.403859221383123e-01 0.000000000000000e+00 5.625000000008674e-01 1.000000000000000e+00 0.000000000000000e+00 4.492710539671537e-01 8.556512408515589e-01 0.000000000000000e+00 5.677751205718758e-01 8.470224641095303e-01 0.000000000000000e+00 6.875000000000000e-01 8.750000000000000e-01 0.000000000000000e+00 5.625000000008674e-01 1.000000000000000e+00 0.000000000000000e+00 5.677751205718758e-01 8.470224641095303e-01 0.000000000000000e+00 5.625000000000000e-01 6.250000000000000e-01 0.000000000000000e+00 4.139414069912184e-01 6.056325264010037e-01 0.000000000000000e+00 5.000000000000000e-01 5.000000000000000e-01 -0.000000000000000e+00 0.000000000000000e+00 4.375000000003469e-01 0.000000000000000e+00 1.249999999997599e-01 3.124999999998800e-01 0.000000000000000e+00 1.492912418697525e-01 4.458279356810638e-01 0.000000000000000e+00 0.000000000000000e+00 1.000000000000000e+00 0.000000000000000e+00 0.000000000000000e+00 8.125000000010408e-01 0.000000000000000e+00 1.271010713601231e-01 8.709480661820344e-01 0.000000000000000e+00 3.749999999997349e-01 4.374999999998674e-01 0.000000000000000e+00 2.645244370067465e-01 5.156353158163987e-01 0.000000000000000e+00 2.499999999996086e-01 3.749999999998043e-01 0.000000000000000e+00 1.875000000005205e-01 1.000000000000000e+00 0.000000000000000e+00 0.000000000000000e+00 1.000000000000000e+00 0.000000000000000e+00 1.271010713601231e-01 8.709480661820344e-01 0.000000000000000e+00 0.000000000000000e+00 8.125000000010408e-01 0.000000000000000e+00 0.000000000000000e+00 6.250000000006939e-01 0.000000000000000e+00 1.390078959961168e-01 7.261831610706000e-01 0.000000000000000e+00 2.499999999996086e-01 3.749999999998043e-01 0.000000000000000e+00 1.492912418697525e-01 4.458279356810638e-01 0.000000000000000e+00 1.249999999997599e-01 3.124999999998800e-01 0.000000000000000e+00 2.758946705068648e-01 6.605885315643570e-01 0.000000000000000e+00 1.390078959961168e-01 7.261831610706000e-01 0.000000000000000e+00 1.392858751591214e-01 5.733980610567744e-01 0.000000000000000e+00 4.492710539671537e-01 8.556512408515589e-01 0.000000000000000e+00 2.798796021293082e-01 8.344274147057053e-01 0.000000000000000e+00 3.813620468049507e-01 7.403859221383123e-01 0.000000000000000e+00 2.798796021293082e-01 8.344274147057053e-01 0.000000000000000e+00 1.271010713601231e-01 8.709480661820344e-01 0.000000000000000e+00 1.390078959961168e-01 7.261831610706000e-01 0.000000000000000e+00 5.625000000000000e-01 6.250000000000000e-01 0.000000000000000e+00 5.014585693307863e-01 7.367466304650486e-01 0.000000000000000e+00 4.139414069912184e-01 6.056325264010037e-01 0.000000000000000e+00 1.875000000005205e-01 1.000000000000000e+00 0.000000000000000e+00 1.271010713601231e-01 8.709480661820344e-01 0.000000000000000e+00 2.798796021293082e-01 8.344274147057053e-01 0.000000000000000e+00 2.499999999996086e-01 3.749999999998043e-01 0.000000000000000e+00 2.645244370067465e-01 5.156353158163987e-01 0.000000000000000e+00 1.492912418697525e-01 4.458279356810638e-01 0.000000000000000e+00 2.645244370067465e-01 5.156353158163987e-01 0.000000000000000e+00 2.758946705068648e-01 6.605885315643570e-01 0.000000000000000e+00 1.392858751591214e-01 5.733980610567744e-01 0.000000000000000e+00 5.625000000000000e-01 6.250000000000000e-01 0.000000000000000e+00 6.250000000000000e-01 7.500000000000000e-01 0.000000000000000e+00 5.014585693307863e-01 7.367466304650486e-01 0.000000000000000e+00 4.139414069912184e-01 6.056325264010037e-01 0.000000000000000e+00 5.014585693307863e-01 7.367466304650486e-01 0.000000000000000e+00 3.813620468049507e-01 7.403859221383123e-01 0.000000000000000e+00 6.875000000000000e-01 8.750000000000000e-01 0.000000000000000e+00 5.677751205718758e-01 8.470224641095303e-01 0.000000000000000e+00 6.250000000000000e-01 7.500000000000000e-01 0.000000000000000e+00 6.250000000000000e-01 7.500000000000000e-01 0.000000000000000e+00 5.677751205718758e-01 8.470224641095303e-01 0.000000000000000e+00 5.014585693307863e-01 7.367466304650486e-01 0.000000000000000e+00 0.000000000000000e+00 6.250000000006939e-01 0.000000000000000e+00 1.392858751591214e-01 5.733980610567744e-01 0.000000000000000e+00 1.390078959961168e-01 7.261831610706000e-01 0.000000000000000e+00 4.139414069912184e-01 6.056325264010037e-01 0.000000000000000e+00 3.813620468049507e-01 7.403859221383123e-01 0.000000000000000e+00 2.758946705068648e-01 6.605885315643570e-01 0.000000000000000e+00 0.000000000000000e+00 8.125000000010408e-01 0.000000000000000e+00 1.390078959961168e-01 7.261831610706000e-01 0.000000000000000e+00 1.271010713601231e-01 8.709480661820344e-01 0.000000000000000e+00 2.645244370067465e-01 5.156353158163987e-01 0.000000000000000e+00 1.392858751591214e-01 5.733980610567744e-01 0.000000000000000e+00 1.492912418697525e-01 4.458279356810638e-01 0.000000000000000e+00 4.492710539671537e-01 8.556512408515589e-01 0.000000000000000e+00 5.014585693307863e-01 7.367466304650486e-01 0.000000000000000e+00 5.677751205718758e-01 8.470224641095303e-01 0.000000000000000e+00 4.492710539671537e-01 8.556512408515589e-01 0.000000000000000e+00 3.813620468049507e-01 7.403859221383123e-01 0.000000000000000e+00 5.014585693307863e-01 7.367466304650486e-01 0.000000000000000e+00 5.698670717843664e-01 3.776209365087199e-01 0.000000000000000e+00 7.182603949284063e-01 3.456402071721618e-01 0.000000000000000e+00 6.323653418237701e-01 5.029675640633227e-01 0.000000000000000e+00 7.533843026232094e-01 4.929444342317560e-01 0.000000000000000e+00 6.323653418237701e-01 5.029675640633227e-01 0.000000000000000e+00 7.182603949284063e-01 3.456402071721618e-01 0.000000000000000e+00 8.578792739151740e-01 7.535325208825020e-01 0.000000000000000e+00 7.125974780784441e-01 6.384669131570183e-01 0.000000000000000e+00 8.612746697781972e-01 5.794807697879764e-01 0.000000000000000e+00 2.500000000000000e-01 -0.000000000000000e+00 0.000000000000000e+00 4.374999999991326e-01 0.000000000000000e+00 0.000000000000000e+00 3.125000000002082e-01 1.250000000004163e-01 0.000000000000000e+00 8.578792739151740e-01 7.535325208825020e-01 0.000000000000000e+00 7.385779517043357e-01 7.773678856428465e-01 0.000000000000000e+00 7.125974780784441e-01 6.384669131570183e-01 0.000000000000000e+00 8.612746697781972e-01 5.794807697879764e-01 0.000000000000000e+00 8.656940847709105e-01 4.098367391676661e-01 0.000000000000000e+00 1.000000000000000e+00 5.000000000013877e-01 0.000000000000000e+00 7.150899340618379e-01 1.571595685477760e-01 0.000000000000000e+00 8.608728669021763e-01 2.520652359795942e-01 0.000000000000000e+00 7.182603949284063e-01 3.456402071721618e-01 0.000000000000000e+00 8.612746697781972e-01 5.794807697879764e-01 0.000000000000000e+00 7.533843026232094e-01 4.929444342317560e-01 0.000000000000000e+00 8.656940847709105e-01 4.098367391676661e-01 0.000000000000000e+00 4.374999999991326e-01 0.000000000000000e+00 0.000000000000000e+00 6.249999999989591e-01 0.000000000000000e+00 0.000000000000000e+00 5.447576766858295e-01 1.431838882066932e-01 0.000000000000000e+00 8.055298449100090e-01 8.871112287212741e-01 0.000000000000000e+00 8.578792739151740e-01 7.535325208825020e-01 0.000000000000000e+00 9.063795342218008e-01 9.020858332805730e-01 0.000000000000000e+00 1.000000000000000e+00 8.333333333335646e-01 0.000000000000000e+00 9.063795342218008e-01 9.020858332805730e-01 0.000000000000000e+00 8.578792739151740e-01 7.535325208825020e-01 0.000000000000000e+00 1.000000000000000e+00 8.333333333335646e-01 0.000000000000000e+00 8.578792739151740e-01 7.535325208825020e-01 0.000000000000000e+00 1.000000000000000e+00 6.666666666673605e-01 0.000000000000000e+00 1.000000000000000e+00 1.666666666673605e-01 0.000000000000000e+00 1.000000000000000e+00 3.333333333344898e-01 0.000000000000000e+00 8.608728669021763e-01 2.520652359795942e-01 0.000000000000000e+00 6.249999999989591e-01 0.000000000000000e+00 0.000000000000000e+00 7.150899340618379e-01 1.571595685477760e-01 0.000000000000000e+00 5.447576766858295e-01 1.431838882066932e-01 0.000000000000000e+00 8.124999999994795e-01 0.000000000000000e+00 0.000000000000000e+00 7.150899340618379e-01 1.571595685477760e-01 0.000000000000000e+00 6.249999999989591e-01 0.000000000000000e+00 0.000000000000000e+00 1.000000000000000e+00 6.666666666673605e-01 0.000000000000000e+00 8.578792739151740e-01 7.535325208825020e-01 0.000000000000000e+00 8.612746697781972e-01 5.794807697879764e-01 0.000000000000000e+00 1.000000000000000e+00 1.000000000000000e+00 0.000000000000000e+00 9.063795342218008e-01 9.020858332805730e-01 0.000000000000000e+00 1.000000000000000e+00 8.333333333335646e-01 0.000000000000000e+00 7.533843026232094e-01 4.929444342317560e-01 0.000000000000000e+00 7.182603949284063e-01 3.456402071721618e-01 0.000000000000000e+00 8.656940847709105e-01 4.098367391676661e-01 0.000000000000000e+00 1.000000000000000e+00 6.666666666673605e-01 0.000000000000000e+00 8.612746697781972e-01 5.794807697879764e-01 0.000000000000000e+00 1.000000000000000e+00 5.000000000013877e-01 0.000000000000000e+00 8.612746697781972e-01 5.794807697879764e-01 0.000000000000000e+00 7.125974780784441e-01 6.384669131570183e-01 0.000000000000000e+00 7.533843026232094e-01 4.929444342317560e-01 0.000000000000000e+00 3.125000000002082e-01 1.250000000004163e-01 0.000000000000000e+00 4.374999999991326e-01 0.000000000000000e+00 0.000000000000000e+00 4.287911518546233e-01 1.545544542796670e-01 0.000000000000000e+00 7.150899340618379e-01 1.571595685477760e-01 0.000000000000000e+00 8.769890164881212e-01 1.160638338657984e-01 0.000000000000000e+00 8.608728669021763e-01 2.520652359795942e-01 0.000000000000000e+00 1.000000000000000e+00 3.333333333344898e-01 0.000000000000000e+00 1.000000000000000e+00 5.000000000013877e-01 0.000000000000000e+00 8.656940847709105e-01 4.098367391676661e-01 0.000000000000000e+00 4.375000000000694e-01 3.750000000001388e-01 0.000000000000000e+00 5.698670717843664e-01 3.776209365087199e-01 0.000000000000000e+00 5.000000000000000e-01 5.000000000000000e-01 -0.000000000000000e+00 7.150899340618379e-01 1.571595685477760e-01 0.000000000000000e+00 7.182603949284063e-01 3.456402071721618e-01 0.000000000000000e+00 6.110846258508276e-01 2.575059958234323e-01 0.000000000000000e+00 5.625000000000000e-01 6.250000000000000e-01 0.000000000000000e+00 7.125974780784441e-01 6.384669131570183e-01 0.000000000000000e+00 6.250000000000000e-01 7.500000000000000e-01 0.000000000000000e+00 8.656940847709105e-01 4.098367391676661e-01 0.000000000000000e+00 7.182603949284063e-01 3.456402071721618e-01 0.000000000000000e+00 8.608728669021763e-01 2.520652359795942e-01 0.000000000000000e+00 6.875000000000000e-01 8.750000000000000e-01 0.000000000000000e+00 8.055298449100090e-01 8.871112287212741e-01 0.000000000000000e+00 7.500000000000000e-01 1.000000000000000e+00 0.000000000000000e+00 8.750000000000000e-01 1.000000000000000e+00 0.000000000000000e+00 7.500000000000000e-01 1.000000000000000e+00 0.000000000000000e+00 8.055298449100090e-01 8.871112287212741e-01 0.000000000000000e+00 1.000000000000000e+00 3.333333333344898e-01 0.000000000000000e+00 8.656940847709105e-01 4.098367391676661e-01 0.000000000000000e+00 8.608728669021763e-01 2.520652359795942e-01 0.000000000000000e+00 8.124999999994795e-01 0.000000000000000e+00 0.000000000000000e+00 8.769890164881212e-01 1.160638338657984e-01 0.000000000000000e+00 7.150899340618379e-01 1.571595685477760e-01 0.000000000000000e+00 8.124999999994795e-01 0.000000000000000e+00 0.000000000000000e+00 1.000000000000000e+00 0.000000000000000e+00 0.000000000000000e+00 8.769890164881212e-01 1.160638338657984e-01 0.000000000000000e+00 4.374999999991326e-01 0.000000000000000e+00 0.000000000000000e+00 5.447576766858295e-01 1.431838882066932e-01 0.000000000000000e+00 4.287911518546233e-01 1.545544542796670e-01 0.000000000000000e+00 5.000000000000000e-01 5.000000000000000e-01 -0.000000000000000e+00 5.698670717843664e-01 3.776209365087199e-01 0.000000000000000e+00 6.323653418237701e-01 5.029675640633227e-01 0.000000000000000e+00 1.000000000000000e+00 1.666666666673605e-01 0.000000000000000e+00 8.769890164881212e-01 1.160638338657984e-01 0.000000000000000e+00 1.000000000000000e+00 0.000000000000000e+00 0.000000000000000e+00 5.625000000000000e-01 6.250000000000000e-01 0.000000000000000e+00 6.323653418237701e-01 5.029675640633227e-01 0.000000000000000e+00 7.125974780784441e-01 6.384669131570183e-01 0.000000000000000e+00 5.698670717843664e-01 3.776209365087199e-01 0.000000000000000e+00 6.110846258508276e-01 2.575059958234323e-01 0.000000000000000e+00 7.182603949284063e-01 3.456402071721618e-01 0.000000000000000e+00 7.150899340618379e-01 1.571595685477760e-01 0.000000000000000e+00 6.110846258508276e-01 2.575059958234323e-01 0.000000000000000e+00 5.447576766858295e-01 1.431838882066932e-01 0.000000000000000e+00 7.533843026232094e-01 4.929444342317560e-01 0.000000000000000e+00 7.125974780784441e-01 6.384669131570183e-01 0.000000000000000e+00 6.323653418237701e-01 5.029675640633227e-01 0.000000000000000e+00 4.375000000000694e-01 3.750000000001388e-01 0.000000000000000e+00 4.945749328930023e-01 2.625170377655549e-01 0.000000000000000e+00 5.698670717843664e-01 3.776209365087199e-01 0.000000000000000e+00 6.250000000000000e-01 7.500000000000000e-01 0.000000000000000e+00 7.125974780784441e-01 6.384669131570183e-01 0.000000000000000e+00 7.385779517043357e-01 7.773678856428465e-01 0.000000000000000e+00 5.625000000000000e-01 6.250000000000000e-01 0.000000000000000e+00 5.000000000000000e-01 5.000000000000000e-01 -0.000000000000000e+00 6.323653418237701e-01 5.029675640633227e-01 0.000000000000000e+00 8.055298449100090e-01 8.871112287212741e-01 0.000000000000000e+00 7.385779517043357e-01 7.773678856428465e-01 0.000000000000000e+00 8.578792739151740e-01 7.535325208825020e-01 0.000000000000000e+00 6.875000000000000e-01 8.750000000000000e-01 0.000000000000000e+00 7.385779517043357e-01 7.773678856428465e-01 0.000000000000000e+00 8.055298449100090e-01 8.871112287212741e-01 0.000000000000000e+00 3.750000000002776e-01 2.500000000005551e-01 0.000000000000000e+00 4.945749328930023e-01 2.625170377655549e-01 0.000000000000000e+00 4.375000000000694e-01 3.750000000001388e-01 0.000000000000000e+00 1.000000000000000e+00 1.000000000000000e+00 0.000000000000000e+00 8.750000000000000e-01 1.000000000000000e+00 0.000000000000000e+00 9.063795342218008e-01 9.020858332805730e-01 0.000000000000000e+00 1.000000000000000e+00 1.666666666673605e-01 0.000000000000000e+00 8.608728669021763e-01 2.520652359795942e-01 0.000000000000000e+00 8.769890164881212e-01 1.160638338657984e-01 0.000000000000000e+00 6.875000000000000e-01 8.750000000000000e-01 0.000000000000000e+00 6.250000000000000e-01 7.500000000000000e-01 0.000000000000000e+00 7.385779517043357e-01 7.773678856428465e-01 0.000000000000000e+00 5.698670717843664e-01 3.776209365087199e-01 0.000000000000000e+00 4.945749328930023e-01 2.625170377655549e-01 0.000000000000000e+00 6.110846258508276e-01 2.575059958234323e-01 0.000000000000000e+00 3.125000000002082e-01 1.250000000004163e-01 0.000000000000000e+00 4.287911518546233e-01 1.545544542796670e-01 0.000000000000000e+00 3.750000000002776e-01 2.500000000005551e-01 0.000000000000000e+00 3.750000000002776e-01 2.500000000005551e-01 0.000000000000000e+00 4.287911518546233e-01 1.545544542796670e-01 0.000000000000000e+00 4.945749328930023e-01 2.625170377655549e-01 0.000000000000000e+00 5.447576766858295e-01 1.431838882066932e-01 0.000000000000000e+00 4.945749328930023e-01 2.625170377655549e-01 0.000000000000000e+00 4.287911518546233e-01 1.545544542796670e-01 0.000000000000000e+00 8.750000000000000e-01 1.000000000000000e+00 0.000000000000000e+00 8.055298449100090e-01 8.871112287212741e-01 0.000000000000000e+00 9.063795342218008e-01 9.020858332805730e-01 0.000000000000000e+00 5.447576766858295e-01 1.431838882066932e-01 0.000000000000000e+00 6.110846258508276e-01 2.575059958234323e-01 0.000000000000000e+00 4.945749328930023e-01 2.625170377655549e-01 0.000000000000000e+00 4.375000000000694e-01 3.750000000001388e-01 0.000000000000000e+00 5.000000000000000e-01 5.000000000000000e-01 -0.000000000000000e+00 3.749999999997349e-01 4.374999999998674e-01 0.000000000000000e+00 1.249999999997599e-01 3.124999999998800e-01 0.000000000000000e+00 1.008171452988615e-01 1.888570369725047e-01 0.000000000000000e+00 2.403886547178353e-01 2.418881479267384e-01 0.000000000000000e+00 2.500000000000000e-01 -0.000000000000000e+00 0.000000000000000e+00 1.840276181286450e-01 1.117324051466445e-01 0.000000000000000e+00 1.249999999997554e-01 0.000000000000000e+00 0.000000000000000e+00 2.500000000000000e-01 -0.000000000000000e+00 0.000000000000000e+00 3.125000000002082e-01 1.250000000004163e-01 0.000000000000000e+00 1.840276181286450e-01 1.117324051466445e-01 0.000000000000000e+00 3.749999999997349e-01 4.374999999998674e-01 0.000000000000000e+00 2.499999999996086e-01 3.749999999998043e-01 0.000000000000000e+00 3.381944444444832e-01 3.381944444445634e-01 0.000000000000000e+00 3.750000000002776e-01 2.500000000005551e-01 0.000000000000000e+00 4.375000000000694e-01 3.750000000001388e-01 0.000000000000000e+00 3.381944444444832e-01 3.381944444445634e-01 0.000000000000000e+00 1.840276181286450e-01 1.117324051466445e-01 0.000000000000000e+00 2.403886547178353e-01 2.418881479267384e-01 0.000000000000000e+00 1.008171452988615e-01 1.888570369725047e-01 0.000000000000000e+00 3.125000000002082e-01 1.250000000004163e-01 0.000000000000000e+00 3.750000000002776e-01 2.500000000005551e-01 0.000000000000000e+00 2.403886547178353e-01 2.418881479267384e-01 0.000000000000000e+00 2.499999999996086e-01 3.749999999998043e-01 0.000000000000000e+00 1.249999999997599e-01 3.124999999998800e-01 0.000000000000000e+00 2.403886547178353e-01 2.418881479267384e-01 0.000000000000000e+00 3.750000000002776e-01 2.500000000005551e-01 0.000000000000000e+00 3.381944444444832e-01 3.381944444445634e-01 0.000000000000000e+00 2.403886547178353e-01 2.418881479267384e-01 0.000000000000000e+00 2.499999999996086e-01 3.749999999998043e-01 0.000000000000000e+00 2.403886547178353e-01 2.418881479267384e-01 0.000000000000000e+00 3.381944444444832e-01 3.381944444445634e-01 0.000000000000000e+00 1.249999999997599e-01 3.124999999998800e-01 0.000000000000000e+00 0.000000000000000e+00 2.500000000000000e-01 0.000000000000000e+00 1.008171452988615e-01 1.888570369725047e-01 0.000000000000000e+00 3.125000000002082e-01 1.250000000004163e-01 0.000000000000000e+00 2.403886547178353e-01 2.418881479267384e-01 0.000000000000000e+00 1.840276181286450e-01 1.117324051466445e-01 0.000000000000000e+00 4.375000000000694e-01 3.750000000001388e-01 0.000000000000000e+00 3.749999999997349e-01 4.374999999998674e-01 0.000000000000000e+00 3.381944444444832e-01 3.381944444445634e-01 0.000000000000000e+00 0.000000000000000e+00 0.000000000000000e+00 0.000000000000000e+00 8.435242216391163e-02 8.645171265626619e-02 0.000000000000000e+00 0.000000000000000e+00 1.250000000003469e-01 0.000000000000000e+00 0.000000000000000e+00 0.000000000000000e+00 0.000000000000000e+00 1.249999999997554e-01 0.000000000000000e+00 0.000000000000000e+00 8.435242216391163e-02 8.645171265626619e-02 0.000000000000000e+00 0.000000000000000e+00 1.250000000003469e-01 0.000000000000000e+00 1.008171452988615e-01 1.888570369725047e-01 0.000000000000000e+00 0.000000000000000e+00 2.500000000000000e-01 0.000000000000000e+00 1.249999999997554e-01 0.000000000000000e+00 0.000000000000000e+00 1.840276181286450e-01 1.117324051466445e-01 0.000000000000000e+00 8.435242216391163e-02 8.645171265626619e-02 0.000000000000000e+00 0.000000000000000e+00 1.250000000003469e-01 0.000000000000000e+00 8.435242216391163e-02 8.645171265626619e-02 0.000000000000000e+00 1.008171452988615e-01 1.888570369725047e-01 0.000000000000000e+00 1.008171452988615e-01 1.888570369725047e-01 0.000000000000000e+00 8.435242216391163e-02 8.645171265626619e-02 0.000000000000000e+00 1.840276181286450e-01 1.117324051466445e-01 0.000000000000000e+00 
</DataArray>
</Points>
<Cells>
<DataArray type="UInt32" Name="connectivity" format="ascii">
0 1 2 3 4 5 6 7 8 9 10 11 12 13 14 15 16 17 18 19 20 21 22 23 24 25 26 27 28 29 30 31 32 33 34 35 36 37 38 39 40 41 42 43 44 45 46 47 48 49 50 51 52 53 54 55 56 57 58 59 60 61 62 63 64 65 66 67 68 69 70 71 72 73 74 75 76 77 78 79 80 81 82 83 84 85 86 87 88 89 90 91 92 93 94 95 96 97 98 99 100 101 102 103 104 105 106 107 108 109 110 111 112 113 114 115 116 117 118 119 120 121 122 123 124 125 126 127 128 129 130 131 132 133 134 135 136 137 138 139 140 141 142 143 144 145 146 147 148 149 150 151 152 153 154 155 156 157 158 159 160 161 162 163 164 165 166 167 168 169 170 171 172 173 174 175 176 177 178 179 180 181 182 183 184 185 186 187 188 189 190 191 192 193 194 195 196 197 198 199 200 201 202 203 204 205 206 207 208 209 210 211 212 213 214 215 216 217 218 219 220 221 222 223 224 225 226 227 228 229 230 231 232 233 234 235 236 237 238 239 240 241 242 243 244 245 246 247 248 249 250 251 252 253 254 255 256 257 258 259 260 261 262 263 264 265 266 267 268 269 270 271 272 273 274 275 276 277 278 279 280 281 282 283 284 285 286 287 288 289 290 291 292 293 294 295 296 297 298 299 300 301 302 303 304 305 306 307 308 309 310 311 312 313 314 315 316 317 318 319 320 321 322 323 324 325 326 327 328 329 330 331 332 333 334 335 336 337 338 339 340 341 342 343 344 345 346 347 348 349 350 351 352 353 354 355 356 357 358 359 
</DataArray>
<DataArray type="UInt32" Name="offsets" format="ascii">
2 4 6 8 10 12 14 16 18 20 22 24 27 30 33 36 39 42 45 48 51 54 57 60 63 66 69 72 75 78 81 84 87 90 93 96 99 102 105 108 111 114 117 120 123 126 129 132 135 138 141 144 147 150 153 156 159 162 165 168 171 174 177 180 183 186 189 192 195 198 201 204 207 210 213 216 219 222 225 228 231 234 237 240 243 246 249 252 255 258 261 264 267 270 273 276 279 282 285 288 291 294 297 300 303 306 309 312 315 318 321 324 327 330 333 336 339 342 345 348 351 354 357 360 
</DataArray>
<DataArray type="UInt32" Name="types" format="ascii">
3 3 3 3 3 3 3 3 3 3 3 3 5 5 5 5 5 5 5 5 5 5 5 5 5 5 5 5 5 5 5 5 5 5 5 5 5 5 5 5 5 5 5 5 5 5 5 5 5 5 5 5 5 5 5 5 5 5 5 5 5 5 5 5 5 5 5 5 5 5 5 5 5 5 5 5 5 5 5 5 5 5 5 5 5 5 5 5 5 5 5 5 5 5 5 5 5 5 5 5 5 5 5 5 5 5 5 5 5 5 5 5 5 5 5 5 5 5 5 5 5 5 5 5 
</DataArray>
</Cells>
<PointData Scalars="age_conc,U235_conc," Vectors="" Tensors="">
<DataArray type="Float64" Name="age_conc" format="ascii">
-9.848731172118236e+03 9.850731172118232e+03 -5.437687269686732e+03 5.439687269686727e+03 -2.601334201914782e+03 2.603334201914774e+03 -1.289458911606518e+03 1.291458911606518e+03 4.025539490654774e+01 -3.825539490655500e+01 1.000772396916000e+02 -9.807723969160003e+01 3.056950915867856e+02 -3.036950915867858e+02 8.833510594289255e+02 -8.813510594289328e+02 -9.310446450655800e+02 9.330446450655800e+02 -2.550583253108343e+02 2.570583253108344e+02 -8.978157706672209e+01 9.178157706671482e+01 -3.321448379324283e+01 3.521448379324283e+01 -3.548060385546705e+02 1.102706281221436e+03 -7.449002426667502e+02 -7.360094155177794e+02 -9.663738936195078e+02 1.705383309137280e+03 -2.409466575489205e+01 -4.327185297370302e+00 3.142185105226962e+01 4.017271004199403e+04 -2.586015511685146e+04 -1.430955492514259e+04 9.060001104092662e+02 -5.969390556205028e+02 -3.060610547887627e+02 5.875969819454622e+03 -1.607279653900695e+03 -4.265690165553915e+03 1.124979275262303e+02 -3.220853835996239e+02 2.125874560733937e+02 -2.710197731430496e+04 5.460111323372715e+04 -2.749613591942220e+04 -1.835480030849794e+02 1.793754067252420e+03 -1.607206064167447e+03 -3.555972966032249e+04 -4.128588469143704e+03 3.969131812946618e+04 -2.763513401289635e+04 -1.979956583324411e+04 4.743769984614047e+04 1.995296243399935e+03 3.536937192157945e+03 -5.529233435557864e+03 -2.243145686083967e+04 1.265104629979071e+04 9.783410561048944e+03 2.384730643596635e+04 -2.819099022508482e+04 4.346683789118450e+03 -2.725837837762840e+03 2.280888289032180e+03 4.479495487306555e+02 6.037698144627211e+01 2.008453007519705e+01 -7.746151152145468e+01 -3.259321119600133e+04 4.721714849847932e+03 2.787449634615340e+04 9.151002647439600e+01 -4.121718772942623e+02 3.236618508198589e+02 -2.516609592309820e+04 -1.874357511753119e+04 4.391267104062940e+04 1.105218874408608e+04 3.587516902373396e+02 -1.140794043432338e+04 -4.740778248825518e+01 9.082856646457364e+01 -4.042078397633308e+01 -2.159950905710088e+03 6.328703850774996e+02 1.530080520632582e+03 2.237491740533664e+04 -7.129918295392075e+03 -1.524199910994454e+04 2.522962325138216e+04 -1.051041705950744e+04 -1.471620619187472e+04 -3.525964560221619e+03 4.487074501218251e+03 -9.581099409966409e+02 -2.957390964976147e+04 -5.968597373025388e+03 3.554550702278691e+04 1.854581603073166e+01 -1.484073409057019e+02 1.328615248749629e+02 5.348888158645641e+02 -9.478383039249892e+02 4.159494880604325e+02 2.424590973034050e+03 -1.132968094177390e+04 8.908089968739867e+03 7.587908137400154e+02 4.755091740188779e+01 -8.033417311418963e+02 5.150076269589947e+03 1.439047153392235e+04 -1.953754780351228e+04 -1.838038387467857e+04 1.507686288864361e+04 3.306520986034940e+03 -1.403620820443786e+03 3.406147595108820e+03 -1.999526774665035e+03 1.676150013343948e+03 -1.614047417825481e+03 -5.910259551845947e+01 1.141811352141128e+04 -1.632638821604998e+04 4.911274694638685e+03 2.043425947829091e+02 4.490285053107752e-01 -2.017916232882199e+02 7.511679915604327e+02 -4.645780660214864e+03 3.897612668654408e+03 2.259195128001520e+03 -6.972816274241504e+02 -1.558913500577373e+03 -3.217644793717482e+02 -2.720908242099978e+02 5.968553035817457e+02 -6.465941842701868e+02 8.488738057021103e+02 -1.992796214319389e+02 1.953532626390762e+04 -1.253387627495590e+04 -6.998449988951718e+03 -3.411809224892932e+01 5.330813289240179e+01 -1.619004064346517e+01 4.353329947580714e+02 -2.220246567491410e+02 -2.103083380089448e+02 3.448289931088099e+04 -3.920710805806278e+03 -3.055918850507472e+04 3.649926316076875e+03 2.204330953556004e+03 -5.851257269632881e+03 2.131106882428237e+04 -1.121219166561043e+04 -1.009587715867194e+04 -2.100235206502111e+02 -1.098962243174007e+03 1.311985763824217e+03 -1.251836853954927e+04 -9.815425471136850e+03 2.233679401068611e+04 -3.696576198607135e+04 3.481994521103417e+04 2.148816775037152e+03 -2.696997387242705e+04 4.584202552528105e+04 -1.886905165285398e+04 -1.992928409134163e+04 -2.632133412571835e+04 4.625361821705997e+04 -7.037332409059964e+02 -1.781831319327196e+03 2.488564560233201e+03 8.164214328236863e+03 -9.034783552826473e+03 8.735692245896271e+02 -2.918135968302216e+04 3.296930759662631e+04 -3.784947913604167e+03 -2.574442152485820e+04 5.149184304971531e+04 -2.574442152485714e+04 -2.678839844903137e+03 4.354681159613829e+03 -1.672841314710684e+03 -2.597419511729555e+04 4.718449277877259e+04 -2.120729766147703e+04 -2.753405220591885e+02 -5.196202685027229e+03 5.474543207086418e+03 2.147381060467887e+01 1.022104752338709e+02 -1.206842858385426e+02 -1.310700926588105e+04 -5.684014724652830e+03 1.879402399053388e+04 -2.211177789320352e+04 -2.639493635273768e+04 4.850971424594123e+04 2.001079208340525e+01 1.517966955940210e+02 -1.688074876774262e+02 2.875183840143538e+03 -4.215128999843323e+03 1.342945159699789e+03 -1.681107537714634e+02 7.341473387401784e+02 -5.630365849687295e+02 1.575273782968143e+04 -1.250841934513433e+04 -3.241318484547105e+03 1.116781578484188e+03 2.900965040156448e+04 -3.012343198004868e+04 -2.536012864953559e+04 -1.763523667588065e+04 4.299836532541623e+04 -3.199607819793755e+04 3.503322512536150e+04 -3.034146927423931e+03 8.405295552514857e+03 4.520135200434486e+03 -1.292243075294934e+04 6.270122040154485e+03 -3.203800877502085e+04 2.577088673486634e+04 8.948604312101816e+01 2.528998222075534e+02 -3.393858653285788e+02 -2.337808596397590e+02 1.948884568054563e+02 4.189240283430249e+01 -2.468816372231031e+04 4.216391633670437e+04 -1.747275261439403e+04 1.255731121968449e+03 -3.523538320600851e+02 -9.003772899083558e+02 1.193780395635258e+01 1.108297968682964e+02 -1.197676008246417e+02 1.000116826801161e+03 4.904536547875639e+01 -1.046162192279938e+03 3.499048461351922e+03 -4.763705612840230e+03 1.267657151488304e+03 1.397482944966760e+01 -5.448678017682686e+01 4.351195072715200e+01 1.079095783399316e+02 1.747421432292925e+03 -1.852331010632857e+03 6.922430998249692e+02 -1.169739099537835e+02 -5.722691898711853e+02 -2.132348078218041e+03 1.589861564150188e+03 5.454865140678598e+02 -3.756012189908579e+02 -1.208079303585802e+04 1.245939425484887e+04 4.525321408524178e+00 -2.275804547635926e+01 2.123272406782781e+01 -2.621305681202944e+04 -2.615057024253323e+04 5.236662705456265e+04 -3.058571586029900e+04 3.368798303375992e+04 -3.099267173460908e+03 4.584121462960633e+03 1.468657641265664e+03 -6.049779104226292e+03 -2.312846217651531e+01 -2.792558205525003e+00 2.892102038204029e+01 -1.170146758318879e+00 9.713676854618827e+00 -5.543530096299946e+00 -1.117014346856013e+01 1.729354730536578e+01 -3.123403836798392e+00 -9.247386540380830e+01 4.472158090633452e+01 5.075228449748096e+01 -3.686260787894876e+04 -9.025117398010982e+02 3.776811961874987e+04 -1.765420062458652e+02 1.210696354599786e+02 5.847237078589385e+01 1.353472687642607e+03 -2.636536109607798e+03 1.286063421965169e+03 -2.095052037312998e+02 -2.046365267267973e+02 4.171417304581046e+02 -4.186786157781899e+01 6.980487886953048e+01 -2.493701729171153e+01 8.393623320177721e+01 -1.574041379947666e+02 7.646790479297484e+01 -3.194980445726760e+02 -4.427036235981801e+02 7.652016681708411e+02 -4.318885145630411e+02 -2.528574467661166e+02 6.877459613291575e+02 -1.979914102702460e+02 4.143175544791666e+02 -2.133261442089351e+02 1.275088194221826e+02 -6.210844534166537e+02 4.965756339944637e+02 -6.579601181859543e+02 1.369971918005610e+02 5.239629263854005e+02 -9.197402486483625e+02 7.292620570539593e+02 1.934781915943967e+02 -9.725189752494625e+02 1.886854851298773e+02 7.868334901195844e+02 -1.683730558012176e+02 9.191514228350570e+01 7.945791351771186e+01 -2.039808576102441e+02 3.883435307570475e+02 -1.813626731468176e+02 3.787312961465504e+02 3.118031321453452e+02 -6.875344282918888e+02 -1.888219561366714e+01 -3.547814184705929e+01 5.736033746070461e+01 -1.280665604703972e+01 5.417113333681484e+01 -3.836447728978238e+01 -2.031321982402733e+01 6.842634712907604e+01 -4.511312730505598e+01 2.696950749741518e+01 3.528104851720843e+00 -2.749761234915060e+01 3.767305323428445e+01 -1.579638262445952e+01 -1.887667060983222e+01 -6.300237389787071e+01 1.160682293850040e+02 -5.006585548714797e+01 
</DataArray>
<DataArray type="Float64" Name="U235_conc" format="ascii">
1.002161622796679e+00 8.958054198729236e-01 8.868867980953246e-01 7.389439359264338e-01 7.302689181834003e-01 5.896226742819883e-01 5.811804959673277e-01 4.503459502137657e-01 9.530804812648201e-02 1.389298439293231e-01 1.381110639590632e-01 1.996044869624810e-01 1.992707234154997e-01 2.924280419674190e-01 2.947856845549606e-01 4.466730871034610e-01 4.364007877981407e-01 2.730744428938662e-01 2.716696626066397e-01 1.861490110572174e-01 1.862444680580177e-01 1.291281322903339e-01 1.298308370643858e-01 8.931978489025980e-02 -7.514044900792776e-03 -2.533161349349531e-02 3.284565839428807e-02 -1.857199081385464e-02 1.611228547199478e-01 -9.099944212634736e-02 3.242584401559946e-04 1.494165333228291e-04 -4.736749734788236e-04 4.263157146389314e-01 9.885385923843304e-01 8.742878662171830e-01 -2.161551605900544e-03 3.142146293881347e-03 -3.651839566899152e-04 1.218299369129987e-02 -2.867049830388695e-02 2.228965986999439e-02 -2.490042995715780e-03 1.702489936526581e-03 1.708091134950220e-03 9.777294604320276e-01 7.114329037877096e-02 9.656777079306841e-01 -4.671699716105052e-03 -9.239488063165357e-03 1.420926446945179e-02 9.239517081482556e-01 9.943139825403507e-02 6.333587471872376e-02 9.526912008513817e-01 9.363165176415191e-01 -4.362280951641272e-03 5.564038568654339e-02 -8.637487428412170e-03 -9.655616055682017e-03 8.091312680810863e-01 1.459602673741317e-01 1.601491472185891e-01 4.013017758106891e-01 8.576894930080327e-01 1.284248571988645e-01 3.503015800919651e-01 -1.294649465159971e-01 1.961478450098580e-01 -6.557931253795230e-04 2.193659041222996e-04 4.364272212572237e-04 9.045855972701243e-01 -1.038926935493694e-01 1.077184018531237e-01 -1.178841500516952e-02 1.905648072537045e-02 -1.934317786903676e-03 9.545454005200057e-01 9.540626031728401e-01 1.231393625840146e-01 -5.200823118215542e-02 1.757246461103356e-02 3.792516456134760e-02 3.050067145505838e-03 -1.803402527354739e-03 -1.171372229960624e-04 2.095027776123151e-02 -2.007400235747058e-02 5.680315696636399e-03 4.411095554359907e-02 7.422332908560642e-02 -3.761549288644411e-02 -2.273736483788741e-02 1.933156864906777e-01 -7.657051550925893e-02 3.853419804356449e-01 -1.287167208271015e-01 -1.450756383997668e-01 8.990102357436587e-01 2.165029061267993e-01 3.133852264242756e-03 3.726386760927024e-03 8.590305572630248e-03 -2.903080597799107e-03 -2.990781549054670e-03 9.777453357345844e-03 6.982822384862959e-03 4.573757227372044e-01 5.231033492091615e-01 -1.702265480041937e-01 1.574773510572836e-03 -4.399820136014539e-02 4.242342784957259e-02 5.240077435580348e-01 -9.265620039306983e-02 5.216034891348573e-01 4.928539208344958e-01 -8.429416358797463e-02 -1.355906064901216e-01 1.859012976711908e-02 -1.061781203017613e-02 1.175278728321197e-03 -8.545978046615669e-04 1.906797918850435e-02 1.628175034496614e-03 -4.623624381767630e-02 1.701330903219475e-02 1.313945897306315e-01 -1.961088783357425e-03 5.528719117461302e-03 -9.876055085575408e-04 1.718248948930254e-01 -1.020206081254277e-01 1.096954758228436e-01 1.431209708515409e-01 2.328309950915157e-02 -6.928100783972535e-02 2.779772234354649e-04 -6.253320226977981e-03 8.435570495991532e-03 -8.371270279340244e-03 1.402168051938196e-02 -5.650410240041732e-03 3.777642212159614e-02 -9.176188113595141e-02 1.554590507780748e-01 2.241610341305450e-04 -5.293605828188268e-04 3.051995486882816e-04 1.151048482442957e-02 6.567375110692095e-03 -6.581245900247877e-03 1.086396512251367e-01 2.068558865123185e-01 9.228606748304772e-01 4.662993299222869e-04 8.296603457317885e-02 -2.080981879720990e-02 7.802793485242712e-02 -9.474019496046919e-02 1.869808379144094e-01 -2.842066840565464e-03 1.010698687116976e-02 -4.867597102748804e-03 1.028803225892982e-01 1.075482998796685e-02 2.235314708630959e-01 9.548488463723650e-01 2.731677043265308e-01 8.340823492104850e-02 9.674154858789642e-01 7.544636346087315e-02 9.612094531345718e-01 9.548510598467945e-01 9.621230040335089e-01 9.394684766454578e-02 1.215226499652142e-02 5.579748065017811e-03 -4.904237319738674e-03 -2.539672202289483e-02 1.055202624004314e-02 1.484469578285168e-02 9.154474982629337e-01 7.831207348952547e-02 1.867019927250234e-01 9.862608627686594e-01 3.060607930154778e-01 9.862608627686861e-01 -5.224478959884044e-02 5.927404751099244e-03 1.538168451418529e-01 9.625459233547576e-01 1.114843337209277e-01 9.627684144941511e-01 1.274785972151072e-01 -4.874415715103537e-02 3.391365950187355e-02 3.437045451972164e-04 -7.475727624527614e-04 1.006919721931919e-03 -9.403922962389218e-02 1.631806271347797e-01 5.325363269235656e-02 9.658681788655039e-01 9.677819725450270e-01 1.275653059270765e-01 1.829992595082619e-05 1.868445505940813e-03 -1.149010111741210e-03 1.663876508794682e-03 -7.301590343398450e-03 6.132480101840993e-03 -1.253671781177620e-04 4.688808092574526e-03 -4.532053079402644e-03 9.332281749197432e-02 -5.886059428336234e-02 1.117618269947674e-01 1.955506256982082e-01 2.137351991414650e-01 9.490662876948063e-01 9.780341681177590e-01 9.755328119783473e-01 2.252778355228537e-01 9.269741237211853e-01 1.195122919353802e-01 1.683589238576881e-01 -1.829208766947824e-02 1.260843109344328e-01 -1.675032370139538e-02 -1.207948939524412e-01 9.072749538444935e-01 1.375862604134566e-01 -1.230830844746108e-03 -8.131981458229917e-04 2.044028990569100e-03 -1.848437082205693e-03 2.485192784621476e-03 2.007355852086625e-03 9.607047084639834e-01 1.546302732453511e-01 9.555366004025094e-01 6.180192478089378e-03 -2.747199943664214e-03 -3.321137711124058e-03 1.275996581392550e-03 2.277979335367234e-03 -3.553975916759784e-03 -1.448175189169179e-03 3.062709397791324e-03 -1.503618243939488e-04 2.619276042828021e-02 -2.742291904463336e-02 1.517711640141358e-03 3.717615403091960e-04 -3.206964200751302e-04 8.362404110216244e-04 -3.213467584777127e-03 7.945301552714525e-03 -4.625730029479440e-03 2.990106472850977e-03 -1.348457284433514e-06 -2.798426090948781e-03 1.021923169008409e-01 -2.628770201504056e-03 2.166607080907190e-02 1.733817514310606e-01 -7.375355215284127e-02 1.557160012892981e-01 -2.229631065241629e-05 -1.734849640792013e-04 2.932259399613178e-04 9.852925651262513e-01 9.839478064350239e-01 2.702209440212635e-01 9.254079658086432e-01 9.153285624289884e-02 2.143130674777806e-01 1.437316518655974e-01 -4.365356738981329e-03 -3.769568197118418e-02 1.151019978519176e-04 -1.809125213438438e-04 8.166189569201353e-04 -1.846634908066997e-06 -2.956853680652049e-05 3.449478174855878e-05 1.005924694922639e-04 1.534379081043877e-05 -1.159362603027026e-04 6.087061158136464e-04 -2.872772937949509e-04 -1.011139549634124e-04 9.657475379722659e-01 2.197812896324089e-01 2.482291308707427e-01 6.814538181706387e-04 1.402177728736405e-03 -4.383438809129768e-04 1.312388741230268e-01 4.071235160633897e-01 1.428192733370289e-01 8.915607541876622e-02 -6.427070387381972e-03 -4.064662446070465e-02 5.731839881249295e-02 -1.621775261713351e-02 -9.533017938208444e-03 6.775090875231163e-02 8.860946429197027e-02 -2.644833085320394e-02 2.000560468996582e-01 1.849288221565813e-01 -6.093323563874718e-02 1.745056932813457e-01 1.885793053881314e-01 -5.552892201739113e-02 1.073710324109323e-02 -2.279250780698236e-02 1.205540456588912e-02 1.021521330031908e-01 1.357309718971186e-01 -5.845918051845864e-02 1.445541951673339e-01 1.091366118073291e-01 -6.160100573365956e-02 1.405035823429175e-01 -3.639919324735651e-02 -5.926618534418564e-02 1.486992950527334e-01 -6.104532029598173e-02 -3.983120735728312e-02 9.681218763791422e-02 7.434963867940582e-02 -2.613092693464696e-02 8.345373907431586e-02 -3.934489911179992e-02 -1.063961094583397e-02 1.275803440549217e-01 1.359157646955036e-01 -9.567785741043949e-03 2.520581052698189e-03 4.521144203815879e-03 -5.143307990456173e-03 2.252255041535508e-03 -4.942084442250183e-03 4.610848186773433e-03 -1.315440607369440e-02 -1.561498515629934e-02 6.308841026535660e-02 -4.563190144670539e-03 -3.122316337940402e-03 7.685506482610948e-03 -5.466491443241866e-03 6.924927717959135e-03 -1.458436274717266e-03 2.899923775009407e-03 -7.347099076526346e-04 1.866057746468554e-03 
</DataArray>
</PointData>
</Piece>
</UnstructuredGrid>
</VTKFile>
