<?xml version="1.0"?>
<VTKFile type="UnstructuredGrid" version="0.1" byte_order="LittleEndian">
<UnstructuredGrid>
<Piece NumberOfPoints="360" NumberOfCells="124">
<Points>
<DataArray type="Float64" NumberOfComponents="3" format="ascii">
7.500000000000000e-01 1.000000000000000e+00 0.000000000000000e+00 6.875000000000000e-01 8.750000000000000e-01 0.000000000000000e+00 6.875000000000000e-01 8.750000000000000e-01 0.000000000000000e+00 6.250000000000000e-01 7.500000000000000e-01 0.000000000000000e+00 6.250000000000000e-01 7.500000000000000e-01 0.000000000000000e+00 5.625000000000000e-01 6.250000000000000e-01 0.000000000000000e+00 5.625000000000000e-01 6.250000000000000e-01 0.000000000000000e+00 5.000000000000000e-01 5.000000000000000e-01 -0.000000000000000e+00 0.000000000000000e+00 2.500000000000000e-01 0.000000000000000e+00 1.249999999997599e-01 3.124999999998800e-01 0.000000000000000e+00 1.249999999997599e-01 3.124999999998800e-01 0.000000000000000e+00 2.499999999996086e-01 3.749999999998043e-01 0.000000000000000e+00 2.499999999996086e-01 3.749999999998043e-01 0.000000000000000e+00 3.749999999997349e-01 4.374999999998674e-01 0.000000000000000e+00 3.749999999997349e-01 4.374999999998674e-01 0.000000000000000e+00 5.000000000000000e-01 5.000000000000000e-01 -0.000000000000000e+00 5.000000000000000e-01 5.000000000000000e-01 -0.000000000000000e+00 4.375000000000694e-01 3.750000000001388e-01 0.000000000000000e+00 4.375000000000694e-01 3.750000000001388e-01 0.000000000000000e+00 3.750000000002776e-01 2.500000000005551e-01 0.000000000000000e+00 3.750000000002776e-01 2.500000000005551e-01 0.000000000000000e+00 3.125000000002082e-01 1.250000000004163e-01 0.000000000000000e+00 3.125000000002082e-01 1.250000000004163e-01 0.000000000000000e+00 2.500000000000000e-01 -0.000000000000000e+00 0.000000000000000e+00 3.749999999997349e-01 4.374999999998674e-01 0.000000000000000e+00 4.139414069912184e-01 6.056325264010037e-01 0.000000000000000e+00 2.645244370067465e-01 5.156353158163987e-01 0.000000000000000e+00 3.749999999997349e-01 4.374999999998674e-01 0.000000000000000e+00 5.000000000000000e-01 5.000000000000000e-01 -0.000000000000000e+00 4.139414069912184e-01 6.056325264010037e-01 0.000000000000000e+00 0.000000000000000e+00 2.500000000000000e-01 0.000000000000000e+00 1.249999999997599e-01 3.124999999998800e-01 0.000000000000000e+00 0.000000000000000e+00 4.375000000003469e-01 0.000000000000000e+00 6.875000000000000e-01 8.750000000000000e-01 0.000000000000000e+00 7.500000000000000e-01 1.000000000000000e+00 0.000000000000000e+00 5.625000000008674e-01 1.000000000000000e+00 0.000000000000000e+00 4.139414069912184e-01 6.056325264010037e-01 0.000000000000000e+00 2.758946705068648e-01 6.605885315643570e-01 0.000000000000000e+00 2.645244370067465e-01 5.156353158163987e-01 0.000000000000000e+00 2.798796021293082e-01 8.344274147057053e-01 0.000000000000000e+00 1.390078959961168e-01 7.261831610706000e-01 0.000000000000000e+00 2.758946705068648e-01 6.605885315643570e-01 0.000000000000000e+00 0.000000000000000e+00 4.375000000003469e-01 0.000000000000000e+00 1.492912418697525e-01 4.458279356810638e-01 0.000000000000000e+00 1.392858751591214e-01 5.733980610567744e-01 0.000000000000000e+00 3.750000000006939e-01 1.000000000000000e+00 0.000000000000000e+00 4.492710539671537e-01 8.556512408515589e-01 0.000000000000000e+00 5.625000000008674e-01 1.000000000000000e+00 0.000000000000000e+00 0.000000000000000e+00 4.375000000003469e-01 0.000000000000000e+00 1.392858751591214e-01 5.733980610567744e-01 0.000000000000000e+00 0.000000000000000e+00 6.250000000006939e-01 0.000000000000000e+00 3.750000000006939e-01 1.000000000000000e+00 0.000000000000000e+00 2.798796021293082e-01 8.344274147057053e-01 0.000000000000000e+00 4.492710539671537e-01 8.556512408515589e-01 0.000000000000000e+00 3.750000000006939e-01 1.000000000000000e+00 0.000000000000000e+00 1.875000000005205e-01 1.000000000000000e+00 0.000000000000000e+00 2.798796021293082e-01 8.344274147057053e-01 0.000000000000000e+00 2.798796021293082e-01 8.344274147057053e-01 0.000000000000000e+00 2.758946705068648e-01 6.605885315643570e-01 0.000000000000000e+00 3.813620468049507e-01 7.403859221383123e-01 0.000000000000000e+00 5.625000000008674e-01 1.000000000000000e+00 0.000000000000000e+00 4.492710539671537e-01 8.556512408515589e-01 0.000000000000000e+00 5.677751205718758e-01 8.470224641095303e-01 0.000000000000000e+00 6.875000000000000e-01 8.750000000000000e-01 0.000000000000000e+00 5.625000000008674e-01 1.000000000000000e+00 0.000000000000000e+00 5.677751205718758e-01 8.470224641095303e-01 0.000000000000000e+00 5.625000000000000e-01 6.250000000000000e-01 0.000000000000000e+00 4.139414069912184e-01 6.056325264010037e-01 0.000000000000000e+00 5.000000000000000e-01 5.000000000000000e-01 -0.000000000000000e+00 0.000000000000000e+00 4.375000000003469e-01 0.000000000000000e+00 1.249999999997599e-01 3.124999999998800e-01 0.000000000000000e+00 1.492912418697525e-01 4.458279356810638e-01 0.000000000000000e+00 0.000000000000000e+00 1.000000000000000e+00 0.000000000000000e+00 0.000000000000000e+00 8.125000000010408e-01 0.000000000000000e+00 1.271010713601231e-01 8.709480661820344e-01 0.000000000000000e+00 3.749999999997349e-01 4.374999999998674e-01 0.000000000000000e+00 2.645244370067465e-01 5.156353158163987e-01 0.000000000000000e+00 2.499999999996086e-01 3.749999999998043e-01 0.000000000000000e+00 1.875000000005205e-01 1.000000000000000e+00 0.000000000000000e+00 0.000000000000000e+00 1.000000000000000e+00 0.000000000000000e+00 1.271010713601231e-01 8.709480661820344e-01 0.000000000000000e+00 0.000000000000000e+00 8.125000000010408e-01 0.000000000000000e+00 0.000000000000000e+00 6.250000000006939e-01 0.000000000000000e+00 1.390078959961168e-01 7.261831610706000e-01 0.000000000000000e+00 2.499999999996086e-01 3.749999999998043e-01 0.000000000000000e+00 1.492912418697525e-01 4.458279356810638e-01 0.000000000000000e+00 1.249999999997599e-01 3.124999999998800e-01 0.000000000000000e+00 2.758946705068648e-01 6.605885315643570e-01 0.000000000000000e+00 1.390078959961168e-01 7.261831610706000e-01 0.000000000000000e+00 1.392858751591214e-01 5.733980610567744e-01 0.000000000000000e+00 4.492710539671537e-01 8.556512408515589e-01 0.000000000000000e+00 2.798796021293082e-01 8.344274147057053e-01 0.000000000000000e+00 3.813620468049507e-01 7.403859221383123e-01 0.000000000000000e+00 2.798796021293082e-01 8.344274147057053e-01 0.000000000000000e+00 1.271010713601231e-01 8.709480661820344e-01 0.000000000000000e+00 1.390078959961168e-01 7.261831610706000e-01 0.000000000000000e+00 5.625000000000000e-01 6.250000000000000e-01 0.000000000000000e+00 5.014585693307863e-01 7.367466304650486e-01 0.000000000000000e+00 4.139414069912184e-01 6.056325264010037e-01 0.000000000000000e+00 1.875000000005205e-01 1.000000000000000e+00 0.000000000000000e+00 1.271010713601231e-01 8.709480661820344e-01 0.000000000000000e+00 2.798796021293082e-01 8.344274147057053e-01 0.000000000000000e+00 2.499999999996086e-01 3.749999999998043e-01 0.000000000000000e+00 2.645244370067465e-01 5.156353158163987e-01 0.000000000000000e+00 1.492912418697525e-01 4.458279356810638e-01 0.000000000000000e+00 2.645244370067465e-01 5.156353158163987e-01 0.000000000000000e+00 2.758946705068648e-01 6.605885315643570e-01 0.000000000000000e+00 1.392858751591214e-01 5.733980610567744e-01 0.000000000000000e+00 5.625000000000000e-01 6.250000000000000e-01 0.000000000000000e+00 6.250000000000000e-01 7.500000000000000e-01 0.000000000000000e+00 5.014585693307863e-01 7.367466304650486e-01 0.000000000000000e+00 4.139414069912184e-01 6.056325264010037e-01 0.000000000000000e+00 5.014585693307863e-01 7.367466304650486e-01 0.000000000000000e+00 3.813620468049507e-01 7.403859221383123e-01 0.000000000000000e+00 6.875000000000000e-01 8.750000000000000e-01 0.000000000000000e+00 5.677751205718758e-01 8.470224641095303e-01 0.000000000000000e+00 6.250000000000000e-01 7.500000000000000e-01 0.000000000000000e+00 6.250000000000000e-01 7.500000000000000e-01 0.000000000000000e+00 5.677751205718758e-01 8.470224641095303e-01 0.000000000000000e+00 5.014585693307863e-01 7.367466304650486e-01 0.000000000000000e+00 0.000000000000000e+00 6.250000000006939e-01 0.000000000000000e+00 1.392858751591214e-01 5.733980610567744e-01 0.000000000000000e+00 1.390078959961168e-01 7.261831610706000e-01 0.000000000000000e+00 4.139414069912184e-01 6.056325264010037e-01 0.000000000000000e+00 3.813620468049507e-01 7.403859221383123e-01 0.000000000000000e+00 2.758946705068648e-01 6.605885315643570e-01 0.000000000000000e+00 0.000000000000000e+00 8.125000000010408e-01 0.000000000000000e+00 1.390078959961168e-01 7.261831610706000e-01 0.000000000000000e+00 1.271010713601231e-01 8.709480661820344e-01 0.000000000000000e+00 2.645244370067465e-01 5.156353158163987e-01 0.000000000000000e+00 1.392858751591214e-01 5.733980610567744e-01 0.000000000000000e+00 1.492912418697525e-01 4.458279356810638e-01 0.000000000000000e+00 4.492710539671537e-01 8.556512408515589e-01 0.000000000000000e+00 5.014585693307863e-01 7.367466304650486e-01 0.000000000000000e+00 5.677751205718758e-01 8.470224641095303e-01 0.000000000000000e+00 4.492710539671537e-01 8.556512408515589e-01 0.000000000000000e+00 3.813620468049507e-01 7.403859221383123e-01 0.000000000000000e+00 5.014585693307863e-01 7.367466304650486e-01 0.000000000000000e+00 5.698670717843664e-01 3.776209365087199e-01 0.000000000000000e+00 7.182603949284063e-01 3.456402071721618e-01 0.000000000000000e+00 6.323653418237701e-01 5.029675640633227e-01 0.000000000000000e+00 7.533843026232094e-01 4.929444342317560e-01 0.000000000000000e+00 6.323653418237701e-01 5.029675640633227e-01 0.000000000000000e+00 7.182603949284063e-01 3.456402071721618e-01 0.000000000000000e+00 8.578792739151740e-01 7.535325208825020e-01 0.000000000000000e+00 7.125974780784441e-01 6.384669131570183e-01 0.000000000000000e+00 8.612746697781972e-01 5.794807697879764e-01 0.000000000000000e+00 2.500000000000000e-01 -0.000000000000000e+00 0.000000000000000e+00 4.374999999991326e-01 0.000000000000000e+00 0.000000000000000e+00 3.125000000002082e-01 1.250000000004163e-01 0.000000000000000e+00 8.578792739151740e-01 7.535325208825020e-01 0.000000000000000e+00 7.385779517043357e-01 7.773678856428465e-01 0.000000000000000e+00 7.125974780784441e-01 6.384669131570183e-01 0.000000000000000e+00 8.612746697781972e-01 5.794807697879764e-01 0.000000000000000e+00 8.656940847709105e-01 4.098367391676661e-01 0.000000000000000e+00 1.000000000000000e+00 5.000000000013877e-01 0.000000000000000e+00 7.150899340618379e-01 1.571595685477760e-01 0.000000000000000e+00 8.608728669021763e-01 2.520652359795942e-01 0.000000000000000e+00 7.182603949284063e-01 3.456402071721618e-01 0.000000000000000e+00 8.612746697781972e-01 5.794807697879764e-01 0.000000000000000e+00 7.533843026232094e-01 4.929444342317560e-01 0.000000000000000e+00 8.656940847709105e-01 4.098367391676661e-01 0.000000000000000e+00 4.374999999991326e-01 0.000000000000000e+00 0.000000000000000e+00 6.249999999989591e-01 0.000000000000000e+00 0.000000000000000e+00 5.447576766858295e-01 1.431838882066932e-01 0.000000000000000e+00 8.055298449100090e-01 8.871112287212741e-01 0.000000000000000e+00 8.578792739151740e-01 7.535325208825020e-01 0.000000000000000e+00 9.063795342218008e-01 9.020858332805730e-01 0.000000000000000e+00 1.000000000000000e+00 8.333333333335646e-01 0.000000000000000e+00 9.063795342218008e-01 9.020858332805730e-01 0.000000000000000e+00 8.578792739151740e-01 7.535325208825020e-01 0.000000000000000e+00 1.000000000000000e+00 8.333333333335646e-01 0.000000000000000e+00 8.578792739151740e-01 7.535325208825020e-01 0.000000000000000e+00 1.000000000000000e+00 6.666666666673605e-01 0.000000000000000e+00 1.000000000000000e+00 1.666666666673605e-01 0.000000000000000e+00 1.000000000000000e+00 3.333333333344898e-01 0.000000000000000e+00 8.608728669021763e-01 2.520652359795942e-01 0.000000000000000e+00 6.249999999989591e-01 0.000000000000000e+00 0.000000000000000e+00 7.150899340618379e-01 1.571595685477760e-01 0.000000000000000e+00 5.447576766858295e-01 1.431838882066932e-01 0.000000000000000e+00 8.124999999994795e-01 0.000000000000000e+00 0.000000000000000e+00 7.150899340618379e-01 1.571595685477760e-01 0.000000000000000e+00 6.249999999989591e-01 0.000000000000000e+00 0.000000000000000e+00 1.000000000000000e+00 6.666666666673605e-01 0.000000000000000e+00 8.578792739151740e-01 7.535325208825020e-01 0.000000000000000e+00 8.612746697781972e-01 5.794807697879764e-01 0.000000000000000e+00 1.000000000000000e+00 1.000000000000000e+00 0.000000000000000e+00 9.063795342218008e-01 9.020858332805730e-01 0.000000000000000e+00 1.000000000000000e+00 8.333333333335646e-01 0.000000000000000e+00 7.533843026232094e-01 4.929444342317560e-01 0.000000000000000e+00 7.182603949284063e-01 3.456402071721618e-01 0.000000000000000e+00 8.656940847709105e-01 4.098367391676661e-01 0.000000000000000e+00 1.000000000000000e+00 6.666666666673605e-01 0.000000000000000e+00 8.612746697781972e-01 5.794807697879764e-01 0.000000000000000e+00 1.000000000000000e+00 5.000000000013877e-01 0.000000000000000e+00 8.612746697781972e-01 5.794807697879764e-01 0.000000000000000e+00 7.125974780784441e-01 6.384669131570183e-01 0.000000000000000e+00 7.533843026232094e-01 4.929444342317560e-01 0.000000000000000e+00 3.125000000002082e-01 1.250000000004163e-01 0.000000000000000e+00 4.374999999991326e-01 0.000000000000000e+00 0.000000000000000e+00 4.287911518546233e-01 1.545544542796670e-01 0.000000000000000e+00 7.150899340618379e-01 1.571595685477760e-01 0.000000000000000e+00 8.769890164881212e-01 1.160638338657984e-01 0.000000000000000e+00 8.608728669021763e-01 2.520652359795942e-01 0.000000000000000e+00 1.000000000000000e+00 3.333333333344898e-01 0.000000000000000e+00 1.000000000000000e+00 5.000000000013877e-01 0.000000000000000e+00 8.656940847709105e-01 4.098367391676661e-01 0.000000000000000e+00 4.375000000000694e-01 3.750000000001388e-01 0.000000000000000e+00 5.698670717843664e-01 3.776209365087199e-01 0.000000000000000e+00 5.000000000000000e-01 5.000000000000000e-01 -0.000000000000000e+00 7.150899340618379e-01 1.571595685477760e-01 0.000000000000000e+00 7.182603949284063e-01 3.456402071721618e-01 0.000000000000000e+00 6.110846258508276e-01 2.575059958234323e-01 0.000000000000000e+00 5.625000000000000e-01 6.250000000000000e-01 0.000000000000000e+00 7.125974780784441e-01 6.384669131570183e-01 0.000000000000000e+00 6.250000000000000e-01 7.500000000000000e-01 0.000000000000000e+00 8.656940847709105e-01 4.098367391676661e-01 0.000000000000000e+00 7.182603949284063e-01 3.456402071721618e-01 0.000000000000000e+00 8.608728669021763e-01 2.520652359795942e-01 0.000000000000000e+00 6.875000000000000e-01 8.750000000000000e-01 0.000000000000000e+00 8.055298449100090e-01 8.871112287212741e-01 0.000000000000000e+00 7.500000000000000e-01 1.000000000000000e+00 0.000000000000000e+00 8.750000000000000e-01 1.000000000000000e+00 0.000000000000000e+00 7.500000000000000e-01 1.000000000000000e+00 0.000000000000000e+00 8.055298449100090e-01 8.871112287212741e-01 0.000000000000000e+00 1.000000000000000e+00 3.333333333344898e-01 0.000000000000000e+00 8.656940847709105e-01 4.098367391676661e-01 0.000000000000000e+00 8.608728669021763e-01 2.520652359795942e-01 0.000000000000000e+00 8.124999999994795e-01 0.000000000000000e+00 0.000000000000000e+00 8.769890164881212e-01 1.160638338657984e-01 0.000000000000000e+00 7.150899340618379e-01 1.571595685477760e-01 0.000000000000000e+00 8.124999999994795e-01 0.000000000000000e+00 0.000000000000000e+00 1.000000000000000e+00 0.000000000000000e+00 0.000000000000000e+00 8.769890164881212e-01 1.160638338657984e-01 0.000000000000000e+00 4.374999999991326e-01 0.000000000000000e+00 0.000000000000000e+00 5.447576766858295e-01 1.431838882066932e-01 0.000000000000000e+00 4.287911518546233e-01 1.545544542796670e-01 0.000000000000000e+00 5.000000000000000e-01 5.000000000000000e-01 -0.000000000000000e+00 5.698670717843664e-01 3.776209365087199e-01 0.000000000000000e+00 6.323653418237701e-01 5.029675640633227e-01 0.000000000000000e+00 1.000000000000000e+00 1.666666666673605e-01 0.000000000000000e+00 8.769890164881212e-01 1.160638338657984e-01 0.000000000000000e+00 1.000000000000000e+00 0.000000000000000e+00 0.000000000000000e+00 5.625000000000000e-01 6.250000000000000e-01 0.000000000000000e+00 6.323653418237701e-01 5.029675640633227e-01 0.000000000000000e+00 7.125974780784441e-01 6.384669131570183e-01 0.000000000000000e+00 5.698670717843664e-01 3.776209365087199e-01 0.000000000000000e+00 6.110846258508276e-01 2.575059958234323e-01 0.000000000000000e+00 7.182603949284063e-01 3.456402071721618e-01 0.000000000000000e+00 7.150899340618379e-01 1.571595685477760e-01 0.000000000000000e+00 6.110846258508276e-01 2.575059958234323e-01 0.000000000000000e+00 5.447576766858295e-01 1.431838882066932e-01 0.000000000000000e+00 7.533843026232094e-01 4.929444342317560e-01 0.000000000000000e+00 7.125974780784441e-01 6.384669131570183e-01 0.000000000000000e+00 6.323653418237701e-01 5.029675640633227e-01 0.000000000000000e+00 4.375000000000694e-01 3.750000000001388e-01 0.000000000000000e+00 4.945749328930023e-01 2.625170377655549e-01 0.000000000000000e+00 5.698670717843664e-01 3.776209365087199e-01 0.000000000000000e+00 6.250000000000000e-01 7.500000000000000e-01 0.000000000000000e+00 7.125974780784441e-01 6.384669131570183e-01 0.000000000000000e+00 7.385779517043357e-01 7.773678856428465e-01 0.000000000000000e+00 5.625000000000000e-01 6.250000000000000e-01 0.000000000000000e+00 5.000000000000000e-01 5.000000000000000e-01 -0.000000000000000e+00 6.323653418237701e-01 5.029675640633227e-01 0.000000000000000e+00 8.055298449100090e-01 8.871112287212741e-01 0.000000000000000e+00 7.385779517043357e-01 7.773678856428465e-01 0.000000000000000e+00 8.578792739151740e-01 7.535325208825020e-01 0.000000000000000e+00 6.875000000000000e-01 8.750000000000000e-01 0.000000000000000e+00 7.385779517043357e-01 7.773678856428465e-01 0.000000000000000e+00 8.055298449100090e-01 8.871112287212741e-01 0.000000000000000e+00 3.750000000002776e-01 2.500000000005551e-01 0.000000000000000e+00 4.945749328930023e-01 2.625170377655549e-01 0.000000000000000e+00 4.375000000000694e-01 3.750000000001388e-01 0.000000000000000e+00 1.000000000000000e+00 1.000000000000000e+00 0.000000000000000e+00 8.750000000000000e-01 1.000000000000000e+00 0.000000000000000e+00 9.063795342218008e-01 9.020858332805730e-01 0.000000000000000e+00 1.000000000000000e+00 1.666666666673605e-01 0.000000000000000e+00 8.608728669021763e-01 2.520652359795942e-01 0.000000000000000e+00 8.769890164881212e-01 1.160638338657984e-01 0.000000000000000e+00 6.875000000000000e-01 8.750000000000000e-01 0.000000000000000e+00 6.250000000000000e-01 7.500000000000000e-01 0.000000000000000e+00 7.385779517043357e-01 7.773678856428465e-01 0.000000000000000e+00 5.698670717843664e-01 3.776209365087199e-01 0.000000000000000e+00 4.945749328930023e-01 2.625170377655549e-01 0.000000000000000e+00 6.110846258508276e-01 2.575059958234323e-01 0.000000000000000e+00 3.125000000002082e-01 1.250000000004163e-01 0.000000000000000e+00 4.287911518546233e-01 1.545544542796670e-01 0.000000000000000e+00 3.750000000002776e-01 2.500000000005551e-01 0.000000000000000e+00 3.750000000002776e-01 2.500000000005551e-01 0.000000000000000e+00 4.287911518546233e-01 1.545544542796670e-01 0.000000000000000e+00 4.945749328930023e-01 2.625170377655549e-01 0.000000000000000e+00 5.447576766858295e-01 1.431838882066932e-01 0.000000000000000e+00 4.945749328930023e-01 2.625170377655549e-01 0.000000000000000e+00 4.287911518546233e-01 1.545544542796670e-01 0.000000000000000e+00 8.750000000000000e-01 1.000000000000000e+00 0.000000000000000e+00 8.055298449100090e-01 8.871112287212741e-01 0.000000000000000e+00 9.063795342218008e-01 9.020858332805730e-01 0.000000000000000e+00 5.447576766858295e-01 1.431838882066932e-01 0.000000000000000e+00 6.110846258508276e-01 2.575059958234323e-01 0.000000000000000e+00 4.945749328930023e-01 2.625170377655549e-01 0.000000000000000e+00 4.375000000000694e-01 3.750000000001388e-01 0.000000000000000e+00 5.000000000000000e-01 5.000000000000000e-01 -0.000000000000000e+00 3.749999999997349e-01 4.374999999998674e-01 0.000000000000000e+00 1.249999999997599e-01 3.124999999998800e-01 0.000000000000000e+00 1.008171452988615e-01 1.888570369725047e-01 0.000000000000000e+00 2.403886547178353e-01 2.418881479267384e-01 0.000000000000000e+00 2.500000000000000e-01 -0.000000000000000e+00 0.000000000000000e+00 1.840276181286450e-01 1.117324051466445e-01 0.000000000000000e+00 1.249999999997554e-01 0.000000000000000e+00 0.000000000000000e+00 2.500000000000000e-01 -0.000000000000000e+00 0.000000000000000e+00 3.125000000002082e-01 1.250000000004163e-01 0.000000000000000e+00 1.840276181286450e-01 1.117324051466445e-01 0.000000000000000e+00 3.749999999997349e-01 4.374999999998674e-01 0.000000000000000e+00 2.499999999996086e-01 3.749999999998043e-01 0.000000000000000e+00 3.381944444444832e-01 3.381944444445634e-01 0.000000000000000e+00 3.750000000002776e-01 2.500000000005551e-01 0.000000000000000e+00 4.375000000000694e-01 3.750000000001388e-01 0.000000000000000e+00 3.381944444444832e-01 3.381944444445634e-01 0.000000000000000e+00 1.840276181286450e-01 1.117324051466445e-01 0.000000000000000e+00 2.403886547178353e-01 2.418881479267384e-01 0.000000000000000e+00 1.008171452988615e-01 1.888570369725047e-01 0.000000000000000e+00 3.125000000002082e-01 1.250000000004163e-01 0.000000000000000e+00 3.750000000002776e-01 2.500000000005551e-01 0.000000000000000e+00 2.403886547178353e-01 2.418881479267384e-01 0.000000000000000e+00 2.499999999996086e-01 3.749999999998043e-01 0.000000000000000e+00 1.249999999997599e-01 3.124999999998800e-01 0.000000000000000e+00 2.403886547178353e-01 2.418881479267384e-01 0.000000000000000e+00 3.750000000002776e-01 2.500000000005551e-01 0.000000000000000e+00 3.381944444444832e-01 3.381944444445634e-01 0.000000000000000e+00 2.403886547178353e-01 2.418881479267384e-01 0.000000000000000e+00 2.499999999996086e-01 3.749999999998043e-01 0.000000000000000e+00 2.403886547178353e-01 2.418881479267384e-01 0.000000000000000e+00 3.381944444444832e-01 3.381944444445634e-01 0.000000000000000e+00 1.249999999997599e-01 3.124999999998800e-01 0.000000000000000e+00 0.000000000000000e+00 2.500000000000000e-01 0.000000000000000e+00 1.008171452988615e-01 1.888570369725047e-01 0.000000000000000e+00 3.125000000002082e-01 1.250000000004163e-01 0.000000000000000e+00 2.403886547178353e-01 2.418881479267384e-01 0.000000000000000e+00 1.840276181286450e-01 1.117324051466445e-01 0.000000000000000e+00 4.375000000000694e-01 3.750000000001388e-01 0.000000000000000e+00 3.749999999997349e-01 4.374999999998674e-01 0.000000000000000e+00 3.381944444444832e-01 3.381944444445634e-01 0.000000000000000e+00 0.000000000000000e+00 0.000000000000000e+00 0.000000000000000e+00 8.435242216391163e-02 8.645171265626619e-02 0.000000000000000e+00 0.000000000000000e+00 1.250000000003469e-01 0.000000000000000e+00 0.000000000000000e+00 0.000000000000000e+00 0.000000000000000e+00 1.249999999997554e-01 0.000000000000000e+00 0.000000000000000e+00 8.435242216391163e-02 8.645171265626619e-02 0.000000000000000e+00 0.000000000000000e+00 1.250000000003469e-01 0.000000000000000e+00 1.008171452988615e-01 1.888570369725047e-01 0.000000000000000e+00 0.000000000000000e+00 2.500000000000000e-01 0.000000000000000e+00 1.249999999997554e-01 0.000000000000000e+00 0.000000000000000e+00 1.840276181286450e-01 1.117324051466445e-01 0.000000000000000e+00 8.435242216391163e-02 8.645171265626619e-02 0.000000000000000e+00 0.000000000000000e+00 1.250000000003469e-01 0.000000000000000e+00 8.435242216391163e-02 8.645171265626619e-02 0.000000000000000e+00 1.008171452988615e-01 1.888570369725047e-01 0.000000000000000e+00 1.008171452988615e-01 1.888570369725047e-01 0.000000000000000e+00 8.435242216391163e-02 8.645171265626619e-02 0.000000000000000e+00 1.840276181286450e-01 1.117324051466445e-01 0.000000000000000e+00 
</DataArray>
</Points>
<Cells>
<DataArray type="UInt32" Name="connectivity" format="ascii">
0 1 2 3 4 5 6 7 8 9 10 11 12 13 14 15 16 17 18 19 20 21 22 23 24 25 26 27 28 29 30 31 32 33 34 35 36 37 38 39 40 41 42 43 44 45 46 47 48 49 50 51 52 53 54 55 56 57 58 59 60 61 62 63 64 65 66 67 68 69 70 71 72 73 74 75 76 77 78 79 80 81 82 83 84 85 86 87 88 89 90 91 92 93 94 95 96 97 98 99 100 101 102 103 104 105 106 107 108 109 110 111 112 113 114 115 116 117 118 119 120 121 122 123 124 125 126 127 128 129 130 131 132 133 134 135 136 137 138 139 140 141 142 143 144 145 146 147 148 149 150 151 152 153 154 155 156 157 158 159 160 161 162 163 164 165 166 167 168 169 170 171 172 173 174 175 176 177 178 179 180 181 182 183 184 185 186 187 188 189 190 191 192 193 194 195 196 197 198 199 200 201 202 203 204 205 206 207 208 209 210 211 212 213 214 215 216 217 218 219 220 221 222 223 224 225 226 227 228 229 230 231 232 233 234 235 236 237 238 239 240 241 242 243 244 245 246 247 248 249 250 251 252 253 254 255 256 257 258 259 260 261 262 263 264 265 266 267 268 269 270 271 272 273 274 275 276 277 278 279 280 281 282 283 284 285 286 287 288 289 290 291 292 293 294 295 296 297 298 299 300 301 302 303 304 305 306 307 308 309 310 311 312 313 314 315 316 317 318 319 320 321 322 323 324 325 326 327 328 329 330 331 332 333 334 335 336 337 338 339 340 341 342 343 344 345 346 347 348 349 350 351 352 353 354 355 356 357 358 359 
</DataArray>
<DataArray type="UInt32" Name="offsets" format="ascii">
2 4 6 8 10 12 14 16 18 20 22 24 27 30 33 36 39 42 45 48 51 54 57 60 63 66 69 72 75 78 81 84 87 90 93 96 99 102 105 108 111 114 117 120 123 126 129 132 135 138 141 144 147 150 153 156 159 162 165 168 171 174 177 180 183 186 189 192 195 198 201 204 207 210 213 216 219 222 225 228 231 234 237 240 243 246 249 252 255 258 261 264 267 270 273 276 279 282 285 288 291 294 297 300 303 306 309 312 315 318 321 324 327 330 333 336 339 342 345 348 351 354 357 360 
</DataArray>
<DataArray type="UInt32" Name="types" format="ascii">
3 3 3 3 3 3 3 3 3 3 3 3 5 5 5 5 5 5 5 5 5 5 5 5 5 5 5 5 5 5 5 5 5 5 5 5 5 5 5 5 5 5 5 5 5 5 5 5 5 5 5 5 5 5 5 5 5 5 5 5 5 5 5 5 5 5 5 5 5 5 5 5 5 5 5 5 5 5 5 5 5 5 5 5 5 5 5 5 5 5 5 5 5 5 5 5 5 5 5 5 5 5 5 5 5 5 5 5 5 5 5 5 5 5 5 5 5 5 5 5 5 5 5 5 
</DataArray>
</Cells>
<PointData Scalars="age_conc,U235_conc," Vectors="" Tensors="">
<DataArray type="Float64" Name="age_conc" format="ascii">
-1.183285389997536e+04 1.183485389997536e+04 -8.378823778848306e+03 8.380823778848306e+03 -5.327534467945137e+03 5.329534467945135e+03 -3.421766798245320e+03 3.423766798245319e+03 3.750177882437711e+02 -3.730177882437710e+02 6.840550468955917e+02 -6.820550468956064e+02 1.359324194018453e+03 -1.357324194018454e+03 3.134674241964713e+03 -3.132674241964713e+03 -3.216081062619349e+03 3.218081062619356e+03 -1.271924700432108e+03 1.273924700432108e+03 -6.432599433535943e+02 6.452599433536088e+02 -3.513454455475148e+02 3.533454455475148e+02 1.202613908060594e+02 5.790751871358226e+02 -6.963365779418673e+02 1.010986822131381e+02 -2.574988579468845e+03 2.476889897255693e+03 -2.560492876189528e+00 -6.467253618902752e-01 6.207218238079802e+00 4.765880061909131e+04 -3.102375810102282e+04 -1.663204251806853e+04 2.432683860844263e+02 -2.211766059786458e+02 -1.909178010578034e+01 2.691206428175952e+03 -1.299791847708251e+02 -2.558227243405125e+03 3.726217547367560e+01 -2.627051829764967e+01 -7.991657176011350e+00 -3.257887369543329e+04 6.415024563529868e+04 -3.156837193986541e+04 8.715308431499579e+01 2.486115205464448e+02 -3.327646048614552e+02 -3.744422333467913e+04 8.775462527422971e+03 2.867176080725618e+04 -3.035077903351439e+04 -2.960147867929028e+04 5.995525771280468e+04 2.368624666605698e+03 -1.131363324231134e+03 -1.234261342374565e+03 -2.405033002141285e+04 1.278868986844368e+04 1.126464015296915e+04 1.743996434237064e+04 -3.410223822986122e+04 1.666527388749057e+04 -5.450176852510958e+03 6.236450057735631e+03 -7.832732052246587e+02 1.001759056909941e+01 -1.551698139024670e+00 -5.465892430060194e+00 -4.059472242612633e+04 1.616669159837129e+04 2.443103082775502e+04 2.766579964632256e+02 -2.494112075312296e+02 -2.424678893196693e+01 -2.905260717465896e+04 -2.911721488624461e+04 5.817282206090357e+04 4.331871183613956e+03 -1.248448949943264e+03 -3.080422233670670e+03 -2.875927356547618e+01 2.698653028535770e+01 4.772743280103876e+00 -7.148586106371367e+02 7.580867405683682e+02 -4.022812993123088e+01 7.841372641001901e+03 -9.786108223525051e+02 -6.859761818649404e+03 1.121580543463887e+04 -5.149459565452456e+03 -6.063345869186396e+03 -9.123467256779193e+03 6.028157599941037e+03 3.098309656838159e+03 -3.632774538660402e+04 4.644445138406582e+03 3.168630024819751e+04 -1.750739710904600e+01 -5.445953599504720e+01 7.496693310407862e+01 1.827482696530496e+02 -1.797979187309247e+02 4.964907788959533e-02 -4.530781962460838e+03 -1.129244108222305e+04 1.582622304468389e+04 -9.037193416414084e+00 9.882819845193873e+02 -9.762447911029593e+02 -6.048594759788735e+03 2.517738873522950e+04 -1.912579397544073e+04 -1.920063456935788e+04 1.444655892034205e+04 4.757075649015777e+03 -5.172579492881632e+02 6.070640936188134e+02 -8.680614433066522e+01 5.174698759365274e+02 -2.698389045164079e+02 -2.446309714201343e+02 5.205555812526407e+03 -7.622905337994660e+03 2.420349525468262e+03 4.796852293098345e+01 -6.724242688552472e+01 2.227390395451222e+01 -1.322304790694368e+03 3.459994229360012e+02 9.793053677583812e+02 -2.554343974928634e+02 -9.777367052701159e+02 1.236171102762979e+03 -1.739049278685707e+01 5.755604471413242e+01 -3.716555192727536e+01 1.685961471938790e+02 -1.464276553684466e+02 -1.916849182541768e+01 7.611805351616160e+03 -4.997584785732077e+03 -2.611220565884051e+03 -2.904747440916253e+00 9.736658893205460e+00 -3.831911452274652e+00 1.518678976622890e+03 -7.233830131014103e+02 -7.922959635214650e+02 2.883938496287407e+04 7.615019362150545e+03 -3.645140432502464e+04 -2.681431984057708e+02 1.398574777252375e+03 -1.127431578846649e+03 8.331178016921156e+03 -4.238215860050585e+03 -4.089962156870560e+03 6.313386039598845e+01 -2.461189219627705e+02 1.859850615668111e+02 -5.123133173615832e+03 -1.758684176580836e+03 6.884817350196696e+03 -4.074587743216660e+04 2.520161672782666e+04 1.554726070433992e+04 -3.032134738262050e+04 5.965333473502943e+04 -2.932898735240888e+04 -2.959117483468165e+04 -3.003828980272863e+04 5.963246463741026e+04 -2.445452779277693e+02 -3.052189358545291e+02 5.527642137822841e+02 3.164316173026600e+03 -2.287424061909491e+03 -8.738921111171222e+02 -3.586555762998108e+04 2.834732920277202e+04 7.521228427209006e+03 -3.072687948924863e+04 6.145675897849594e+04 -3.072687948924735e+04 3.354082681953005e+02 -3.645910036181014e+02 3.218273542282986e+01 -2.999849933885814e+04 6.025330728076298e+04 -3.025180794190483e+04 5.883861609854357e+02 -6.015380946190558e+02 1.615193363362066e+01 -4.787869438048801e+00 1.836282761217443e+01 -1.057495817414019e+01 -5.560797262023596e+03 -2.601236642687041e+03 8.165033904710653e+03 -3.051223282491086e+04 -3.047785876226673e+04 6.099309158717760e+04 3.091564886868582e+00 -4.722134212133825e+00 4.630569325279793e+00 1.664119190268539e+02 -3.140605755780558e+02 1.506486565512022e+02 2.889605165112880e+01 6.037067111175268e-02 -2.595642232222600e+01 6.151756334874473e+03 -5.556320332104327e+03 -5.924360027701507e+02 1.198013608917526e+04 2.778778521623271e+04 -3.976492130540802e+04 -2.927593440857100e+04 -2.848610245134376e+04 5.776503685991475e+04 -3.759795400695701e+04 2.878676792383517e+04 8.814186083121831e+03 3.682720695086595e+03 2.095374639136498e+03 -5.775095334223108e+03 1.781449999844731e+04 -4.090944170628474e+04 2.309794170783742e+04 2.160379591357196e+01 2.409764742983680e+01 -4.270144334337964e+01 1.223856240707391e+01 2.939926172839526e-01 -9.532555024343301e+00 -2.877331295565090e+04 5.691523863536042e+04 -2.813892567970949e+04 4.966471971999272e+01 -5.448400022636617e+00 -4.121631969734152e+01 -1.088816312616109e+01 -1.639374835800847e+01 3.028191148418409e+01 3.018162121967180e+00 -7.640634421957660e+00 7.622472299990474e+00 1.330995463827712e+02 -1.933461514552327e+02 6.324660507247609e+01 4.098229468654608e-01 3.311727304593659e+00 -7.215502514300173e-01 1.963623496575747e+01 6.619223523873367e+01 -8.282847020447657e+01 1.360996310280461e+01 5.871822945482561e+00 -1.648178604828717e+01 -3.657382597920077e+02 -1.812636035790767e+03 2.181374295582762e+03 -3.210855878431175e+01 -5.362013755618883e+03 5.397122314403183e+03 1.134818558086408e+00 1.950506299530389e+00 -8.532485764590138e-02 -3.116771787129829e+04 -3.106806744996265e+04 6.223878532126093e+04 -3.851000612878234e+04 3.115566873844955e+04 7.357337390332832e+03 1.920728046105942e+03 -7.496056981805739e+02 -1.168122347925354e+03 2.661520217850921e+00 1.069965346396203e+00 -7.314855642762264e-01 9.454281202197308e-01 1.033370759148966e+00 1.021201120616752e+00 8.083955090114614e-01 8.222363973036410e-01 1.369368093684898e+00 -2.051648462220328e-01 1.851997910023783e+00 1.353166936212801e+00 -4.189357934040710e+04 1.154999265775091e+04 3.034658668265618e+04 9.400581783702364e-01 -1.822491168539272e+00 3.882432990169038e+00 3.273638360857643e+03 -6.513731045402186e+03 3.243092684544550e+03 -1.023382476806975e+03 1.046387401940157e+02 9.217437366129307e+02 -5.821795861339197e+02 4.335970827835551e+02 1.515825033503496e+02 -2.607156992802338e+02 -6.902669630482850e+02 9.539826623285043e+02 -2.005519772282671e+03 -1.730235953644910e+03 3.738755725927580e+03 -1.635076356609105e+03 -1.931432040199842e+03 3.569508396808945e+03 -1.982202258541365e+02 4.075089670680900e+02 -2.062887412139243e+02 -5.039353504478931e+02 -1.390075562104947e+03 1.897010912552840e+03 -1.460233857211075e+03 -5.301346486660633e+02 1.993368505877166e+03 -2.296577877404939e+03 1.466565252445699e+03 8.330126249592140e+02 -2.399643973733444e+03 8.517558057174023e+02 1.550888168016055e+03 -7.410376101818838e+02 -2.802873368898875e+02 1.024324947071785e+03 -9.914502980035759e+02 8.676357760009429e+02 1.268145220026492e+02 -4.853375299570907e+02 -4.993681650971553e+02 9.877056950542759e+02 -3.872970195639937e+01 -5.655613433946561e+01 9.828583629583589e+01 -3.893253859537072e+01 9.643336660407662e+01 -5.450082800873498e+01 1.955948937778885e+02 4.523692682721885e+02 -6.449641620501061e+02 6.572545556777914e+01 9.831704299883853e+01 -1.610424985666323e+02 7.748482307280938e+01 -1.547560052477347e+02 8.027118217489621e+01 1.657078740879660e+01 -3.753515312673694e+01 2.396436571794039e+01 
</DataArray>
<DataArray type="Float64" Name="U235_conc" format="ascii">
7.079425834163613e-01 4.552612228277536e-01 5.216578575007765e-01 3.112830477048837e-01 3.667025147637781e-01 2.149375240959791e-01 2.550729253989998e-01 1.445340840675519e-01 1.600201967324228e-02 3.465767254753768e-02 2.580415200669606e-02 5.636269824588266e-02 4.146780062409666e-02 9.549861080812072e-02 6.759044077346565e-02 1.778559906314470e-01 1.762343446797645e-01 6.202209663397597e-02 9.032463966773296e-02 3.940343764172002e-02 5.339559122058070e-02 2.450455822960197e-02 3.285261192957440e-02 1.521471745677100e-02 -1.800774460389450e-03 -6.884348070701895e-03 8.685122531091341e-03 -5.618907182772202e-03 4.578027999483517e-02 -3.285040864100873e-02 3.920888179855614e-05 1.884002877345899e-05 -5.804891057201514e-05 -1.966684916313451e-01 7.239550540850147e-01 5.513963700888297e-01 -2.672647111641997e-03 2.251755661383953e-03 4.208914502580415e-04 -2.109845538101546e-02 -1.673552094384653e-03 2.277200747540010e-02 -4.071168179182047e-04 2.991787767488488e-04 1.311549808905731e-04 6.928600317944555e-01 -4.823179241239374e-01 6.762478842552903e-01 -9.424796343723758e-04 -2.602426017430917e-03 3.594887627768623e-03 5.840058487974674e-01 -5.965482075865023e-02 -2.165806642195870e-01 6.360388121964562e-01 6.401343503731571e-01 -4.798382168754912e-01 -1.477558771176283e-02 6.019586346315869e-03 8.756001365446965e-03 4.314373815411032e-01 -7.741221588530778e-02 -3.296652323791151e-02 -3.199178301114197e-02 5.718541303679229e-01 -1.185445733333005e-01 1.158070786435163e-01 -7.128691620241305e-02 4.643117956694114e-02 -1.021942784747490e-04 2.646783363397957e-05 7.572644484076950e-05 6.073788593957303e-01 -1.752427530314362e-01 -1.951937980039834e-01 -3.527523693009989e-03 3.161912458690068e-03 3.656112343199207e-04 6.480728406773381e-01 6.656547384480812e-01 -4.222208789850260e-01 -4.331481751095276e-02 1.228348821969978e-02 3.103132929125290e-02 3.955608496571429e-04 -2.687961592405423e-04 -3.783520338991004e-05 7.565584646286052e-03 -7.625626093037383e-03 7.066877350947344e-04 -5.883262070448935e-02 1.169504495044042e-02 4.713757575404888e-02 -1.017361126319684e-01 6.759154943905689e-02 3.414456319291147e-02 1.510217440356233e-01 -7.737453089220303e-02 -5.590161733609148e-02 5.799984126477299e-01 9.341555950200336e-03 -2.622962408378297e-01 4.374808145178257e-04 9.286617562849753e-04 -6.637698568048341e-04 -1.234322569336548e-03 2.433616223968114e-03 7.168639677026934e-04 1.646301895266307e-01 2.392502115038123e-01 -1.657898361466544e-01 -1.103297139750349e-03 -1.133943604663425e-02 1.244273318638460e-02 2.032414314435458e-01 -2.610576493832424e-01 3.171012228223658e-01 2.741925327780586e-01 -1.573415598890676e-01 -8.129824839447991e-02 6.141018421305124e-03 -5.614197199801932e-03 1.494465010061464e-03 -5.158177322836986e-03 4.108378023325454e-03 2.765166350083503e-03 -5.873066190777949e-02 6.554783454476582e-02 -6.817172636986274e-03 -4.122606393577518e-04 8.325358954262300e-04 -1.948035250580246e-04 2.424576695168313e-02 -2.892829506997527e-02 9.589335224153782e-03 1.671303028052859e-02 5.929170437493097e-03 -2.067567939049008e-02 2.490230994759291e-04 -9.953914174198179e-04 7.463683179438886e-04 -1.655701815828948e-03 2.098870582780884e-03 -4.431687669519389e-04 -5.986040475790995e-02 2.233971375651550e-02 3.752069100139443e-02 4.088965779505400e-05 -9.192006102281826e-05 5.103040322776420e-05 -1.096395963932940e-02 5.890058174510306e-03 5.073901464819091e-03 -2.061485961830277e-01 -1.770018058167391e-02 5.942829920855508e-01 -1.575732397493147e-03 -2.316935678219821e-03 4.520634450565533e-03 -6.299905913379472e-02 1.101840331955400e-02 5.198065581424073e-02 -6.498721743436767e-04 2.694703801763205e-03 -1.780522394957312e-03 3.924178227929205e-02 -1.029191540522878e-02 -2.894986687406326e-02 6.481638160866120e-01 -1.312966842938599e-01 -1.176627822010991e-01 6.594378277717960e-01 -4.461685397011699e-01 6.617864451256958e-01 6.643290974998126e-01 6.561609418614625e-01 -4.429264612857383e-01 3.791831307913100e-03 4.004537238989611e-03 -4.291323204759831e-03 -3.069416886307260e-02 2.182724600753488e-02 8.866922855537702e-03 5.815227432833520e-01 -2.102964835674546e-01 -2.317149817505668e-02 7.200562013152245e-01 -3.635096309237707e-01 7.200562013152415e-01 -9.465001305183185e-03 -1.301259551902736e-03 1.749662295479689e-02 6.607322976246000e-01 -4.412909574114214e-01 6.767594106377164e-01 9.099003269577247e-03 -1.494724769030147e-03 -9.131729211121069e-04 6.365152883537805e-05 -1.764787111710473e-04 1.241120717523035e-04 2.429919615362084e-02 4.209065330548020e-02 -6.638984945910106e-02 6.821556796347864e-01 6.712135918206861e-01 -4.404613886657759e-01 -1.180959320404364e-05 1.415648582237041e-04 -8.950985255938684e-05 -8.502490854070577e-04 2.650138682583149e-03 -2.506715485824363e-04 -1.248505158414536e-04 3.844741704554490e-04 -1.121864566078485e-04 -4.275640222212099e-02 2.764237206587335e-02 1.511403015624767e-02 -5.207544583719191e-02 -1.744291752302078e-01 6.518082935887828e-01 6.815263436549990e-01 6.875284185333079e-01 -3.738760061071882e-01 6.043460312586686e-01 -2.054171671541130e-01 -3.820761320784188e-02 -4.206244621595857e-02 -3.207139503609650e-03 4.526958571956821e-02 -1.948373093347706e-01 6.131771491612141e-01 -1.775374179613418e-01 -2.189787818183307e-04 -2.220406362106839e-04 4.410194180290146e-04 -1.755835468405956e-04 1.663732779869759e-04 1.537880171519722e-04 6.530713523991454e-01 -3.986426034345676e-01 6.626843660169233e-01 4.717059776553513e-05 -1.065940829240469e-04 1.781001126947465e-04 2.245906356555985e-04 2.674693641111112e-04 -4.920599997667094e-04 -1.795061315125479e-04 1.750061686664467e-04 2.218889520797737e-05 8.285299374522551e-04 6.566240933306509e-05 -3.599955621917973e-04 2.236926706499351e-05 -3.294653422657252e-05 4.600426514374158e-05 -4.111662501153944e-04 4.001800961575779e-04 6.882326553620336e-04 7.835625499126428e-05 -2.143734477618815e-06 -6.387585944228361e-05 1.483871477212715e-02 6.701397551544387e-03 -2.129560545846756e-02 1.569530304281376e-02 1.485150664750265e-02 -3.054680969031643e-02 -2.613162022151770e-06 -1.429835247101967e-05 2.178494085830974e-05 7.165864840720607e-01 7.152305643790633e-01 -3.863435806558072e-01 6.201293133488450e-01 -2.376993288713722e-01 -1.058149300495631e-02 2.113988695637626e-03 -3.285280315051479e-04 3.453593068430290e-04 -1.722234887786178e-05 7.327898450256765e-06 9.894450427605005e-06 9.215133905704833e-07 -8.509995812684353e-07 -7.051380930204910e-08 3.512777493702059e-06 2.206378515194712e-06 -5.719156008896771e-06 2.567509943627419e-05 -1.510815791842640e-05 -5.714305640588169e-06 6.769238227606987e-01 -4.328828113728222e-02 -1.791952174504644e-01 2.787591944345987e-05 4.074824660623819e-05 -3.473036604169395e-05 4.665164869591551e-03 1.644206933557334e-01 5.574881799079674e-03 2.236733809461346e-02 -2.889250703743680e-03 -1.359854353051466e-02 1.401357299424160e-02 -6.658924638083849e-03 -3.298895106978381e-03 1.491334269334095e-02 2.134356754612897e-02 -1.443436711335077e-02 6.177334875629481e-02 5.477877205399798e-02 -4.835631286599001e-02 5.222614076796484e-02 5.968137553278665e-02 -4.584339650747169e-02 2.547748196912467e-03 -5.360219006606836e-03 2.812470809694368e-03 2.361872073132819e-02 3.692592351777223e-02 -2.724031661454206e-02 3.887468898369917e-02 2.499121202506170e-02 -2.858395360589299e-02 4.336551155725926e-02 -1.968533233863495e-02 -1.790117592019186e-02 4.533112958587679e-02 -1.826626042163577e-02 -2.093855288536977e-02 2.323659539877661e-02 1.636175615885539e-02 -1.533733743030155e-02 2.129607912458744e-02 -1.305438342513088e-02 -3.566265455754399e-03 2.895727393210951e-02 2.943646921160067e-02 -1.542562481584991e-02 5.733428912107520e-04 8.011091330846408e-04 -1.374452024295393e-03 5.721835434719544e-04 -1.331401321761772e-03 7.592177782898175e-04 -4.262704042336256e-03 -6.931132957458821e-03 1.548775554268800e-02 -9.564439826427651e-04 -1.303297719033962e-03 2.259741701676729e-03 -1.163450312200253e-03 2.188766973481806e-03 -1.025316661281553e-03 -1.894231707048143e-04 5.736683737827479e-04 -3.842452030779343e-04 
</DataArray>
</PointData>
</Piece>
</UnstructuredGrid>
</VTKFile>
