<?xml version="1.0"?>
<VTKFile type="UnstructuredGrid" version="0.1" byte_order="LittleEndian">
<UnstructuredGrid>
<Piece NumberOfPoints="360" NumberOfCells="124">
<Points>
<DataArray type="Float64" NumberOfComponents="3" format="ascii">
7.500000000000000e-01 1.000000000000000e+00 0.000000000000000e+00 6.875000000000000e-01 8.750000000000000e-01 0.000000000000000e+00 6.875000000000000e-01 8.750000000000000e-01 0.000000000000000e+00 6.250000000000000e-01 7.500000000000000e-01 0.000000000000000e+00 6.250000000000000e-01 7.500000000000000e-01 0.000000000000000e+00 5.625000000000000e-01 6.250000000000000e-01 0.000000000000000e+00 5.625000000000000e-01 6.250000000000000e-01 0.000000000000000e+00 5.000000000000000e-01 5.000000000000000e-01 -0.000000000000000e+00 0.000000000000000e+00 2.500000000000000e-01 0.000000000000000e+00 1.249999999997599e-01 3.124999999998800e-01 0.000000000000000e+00 1.249999999997599e-01 3.124999999998800e-01 0.000000000000000e+00 2.499999999996086e-01 3.749999999998043e-01 0.000000000000000e+00 2.499999999996086e-01 3.749999999998043e-01 0.000000000000000e+00 3.749999999997349e-01 4.374999999998674e-01 0.000000000000000e+00 3.749999999997349e-01 4.374999999998674e-01 0.000000000000000e+00 5.000000000000000e-01 5.000000000000000e-01 -0.000000000000000e+00 5.000000000000000e-01 5.000000000000000e-01 -0.000000000000000e+00 4.375000000000694e-01 3.750000000001388e-01 0.000000000000000e+00 4.375000000000694e-01 3.750000000001388e-01 0.000000000000000e+00 3.750000000002776e-01 2.500000000005551e-01 0.000000000000000e+00 3.750000000002776e-01 2.500000000005551e-01 0.000000000000000e+00 3.125000000002082e-01 1.250000000004163e-01 0.000000000000000e+00 3.125000000002082e-01 1.250000000004163e-01 0.000000000000000e+00 2.500000000000000e-01 -0.000000000000000e+00 0.000000000000000e+00 3.749999999997349e-01 4.374999999998674e-01 0.000000000000000e+00 4.139414069912184e-01 6.056325264010037e-01 0.000000000000000e+00 2.645244370067465e-01 5.156353158163987e-01 0.000000000000000e+00 3.749999999997349e-01 4.374999999998674e-01 0.000000000000000e+00 5.000000000000000e-01 5.000000000000000e-01 -0.000000000000000e+00 4.139414069912184e-01 6.056325264010037e-01 0.000000000000000e+00 0.000000000000000e+00 2.500000000000000e-01 0.000000000000000e+00 1.249999999997599e-01 3.124999999998800e-01 0.000000000000000e+00 0.000000000000000e+00 4.375000000003469e-01 0.000000000000000e+00 6.875000000000000e-01 8.750000000000000e-01 0.000000000000000e+00 7.500000000000000e-01 1.000000000000000e+00 0.000000000000000e+00 5.625000000008674e-01 1.000000000000000e+00 0.000000000000000e+00 4.139414069912184e-01 6.056325264010037e-01 0.000000000000000e+00 2.758946705068648e-01 6.605885315643570e-01 0.000000000000000e+00 2.645244370067465e-01 5.156353158163987e-01 0.000000000000000e+00 2.798796021293082e-01 8.344274147057053e-01 0.000000000000000e+00 1.390078959961168e-01 7.261831610706000e-01 0.000000000000000e+00 2.758946705068648e-01 6.605885315643570e-01 0.000000000000000e+00 0.000000000000000e+00 4.375000000003469e-01 0.000000000000000e+00 1.492912418697525e-01 4.458279356810638e-01 0.000000000000000e+00 1.392858751591214e-01 5.733980610567744e-01 0.000000000000000e+00 3.750000000006939e-01 1.000000000000000e+00 0.000000000000000e+00 4.492710539671537e-01 8.556512408515589e-01 0.000000000000000e+00 5.625000000008674e-01 1.000000000000000e+00 0.000000000000000e+00 0.000000000000000e+00 4.375000000003469e-01 0.000000000000000e+00 1.392858751591214e-01 5.733980610567744e-01 0.000000000000000e+00 0.000000000000000e+00 6.250000000006939e-01 0.000000000000000e+00 3.750000000006939e-01 1.000000000000000e+00 0.000000000000000e+00 2.798796021293082e-01 8.344274147057053e-01 0.000000000000000e+00 4.492710539671537e-01 8.556512408515589e-01 0.000000000000000e+00 3.750000000006939e-01 1.000000000000000e+00 0.000000000000000e+00 1.875000000005205e-01 1.000000000000000e+00 0.000000000000000e+00 2.798796021293082e-01 8.344274147057053e-01 0.000000000000000e+00 2.798796021293082e-01 8.344274147057053e-01 0.000000000000000e+00 2.758946705068648e-01 6.605885315643570e-01 0.000000000000000e+00 3.813620468049507e-01 7.403859221383123e-01 0.000000000000000e+00 5.625000000008674e-01 1.000000000000000e+00 0.000000000000000e+00 4.492710539671537e-01 8.556512408515589e-01 0.000000000000000e+00 5.677751205718758e-01 8.470224641095303e-01 0.000000000000000e+00 6.875000000000000e-01 8.750000000000000e-01 0.000000000000000e+00 5.625000000008674e-01 1.000000000000000e+00 0.000000000000000e+00 5.677751205718758e-01 8.470224641095303e-01 0.000000000000000e+00 5.625000000000000e-01 6.250000000000000e-01 0.000000000000000e+00 4.139414069912184e-01 6.056325264010037e-01 0.000000000000000e+00 5.000000000000000e-01 5.000000000000000e-01 -0.000000000000000e+00 0.000000000000000e+00 4.375000000003469e-01 0.000000000000000e+00 1.249999999997599e-01 3.124999999998800e-01 0.000000000000000e+00 1.492912418697525e-01 4.458279356810638e-01 0.000000000000000e+00 0.000000000000000e+00 1.000000000000000e+00 0.000000000000000e+00 0.000000000000000e+00 8.125000000010408e-01 0.000000000000000e+00 1.271010713601231e-01 8.709480661820344e-01 0.000000000000000e+00 3.749999999997349e-01 4.374999999998674e-01 0.000000000000000e+00 2.645244370067465e-01 5.156353158163987e-01 0.000000000000000e+00 2.499999999996086e-01 3.749999999998043e-01 0.000000000000000e+00 1.875000000005205e-01 1.000000000000000e+00 0.000000000000000e+00 0.000000000000000e+00 1.000000000000000e+00 0.000000000000000e+00 1.271010713601231e-01 8.709480661820344e-01 0.000000000000000e+00 0.000000000000000e+00 8.125000000010408e-01 0.000000000000000e+00 0.000000000000000e+00 6.250000000006939e-01 0.000000000000000e+00 1.390078959961168e-01 7.261831610706000e-01 0.000000000000000e+00 2.499999999996086e-01 3.749999999998043e-01 0.000000000000000e+00 1.492912418697525e-01 4.458279356810638e-01 0.000000000000000e+00 1.249999999997599e-01 3.124999999998800e-01 0.000000000000000e+00 2.758946705068648e-01 6.605885315643570e-01 0.000000000000000e+00 1.390078959961168e-01 7.261831610706000e-01 0.000000000000000e+00 1.392858751591214e-01 5.733980610567744e-01 0.000000000000000e+00 4.492710539671537e-01 8.556512408515589e-01 0.000000000000000e+00 2.798796021293082e-01 8.344274147057053e-01 0.000000000000000e+00 3.813620468049507e-01 7.403859221383123e-01 0.000000000000000e+00 2.798796021293082e-01 8.344274147057053e-01 0.000000000000000e+00 1.271010713601231e-01 8.709480661820344e-01 0.000000000000000e+00 1.390078959961168e-01 7.261831610706000e-01 0.000000000000000e+00 5.625000000000000e-01 6.250000000000000e-01 0.000000000000000e+00 5.014585693307863e-01 7.367466304650486e-01 0.000000000000000e+00 4.139414069912184e-01 6.056325264010037e-01 0.000000000000000e+00 1.875000000005205e-01 1.000000000000000e+00 0.000000000000000e+00 1.271010713601231e-01 8.709480661820344e-01 0.000000000000000e+00 2.798796021293082e-01 8.344274147057053e-01 0.000000000000000e+00 2.499999999996086e-01 3.749999999998043e-01 0.000000000000000e+00 2.645244370067465e-01 5.156353158163987e-01 0.000000000000000e+00 1.492912418697525e-01 4.458279356810638e-01 0.000000000000000e+00 2.645244370067465e-01 5.156353158163987e-01 0.000000000000000e+00 2.758946705068648e-01 6.605885315643570e-01 0.000000000000000e+00 1.392858751591214e-01 5.733980610567744e-01 0.000000000000000e+00 5.625000000000000e-01 6.250000000000000e-01 0.000000000000000e+00 6.250000000000000e-01 7.500000000000000e-01 0.000000000000000e+00 5.014585693307863e-01 7.367466304650486e-01 0.000000000000000e+00 4.139414069912184e-01 6.056325264010037e-01 0.000000000000000e+00 5.014585693307863e-01 7.367466304650486e-01 0.000000000000000e+00 3.813620468049507e-01 7.403859221383123e-01 0.000000000000000e+00 6.875000000000000e-01 8.750000000000000e-01 0.000000000000000e+00 5.677751205718758e-01 8.470224641095303e-01 0.000000000000000e+00 6.250000000000000e-01 7.500000000000000e-01 0.000000000000000e+00 6.250000000000000e-01 7.500000000000000e-01 0.000000000000000e+00 5.677751205718758e-01 8.470224641095303e-01 0.000000000000000e+00 5.014585693307863e-01 7.367466304650486e-01 0.000000000000000e+00 0.000000000000000e+00 6.250000000006939e-01 0.000000000000000e+00 1.392858751591214e-01 5.733980610567744e-01 0.000000000000000e+00 1.390078959961168e-01 7.261831610706000e-01 0.000000000000000e+00 4.139414069912184e-01 6.056325264010037e-01 0.000000000000000e+00 3.813620468049507e-01 7.403859221383123e-01 0.000000000000000e+00 2.758946705068648e-01 6.605885315643570e-01 0.000000000000000e+00 0.000000000000000e+00 8.125000000010408e-01 0.000000000000000e+00 1.390078959961168e-01 7.261831610706000e-01 0.000000000000000e+00 1.271010713601231e-01 8.709480661820344e-01 0.000000000000000e+00 2.645244370067465e-01 5.156353158163987e-01 0.000000000000000e+00 1.392858751591214e-01 5.733980610567744e-01 0.000000000000000e+00 1.492912418697525e-01 4.458279356810638e-01 0.000000000000000e+00 4.492710539671537e-01 8.556512408515589e-01 0.000000000000000e+00 5.014585693307863e-01 7.367466304650486e-01 0.000000000000000e+00 5.677751205718758e-01 8.470224641095303e-01 0.000000000000000e+00 4.492710539671537e-01 8.556512408515589e-01 0.000000000000000e+00 3.813620468049507e-01 7.403859221383123e-01 0.000000000000000e+00 5.014585693307863e-01 7.367466304650486e-01 0.000000000000000e+00 5.698670717843664e-01 3.776209365087199e-01 0.000000000000000e+00 7.182603949284063e-01 3.456402071721618e-01 0.000000000000000e+00 6.323653418237701e-01 5.029675640633227e-01 0.000000000000000e+00 7.533843026232094e-01 4.929444342317560e-01 0.000000000000000e+00 6.323653418237701e-01 5.029675640633227e-01 0.000000000000000e+00 7.182603949284063e-01 3.456402071721618e-01 0.000000000000000e+00 8.578792739151740e-01 7.535325208825020e-01 0.000000000000000e+00 7.125974780784441e-01 6.384669131570183e-01 0.000000000000000e+00 8.612746697781972e-01 5.794807697879764e-01 0.000000000000000e+00 2.500000000000000e-01 -0.000000000000000e+00 0.000000000000000e+00 4.374999999991326e-01 0.000000000000000e+00 0.000000000000000e+00 3.125000000002082e-01 1.250000000004163e-01 0.000000000000000e+00 8.578792739151740e-01 7.535325208825020e-01 0.000000000000000e+00 7.385779517043357e-01 7.773678856428465e-01 0.000000000000000e+00 7.125974780784441e-01 6.384669131570183e-01 0.000000000000000e+00 8.612746697781972e-01 5.794807697879764e-01 0.000000000000000e+00 8.656940847709105e-01 4.098367391676661e-01 0.000000000000000e+00 1.000000000000000e+00 5.000000000013877e-01 0.000000000000000e+00 7.150899340618379e-01 1.571595685477760e-01 0.000000000000000e+00 8.608728669021763e-01 2.520652359795942e-01 0.000000000000000e+00 7.182603949284063e-01 3.456402071721618e-01 0.000000000000000e+00 8.612746697781972e-01 5.794807697879764e-01 0.000000000000000e+00 7.533843026232094e-01 4.929444342317560e-01 0.000000000000000e+00 8.656940847709105e-01 4.098367391676661e-01 0.000000000000000e+00 4.374999999991326e-01 0.000000000000000e+00 0.000000000000000e+00 6.249999999989591e-01 0.000000000000000e+00 0.000000000000000e+00 5.447576766858295e-01 1.431838882066932e-01 0.000000000000000e+00 8.055298449100090e-01 8.871112287212741e-01 0.000000000000000e+00 8.578792739151740e-01 7.535325208825020e-01 0.000000000000000e+00 9.063795342218008e-01 9.020858332805730e-01 0.000000000000000e+00 1.000000000000000e+00 8.333333333335646e-01 0.000000000000000e+00 9.063795342218008e-01 9.020858332805730e-01 0.000000000000000e+00 8.578792739151740e-01 7.535325208825020e-01 0.000000000000000e+00 1.000000000000000e+00 8.333333333335646e-01 0.000000000000000e+00 8.578792739151740e-01 7.535325208825020e-01 0.000000000000000e+00 1.000000000000000e+00 6.666666666673605e-01 0.000000000000000e+00 1.000000000000000e+00 1.666666666673605e-01 0.000000000000000e+00 1.000000000000000e+00 3.333333333344898e-01 0.000000000000000e+00 8.608728669021763e-01 2.520652359795942e-01 0.000000000000000e+00 6.249999999989591e-01 0.000000000000000e+00 0.000000000000000e+00 7.150899340618379e-01 1.571595685477760e-01 0.000000000000000e+00 5.447576766858295e-01 1.431838882066932e-01 0.000000000000000e+00 8.124999999994795e-01 0.000000000000000e+00 0.000000000000000e+00 7.150899340618379e-01 1.571595685477760e-01 0.000000000000000e+00 6.249999999989591e-01 0.000000000000000e+00 0.000000000000000e+00 1.000000000000000e+00 6.666666666673605e-01 0.000000000000000e+00 8.578792739151740e-01 7.535325208825020e-01 0.000000000000000e+00 8.612746697781972e-01 5.794807697879764e-01 0.000000000000000e+00 1.000000000000000e+00 1.000000000000000e+00 0.000000000000000e+00 9.063795342218008e-01 9.020858332805730e-01 0.000000000000000e+00 1.000000000000000e+00 8.333333333335646e-01 0.000000000000000e+00 7.533843026232094e-01 4.929444342317560e-01 0.000000000000000e+00 7.182603949284063e-01 3.456402071721618e-01 0.000000000000000e+00 8.656940847709105e-01 4.098367391676661e-01 0.000000000000000e+00 1.000000000000000e+00 6.666666666673605e-01 0.000000000000000e+00 8.612746697781972e-01 5.794807697879764e-01 0.000000000000000e+00 1.000000000000000e+00 5.000000000013877e-01 0.000000000000000e+00 8.612746697781972e-01 5.794807697879764e-01 0.000000000000000e+00 7.125974780784441e-01 6.384669131570183e-01 0.000000000000000e+00 7.533843026232094e-01 4.929444342317560e-01 0.000000000000000e+00 3.125000000002082e-01 1.250000000004163e-01 0.000000000000000e+00 4.374999999991326e-01 0.000000000000000e+00 0.000000000000000e+00 4.287911518546233e-01 1.545544542796670e-01 0.000000000000000e+00 7.150899340618379e-01 1.571595685477760e-01 0.000000000000000e+00 8.769890164881212e-01 1.160638338657984e-01 0.000000000000000e+00 8.608728669021763e-01 2.520652359795942e-01 0.000000000000000e+00 1.000000000000000e+00 3.333333333344898e-01 0.000000000000000e+00 1.000000000000000e+00 5.000000000013877e-01 0.000000000000000e+00 8.656940847709105e-01 4.098367391676661e-01 0.000000000000000e+00 4.375000000000694e-01 3.750000000001388e-01 0.000000000000000e+00 5.698670717843664e-01 3.776209365087199e-01 0.000000000000000e+00 5.000000000000000e-01 5.000000000000000e-01 -0.000000000000000e+00 7.150899340618379e-01 1.571595685477760e-01 0.000000000000000e+00 7.182603949284063e-01 3.456402071721618e-01 0.000000000000000e+00 6.110846258508276e-01 2.575059958234323e-01 0.000000000000000e+00 5.625000000000000e-01 6.250000000000000e-01 0.000000000000000e+00 7.125974780784441e-01 6.384669131570183e-01 0.000000000000000e+00 6.250000000000000e-01 7.500000000000000e-01 0.000000000000000e+00 8.656940847709105e-01 4.098367391676661e-01 0.000000000000000e+00 7.182603949284063e-01 3.456402071721618e-01 0.000000000000000e+00 8.608728669021763e-01 2.520652359795942e-01 0.000000000000000e+00 6.875000000000000e-01 8.750000000000000e-01 0.000000000000000e+00 8.055298449100090e-01 8.871112287212741e-01 0.000000000000000e+00 7.500000000000000e-01 1.000000000000000e+00 0.000000000000000e+00 8.750000000000000e-01 1.000000000000000e+00 0.000000000000000e+00 7.500000000000000e-01 1.000000000000000e+00 0.000000000000000e+00 8.055298449100090e-01 8.871112287212741e-01 0.000000000000000e+00 1.000000000000000e+00 3.333333333344898e-01 0.000000000000000e+00 8.656940847709105e-01 4.098367391676661e-01 0.000000000000000e+00 8.608728669021763e-01 2.520652359795942e-01 0.000000000000000e+00 8.124999999994795e-01 0.000000000000000e+00 0.000000000000000e+00 8.769890164881212e-01 1.160638338657984e-01 0.000000000000000e+00 7.150899340618379e-01 1.571595685477760e-01 0.000000000000000e+00 8.124999999994795e-01 0.000000000000000e+00 0.000000000000000e+00 1.000000000000000e+00 0.000000000000000e+00 0.000000000000000e+00 8.769890164881212e-01 1.160638338657984e-01 0.000000000000000e+00 4.374999999991326e-01 0.000000000000000e+00 0.000000000000000e+00 5.447576766858295e-01 1.431838882066932e-01 0.000000000000000e+00 4.287911518546233e-01 1.545544542796670e-01 0.000000000000000e+00 5.000000000000000e-01 5.000000000000000e-01 -0.000000000000000e+00 5.698670717843664e-01 3.776209365087199e-01 0.000000000000000e+00 6.323653418237701e-01 5.029675640633227e-01 0.000000000000000e+00 1.000000000000000e+00 1.666666666673605e-01 0.000000000000000e+00 8.769890164881212e-01 1.160638338657984e-01 0.000000000000000e+00 1.000000000000000e+00 0.000000000000000e+00 0.000000000000000e+00 5.625000000000000e-01 6.250000000000000e-01 0.000000000000000e+00 6.323653418237701e-01 5.029675640633227e-01 0.000000000000000e+00 7.125974780784441e-01 6.384669131570183e-01 0.000000000000000e+00 5.698670717843664e-01 3.776209365087199e-01 0.000000000000000e+00 6.110846258508276e-01 2.575059958234323e-01 0.000000000000000e+00 7.182603949284063e-01 3.456402071721618e-01 0.000000000000000e+00 7.150899340618379e-01 1.571595685477760e-01 0.000000000000000e+00 6.110846258508276e-01 2.575059958234323e-01 0.000000000000000e+00 5.447576766858295e-01 1.431838882066932e-01 0.000000000000000e+00 7.533843026232094e-01 4.929444342317560e-01 0.000000000000000e+00 7.125974780784441e-01 6.384669131570183e-01 0.000000000000000e+00 6.323653418237701e-01 5.029675640633227e-01 0.000000000000000e+00 4.375000000000694e-01 3.750000000001388e-01 0.000000000000000e+00 4.945749328930023e-01 2.625170377655549e-01 0.000000000000000e+00 5.698670717843664e-01 3.776209365087199e-01 0.000000000000000e+00 6.250000000000000e-01 7.500000000000000e-01 0.000000000000000e+00 7.125974780784441e-01 6.384669131570183e-01 0.000000000000000e+00 7.385779517043357e-01 7.773678856428465e-01 0.000000000000000e+00 5.625000000000000e-01 6.250000000000000e-01 0.000000000000000e+00 5.000000000000000e-01 5.000000000000000e-01 -0.000000000000000e+00 6.323653418237701e-01 5.029675640633227e-01 0.000000000000000e+00 8.055298449100090e-01 8.871112287212741e-01 0.000000000000000e+00 7.385779517043357e-01 7.773678856428465e-01 0.000000000000000e+00 8.578792739151740e-01 7.535325208825020e-01 0.000000000000000e+00 6.875000000000000e-01 8.750000000000000e-01 0.000000000000000e+00 7.385779517043357e-01 7.773678856428465e-01 0.000000000000000e+00 8.055298449100090e-01 8.871112287212741e-01 0.000000000000000e+00 3.750000000002776e-01 2.500000000005551e-01 0.000000000000000e+00 4.945749328930023e-01 2.625170377655549e-01 0.000000000000000e+00 4.375000000000694e-01 3.750000000001388e-01 0.000000000000000e+00 1.000000000000000e+00 1.000000000000000e+00 0.000000000000000e+00 8.750000000000000e-01 1.000000000000000e+00 0.000000000000000e+00 9.063795342218008e-01 9.020858332805730e-01 0.000000000000000e+00 1.000000000000000e+00 1.666666666673605e-01 0.000000000000000e+00 8.608728669021763e-01 2.520652359795942e-01 0.000000000000000e+00 8.769890164881212e-01 1.160638338657984e-01 0.000000000000000e+00 6.875000000000000e-01 8.750000000000000e-01 0.000000000000000e+00 6.250000000000000e-01 7.500000000000000e-01 0.000000000000000e+00 7.385779517043357e-01 7.773678856428465e-01 0.000000000000000e+00 5.698670717843664e-01 3.776209365087199e-01 0.000000000000000e+00 4.945749328930023e-01 2.625170377655549e-01 0.000000000000000e+00 6.110846258508276e-01 2.575059958234323e-01 0.000000000000000e+00 3.125000000002082e-01 1.250000000004163e-01 0.000000000000000e+00 4.287911518546233e-01 1.545544542796670e-01 0.000000000000000e+00 3.750000000002776e-01 2.500000000005551e-01 0.000000000000000e+00 3.750000000002776e-01 2.500000000005551e-01 0.000000000000000e+00 4.287911518546233e-01 1.545544542796670e-01 0.000000000000000e+00 4.945749328930023e-01 2.625170377655549e-01 0.000000000000000e+00 5.447576766858295e-01 1.431838882066932e-01 0.000000000000000e+00 4.945749328930023e-01 2.625170377655549e-01 0.000000000000000e+00 4.287911518546233e-01 1.545544542796670e-01 0.000000000000000e+00 8.750000000000000e-01 1.000000000000000e+00 0.000000000000000e+00 8.055298449100090e-01 8.871112287212741e-01 0.000000000000000e+00 9.063795342218008e-01 9.020858332805730e-01 0.000000000000000e+00 5.447576766858295e-01 1.431838882066932e-01 0.000000000000000e+00 6.110846258508276e-01 2.575059958234323e-01 0.000000000000000e+00 4.945749328930023e-01 2.625170377655549e-01 0.000000000000000e+00 4.375000000000694e-01 3.750000000001388e-01 0.000000000000000e+00 5.000000000000000e-01 5.000000000000000e-01 -0.000000000000000e+00 3.749999999997349e-01 4.374999999998674e-01 0.000000000000000e+00 1.249999999997599e-01 3.124999999998800e-01 0.000000000000000e+00 1.008171452988615e-01 1.888570369725047e-01 0.000000000000000e+00 2.403886547178353e-01 2.418881479267384e-01 0.000000000000000e+00 2.500000000000000e-01 -0.000000000000000e+00 0.000000000000000e+00 1.840276181286450e-01 1.117324051466445e-01 0.000000000000000e+00 1.249999999997554e-01 0.000000000000000e+00 0.000000000000000e+00 2.500000000000000e-01 -0.000000000000000e+00 0.000000000000000e+00 3.125000000002082e-01 1.250000000004163e-01 0.000000000000000e+00 1.840276181286450e-01 1.117324051466445e-01 0.000000000000000e+00 3.749999999997349e-01 4.374999999998674e-01 0.000000000000000e+00 2.499999999996086e-01 3.749999999998043e-01 0.000000000000000e+00 3.381944444444832e-01 3.381944444445634e-01 0.000000000000000e+00 3.750000000002776e-01 2.500000000005551e-01 0.000000000000000e+00 4.375000000000694e-01 3.750000000001388e-01 0.000000000000000e+00 3.381944444444832e-01 3.381944444445634e-01 0.000000000000000e+00 1.840276181286450e-01 1.117324051466445e-01 0.000000000000000e+00 2.403886547178353e-01 2.418881479267384e-01 0.000000000000000e+00 1.008171452988615e-01 1.888570369725047e-01 0.000000000000000e+00 3.125000000002082e-01 1.250000000004163e-01 0.000000000000000e+00 3.750000000002776e-01 2.500000000005551e-01 0.000000000000000e+00 2.403886547178353e-01 2.418881479267384e-01 0.000000000000000e+00 2.499999999996086e-01 3.749999999998043e-01 0.000000000000000e+00 1.249999999997599e-01 3.124999999998800e-01 0.000000000000000e+00 2.403886547178353e-01 2.418881479267384e-01 0.000000000000000e+00 3.750000000002776e-01 2.500000000005551e-01 0.000000000000000e+00 3.381944444444832e-01 3.381944444445634e-01 0.000000000000000e+00 2.403886547178353e-01 2.418881479267384e-01 0.000000000000000e+00 2.499999999996086e-01 3.749999999998043e-01 0.000000000000000e+00 2.403886547178353e-01 2.418881479267384e-01 0.000000000000000e+00 3.381944444444832e-01 3.381944444445634e-01 0.000000000000000e+00 1.249999999997599e-01 3.124999999998800e-01 0.000000000000000e+00 0.000000000000000e+00 2.500000000000000e-01 0.000000000000000e+00 1.008171452988615e-01 1.888570369725047e-01 0.000000000000000e+00 3.125000000002082e-01 1.250000000004163e-01 0.000000000000000e+00 2.403886547178353e-01 2.418881479267384e-01 0.000000000000000e+00 1.840276181286450e-01 1.117324051466445e-01 0.000000000000000e+00 4.375000000000694e-01 3.750000000001388e-01 0.000000000000000e+00 3.749999999997349e-01 4.374999999998674e-01 0.000000000000000e+00 3.381944444444832e-01 3.381944444445634e-01 0.000000000000000e+00 0.000000000000000e+00 0.000000000000000e+00 0.000000000000000e+00 8.435242216391163e-02 8.645171265626619e-02 0.000000000000000e+00 0.000000000000000e+00 1.250000000003469e-01 0.000000000000000e+00 0.000000000000000e+00 0.000000000000000e+00 0.000000000000000e+00 1.249999999997554e-01 0.000000000000000e+00 0.000000000000000e+00 8.435242216391163e-02 8.645171265626619e-02 0.000000000000000e+00 0.000000000000000e+00 1.250000000003469e-01 0.000000000000000e+00 1.008171452988615e-01 1.888570369725047e-01 0.000000000000000e+00 0.000000000000000e+00 2.500000000000000e-01 0.000000000000000e+00 1.249999999997554e-01 0.000000000000000e+00 0.000000000000000e+00 1.840276181286450e-01 1.117324051466445e-01 0.000000000000000e+00 8.435242216391163e-02 8.645171265626619e-02 0.000000000000000e+00 0.000000000000000e+00 1.250000000003469e-01 0.000000000000000e+00 8.435242216391163e-02 8.645171265626619e-02 0.000000000000000e+00 1.008171452988615e-01 1.888570369725047e-01 0.000000000000000e+00 1.008171452988615e-01 1.888570369725047e-01 0.000000000000000e+00 8.435242216391163e-02 8.645171265626619e-02 0.000000000000000e+00 1.840276181286450e-01 1.117324051466445e-01 0.000000000000000e+00 
</DataArray>
</Points>
<Cells>
<DataArray type="UInt32" Name="connectivity" format="ascii">
0 1 2 3 4 5 6 7 8 9 10 11 12 13 14 15 16 17 18 19 20 21 22 23 24 25 26 27 28 29 30 31 32 33 34 35 36 37 38 39 40 41 42 43 44 45 46 47 48 49 50 51 52 53 54 55 56 57 58 59 60 61 62 63 64 65 66 67 68 69 70 71 72 73 74 75 76 77 78 79 80 81 82 83 84 85 86 87 88 89 90 91 92 93 94 95 96 97 98 99 100 101 102 103 104 105 106 107 108 109 110 111 112 113 114 115 116 117 118 119 120 121 122 123 124 125 126 127 128 129 130 131 132 133 134 135 136 137 138 139 140 141 142 143 144 145 146 147 148 149 150 151 152 153 154 155 156 157 158 159 160 161 162 163 164 165 166 167 168 169 170 171 172 173 174 175 176 177 178 179 180 181 182 183 184 185 186 187 188 189 190 191 192 193 194 195 196 197 198 199 200 201 202 203 204 205 206 207 208 209 210 211 212 213 214 215 216 217 218 219 220 221 222 223 224 225 226 227 228 229 230 231 232 233 234 235 236 237 238 239 240 241 242 243 244 245 246 247 248 249 250 251 252 253 254 255 256 257 258 259 260 261 262 263 264 265 266 267 268 269 270 271 272 273 274 275 276 277 278 279 280 281 282 283 284 285 286 287 288 289 290 291 292 293 294 295 296 297 298 299 300 301 302 303 304 305 306 307 308 309 310 311 312 313 314 315 316 317 318 319 320 321 322 323 324 325 326 327 328 329 330 331 332 333 334 335 336 337 338 339 340 341 342 343 344 345 346 347 348 349 350 351 352 353 354 355 356 357 358 359 
</DataArray>
<DataArray type="UInt32" Name="offsets" format="ascii">
2 4 6 8 10 12 14 16 18 20 22 24 27 30 33 36 39 42 45 48 51 54 57 60 63 66 69 72 75 78 81 84 87 90 93 96 99 102 105 108 111 114 117 120 123 126 129 132 135 138 141 144 147 150 153 156 159 162 165 168 171 174 177 180 183 186 189 192 195 198 201 204 207 210 213 216 219 222 225 228 231 234 237 240 243 246 249 252 255 258 261 264 267 270 273 276 279 282 285 288 291 294 297 300 303 306 309 312 315 318 321 324 327 330 333 336 339 342 345 348 351 354 357 360 
</DataArray>
<DataArray type="UInt32" Name="types" format="ascii">
3 3 3 3 3 3 3 3 3 3 3 3 5 5 5 5 5 5 5 5 5 5 5 5 5 5 5 5 5 5 5 5 5 5 5 5 5 5 5 5 5 5 5 5 5 5 5 5 5 5 5 5 5 5 5 5 5 5 5 5 5 5 5 5 5 5 5 5 5 5 5 5 5 5 5 5 5 5 5 5 5 5 5 5 5 5 5 5 5 5 5 5 5 5 5 5 5 5 5 5 5 5 5 5 5 5 5 5 5 5 5 5 5 5 5 5 5 5 5 5 5 5 5 5 
</DataArray>
</Cells>
<PointData Scalars="age_conc,U235_conc," Vectors="" Tensors="">
<DataArray type="Float64" Name="age_conc" format="ascii">
-9.575285493786098e+03 9.577285493786094e+03 -5.024952618719242e+03 5.026952618719240e+03 -2.265556750641303e+03 2.267556750641298e+03 -1.069152738607838e+03 1.071152738607837e+03 2.471165031283454e+01 -2.271165031284180e+01 6.578532873545191e+01 -6.378532873544466e+01 2.258196935473388e+02 -2.238196935473390e+02 6.897066567047150e+02 -6.877066567047077e+02 -7.293887137854181e+02 7.313887137854108e+02 -1.839472269998223e+02 1.859472269998151e+02 -5.911755470814387e+01 6.111755470814387e+01 -1.955299320041377e+01 2.155299320040649e+01 -3.955180125500410e+02 1.026843832589315e+03 -6.283258200392737e+02 -6.325606617397061e+02 -6.181950842956140e+02 1.253755746035305e+03 -2.828705213198555e+01 2.265500935682246e-01 3.106050203840277e+01 3.832937295020024e+04 -2.461127046383276e+04 -1.371510248636750e+04 9.508082848256454e+02 -5.288781398712229e+02 -4.189301449544073e+02 5.585170781810237e+03 -1.881159630804336e+03 -3.701011151005903e+03 9.418302524881437e+01 -3.824372990674163e+02 2.912542738186094e+02 -2.566168241523482e+04 5.178321666123866e+04 -2.611853424600384e+04 -3.324170827137859e+02 2.024581942188642e+03 -1.689164859474855e+03 -3.352249539801713e+04 -5.198513833435090e+03 3.872400923145223e+04 -2.629301697294811e+04 -1.818836739067504e+04 4.448438436362316e+04 1.308262443500484e+03 4.565409831768413e+03 -5.870672275268887e+03 -2.104323377117846e+04 1.251927337626935e+04 8.526960394909085e+03 2.353735513733539e+04 -2.639779695491078e+04 2.863441817575392e+03 -1.991632449087112e+03 1.459132293188328e+03 5.355001558987786e+02 6.585181163220841e+01 3.862808001861406e+01 -1.014798916508299e+02 -3.003350305178068e+04 3.173585952212921e+03 2.686291709956775e+04 9.386698552356393e+00 -3.637729753875756e+02 3.573862768351973e+02 -2.384430999854811e+04 -1.734134136969105e+04 4.118865136823915e+04 1.123141946719705e+04 6.682262754542832e+02 -1.189664574265132e+04 -2.086328087672155e+01 6.983799962207559e+01 -4.597471874536133e+01 -1.972808587520238e+03 3.192703216255771e+02 1.656538265894676e+03 2.284758857171224e+04 -7.663254649327173e+03 -1.518133392238503e+04 2.519180157087671e+04 -1.054241421647763e+04 -1.464638735439907e+04 -2.470203577139502e+03 3.958106050777561e+03 -1.484902473638052e+03 -2.726418055812813e+04 -6.663596418825461e+03 3.393077697695364e+04 5.620800972311554e+01 -1.426876623136341e+02 8.947965259053306e+01 4.249105853190267e+02 -9.250826444596968e+02 5.031720591406775e+02 2.916999373967672e+03 -1.073191132868177e+04 7.817911954714092e+03 9.198067619277208e+02 -3.565503992422454e+02 -5.602563626854682e+02 6.100197393892340e+03 1.234645409826870e+04 -1.844365149216103e+04 -1.708661616959476e+04 1.375551540462458e+04 3.334100764970148e+03 -1.354717604927318e+03 3.669797039075303e+03 -2.312079434147992e+03 1.668897285671468e+03 -1.703675986373717e+03 3.777870070223444e+01 1.151816442795895e+04 -1.619919345489844e+04 4.684029026939499e+03 1.642604866847832e+02 8.731114827292186e+01 -2.485716349577197e+02 1.446314784974507e+03 -4.980029697033185e+03 3.536714912058691e+03 2.660676033718679e+03 -5.334001728122840e+02 -2.124275860906405e+03 -4.272729323784515e+02 -2.240059044653536e+02 6.542788368438049e+02 -6.895453482319281e+02 8.333259922116406e+02 -1.407806439797134e+02 1.963956694868422e+04 -1.246633930129355e+04 -7.170227647390676e+03 -4.047162543980812e+01 5.503033033186514e+01 -1.155870489206426e+01 -2.054124318255781e+02 3.563240984742222e+02 -1.479116666486588e+02 3.319608356894014e+04 -4.787072531523766e+03 -2.840601103741638e+04 4.275163730723914e+03 1.788133150211827e+03 -6.060296880935757e+03 2.148876407602515e+04 -1.126195638668690e+04 -1.022380768933827e+04 -2.911723223531008e+02 -1.131380820120481e+03 1.425553142473575e+03 -1.267371274331910e+04 -1.024354758978734e+04 2.292026033310644e+04 -3.483012804427755e+04 3.414657579181281e+04 6.865522524647124e+02 -2.565113742444115e+04 4.294528314197867e+04 -1.729114571753749e+04 -1.845737584248029e+04 -2.498001057272391e+04 4.344038641520420e+04 -7.005752139313627e+02 -1.824252361185070e+03 2.527827575116433e+03 8.318641657979315e+03 -9.444898501312126e+03 1.129256843332797e+03 -2.688992241315644e+04 3.156130525684856e+04 -4.668382843692147e+03 -2.450414672225700e+04 4.901129344451295e+04 -2.450414672225599e+04 -3.091895638459035e+03 5.215158955723913e+03 -2.120263317264878e+03 -2.462151979699992e+04 4.440250819082628e+04 -1.977798839382637e+04 -6.950073805902794e+02 -5.549528959200203e+03 6.247536339790486e+03 3.436330813779932e+01 1.050073244472077e+02 -1.363706325850144e+02 -1.292124468749756e+04 -5.867027775314762e+03 1.879127246281233e+04 -2.067822722064105e+04 -2.505499587811687e+04 4.573622309875794e+04 3.239705218293238e+01 1.735418953831686e+02 -2.029389475661009e+02 3.359447896825201e+03 -4.644197968608209e+03 1.287750071783018e+03 -2.823430567155228e+02 8.592174216885613e+02 -5.738743649730384e+02 1.581200312229827e+04 -1.221321099293612e+04 -3.595792129362156e+03 -1.249190262523916e+01 2.773714939926202e+04 -2.772165749663680e+04 -2.414724327704800e+04 -1.621549039255250e+04 4.036573366960050e+04 -2.979896400737772e+04 3.381327643989548e+04 -4.011312432517752e+03 8.556287043925244e+03 4.257999130328599e+03 -1.281128617425383e+04 4.623882687705984e+03 -2.944339299428984e+04 2.482251030658384e+04 9.376125234940992e+01 2.708640521948764e+02 -3.616253045442863e+02 -2.632019073074262e+02 2.136874465512591e+02 5.251446075616681e+01 -2.338443283837782e+04 3.949625135472693e+04 -1.610881851634910e+04 1.397242710936502e+03 -4.061207548729067e+02 -9.881219560636016e+02 -3.734206039251876e+01 1.332128418656648e+02 -9.287078147314607e+01 1.364996007166286e+03 1.079235026197451e+01 -1.372788357428260e+03 4.101766134249774e+03 -5.326751422722556e+03 1.227985288472795e+03 2.489640930275345e+01 -6.849145216416218e+01 4.659504286140874e+01 5.755608031045995e+01 1.794315159782294e+03 -1.848871240092761e+03 8.108731581631364e+02 -1.556894802253152e+02 -6.521836779378060e+02 -2.532614677280108e+03 2.615348805202839e+03 -7.973412792271790e+01 -6.565927394991304e+02 -1.172057196291820e+04 1.238016470241732e+04 6.600167308512027e+00 -3.305967476509977e+01 2.945950745658048e+01 -2.493377147206588e+04 -2.487729775783835e+04 4.981406922990421e+04 -2.826641262130834e+04 3.220324056332079e+04 -3.933827942012436e+03 4.221188569185477e+03 1.933252745503835e+03 -6.151441314689319e+03 -5.029698238603305e+01 2.502414900503904e+00 5.079456748552910e+01 -2.622684814770764e+00 1.756682128570538e+01 -1.194413647093461e+01 -2.429880408260215e+01 2.805598222798287e+01 -7.571781453953084e-01 -1.578911398075725e+02 8.431554114962628e+01 7.657559865793874e+01 -3.470662913885481e+04 -2.032285766898327e+03 3.674191490575315e+04 -2.683463271305300e+02 1.481535059533780e+02 1.231928211771374e+02 1.088250442743258e+03 -2.122022799326318e+03 1.036772356583075e+03 -1.250098894804323e+02 -1.944609943514223e+02 3.224708838318402e+02 -5.396712917980039e+00 3.100894015437370e+01 -2.261222723640094e+01 8.021695906936657e+01 -1.020517583015681e+02 2.483479923220144e+01 -1.896655732830986e+02 -3.058706222333644e+02 4.985361955164700e+02 -3.035131354893674e+02 -1.321349901733484e+02 4.386481256627084e+02 -1.655554807103472e+02 3.505091406722931e+02 -1.819536599619386e+02 1.321072253706079e+02 -4.960890887836796e+02 3.669818634130788e+02 -5.243677022128177e+02 1.427135699121352e+02 3.846541323006896e+02 -6.999662083741860e+02 5.478582424223866e+02 1.551079659517999e+02 -7.396488939024857e+02 1.473292745986762e+02 5.953196193038091e+02 -1.093613519727369e+02 8.740362603013638e+01 2.495772594258598e+01 -1.231845602056492e+02 3.009438467520015e+02 -1.747592865463594e+02 3.711061993522817e+02 3.136399645757699e+02 -6.817461639280375e+02 -1.791000859702035e+01 -1.782568244249705e+01 3.873569103951012e+01 -1.156426207170443e+01 3.571650317369495e+01 -2.115224110198324e+01 -2.064910757457255e+01 2.884799760086027e+01 -5.198890026287701e+00 1.583821645026910e+01 -1.271146509184473e+01 -1.267513584170999e-01 2.516255790082505e+01 1.076851340602296e+01 -3.293107130684803e+01 -6.491044051478821e+01 1.187386108677600e+02 -5.082817035295743e+01 
</DataArray>
<DataArray type="Float64" Name="U235_conc" format="ascii">
1.006547752091593e+00 9.090876894029932e-01 9.036801326143008e-01 7.635966938456785e-01 7.556749253157996e-01 6.194775056206805e-01 6.105415542674216e-01 4.809397999764453e-01 1.121930811257760e-01 1.591644297451728e-01 1.593818365383327e-01 2.240539316385729e-01 2.250734128796965e-01 3.210041218361760e-01 3.251892183939933e-01 4.772542353305043e-01 4.652890723445141e-01 3.002822299372192e-01 2.971206646402682e-01 2.095349208622810e-01 2.083686331960028e-01 1.485576680993301e-01 1.482982032359498e-01 1.048523998769820e-01 -8.941947046802045e-03 -2.714976243881900e-02 3.609170948562103e-02 -2.067557737448709e-02 1.852019332658913e-01 -9.611539019947754e-02 3.770478766987254e-04 1.781218714280943e-04 -5.551697481268196e-04 4.901446464387964e-01 9.958341091912281e-01 8.926475561241795e-01 -2.620047524811764e-04 1.990730642770110e-03 -5.225236830490938e-04 3.389059586283687e-02 -3.303261970629531e-02 1.849081225059414e-02 -2.771461645037326e-03 1.868784153903655e-03 2.487951835353095e-03 9.885827892112806e-01 1.501545954010631e-01 9.769079434021247e-01 -5.131271521753673e-03 -8.510853683026910e-03 1.441386730571156e-02 9.443838348107736e-01 1.336611380937890e-01 1.346187159776140e-01 9.671092846721366e-01 9.539118943303683e-01 6.703177569515330e-02 7.845894873301423e-02 -1.323188405860040e-02 -1.889055039084759e-02 8.388894297669394e-01 1.869729388006910e-01 2.065565732055904e-01 4.673769833956584e-01 8.797596058933838e-01 1.857262931792006e-01 3.869384917811306e-01 -1.333616239578407e-01 2.254905199717883e-01 -7.434269835252374e-04 2.535335351464403e-04 4.898934483787976e-04 9.264330465135500e-01 -6.580018717591296e-02 1.744842120960754e-01 -1.285508398912857e-02 2.216506117543023e-02 -1.964592747251167e-03 9.679141025659503e-01 9.697934360482052e-01 1.930718025826112e-01 -3.447657854382134e-02 1.336638918046608e-02 2.557472086583832e-02 3.785178627270522e-03 -1.993406109356705e-03 -1.661549754570795e-04 1.943786775830894e-02 -2.358024328658355e-02 7.658336008258791e-03 9.947962657547159e-02 1.025132237126009e-01 -4.875310385438891e-02 3.106354279199344e-02 2.249063446821015e-01 -9.200168323102291e-02 4.212539497356571e-01 -1.226697459199230e-01 -1.541339132764756e-01 9.216234820750908e-01 2.532357045552315e-01 6.929740021813019e-02 4.690796278867150e-03 1.031981964422654e-02 -3.108573977776278e-03 -3.078784730246995e-03 9.334208423604856e-03 8.517160785161937e-03 4.958197783184327e-01 5.513876028688717e-01 -1.575833688264716e-01 -7.122263119747861e-04 -4.653231311353719e-02 4.724453942551200e-02 5.759519594038580e-01 -3.258434180123330e-02 5.436623053749360e-01 5.168930957448099e-01 -3.515373283333706e-02 -1.267731755855014e-01 1.753697175048171e-02 -8.308043475893853e-03 -3.178221379171704e-03 1.887465312744776e-03 2.101193145158848e-02 -1.932971778180106e-04 -1.694393578236753e-02 -8.847421184418057e-04 1.712197994752546e-01 -2.114191273464379e-03 6.754477403422068e-03 -1.115049633110173e-03 2.067467486736610e-01 -1.011851990650335e-01 1.490105332025594e-01 1.757341698371955e-01 2.990126983795982e-02 -6.892269883924045e-02 4.586958444989747e-04 -7.043991474698451e-03 1.063516988487613e-02 -7.595483479540832e-03 1.522855852456846e-02 -7.633075045027637e-03 8.750733727404590e-02 -1.075032293169920e-01 1.889517931840241e-01 2.226765971014561e-04 -5.679409007710795e-04 3.452643036696232e-04 2.920853301836404e-02 8.398422039892228e-03 -1.095294591279121e-02 1.769208486845693e-01 2.463754201065325e-01 9.438631327015601e-01 3.231305578266105e-03 1.102340572532636e-01 -2.645074088377692e-02 1.371311711705076e-01 -9.575275806516896e-02 2.229353819482506e-01 -2.843216157660162e-03 9.869363523368932e-03 -3.845439428238936e-03 1.365488506822546e-01 4.247161241575990e-02 2.957737965009662e-01 9.701377456992059e-01 3.469337001844603e-01 1.298891517320913e-01 9.794584077172890e-01 1.462182560545174e-01 9.774837821895098e-01 9.703010136163952e-01 9.748403335523877e-01 1.659257526752695e-01 1.073182484063303e-02 2.849454819432152e-03 -2.764404696368969e-03 -1.023724962081918e-02 -1.935091058023554e-03 1.217234067884273e-02 9.386588795757251e-01 1.438406393726904e-01 2.252360743905729e-01 9.937190218212795e-01 3.806198850909568e-01 9.937190218213070e-01 -5.507654891657986e-02 8.847310554805482e-03 1.855919912448844e-01 9.751784125556757e-01 1.845352222266771e-01 9.768016817555919e-01 1.571053189932828e-01 -6.097192624741367e-02 4.662438638742680e-02 4.039104917391246e-04 -7.469850432557710e-04 1.070898696958754e-03 -1.075476927881785e-01 1.990529228945460e-01 1.059104710141167e-01 9.789606229361336e-01 9.793608887074333e-01 2.019912857608979e-01 5.698426439911864e-05 2.554985185799773e-03 -1.601742512685351e-03 4.778044472675091e-03 -1.173565440648964e-02 7.111968562893513e-03 -1.417345987717644e-04 4.501624385175747e-03 -4.350097317697971e-03 1.456842784643211e-01 -6.643253876865898e-02 1.464827483085286e-01 2.434558556924560e-01 2.816469114369976e-01 9.675287395015387e-01 9.879301848087715e-01 9.891194290786752e-01 2.941051495411013e-01 9.470202995959454e-01 1.895622865813599e-01 2.080349503906821e-01 6.153143383985343e-03 1.643321200513922e-01 -3.305252951825294e-02 -8.038781668443440e-02 9.293066552295606e-01 2.035160603722038e-01 -1.293095149813219e-03 -6.700164662297270e-04 1.963111616042946e-03 -2.470889659616559e-03 3.395561915170438e-03 2.373702200069526e-03 9.736229968557464e-01 2.230645827124446e-01 9.715370653216601e-01 9.270397472711016e-03 -3.531724124366252e-03 -5.703776552981083e-03 1.517053649763167e-03 2.692126933381440e-03 -4.209180583144605e-03 5.169482440438978e-05 3.485474899333921e-03 -6.134166568341436e-04 3.662668767934854e-02 -3.796547277140919e-02 1.428496726581161e-03 5.329903740703870e-04 -4.079205113868063e-04 1.182715450430161e-03 -2.255186238145126e-03 7.034798336987862e-03 -4.746509481375092e-03 4.718347305806100e-03 -1.223350543734963e-04 -4.093498283719459e-03 1.308064049351804e-01 -2.982493241607335e-03 4.748971041413973e-02 2.214483520855239e-01 -7.442596560732992e-02 2.096055100040531e-01 -3.286530590852250e-05 -2.276216426909224e-04 4.149595518748105e-04 9.930874156380367e-01 9.918106936063318e-01 3.464809068370707e-01 9.455014642204455e-01 1.603910904283531e-01 2.562040057898206e-01 1.854452462723971e-01 -2.685234407826150e-03 -3.930228286424823e-02 2.304164587411394e-04 -2.132388946256942e-04 1.106383699429305e-03 -5.172200218504689e-06 -2.423043880184025e-05 3.913375376208427e-05 1.027639451279469e-04 3.313799832097413e-05 -1.359019434489210e-04 6.731981114801095e-04 -2.620566693959353e-04 -1.079710583923130e-04 9.788816798150234e-01 2.686089778229071e-01 3.240523194063937e-01 7.171998764637597e-04 1.744930237153371e-03 -3.578618615506640e-04 1.572343403292811e-01 4.390104267323863e-01 1.716177251859154e-01 1.044856048875030e-01 -6.633973179164999e-03 -4.384427180322337e-02 6.778531278534573e-02 -1.667684724604099e-02 -1.034976643039929e-02 8.028839103807037e-02 1.033060132055629e-01 -2.700153081214924e-02 2.258996520813679e-01 2.083473276007895e-01 -5.501074193192776e-02 1.959963229612570e-01 2.120620244165985e-01 -4.940257914473339e-02 1.192946720152953e-02 -2.551086332063834e-02 1.358139611910881e-02 1.193757849074646e-01 1.546103292046123e-01 -6.183521436315503e-02 1.650524735192012e-01 1.278116238149190e-01 -6.526663662475603e-02 1.589874660994238e-01 -3.324899802130847e-02 -6.577086766282637e-02 1.686831651851775e-01 -6.790407648026722e-02 -3.684864354388705e-02 1.129959890596924e-01 8.816220785094016e-02 -2.612705210751633e-02 9.756353878422293e-02 -4.247072908532585e-02 -1.171716366364768e-02 1.507838756723203e-01 1.612790281850908e-01 -2.791722401309297e-03 2.982651233345260e-03 5.188908628944555e-03 -5.744601328165237e-03 2.663876651035243e-03 -5.456552991692779e-03 5.347830737051672e-03 -1.447559577233641e-02 -1.563330898087983e-02 7.463251732196081e-02 -5.289246984983602e-03 -3.071789083464391e-03 8.361036068448000e-03 -6.379904756406767e-03 7.459615419741153e-03 -1.079710663334382e-03 4.083155319354435e-03 -6.854249329558815e-04 2.793720915094511e-03 
</DataArray>
</PointData>
</Piece>
</UnstructuredGrid>
</VTKFile>
