<?xml version="1.0"?>
<VTKFile type="UnstructuredGrid" version="0.1" byte_order="LittleEndian">
<UnstructuredGrid>
<Piece NumberOfPoints="192" NumberOfCells="831">
<Points>
<DataArray type="Float64" NumberOfComponents="3" format="ascii">
0 0 0 1 0 0 1 1 0 0 1 0 0 1 1 1 1 1 0 0 1 1 0 1 0.5 0.5 0 0.5 0.5 1 0 0.75000000000035 0 0 0.50000000000139 0 0 0.25000000000104 0 0.1666666666663 0.1666666666663 0 0.33333333333295 0.33333333333295 0 0.33333333333351 0.66666666666649 0 0.16666666666696 0.83333333333304 0 0.2499999999994 1 0 0.49999999999902 1 0 0.74999999999934 1 0 0.83333333333333 0.83333333333333 0 0.66666666666667 0.66666666666667 0 0.66666666666649 0.33333333333351 0 0.83333333333304 0.16666666666696 0 1 0.2499999999994 0 1 0.49999999999902 0 1 0.74999999999934 0 0.75000000000035 0 0 0.50000000000139 0 0 0.25000000000104 0 0 0 0 0.2499999999994 0 0 0.49999999999902 0 0 0.74999999999934 0 0.2499999999994 1 0 0.49999999999902 1 0 0.74999999999934 1 0 1 0.2499999999994 0 1 0.49999999999902 0 1 0.74999999999934 0.1666666666663 0.1666666666663 1 0.33333333333295 0.33333333333295 1 0.33333333333351 0.66666666666649 1 0.16666666666696 0.83333333333304 1 0.2499999999994 1 1 0.49999999999902 1 1 0.74999999999934 1 1 0.83333333333333 0.83333333333333 1 0.66666666666667 0.66666666666667 1 0.66666666666649 0.33333333333351 1 0.83333333333304 0.16666666666696 1 1 0.2499999999994 1 1 0.49999999999902 1 1 0.74999999999934 1 0.75000000000035 0 1 0.50000000000139 0 1 0.25000000000104 0 1 1 1 0.75000000000035 1 1 0.50000000000139 1 1 0.25000000000104 1 0 0.2499999999994 1 0 0.49999999999902 1 0 0.74999999999934 0.5 0.5 0.75000000000035 0.5 0.5 0.50000000000139 0.5 0.5 0.25000000000104 0.23792456603906 0.23792456603906 0.21623589512422 0.23809915846579 0.23809915846579 0.78030885436185 0.36539539881858 0.36539539881858 0.37498061819009 0.36548931316798 0.36548931316798 0.62178317142263 0.20339966542638 0.20339966542638 0.4980176865105 0.10884396182859 0.10884396182859 0.67379604618987 0.10865999053634 0.10865999053634 0.32358003890491 0.38729823090226 0.38729823090226 0.83031828162078 0.3872403566558 0.3872403566558 0.16804493435552 0.10271935629101 0.10271935629101 0.84084897149237 0.10255012773572 0.10255012773572 0.15752595895643 0.76370001550789 0.76370001550789 0.78090500390473 0.76212214047387 0.76212214047387 0.21640934493569 0.63495714520124 0.63495714520124 0.37486974005184 0.63536592005684 0.63536592005684 0.6220284160231 0.79764988417625 0.79764988417625 0.49837667038153 0.89286373508046 0.89286373508046 0.67436711499741 0.89144265588074 0.89144265588074 0.32369826736856 0.61336343900263 0.61336343900263 0.83053011252177 0.61279343585432 0.61279343585432 0.16804137332388 0.89857418396824 0.89857418396824 0.84127978906473 0.89738981250264 0.89738981250264 0.15757904599312 0.23827018944351 0.76172981055649 0.78092914500385 0.23798279855998 0.76201720144002 0.2169258959641 0.36549772605469 0.63450227394531 0.37566982409401 0.36564264183904 0.63435735816096 0.62243729070881 0.20341647194676 0.79658352805324 0.49847303913584 0.10896138185789 0.89103861814211 0.67418089138094 0.1086345562064 0.8913654437936 0.32340865540741 0.38732624225218 0.61267375774782 0.83056170616046 0.38727290778028 0.61272709221972 0.16836854090733 0.10280437791309 0.89719562208691 0.84109597802522 0.10256069448051 0.89743930551949 0.15763363503735 0.76338457934477 0.23661542065523 0.78148541510052 0.76211884291949 0.23788115708051 0.21713862509306 0.63474999969368 0.36525000030632 0.37565745001215 0.63533322152118 0.36466677847882 0.62249674172472 0.79766523969419 0.20233476030581 0.49872448633775 0.89272021147877 0.10727978852123 0.67465465296581 0.89152867244134 0.10847132755866 0.32376120628549 0.61325145573027 0.38674854426973 0.83079170425075 0.61275410136221 0.38724589863779 0.16841109203953 0.89845435988502 0.10154564011498 0.84148761182407 0.89746861396994 0.10253138603006 0.15776582603139 0.65001764254431 0.14889171802079 1 0.35000014158885 0.14897870694128 1 0.50001765326647 0.24420594492696 1 0.85102841476477 0.34998856881547 1 0.85102841476486 0.65001143118391 1 0.7558049186214 0.49999999999977 1 0.35000014158823 0.85102129305845 1 0.65001764254365 0.85110828197928 1 0.50001765326601 0.75579405507294 1 0.14897870694128 0.35000014158793 1 0.14889171802079 0.65001764254352 1 0.24420594492696 0.50001765326581 1 0.35000014158823 0.85102129305845 0 0.65001764254365 0.85110828197928 0 0.50001765326601 0.75579405507294 0 0.85110828197919 0.34998235745572 0 0.85102129305855 0.64999985841115 0 0.75579405507295 0.49998234673353 0 0.64999985841179 0.14897870694153 0 0.34998235745635 0.14889171802055 0 0.49998234673398 0.24420594492696 0 0.14897158523521 0.65001143118456 0 0.14897158523497 0.34998856881609 0 0.2441950813785 0.50000000000024 0 0 0.3772016377408 0.25422043336465 0 0.64044260653082 0.78407336831 0 0.80841431232238 0.37668003423759 0 0.17737014741041 0.61806541423309 0 0.80898333075508 0.62378103647949 0 0.57002080228126 0.50079356368796 0 0.17666956530621 0.38358055030847 0 0.37745512367145 0.74715748040512 0 0.64023291728098 0.21674478019269 0 0.16117713264798 0.17753274418984 0 0.16146439440569 0.82321574961646 0 0.83953249349004 0.83149908132337 0 0.83929629714088 0.16872566977276 0 0.33654450991797 0.50094318661668 0.78381282184236 1 0.35987697672064 0.25398525822382 1 0.6228071697695 0.61792477745885 1 0.82270364010549 0.37652591690526 1 0.19136730166948 0.623543423946 1 0.19151735821514 0.50039223208633 1 0.43029591542337 0.7469556759256 1 0.62269704040862 0.38344191275693 1 0.82336638415966 0.21658312281562 1 0.35976298313785 0.83138943924633 1 0.16065813203699 0.82314332955953 1 0.83858313406278 0.17745435208647 1 0.83882527467102 0.16866537567002 1 0.16063942062063 0.50068181507899 1 0.66359033869676 1 0.78318885594811 0.35978448765189 1 0.2533979371711 0.62345234192186 1 0.61740755712671 0.82298532424219 1 0.37591984162428 0.19197574342534 1 0.62295698392899 0.1914905052208 1 0.49944386791236 0.43075788345212 1 0.74634955193602 0.62314316593536 1 0.38282210475364 0.82357229199563 1 0.21612565810798 0.36013001802218 1 0.83110220152788 0.16060723673534 1 0.82290708505928 0.83874492571988 1 0.17716561498069 0.83902327502406 1 0.16843002204873 0.16085917832833 1 0.49992876349559 0.66404295826886 0.38570987433656 0 0.77625993462382 0.37729325866038 0 0.19117845012664 0.80229546752587 0 0.64814808338598 0.61783302218606 0 0.19221860141617 0.48977135788174 0 0.38770592272319 0.23008567404401 0 0.38606276816303 0.6416017313181 0 0.80990711163271 0.75919531052343 0 0.39275792399891 0.19284887478014 0 0.63442158489674 0.37508549455736 0 0.55718040386561 0.17168462543556 0 0.16615070464674 0.83852711103617 0 0.84132281668631 0.82555554985836 0 0.16742271163934 0.16570822795972 0 0.83218992830322 0.57571778088746 0 0.59576627750375 0.50871872901917 0.17081874608994 0.50338131189346 0.50871872901917 0.84128123521805 0.50338131189346 
</DataArray>
</Points>
<Cells>
<DataArray type="UInt32" Name="connectivity" format="ascii">
9 62 62 63 63 64 64 8 66 68 69 66 69 70 65 69 67 31 69 71 31 70 69 67 69 68 65 71 69 62 63 68 39 40 66 13 65 14 63 64 67 30 31 71 9 62 72 8 73 64 63 67 68 9 72 40 8 14 73 13 75 65 31 32 70 6 74 32 62 68 72 65 75 71 0 30 75 6 39 74 39 66 74 66 72 68 0 75 13 40 72 66 14 65 73 66 70 74 65 67 73 64 73 67 30 71 75 32 74 70 46 76 85 76 81 85 76 79 80 76 80 81 78 77 80 57 80 82 57 81 80 78 80 79 77 82 80 62 63 79 46 47 76 20 77 21 63 64 78 57 82 58 9 62 83 8 84 64 63 78 79 9 83 47 8 21 84 56 81 57 62 79 83 20 86 77 2 58 86 5 46 85 76 83 79 77 86 82 2 86 20 47 83 76 21 77 84 78 84 77 64 84 78 56 85 81 58 82 86 5 85 56 87 91 90 91 87 92 88 89 91 37 93 91 37 91 92 89 90 91 91 93 88 62 90 63 41 42 87 15 88 16 63 89 64 36 93 37 9 94 62 8 64 95 63 90 89 9 41 94 8 95 15 16 88 97 37 92 38 4 38 96 62 94 90 93 97 88 3 97 36 4 96 42 42 96 87 87 90 94 3 16 97 41 87 94 15 95 88 92 87 96 88 95 89 64 89 95 36 97 93 38 92 96 49 98 107 98 103 107 101 102 98 102 103 98 100 99 102 60 102 104 60 103 102 101 100 102 102 99 104 62 63 101 48 98 49 22 23 99 63 64 100 59 60 104 9 62 105 8 106 64 63 100 101 9 105 48 8 22 106 23 108 99 60 61 103 62 101 105 104 99 108 1 59 108 7 49 107 101 98 105 1 108 23 48 105 98 22 99 106 100 106 99 64 106 100 61 107 103 59 104 108 7 107 61 100 179 190 67 65 179 176 67 74 55 39 6 177 98 102 189 175 68 190 66 128 73 129 14 32 70 183 31 22 23 99 127 65 128 13 14 73 179 106 67 32 74 188 70 74 188 70 66 69 66 70 183 30 71 31 180 184 175 190 66 181 175 190 189 105 175 190 181 101 105 190 181 178 28 129 127 105 175 72 190 101 105 72 190 189 177 182 102 179 65 190 67 101 68 63 190 69 65 67 180 65 128 129 176 178 106 127 129 49 107 186 98 28 178 27 127 74 55 6 188 185 75 65 13 67 65 190 180 73 65 176 67 28 178 129 176 73 179 176 178 98 49 48 109 185 71 65 75 178 73 129 176 110 39 40 66 73 178 129 106 68 101 72 190 64 73 106 67 99 104 102 182 69 184 66 183 101 62 72 105 175 105 111 181 101 62 63 68 181 98 111 109 54 181 111 109 98 177 181 189 99 178 187 182 110 72 111 66 68 175 72 66 59 104 187 182 98 105 181 111 175 110 111 66 105 72 111 9 175 188 66 183 183 69 180 31 184 175 66 183 72 175 111 66 69 71 180 31 63 68 67 190 179 189 182 190 128 28 129 176 182 99 190 102 179 99 190 182 175 110 54 111 107 49 186 7 105 62 72 9 100 101 63 190 99 100 190 102 69 67 190 180 98 101 102 189 189 182 190 102 55 74 39 188 74 188 66 39 179 184 190 180 49 98 186 109 65 71 180 69 62 101 72 68 59 104 182 60 39 188 66 110 184 68 69 66 60 104 182 102 98 177 186 181 98 181 186 109 73 8 129 14 185 65 180 176 101 98 181 189 104 99 187 182 105 101 98 181 72 110 111 40 9 72 111 40 128 65 73 14 185 29 128 176 100 63 67 190 66 188 70 183 32 188 183 70 107 186 103 61 100 64 106 67 185 65 128 13 179 73 106 178 175 184 190 189 175 68 72 190 108 104 99 187 100 179 106 178 179 178 99 182 100 101 190 102 9 105 48 111 178 99 127 106 101 189 190 102 128 65 129 73 185 71 180 65 177 98 186 103 49 53 186 7 65 179 190 180 98 105 111 109 29 75 13 0 8 22 106 129 100 178 99 190 185 29 0 75 185 75 0 30 185 71 75 30 27 23 127 187 181 53 186 109 53 181 54 109 53 49 186 109 111 105 48 109 181 175 54 111 72 110 40 66 175 55 54 110 23 108 99 187 105 98 48 109 32 74 6 188 23 99 127 187 184 69 190 180 179 100 106 67 70 69 183 31 98 177 102 103 55 188 39 110 55 175 188 110 175 105 72 111 100 63 64 67 107 186 61 7 178 27 127 187 100 179 178 190 29 185 128 13 69 68 190 67 99 178 127 187 106 22 127 129 73 65 129 176 177 60 182 102 179 73 176 67 99 22 127 106 189 184 190 179 65 179 180 176 185 65 176 128 185 71 30 180 1 59 108 187 73 8 106 129 1 108 23 27 104 59 187 108 69 184 183 180 98 107 186 103 186 177 103 61 177 60 103 61 60 177 103 102 8 73 106 64 108 23 27 187 184 68 190 69 185 29 75 13 68 184 190 66 101 181 190 189 100 178 106 99 29 28 128 176 188 175 66 110 178 179 99 190 1 108 27 187 114 105 112 48 171 76 163 113 108 59 1 173 99 124 106 126 59 104 60 169 76 46 47 113 165 78 84 106 79 101 174 83 126 165 84 106 104 60 169 102 170 125 20 26 79 80 167 174 108 104 173 99 126 21 8 84 170 125 165 77 22 124 99 23 76 79 167 174 20 170 86 77 78 64 100 63 107 50 7 172 103 172 61 162 164 124 24 173 101 79 100 63 170 58 82 161 99 104 173 169 81 171 76 167 2 170 86 26 103 107 61 172 60 103 61 162 165 77 84 78 170 165 161 77 20 2 86 26 80 161 57 167 51 113 163 114 80 82 57 161 104 59 173 169 172 50 168 112 104 99 102 169 170 20 86 26 77 80 78 161 163 51 114 168 76 171 163 167 50 51 168 112 81 171 167 56 99 164 106 100 99 166 164 100 113 76 163 83 46 171 52 113 98 172 168 112 126 22 106 8 51 114 168 112 76 113 47 83 113 114 47 83 101 162 98 102 107 50 172 49 105 114 112 168 170 58 2 86 166 77 78 161 162 172 168 98 79 76 167 80 170 125 26 165 80 166 78 161 107 172 98 49 105 101 62 83 125 25 26 165 101 79 62 83 105 114 9 48 166 165 77 161 98 172 112 49 163 114 174 168 20 125 77 21 124 99 173 164 166 79 80 78 60 103 162 102 102 99 100 169 78 165 100 106 107 50 49 7 172 50 112 49 166 165 100 78 166 79 101 174 79 101 62 63 99 164 126 106 125 165 77 126 77 125 126 84 166 99 164 169 166 162 102 169 79 78 100 63 99 166 100 169 166 79 78 100 113 51 163 52 82 80 77 161 104 59 108 173 21 125 77 84 101 162 174 98 99 124 173 23 162 166 102 174 64 78 106 84 85 171 46 76 108 99 173 23 101 162 102 174 81 85 76 171 60 162 169 102 81 85 171 56 107 172 7 61 164 99 173 169 166 101 102 174 114 105 174 168 98 105 112 168 171 85 46 52 48 105 112 98 107 103 98 172 124 173 23 24 105 114 174 83 125 170 20 77 82 58 57 161 173 108 23 24 58 170 82 86 171 85 5 56 86 170 82 77 81 80 57 167 82 170 161 77 105 98 174 168 85 5 46 52 76 163 174 167 105 101 174 98 124 22 106 126 85 171 5 52 165 166 100 164 8 64 106 84 165 164 100 106 166 102 100 169 76 171 46 113 124 99 164 126 125 25 165 126 105 62 9 83 165 25 164 126 25 124 164 126 162 103 98 102 103 172 162 98 81 76 80 167 164 165 126 106 166 165 78 77 125 21 126 84 22 124 106 99 23 108 1 24 79 166 80 174 76 163 83 174 80 166 161 167 105 114 83 9 108 173 1 24 98 162 174 168 25 124 24 164 114 163 174 83 105 101 83 174 79 76 83 174 77 165 84 126 114 47 83 9 166 80 174 167 64 78 100 106 79 166 101 100 166 101 100 102 171 113 163 52 126 8 106 84 113 163 114 83 48 98 112 49 81 56 167 57 83 94 117 160 93 155 91 88 9 94 83 62 159 16 121 88 89 78 63 64 63 62 79 90 122 156 151 77 45 46 85 5 152 191 155 88 84 78 95 64 80 191 79 153 115 87 42 158 149 45 44 116 87 148 92 158 88 16 121 15 87 94 90 160 154 44 43 115 81 76 85 157 21 122 77 20 96 87 92 158 87 94 160 154 191 152 155 91 93 155 88 159 148 38 92 158 95 88 121 15 149 160 153 76 87 191 148 160 76 81 153 157 89 63 191 90 156 58 147 82 5 56 85 157 79 191 76 153 58 156 86 82 78 63 79 191 160 191 76 79 56 81 157 153 95 8 15 123 160 83 76 149 151 95 150 123 152 191 88 150 78 89 63 191 84 78 191 95 84 8 64 95 84 8 95 123 122 151 18 123 159 17 121 16 154 149 44 117 9 47 83 117 78 89 191 95 159 88 121 150 57 81 56 153 155 152 88 150 94 9 83 117 122 21 84 123 151 84 95 123 123 95 150 88 123 88 150 121 156 77 86 82 149 76 153 157 156 20 86 77 97 93 88 159 97 159 88 16 154 44 115 117 41 9 94 117 155 93 36 159 93 155 36 37 93 97 36 159 149 44 117 116 83 149 117 116 160 94 117 154 191 78 80 79 149 76 157 116 154 160 149 117 191 152 151 150 154 94 117 115 94 87 115 154 122 156 77 20 160 191 79 90 46 47 116 76 38 96 92 158 94 41 115 87 96 38 4 158 4 96 43 42 18 151 150 123 158 115 43 42 154 115 43 158 18 17 121 150 95 123 15 121 94 41 117 115 96 158 43 42 37 155 148 91 37 91 148 92 191 155 88 91 80 57 153 81 76 46 157 116 86 156 2 19 154 87 115 158 83 94 160 90 80 82 147 57 123 18 121 150 89 95 88 150 191 87 90 160 83 62 90 79 94 62 90 83 93 155 37 91 191 151 95 150 155 152 148 91 83 160 79 90 160 87 154 148 160 83 149 117 156 77 82 147 89 191 95 150 191 152 148 160 149 83 76 116 122 21 77 84 47 83 117 116 91 191 148 90 87 91 148 90 191 87 148 90 83 47 76 116 58 156 2 86 122 156 19 151 87 96 42 158 87 41 115 42 159 97 3 17 191 78 77 80 191 78 151 77 78 84 151 77 84 78 151 191 89 191 91 90 45 149 157 116 191 63 79 90 159 97 17 16 97 17 16 3 97 159 3 36 80 79 76 153 156 122 19 20 191 152 147 151 20 86 2 19 77 122 123 151 84 77 123 151 84 122 123 77 191 160 76 153 84 21 8 123 191 80 147 153 56 81 85 157 95 123 121 88 91 87 148 92 152 191 148 91 152 191 147 153 77 156 151 147 57 80 153 147 122 151 19 18 20 156 86 19 77 80 82 147 83 160 76 79 191 152 160 153 191 77 147 80 191 84 95 151 159 155 88 150 77 191 147 151 191 89 88 150 89 191 88 91 46 45 85 157 76 46 85 157 80 81 153 76 45 5 85 157 96 4 43 158 78 89 95 64 46 45 157 116 82 58 147 57 87 154 148 158 38 37 148 92 17 159 121 150 131 13 14 65 144 137 92 134 130 88 145 141 67 64 73 95 143 39 33 74 64 89 95 67 88 15 130 16 70 143 74 66 131 142 75 65 36 37 135 93 36 145 97 93 90 89 63 68 138 90 140 68 144 4 96 38 90 68 62 72 95 132 8 73 9 94 72 120 64 95 8 73 94 90 62 72 120 34 134 140 131 132 133 65 133 139 69 146 40 9 72 120 118 120 66 140 90 138 140 134 3 36 145 97 88 91 93 135 67 89 95 133 142 30 71 139 131 75 13 65 143 118 74 66 132 15 130 95 88 132 130 95 71 30 31 139 11 132 141 133 15 88 130 95 143 39 74 118 13 75 12 0 39 40 66 118 144 35 42 96 68 67 69 146 91 138 87 134 120 40 118 72 138 90 87 134 75 142 12 0 90 138 87 91 67 133 73 65 137 138 91 134 143 118 66 140 71 139 31 69 16 10 130 145 119 35 42 144 143 70 74 32 119 41 87 42 94 41 87 119 9 94 62 72 133 67 73 95 91 88 141 135 143 118 140 33 88 132 141 130 135 145 93 141 131 14 73 65 132 131 73 65 131 132 73 14 120 119 87 134 133 132 73 65 69 70 66 136 39 6 33 74 132 133 73 95 89 88 95 141 142 71 133 139 70 143 66 140 10 16 3 97 91 137 92 37 88 89 91 138 35 144 4 96 67 89 133 138 37 137 92 38 89 90 91 138 70 143 136 32 72 68 66 140 39 143 33 118 132 11 141 130 10 11 130 141 138 91 141 135 120 72 66 140 94 120 87 134 70 31 136 69 68 69 66 140 10 130 145 141 75 142 30 71 118 40 66 72 88 16 130 145 120 118 66 72 89 67 63 68 90 94 140 72 132 133 95 141 133 89 95 141 138 89 133 141 118 34 140 33 90 89 68 138 88 132 95 141 91 137 87 92 137 91 135 37 89 64 63 67 67 133 69 146 120 34 119 134 88 89 138 141 145 88 97 93 16 88 97 145 139 69 146 136 16 10 145 97 120 94 87 119 89 67 68 138 35 4 42 96 118 39 74 66 70 140 66 136 90 68 63 62 69 68 146 140 144 96 92 38 138 137 91 135 37 91 135 93 31 139 136 69 94 90 140 134 68 90 140 72 6 143 74 32 15 132 8 95 71 142 133 65 36 145 93 135 9 94 120 41 68 138 146 140 75 142 71 65 142 131 133 65 132 14 8 73 131 142 12 13 133 71 65 139 94 90 134 87 120 94 119 41 138 88 141 91 94 120 140 72 69 140 146 136 133 139 65 69 10 3 145 97 119 35 144 134 67 133 65 69 34 120 118 140 96 144 92 87 134 137 92 87 137 144 92 38 144 119 87 96 132 131 133 11 119 144 87 134 119 144 42 96 139 71 65 69 142 75 12 13 120 94 140 134 67 138 133 146 70 143 140 136 31 70 136 32 119 42 87 96 137 91 87 134 138 67 68 146 34 35 119 134 142 75 30 0 131 11 12 133 142 131 75 13 142 131 12 133 88 135 93 141 6 143 33 74 145 88 93 141 144 134 92 87 140 69 66 136 
</DataArray>
<DataArray type="UInt32" Name="offsets" format="ascii">
2 4 6 8 11 14 17 20 23 26 29 32 35 38 41 44 47 50 53 56 59 62 65 68 71 74 77 80 83 86 89 92 95 98 101 104 107 110 113 116 119 122 125 128 131 134 137 140 143 146 149 152 155 158 161 164 167 170 173 176 179 182 185 188 191 194 197 200 203 206 209 212 215 218 221 224 227 230 233 236 239 242 245 248 251 254 257 260 263 266 269 272 275 278 281 284 287 290 293 296 299 302 305 308 311 314 317 320 323 326 329 332 335 338 341 344 347 350 353 356 359 362 365 368 371 374 377 380 383 386 389 392 395 398 401 404 407 410 413 416 420 424 428 432 436 440 444 448 452 456 460 464 468 472 476 480 484 488 492 496 500 504 508 512 516 520 524 528 532 536 540 544 548 552 556 560 564 568 572 576 580 584 588 592 596 600 604 608 612 616 620 624 628 632 636 640 644 648 652 656 660 664 668 672 676 680 684 688 692 696 700 704 708 712 716 720 724 728 732 736 740 744 748 752 756 760 764 768 772 776 780 784 788 792 796 800 804 808 812 816 820 824 828 832 836 840 844 848 852 856 860 864 868 872 876 880 884 888 892 896 900 904 908 912 916 920 924 928 932 936 940 944 948 952 956 960 964 968 972 976 980 984 988 992 996 1000 1004 1008 1012 1016 1020 1024 1028 1032 1036 1040 1044 1048 1052 1056 1060 1064 1068 1072 1076 1080 1084 1088 1092 1096 1100 1104 1108 1112 1116 1120 1124 1128 1132 1136 1140 1144 1148 1152 1156 1160 1164 1168 1172 1176 1180 1184 1188 1192 1196 1200 1204 1208 1212 1216 1220 1224 1228 1232 1236 1240 1244 1248 1252 1256 1260 1264 1268 1272 1276 1280 1284 1288 1292 1296 1300 1304 1308 1312 1316 1320 1324 1328 1332 1336 1340 1344 1348 1352 1356 1360 1364 1368 1372 1376 1380 1384 1388 1392 1396 1400 1404 1408 1412 1416 1420 1424 1428 1432 1436 1440 1444 1448 1452 1456 1460 1464 1468 1472 1476 1480 1484 1488 1492 1496 1500 1504 1508 1512 1516 1520 1524 1528 1532 1536 1540 1544 1548 1552 1556 1560 1564 1568 1572 1576 1580 1584 1588 1592 1596 1600 1604 1608 1612 1616 1620 1624 1628 1632 1636 1640 1644 1648 1652 1656 1660 1664 1668 1672 1676 1680 1684 1688 1692 1696 1700 1704 1708 1712 1716 1720 1724 1728 1732 1736 1740 1744 1748 1752 1756 1760 1764 1768 1772 1776 1780 1784 1788 1792 1796 1800 1804 1808 1812 1816 1820 1824 1828 1832 1836 1840 1844 1848 1852 1856 1860 1864 1868 1872 1876 1880 1884 1888 1892 1896 1900 1904 1908 1912 1916 1920 1924 1928 1932 1936 1940 1944 1948 1952 1956 1960 1964 1968 1972 1976 1980 1984 1988 1992 1996 2000 2004 2008 2012 2016 2020 2024 2028 2032 2036 2040 2044 2048 2052 2056 2060 2064 2068 2072 2076 2080 2084 2088 2092 2096 2100 2104 2108 2112 2116 2120 2124 2128 2132 2136 2140 2144 2148 2152 2156 2160 2164 2168 2172 2176 2180 2184 2188 2192 2196 2200 2204 2208 2212 2216 2220 2224 2228 2232 2236 2240 2244 2248 2252 2256 2260 2264 2268 2272 2276 2280 2284 2288 2292 2296 2300 2304 2308 2312 2316 2320 2324 2328 2332 2336 2340 2344 2348 2352 2356 2360 2364 2368 2372 2376 2380 2384 2388 2392 2396 2400 2404 2408 2412 2416 2420 2424 2428 2432 2436 2440 2444 2448 2452 2456 2460 2464 2468 2472 2476 2480 2484 2488 2492 2496 2500 2504 2508 2512 2516 2520 2524 2528 2532 2536 2540 2544 2548 2552 2556 2560 2564 2568 2572 2576 2580 2584 2588 2592 2596 2600 2604 2608 2612 2616 2620 2624 2628 2632 2636 2640 2644 2648 2652 2656 2660 2664 2668 2672 2676 2680 2684 2688 2692 2696 2700 2704 2708 2712 2716 2720 2724 2728 2732 2736 2740 2744 2748 2752 2756 2760 2764 2768 2772 2776 2780 2784 2788 2792 2796 2800 2804 2808 2812 2816 2820 2824 2828 2832 2836 2840 2844 2848 2852 2856 2860 2864 2868 2872 2876 2880 2884 2888 2892 2896 2900 2904 2908 2912 2916 2920 2924 2928 2932 2936 2940 2944 2948 2952 2956 2960 2964 2968 2972 2976 2980 2984 2988 2992 2996 3000 3004 3008 3012 3016 3020 3024 3028 3032 3036 3040 3044 3048 3052 3056 3060 3064 3068 3072 3076 3080 3084 3088 3092 3096 3100 3104 3108 3112 3116 3120 3124 3128 3132 3136 3140 3144 3148 3152 3156 3160 3164 3168 3172 3176 3180 
</DataArray>
<DataArray type="UInt32" Name="types" format="ascii">
3 3 3 3 5 5 5 5 5 5 5 5 5 5 5 5 5 5 5 5 5 5 5 5 5 5 5 5 5 5 5 5 5 5 5 5 5 5 5 5 5 5 5 5 5 5 5 5 5 5 5 5 5 5 5 5 5 5 5 5 5 5 5 5 5 5 5 5 5 5 5 5 5 5 5 5 5 5 5 5 5 5 5 5 5 5 5 5 5 5 5 5 5 5 5 5 5 5 5 5 5 5 5 5 5 5 5 5 5 5 5 5 5 5 5 5 5 5 5 5 5 5 5 5 5 5 5 5 5 5 5 5 5 5 5 5 5 5 5 5 10 10 10 10 10 10 10 10 10 10 10 10 10 10 10 10 10 10 10 10 10 10 10 10 10 10 10 10 10 10 10 10 10 10 10 10 10 10 10 10 10 10 10 10 10 10 10 10 10 10 10 10 10 10 10 10 10 10 10 10 10 10 10 10 10 10 10 10 10 10 10 10 10 10 10 10 10 10 10 10 10 10 10 10 10 10 10 10 10 10 10 10 10 10 10 10 10 10 10 10 10 10 10 10 10 10 10 10 10 10 10 10 10 10 10 10 10 10 10 10 10 10 10 10 10 10 10 10 10 10 10 10 10 10 10 10 10 10 10 10 10 10 10 10 10 10 10 10 10 10 10 10 10 10 10 10 10 10 10 10 10 10 10 10 10 10 10 10 10 10 10 10 10 10 10 10 10 10 10 10 10 10 10 10 10 10 10 10 10 10 10 10 10 10 10 10 10 10 10 10 10 10 10 10 10 10 10 10 10 10 10 10 10 10 10 10 10 10 10 10 10 10 10 10 10 10 10 10 10 10 10 10 10 10 10 10 10 10 10 10 10 10 10 10 10 10 10 10 10 10 10 10 10 10 10 10 10 10 10 10 10 10 10 10 10 10 10 10 10 10 10 10 10 10 10 10 10 10 10 10 10 10 10 10 10 10 10 10 10 10 10 10 10 10 10 10 10 10 10 10 10 10 10 10 10 10 10 10 10 10 10 10 10 10 10 10 10 10 10 10 10 10 10 10 10 10 10 10 10 10 10 10 10 10 10 10 10 10 10 10 10 10 10 10 10 10 10 10 10 10 10 10 10 10 10 10 10 10 10 10 10 10 10 10 10 10 10 10 10 10 10 10 10 10 10 10 10 10 10 10 10 10 10 10 10 10 10 10 10 10 10 10 10 10 10 10 10 10 10 10 10 10 10 10 10 10 10 10 10 10 10 10 10 10 10 10 10 10 10 10 10 10 10 10 10 10 10 10 10 10 10 10 10 10 10 10 10 10 10 10 10 10 10 10 10 10 10 10 10 10 10 10 10 10 10 10 10 10 10 10 10 10 10 10 10 10 10 10 10 10 10 10 10 10 10 10 10 10 10 10 10 10 10 10 10 10 10 10 10 10 10 10 10 10 10 10 10 10 10 10 10 10 10 10 10 10 10 10 10 10 10 10 10 10 10 10 10 10 10 10 10 10 10 10 10 10 10 10 10 10 10 10 10 10 10 10 10 10 10 10 10 10 10 10 10 10 10 10 10 10 10 10 10 10 10 10 10 10 10 10 10 10 10 10 10 10 10 10 10 10 10 10 10 10 10 10 10 10 10 10 10 10 10 10 10 10 10 10 10 10 10 10 10 10 10 10 10 10 10 10 10 10 10 10 10 10 10 10 10 10 10 10 10 10 10 10 10 10 10 10 10 10 10 10 10 10 10 10 10 10 10 10 10 10 10 10 10 10 10 10 10 10 10 10 10 10 10 10 10 10 10 10 10 10 10 10 10 10 10 10 10 10 10 10 10 10 10 10 10 10 10 10 10 10 10 10 10 10 10 10 10 10 10 10 10 10 10 10 10 10 10 
</DataArray>
</Cells>
<CellData Scalars="porosity,A_conc,B_conc," Vectors="" Tensors="">
<DataArray type="Float64" Name="porosity" format="ascii">
0 0 0 0 0 0 0 0 0 0 0 0 0 0 0 0 0 0 0 0 0 0 0 0 0 0 0 0 0 0 0 0 0 0 0 0 0 0 0 0 0 0 0 0 0 0 0 0 0 0 0 0 0 0 0 0 0 0 0 0 0 0 0 0 0 0 0 0 0 0 0 0 0 0 0 0 0 0 0 0 0 0 0 0 0 0 0 0 0 0 0 0 0 0 0 0 0 0 0 0 0 0 0 0 0 0 0 0 0 0 0 0 0 0 0 0 0 0 0 0 0 0 0 0 0 0 0 0 0 0 0 0 0 0 0 0 0 0 0 0 0 0 0 0 0 0 0 0 0 0 0 0 0 0 0 0 0 0 0 0 0 0 0 0 0 0 0 0 0 0 0 0 0 0 0 0 0 0 0 0 0 0 0 0 0 0 0 0 0 0 0 0 0 0 0 0 0 0 0 0 0 0 0 0 0 0 0 0 0 0 0 0 0 0 0 0 0 0 0 0 0 0 0 0 0 0 0 0 0 0 0 0 0 0 0 0 0 0 0 0 0 0 0 0 0 0 0 0 0 0 0 0 0 0 0 0 0 0 0 0 0 0 0 0 0 0 0 0 0 0 0 0 0 0 0 0 0 0 0 0 0 0 0 0 0 0 0 0 0 0 0 0 0 0 0 0 0 0 0 0 0 0 0 0 0 0 0 0 0 0 0 0 0 0 0 0 0 0 0 0 0 0 0 0 0 0 0 0 0 0 0 0 0 0 0 0 0 0 0 0 0 0 0 0 0 0 0 0 0 0 0 0 0 0 0 0 0 0 0 0 0 0 0 0 0 0 0 0 0 0 0 0 0 0 0 0 0 0 0 0 0 0 0 0 0 0 0 0 0 0 0 0 0 0 0 0 0 0 0 0 0 0 0 0 0 0 0 0 0 0 0 0 0 0 0 0 0 0 0 0 0 0 0 0 0 0 0 0 0 0 0 0 0 0 0 0 0 0 0 0 0 0 0 0 0 0 0 0 0 0 0 0 0 0 0 0 0 0 0 0 0 0 0 0 0 0 0 0 0 0 0 0 0 0 0 0 0 0 0 0 0 0 0 0 0 0 0 0 0 0 0 0 0 0 0 0 0 0 0 0 0 0 0 0 0 0 0 0 0 0 0 0 0 0 0 0 0 0 0 0 0 0 0 0 0 0 0 0 0 0 0 0 0 0 0 0 0 0 0 0 0 0 0 0 0 0 0 0 0 0 0 0 0 0 0 0 0 0 0 0 0 0 0 0 0 0 0 0 0 0 0 0 0 0 0 0 0 0 0 0 0 0 0 0 0 0 0 0 0 0 0 0 0 0 0 0 0 0 0 0 0 0 0 0 0 0 0 0 0 0 0 0 0 0 0 0 0 0 0 0 0 0 0 0 0 0 0 0 0 0 0 0 0 0 0 0 0 0 0 0 0 0 0 0 0 0 0 0 0 0 0 0 0 0 0 0 0 0 0 0 0 0 0 0 0 0 0 0 0 0 0 0 0 0 0 0 0 0 0 0 0 0 0 0 0 0 0 0 0 0 0 0 0 0 0 0 0 0 0 0 0 0 0 0 0 0 0 0 0 0 0 0 0 0 0 0 0 0 0 0 0 0 0 0 0 0 0 0 0 0 0 0 0 0 0 0 0 0 0 0 0 0 0 0 0 0 0 0 0 0 0 0 0 0 0 0 0 0 0 0 0 0 0 0 0 0 0 0 0 0 0 0 0 0 0 0 0 0 0 0 0 0 0 0 0 0 0 0 0 0 0 0 0 0 0 0 0 0 0 0 0 0 0 0 0 0 0 0 0 0 0 0 0 0 0 0 0 0 0 0 0 0 0 0 0 0 0 0 0 0 0 
</DataArray>
<DataArray type="Float64" Name="A_conc" format="ascii">
-nan -nan -nan -nan -nan -nan -nan -nan -nan -nan -nan -nan -nan -nan -nan -nan -nan -nan -nan -nan -nan -nan -nan -nan -nan -nan -nan -nan -nan -nan -nan -nan -nan -nan -nan -nan -nan -nan -nan -nan -nan -nan -nan -nan -nan -nan -nan -nan -nan -nan -nan -nan -nan -nan -nan -nan -nan -nan -nan -nan -nan -nan -nan -nan -nan -nan -nan -nan -nan -nan -nan -nan -nan -nan -nan -nan -nan -nan -nan -nan -nan -nan -nan -nan -nan -nan -nan -nan -nan -nan -nan -nan -nan -nan -nan -nan -nan -nan -nan -nan -nan -nan -nan -nan -nan -nan -nan -nan -nan -nan -nan -nan -nan -nan -nan -nan -nan -nan -nan -nan -nan -nan -nan -nan -nan -nan -nan -nan -nan -nan -nan -nan -nan -nan -nan -nan -nan -nan -nan -nan -nan -nan -nan -nan -nan -nan -nan -nan -nan -nan -nan -nan -nan -nan -nan -nan -nan -nan -nan -nan -nan -nan -nan -nan -nan -nan -nan -nan -nan -nan -nan -nan -nan -nan -nan -nan -nan -nan -nan -nan -nan -nan -nan -nan -nan -nan -nan -nan -nan -nan -nan -nan -nan -nan -nan -nan -nan -nan -nan -nan -nan -nan -nan -nan -nan -nan -nan -nan -nan -nan -nan -nan -nan -nan -nan -nan -nan -nan -nan -nan -nan -nan -nan -nan -nan -nan -nan -nan -nan -nan -nan -nan -nan -nan -nan -nan -nan -nan -nan -nan -nan -nan -nan -nan -nan -nan -nan -nan -nan -nan -nan -nan -nan -nan -nan -nan -nan -nan -nan -nan -nan -nan -nan -nan -nan -nan -nan -nan -nan -nan -nan -nan -nan -nan -nan -nan -nan -nan -nan -nan -nan -nan -nan -nan -nan -nan -nan -nan -nan -nan -nan -nan -nan -nan -nan -nan -nan -nan -nan -nan -nan -nan -nan -nan -nan -nan -nan -nan -nan -nan -nan -nan -nan -nan -nan -nan -nan -nan -nan -nan -nan -nan -nan -nan -nan -nan -nan -nan -nan -nan -nan -nan -nan -nan -nan -nan -nan -nan -nan -nan -nan -nan -nan -nan -nan -nan -nan -nan -nan -nan -nan -nan -nan -nan -nan -nan -nan -nan -nan -nan -nan -nan -nan -nan -nan -nan -nan -nan -nan -nan -nan -nan -nan -nan -nan -nan -nan -nan -nan -nan -nan -nan -nan -nan -nan -nan -nan -nan -nan -nan -nan -nan -nan -nan -nan -nan -nan -nan -nan -nan -nan -nan -nan -nan -nan -nan -nan -nan -nan -nan -nan -nan -nan -nan -nan -nan -nan -nan -nan -nan -nan -nan -nan -nan -nan -nan -nan -nan -nan -nan -nan -nan -nan -nan -nan -nan -nan -nan -nan -nan -nan -nan -nan -nan -nan -nan -nan -nan -nan -nan -nan -nan -nan -nan -nan -nan -nan -nan -nan -nan -nan -nan -nan -nan -nan -nan -nan -nan -nan -nan -nan -nan -nan -nan -nan -nan -nan -nan -nan -nan -nan -nan -nan -nan -nan -nan -nan -nan -nan -nan -nan -nan -nan -nan -nan -nan -nan -nan -nan -nan -nan -nan -nan -nan -nan -nan -nan -nan -nan -nan -nan -nan -nan -nan -nan -nan -nan -nan -nan -nan -nan -nan -nan -nan -nan -nan -nan -nan -nan -nan -nan -nan -nan -nan -nan -nan -nan -nan -nan -nan -nan -nan -nan -nan -nan -nan -nan -nan -nan -nan -nan -nan -nan -nan -nan -nan -nan -nan -nan -nan -nan -nan -nan -nan -nan -nan -nan -nan -nan -nan -nan -nan -nan -nan -nan -nan -nan -nan -nan -nan -nan -nan -nan -nan -nan -nan -nan -nan -nan -nan -nan -nan -nan -nan -nan -nan -nan -nan -nan -nan -nan -nan -nan -nan -nan -nan -nan -nan -nan -nan -nan -nan -nan -nan -nan -nan -nan -nan -nan -nan -nan -nan -nan -nan -nan -nan -nan -nan -nan -nan -nan -nan -nan -nan -nan -nan -nan -nan -nan -nan -nan -nan -nan -nan -nan -nan -nan -nan -nan -nan -nan -nan -nan -nan -nan -nan -nan -nan -nan -nan -nan -nan -nan -nan -nan -nan -nan -nan -nan -nan -nan -nan -nan -nan -nan -nan -nan -nan -nan -nan -nan -nan -nan -nan -nan -nan -nan -nan -nan -nan -nan -nan -nan -nan -nan -nan -nan -nan -nan -nan -nan -nan -nan -nan -nan -nan -nan -nan -nan -nan -nan -nan -nan -nan -nan -nan -nan -nan -nan -nan -nan -nan -nan -nan -nan -nan -nan -nan -nan -nan -nan -nan -nan -nan -nan -nan -nan -nan -nan -nan -nan -nan -nan -nan -nan -nan -nan -nan -nan -nan -nan -nan -nan -nan -nan -nan -nan -nan -nan -nan -nan -nan -nan -nan -nan -nan -nan -nan -nan -nan -nan -nan -nan -nan -nan -nan -nan -nan -nan -nan -nan -nan -nan -nan -nan -nan -nan -nan -nan -nan -nan -nan -nan -nan -nan -nan -nan -nan -nan -nan -nan -nan -nan -nan -nan -nan -nan -nan -nan -nan -nan -nan -nan -nan -nan -nan -nan -nan -nan -nan -nan -nan -nan -nan -nan -nan -nan -nan -nan -nan -nan 
</DataArray>
<DataArray type="Float64" Name="B_conc" format="ascii">
-nan -nan -nan -nan -nan -nan -nan -nan -nan -nan -nan -nan inf inf -nan -nan -nan -nan -nan inf inf -nan -nan -nan -nan -nan -nan inf -nan -nan inf -nan -nan -nan -nan -nan -nan -nan -nan -nan -nan -nan -nan -nan -nan -nan -nan -nan -nan -nan -nan inf -nan -nan -nan -nan -nan inf -nan -nan inf -nan -nan -nan -nan -nan -nan -nan -nan -nan -nan inf -nan -nan -nan -nan -nan -nan -nan -nan inf inf -nan -nan -nan -nan -nan inf inf -nan -nan -nan -nan -nan -nan inf -nan -nan inf -nan -nan -nan -nan -nan -nan -nan -nan -nan -nan -nan -nan -nan -nan -nan -nan -nan -nan -nan -nan inf -nan -nan -nan -nan -nan -nan inf -nan -nan inf -nan -nan -nan -nan -nan -nan -nan -nan -nan inf -nan -nan -nan -nan -nan inf -nan inf -nan -nan -nan -nan -nan -nan -nan inf -nan -nan inf -nan -nan inf -nan -nan -nan -nan -nan -nan inf -nan -nan -nan -nan inf inf inf -nan -nan -nan -nan -nan -nan -nan -nan -nan -nan -nan -nan inf inf inf -nan -nan inf -nan -nan -nan -nan -nan inf -nan -nan -nan inf inf -nan -nan inf -nan -nan -nan -nan -nan -nan -nan -nan -nan inf -nan -nan -nan inf -nan -nan -nan inf -nan inf -nan -nan -nan -nan inf inf -nan -nan -nan -nan -nan -nan -nan -nan -nan inf -nan -nan -nan inf -nan inf -nan -nan -nan -nan -nan inf -nan -nan -nan inf -nan -nan -nan -nan inf inf inf inf inf inf -nan inf -nan -nan -nan -nan -nan -nan -nan -nan -nan -nan -nan -nan inf inf -nan -nan -nan -nan inf -nan inf -nan -nan inf inf -nan -nan inf -nan inf -nan inf -nan inf inf -nan -nan -nan -nan -nan -nan -nan -nan inf -nan -nan inf -nan -nan inf -nan inf -nan -nan -nan -nan -nan -nan -nan -nan -nan -nan -nan -nan -nan -nan inf inf inf -nan inf -nan -nan inf -nan inf -nan inf -nan inf -nan -nan inf inf -nan -nan -nan inf inf inf inf -nan -nan -nan -nan -nan -nan -nan -nan -nan -nan -nan -nan inf -nan inf -nan inf -nan -nan -nan inf -nan -nan inf -nan inf -nan -nan -nan -nan -nan -nan -nan -nan -nan -nan -nan -nan -nan -nan inf inf -nan -nan -nan inf -nan -nan -nan -nan -nan inf -nan -nan -nan -nan -nan inf -nan inf inf -nan -nan -nan -nan -nan -nan -nan -nan -nan inf -nan -nan inf -nan -nan -nan -nan -nan inf -nan -nan inf inf -nan -nan -nan -nan -nan -nan -nan inf -nan -nan -nan -nan -nan -nan -nan -nan -nan -nan -nan inf -nan inf inf inf -nan -nan -nan -nan -nan inf -nan -nan -nan inf -nan -nan -nan inf -nan -nan -nan -nan -nan -nan -nan inf -nan -nan -nan -nan -nan -nan -nan -nan -nan -nan inf -nan -nan -nan -nan -nan -nan -nan -nan -nan -nan inf inf -nan -nan -nan -nan inf -nan -nan -nan -nan -nan -nan -nan -nan -nan -nan -nan -nan -nan -nan inf -nan -nan -nan -nan -nan -nan -nan -nan -nan -nan -nan -nan -nan -nan -nan -nan -nan -nan -nan -nan -nan -nan -nan -nan -nan -nan -nan inf -nan -nan -nan -nan -nan -nan -nan -nan -nan -nan -nan -nan -nan -nan -nan -nan inf -nan -nan -nan -nan -nan -nan -nan -nan -nan -nan -nan -nan -nan -nan -nan -nan -nan -nan -nan -nan -nan -nan -nan -nan inf inf -nan -nan -nan -nan -nan -nan -nan -nan inf -nan -nan -nan -nan -nan inf -nan inf -nan -nan -nan -nan -nan -nan -nan -nan -nan -nan -nan inf inf -nan -nan -nan -nan -nan -nan -nan -nan -nan -nan -nan -nan -nan -nan inf -nan -nan inf inf -nan -nan -nan inf -nan -nan -nan -nan -nan inf -nan -nan -nan -nan -nan -nan -nan -nan -nan -nan -nan -nan -nan -nan -nan inf -nan -nan -nan -nan -nan -nan -nan -nan inf -nan -nan -nan -nan -nan inf inf -nan -nan -nan inf -nan -nan -nan -nan -nan -nan -nan inf inf -nan inf -nan -nan -nan -nan -nan -nan -nan -nan -nan inf -nan -nan -nan inf -nan -nan -nan -nan inf -nan -nan -nan -nan -nan -nan -nan -nan inf inf inf -nan -nan -nan -nan -nan -nan -nan -nan -nan -nan -nan -nan -nan -nan -nan inf -nan -nan -nan -nan -nan -nan inf -nan -nan -nan -nan -nan -nan -nan inf -nan -nan -nan -nan -nan -nan -nan -nan -nan -nan -nan inf -nan -nan inf -nan -nan -nan inf inf -nan -nan inf -nan -nan -nan -nan -nan -nan -nan inf -nan -nan -nan -nan inf -nan -nan -nan -nan -nan -nan -nan -nan -nan -nan -nan inf -nan inf -nan -nan -nan -nan -nan -nan -nan 
</DataArray>
</CellData>
</Piece>
</UnstructuredGrid>
</VTKFile>
