<?xml version="1.0"?>
<VTKFile type="UnstructuredGrid" version="0.1" byte_order="LittleEndian">
<UnstructuredGrid>
<Piece NumberOfPoints="1160" NumberOfCells="390">
<Points>
<DataArray type="Float64" NumberOfComponents="3" format="ascii">
0.0000000000 0.0000000000 0.0000000000 0.1000000000 0.0000000000 0.0000000000 0.1000000000 0.0000000000 0.0000000000 0.2000000000 0.0000000000 0.0000000000 0.2000000000 0.0000000000 0.0000000000 0.3000000000 0.0000000000 0.0000000000 0.3000000000 0.0000000000 0.0000000000 0.4000000000 0.0000000000 0.0000000000 0.4000000000 0.0000000000 0.0000000000 0.5000000000 0.0000000000 0.0000000000 0.5000000000 0.0000000000 0.0000000000 0.6000000000 0.0000000000 0.0000000000 0.6000000000 0.0000000000 0.0000000000 0.7000000000 0.0000000000 0.0000000000 0.7000000000 0.0000000000 0.0000000000 0.8000000000 0.0000000000 0.0000000000 0.8000000000 0.0000000000 0.0000000000 0.9000000000 0.0000000000 0.0000000000 0.9000000000 0.0000000000 0.0000000000 1.0000000000 0.0000000000 0.0000000000 0.0000000000 0.0000000000 0.0000000000 0.0000000000 0.0000100000 0.0000000000 0.1000000000 0.0000100000 0.0000000000 0.0000000000 0.0000000000 0.0000000000 0.1000000000 0.0000100000 0.0000000000 0.1000000000 0.0000000000 0.0000000000 0.1000000000 0.0000000000 0.0000000000 0.1000000000 0.0000100000 0.0000000000 0.2000000000 0.0000100000 0.0000000000 0.1000000000 0.0000000000 0.0000000000 0.2000000000 0.0000100000 0.0000000000 0.2000000000 0.0000000000 0.0000000000 0.2000000000 0.0000000000 0.0000000000 0.2000000000 0.0000100000 0.0000000000 0.3000000000 0.0000100000 0.0000000000 0.2000000000 0.0000000000 0.0000000000 0.3000000000 0.0000100000 0.0000000000 0.3000000000 0.0000000000 0.0000000000 0.3000000000 0.0000000000 0.0000000000 0.3000000000 0.0000100000 0.0000000000 0.4000000000 0.0000100000 0.0000000000 0.3000000000 0.0000000000 0.0000000000 0.4000000000 0.0000100000 0.0000000000 0.4000000000 0.0000000000 0.0000000000 0.4000000000 0.0000000000 0.0000000000 0.4000000000 0.0000100000 0.0000000000 0.5000000000 0.0000100000 0.0000000000 0.4000000000 0.0000000000 0.0000000000 0.5000000000 0.0000100000 0.0000000000 0.5000000000 0.0000000000 0.0000000000 0.5000000000 0.0000000000 0.0000000000 0.5000000000 0.0000100000 0.0000000000 0.6000000000 0.0000100000 0.0000000000 0.5000000000 0.0000000000 0.0000000000 0.6000000000 0.0000100000 0.0000000000 0.6000000000 0.0000000000 0.0000000000 0.6000000000 0.0000000000 0.0000000000 0.6000000000 0.0000100000 0.0000000000 0.7000000000 0.0000100000 0.0000000000 0.6000000000 0.0000000000 0.0000000000 0.7000000000 0.0000100000 0.0000000000 0.7000000000 0.0000000000 0.0000000000 0.7000000000 0.0000000000 0.0000000000 0.7000000000 0.0000100000 0.0000000000 0.8000000000 0.0000100000 0.0000000000 0.7000000000 0.0000000000 0.0000000000 0.8000000000 0.0000100000 0.0000000000 0.8000000000 0.0000000000 0.0000000000 0.8000000000 0.0000000000 0.0000000000 0.8000000000 0.0000100000 0.0000000000 0.9000000000 0.0000100000 0.0000000000 0.8000000000 0.0000000000 0.0000000000 0.9000000000 0.0000100000 0.0000000000 0.9000000000 0.0000000000 0.0000000000 0.9000000000 0.0000000000 0.0000000000 0.9000000000 0.0000100000 0.0000000000 1.0000000000 0.0000100000 0.0000000000 0.9000000000 0.0000000000 0.0000000000 1.0000000000 0.0000100000 0.0000000000 1.0000000000 0.0000000000 0.0000000000 0.0000000000 0.0000100000 0.0000000000 0.0000000000 0.0001221059 0.0000000000 0.1000000000 0.0001221059 0.0000000000 0.0000000000 0.0000100000 0.0000000000 0.1000000000 0.0001221059 0.0000000000 0.1000000000 0.0000100000 0.0000000000 0.1000000000 0.0000100000 0.0000000000 0.1000000000 0.0001221059 0.0000000000 0.2000000000 0.0001221059 0.0000000000 0.1000000000 0.0000100000 0.0000000000 0.2000000000 0.0001221059 0.0000000000 0.2000000000 0.0000100000 0.0000000000 0.2000000000 0.0000100000 0.0000000000 0.2000000000 0.0001221059 0.0000000000 0.3000000000 0.0001221059 0.0000000000 0.2000000000 0.0000100000 0.0000000000 0.3000000000 0.0001221059 0.0000000000 0.3000000000 0.0000100000 0.0000000000 0.3000000000 0.0000100000 0.0000000000 0.3000000000 0.0001221059 0.0000000000 0.4000000000 0.0001221059 0.0000000000 0.3000000000 0.0000100000 0.0000000000 0.4000000000 0.0001221059 0.0000000000 0.4000000000 0.0000100000 0.0000000000 0.4000000000 0.0000100000 0.0000000000 0.4000000000 0.0001221059 0.0000000000 0.5000000000 0.0001221059 0.0000000000 0.4000000000 0.0000100000 0.0000000000 0.5000000000 0.0001221059 0.0000000000 0.5000000000 0.0000100000 0.0000000000 0.5000000000 0.0000100000 0.0000000000 0.5000000000 0.0001221059 0.0000000000 0.6000000000 0.0001221059 0.0000000000 0.5000000000 0.0000100000 0.0000000000 0.6000000000 0.0001221059 0.0000000000 0.6000000000 0.0000100000 0.0000000000 0.6000000000 0.0000100000 0.0000000000 0.6000000000 0.0001221059 0.0000000000 0.7000000000 0.0001221059 0.0000000000 0.6000000000 0.0000100000 0.0000000000 0.7000000000 0.0001221059 0.0000000000 0.7000000000 0.0000100000 0.0000000000 0.7000000000 0.0000100000 0.0000000000 0.7000000000 0.0001221059 0.0000000000 0.8000000000 0.0001221059 0.0000000000 0.7000000000 0.0000100000 0.0000000000 0.8000000000 0.0001221059 0.0000000000 0.8000000000 0.0000100000 0.0000000000 0.8000000000 0.0000100000 0.0000000000 0.8000000000 0.0001221059 0.0000000000 0.9000000000 0.0001221059 0.0000000000 0.8000000000 0.0000100000 0.0000000000 0.9000000000 0.0001221059 0.0000000000 0.9000000000 0.0000100000 0.0000000000 0.9000000000 0.0000100000 0.0000000000 0.9000000000 0.0001221059 0.0000000000 1.0000000000 0.0001221059 0.0000000000 0.9000000000 0.0000100000 0.0000000000 1.0000000000 0.0001221059 0.0000000000 1.0000000000 0.0000100000 0.0000000000 0.0000000000 0.0001221059 0.0000000000 0.0000000000 0.0002771482 0.0000000000 0.1000000000 0.0002771482 0.0000000000 0.0000000000 0.0001221059 0.0000000000 0.1000000000 0.0002771482 0.0000000000 0.1000000000 0.0001221059 0.0000000000 0.1000000000 0.0001221059 0.0000000000 0.1000000000 0.0002771482 0.0000000000 0.2000000000 0.0002771482 0.0000000000 0.1000000000 0.0001221059 0.0000000000 0.2000000000 0.0002771482 0.0000000000 0.2000000000 0.0001221059 0.0000000000 0.2000000000 0.0001221059 0.0000000000 0.2000000000 0.0002771482 0.0000000000 0.3000000000 0.0002771482 0.0000000000 0.2000000000 0.0001221059 0.0000000000 0.3000000000 0.0002771482 0.0000000000 0.3000000000 0.0001221059 0.0000000000 0.3000000000 0.0001221059 0.0000000000 0.3000000000 0.0002771482 0.0000000000 0.4000000000 0.0002771482 0.0000000000 0.3000000000 0.0001221059 0.0000000000 0.4000000000 0.0002771482 0.0000000000 0.4000000000 0.0001221059 0.0000000000 0.4000000000 0.0001221059 0.0000000000 0.4000000000 0.0002771482 0.0000000000 0.5000000000 0.0002771482 0.0000000000 0.4000000000 0.0001221059 0.0000000000 0.5000000000 0.0002771482 0.0000000000 0.5000000000 0.0001221059 0.0000000000 0.5000000000 0.0001221059 0.0000000000 0.5000000000 0.0002771482 0.0000000000 0.6000000000 0.0002771482 0.0000000000 0.5000000000 0.0001221059 0.0000000000 0.6000000000 0.0002771482 0.0000000000 0.6000000000 0.0001221059 0.0000000000 0.6000000000 0.0001221059 0.0000000000 0.6000000000 0.0002771482 0.0000000000 0.7000000000 0.0002771482 0.0000000000 0.6000000000 0.0001221059 0.0000000000 0.7000000000 0.0002771482 0.0000000000 0.7000000000 0.0001221059 0.0000000000 0.7000000000 0.0001221059 0.0000000000 0.7000000000 0.0002771482 0.0000000000 0.8000000000 0.0002771482 0.0000000000 0.7000000000 0.0001221059 0.0000000000 0.8000000000 0.0002771482 0.0000000000 0.8000000000 0.0001221059 0.0000000000 0.8000000000 0.0001221059 0.0000000000 0.8000000000 0.0002771482 0.0000000000 0.9000000000 0.0002771482 0.0000000000 0.8000000000 0.0001221059 0.0000000000 0.9000000000 0.0002771482 0.0000000000 0.9000000000 0.0001221059 0.0000000000 0.9000000000 0.0001221059 0.0000000000 0.9000000000 0.0002771482 0.0000000000 1.0000000000 0.0002771482 0.0000000000 0.9000000000 0.0001221059 0.0000000000 1.0000000000 0.0002771482 0.0000000000 1.0000000000 0.0001221059 0.0000000000 0.0000000000 0.0002771482 0.0000000000 0.0000000000 0.0004915718 0.0000000000 0.1000000000 0.0004915718 0.0000000000 0.0000000000 0.0002771482 0.0000000000 0.1000000000 0.0004915718 0.0000000000 0.1000000000 0.0002771482 0.0000000000 0.1000000000 0.0002771482 0.0000000000 0.1000000000 0.0004915718 0.0000000000 0.2000000000 0.0004915718 0.0000000000 0.1000000000 0.0002771482 0.0000000000 0.2000000000 0.0004915718 0.0000000000 0.2000000000 0.0002771482 0.0000000000 0.2000000000 0.0002771482 0.0000000000 0.2000000000 0.0004915718 0.0000000000 0.3000000000 0.0004915718 0.0000000000 0.2000000000 0.0002771482 0.0000000000 0.3000000000 0.0004915718 0.0000000000 0.3000000000 0.0002771482 0.0000000000 0.3000000000 0.0002771482 0.0000000000 0.3000000000 0.0004915718 0.0000000000 0.4000000000 0.0004915718 0.0000000000 0.3000000000 0.0002771482 0.0000000000 0.4000000000 0.0004915718 0.0000000000 0.4000000000 0.0002771482 0.0000000000 0.4000000000 0.0002771482 0.0000000000 0.4000000000 0.0004915718 0.0000000000 0.5000000000 0.0004915718 0.0000000000 0.4000000000 0.0002771482 0.0000000000 0.5000000000 0.0004915718 0.0000000000 0.5000000000 0.0002771482 0.0000000000 0.5000000000 0.0002771482 0.0000000000 0.5000000000 0.0004915718 0.0000000000 0.6000000000 0.0004915718 0.0000000000 0.5000000000 0.0002771482 0.0000000000 0.6000000000 0.0004915718 0.0000000000 0.6000000000 0.0002771482 0.0000000000 0.6000000000 0.0002771482 0.0000000000 0.6000000000 0.0004915718 0.0000000000 0.7000000000 0.0004915718 0.0000000000 0.6000000000 0.0002771482 0.0000000000 0.7000000000 0.0004915718 0.0000000000 0.7000000000 0.0002771482 0.0000000000 0.7000000000 0.0002771482 0.0000000000 0.7000000000 0.0004915718 0.0000000000 0.8000000000 0.0004915718 0.0000000000 0.7000000000 0.0002771482 0.0000000000 0.8000000000 0.0004915718 0.0000000000 0.8000000000 0.0002771482 0.0000000000 0.8000000000 0.0002771482 0.0000000000 0.8000000000 0.0004915718 0.0000000000 0.9000000000 0.0004915718 0.0000000000 0.8000000000 0.0002771482 0.0000000000 0.9000000000 0.0004915718 0.0000000000 0.9000000000 0.0002771482 0.0000000000 0.9000000000 0.0002771482 0.0000000000 0.9000000000 0.0004915718 0.0000000000 1.0000000000 0.0004915718 0.0000000000 0.9000000000 0.0002771482 0.0000000000 1.0000000000 0.0004915718 0.0000000000 1.0000000000 0.0002771482 0.0000000000 0.0000000000 0.0004915718 0.0000000000 0.0000000000 0.0007881193 0.0000000000 0.1000000000 0.0007881193 0.0000000000 0.0000000000 0.0004915718 0.0000000000 0.1000000000 0.0007881193 0.0000000000 0.1000000000 0.0004915718 0.0000000000 0.1000000000 0.0004915718 0.0000000000 0.1000000000 0.0007881193 0.0000000000 0.2000000000 0.0007881193 0.0000000000 0.1000000000 0.0004915718 0.0000000000 0.2000000000 0.0007881193 0.0000000000 0.2000000000 0.0004915718 0.0000000000 0.2000000000 0.0004915718 0.0000000000 0.2000000000 0.0007881193 0.0000000000 0.3000000000 0.0007881193 0.0000000000 0.2000000000 0.0004915718 0.0000000000 0.3000000000 0.0007881193 0.0000000000 0.3000000000 0.0004915718 0.0000000000 0.3000000000 0.0004915718 0.0000000000 0.3000000000 0.0007881193 0.0000000000 0.4000000000 0.0007881193 0.0000000000 0.3000000000 0.0004915718 0.0000000000 0.4000000000 0.0007881193 0.0000000000 0.4000000000 0.0004915718 0.0000000000 0.4000000000 0.0004915718 0.0000000000 0.4000000000 0.0007881193 0.0000000000 0.5000000000 0.0007881193 0.0000000000 0.4000000000 0.0004915718 0.0000000000 0.5000000000 0.0007881193 0.0000000000 0.5000000000 0.0004915718 0.0000000000 0.5000000000 0.0004915718 0.0000000000 0.5000000000 0.0007881193 0.0000000000 0.6000000000 0.0007881193 0.0000000000 0.5000000000 0.0004915718 0.0000000000 0.6000000000 0.0007881193 0.0000000000 0.6000000000 0.0004915718 0.0000000000 0.6000000000 0.0004915718 0.0000000000 0.6000000000 0.0007881193 0.0000000000 0.7000000000 0.0007881193 0.0000000000 0.6000000000 0.0004915718 0.0000000000 0.7000000000 0.0007881193 0.0000000000 0.7000000000 0.0004915718 0.0000000000 0.7000000000 0.0004915718 0.0000000000 0.7000000000 0.0007881193 0.0000000000 0.8000000000 0.0007881193 0.0000000000 0.7000000000 0.0004915718 0.0000000000 0.8000000000 0.0007881193 0.0000000000 0.8000000000 0.0004915718 0.0000000000 0.8000000000 0.0004915718 0.0000000000 0.8000000000 0.0007881193 0.0000000000 0.9000000000 0.0007881193 0.0000000000 0.8000000000 0.0004915718 0.0000000000 0.9000000000 0.0007881193 0.0000000000 0.9000000000 0.0004915718 0.0000000000 0.9000000000 0.0004915718 0.0000000000 0.9000000000 0.0007881193 0.0000000000 1.0000000000 0.0007881193 0.0000000000 0.9000000000 0.0004915718 0.0000000000 1.0000000000 0.0007881193 0.0000000000 1.0000000000 0.0004915718 0.0000000000 0.0000000000 0.0007881193 0.0000000000 0.0000000000 0.0011982444 0.0000000000 0.1000000000 0.0011982444 0.0000000000 0.0000000000 0.0007881193 0.0000000000 0.1000000000 0.0011982444 0.0000000000 0.1000000000 0.0007881193 0.0000000000 0.1000000000 0.0007881193 0.0000000000 0.1000000000 0.0011982444 0.0000000000 0.2000000000 0.0011982444 0.0000000000 0.1000000000 0.0007881193 0.0000000000 0.2000000000 0.0011982444 0.0000000000 0.2000000000 0.0007881193 0.0000000000 0.2000000000 0.0007881193 0.0000000000 0.2000000000 0.0011982444 0.0000000000 0.3000000000 0.0011982444 0.0000000000 0.2000000000 0.0007881193 0.0000000000 0.3000000000 0.0011982444 0.0000000000 0.3000000000 0.0007881193 0.0000000000 0.3000000000 0.0007881193 0.0000000000 0.3000000000 0.0011982444 0.0000000000 0.4000000000 0.0011982444 0.0000000000 0.3000000000 0.0007881193 0.0000000000 0.4000000000 0.0011982444 0.0000000000 0.4000000000 0.0007881193 0.0000000000 0.4000000000 0.0007881193 0.0000000000 0.4000000000 0.0011982444 0.0000000000 0.5000000000 0.0011982444 0.0000000000 0.4000000000 0.0007881193 0.0000000000 0.5000000000 0.0011982444 0.0000000000 0.5000000000 0.0007881193 0.0000000000 0.5000000000 0.0007881193 0.0000000000 0.5000000000 0.0011982444 0.0000000000 0.6000000000 0.0011982444 0.0000000000 0.5000000000 0.0007881193 0.0000000000 0.6000000000 0.0011982444 0.0000000000 0.6000000000 0.0007881193 0.0000000000 0.6000000000 0.0007881193 0.0000000000 0.6000000000 0.0011982444 0.0000000000 0.7000000000 0.0011982444 0.0000000000 0.6000000000 0.0007881193 0.0000000000 0.7000000000 0.0011982444 0.0000000000 0.7000000000 0.0007881193 0.0000000000 0.7000000000 0.0007881193 0.0000000000 0.7000000000 0.0011982444 0.0000000000 0.8000000000 0.0011982444 0.0000000000 0.7000000000 0.0007881193 0.0000000000 0.8000000000 0.0011982444 0.0000000000 0.8000000000 0.0007881193 0.0000000000 0.8000000000 0.0007881193 0.0000000000 0.8000000000 0.0011982444 0.0000000000 0.9000000000 0.0011982444 0.0000000000 0.8000000000 0.0007881193 0.0000000000 0.9000000000 0.0011982444 0.0000000000 0.9000000000 0.0007881193 0.0000000000 0.9000000000 0.0007881193 0.0000000000 0.9000000000 0.0011982444 0.0000000000 1.0000000000 0.0011982444 0.0000000000 0.9000000000 0.0007881193 0.0000000000 1.0000000000 0.0011982444 0.0000000000 1.0000000000 0.0007881193 0.0000000000 0.0000000000 0.0011982444 0.0000000000 0.0000000000 0.0017654472 0.0000000000 0.1000000000 0.0017654472 0.0000000000 0.0000000000 0.0011982444 0.0000000000 0.1000000000 0.0017654472 0.0000000000 0.1000000000 0.0011982444 0.0000000000 0.1000000000 0.0011982444 0.0000000000 0.1000000000 0.0017654472 0.0000000000 0.2000000000 0.0017654472 0.0000000000 0.1000000000 0.0011982444 0.0000000000 0.2000000000 0.0017654472 0.0000000000 0.2000000000 0.0011982444 0.0000000000 0.2000000000 0.0011982444 0.0000000000 0.2000000000 0.0017654472 0.0000000000 0.3000000000 0.0017654472 0.0000000000 0.2000000000 0.0011982444 0.0000000000 0.3000000000 0.0017654472 0.0000000000 0.3000000000 0.0011982444 0.0000000000 0.3000000000 0.0011982444 0.0000000000 0.3000000000 0.0017654472 0.0000000000 0.4000000000 0.0017654472 0.0000000000 0.3000000000 0.0011982444 0.0000000000 0.4000000000 0.0017654472 0.0000000000 0.4000000000 0.0011982444 0.0000000000 0.4000000000 0.0011982444 0.0000000000 0.4000000000 0.0017654472 0.0000000000 0.5000000000 0.0017654472 0.0000000000 0.4000000000 0.0011982444 0.0000000000 0.5000000000 0.0017654472 0.0000000000 0.5000000000 0.0011982444 0.0000000000 0.5000000000 0.0011982444 0.0000000000 0.5000000000 0.0017654472 0.0000000000 0.6000000000 0.0017654472 0.0000000000 0.5000000000 0.0011982444 0.0000000000 0.6000000000 0.0017654472 0.0000000000 0.6000000000 0.0011982444 0.0000000000 0.6000000000 0.0011982444 0.0000000000 0.6000000000 0.0017654472 0.0000000000 0.7000000000 0.0017654472 0.0000000000 0.6000000000 0.0011982444 0.0000000000 0.7000000000 0.0017654472 0.0000000000 0.7000000000 0.0011982444 0.0000000000 0.7000000000 0.0011982444 0.0000000000 0.7000000000 0.0017654472 0.0000000000 0.8000000000 0.0017654472 0.0000000000 0.7000000000 0.0011982444 0.0000000000 0.8000000000 0.0017654472 0.0000000000 0.8000000000 0.0011982444 0.0000000000 0.8000000000 0.0011982444 0.0000000000 0.8000000000 0.0017654472 0.0000000000 0.9000000000 0.0017654472 0.0000000000 0.8000000000 0.0011982444 0.0000000000 0.9000000000 0.0017654472 0.0000000000 0.9000000000 0.0011982444 0.0000000000 0.9000000000 0.0011982444 0.0000000000 0.9000000000 0.0017654472 0.0000000000 1.0000000000 0.0017654472 0.0000000000 0.9000000000 0.0011982444 0.0000000000 1.0000000000 0.0017654472 0.0000000000 1.0000000000 0.0011982444 0.0000000000 0.0000000000 0.0017654472 0.0000000000 0.0000000000 0.0025498882 0.0000000000 0.1000000000 0.0025498882 0.0000000000 0.0000000000 0.0017654472 0.0000000000 0.1000000000 0.0025498882 0.0000000000 0.1000000000 0.0017654472 0.0000000000 0.1000000000 0.0017654472 0.0000000000 0.1000000000 0.0025498882 0.0000000000 0.2000000000 0.0025498882 0.0000000000 0.1000000000 0.0017654472 0.0000000000 0.2000000000 0.0025498882 0.0000000000 0.2000000000 0.0017654472 0.0000000000 0.2000000000 0.0017654472 0.0000000000 0.2000000000 0.0025498882 0.0000000000 0.3000000000 0.0025498882 0.0000000000 0.2000000000 0.0017654472 0.0000000000 0.3000000000 0.0025498882 0.0000000000 0.3000000000 0.0017654472 0.0000000000 0.3000000000 0.0017654472 0.0000000000 0.3000000000 0.0025498882 0.0000000000 0.4000000000 0.0025498882 0.0000000000 0.3000000000 0.0017654472 0.0000000000 0.4000000000 0.0025498882 0.0000000000 0.4000000000 0.0017654472 0.0000000000 0.4000000000 0.0017654472 0.0000000000 0.4000000000 0.0025498882 0.0000000000 0.5000000000 0.0025498882 0.0000000000 0.4000000000 0.0017654472 0.0000000000 0.5000000000 0.0025498882 0.0000000000 0.5000000000 0.0017654472 0.0000000000 0.5000000000 0.0017654472 0.0000000000 0.5000000000 0.0025498882 0.0000000000 0.6000000000 0.0025498882 0.0000000000 0.5000000000 0.0017654472 0.0000000000 0.6000000000 0.0025498882 0.0000000000 0.6000000000 0.0017654472 0.0000000000 0.6000000000 0.0017654472 0.0000000000 0.6000000000 0.0025498882 0.0000000000 0.7000000000 0.0025498882 0.0000000000 0.6000000000 0.0017654472 0.0000000000 0.7000000000 0.0025498882 0.0000000000 0.7000000000 0.0017654472 0.0000000000 0.7000000000 0.0017654472 0.0000000000 0.7000000000 0.0025498882 0.0000000000 0.8000000000 0.0025498882 0.0000000000 0.7000000000 0.0017654472 0.0000000000 0.8000000000 0.0025498882 0.0000000000 0.8000000000 0.0017654472 0.0000000000 0.8000000000 0.0017654472 0.0000000000 0.8000000000 0.0025498882 0.0000000000 0.9000000000 0.0025498882 0.0000000000 0.8000000000 0.0017654472 0.0000000000 0.9000000000 0.0025498882 0.0000000000 0.9000000000 0.0017654472 0.0000000000 0.9000000000 0.0017654472 0.0000000000 0.9000000000 0.0025498882 0.0000000000 1.0000000000 0.0025498882 0.0000000000 0.9000000000 0.0017654472 0.0000000000 1.0000000000 0.0025498882 0.0000000000 1.0000000000 0.0017654472 0.0000000000 0.0000000000 0.0025498882 0.0000000000 0.0000000000 0.0036347697 0.0000000000 0.1000000000 0.0036347697 0.0000000000 0.0000000000 0.0025498882 0.0000000000 0.1000000000 0.0036347697 0.0000000000 0.1000000000 0.0025498882 0.0000000000 0.1000000000 0.0025498882 0.0000000000 0.1000000000 0.0036347697 0.0000000000 0.2000000000 0.0036347697 0.0000000000 0.1000000000 0.0025498882 0.0000000000 0.2000000000 0.0036347697 0.0000000000 0.2000000000 0.0025498882 0.0000000000 0.2000000000 0.0025498882 0.0000000000 0.2000000000 0.0036347697 0.0000000000 0.3000000000 0.0036347697 0.0000000000 0.2000000000 0.0025498882 0.0000000000 0.3000000000 0.0036347697 0.0000000000 0.3000000000 0.0025498882 0.0000000000 0.3000000000 0.0025498882 0.0000000000 0.3000000000 0.0036347697 0.0000000000 0.4000000000 0.0036347697 0.0000000000 0.3000000000 0.0025498882 0.0000000000 0.4000000000 0.0036347697 0.0000000000 0.4000000000 0.0025498882 0.0000000000 0.4000000000 0.0025498882 0.0000000000 0.4000000000 0.0036347697 0.0000000000 0.5000000000 0.0036347697 0.0000000000 0.4000000000 0.0025498882 0.0000000000 0.5000000000 0.0036347697 0.0000000000 0.5000000000 0.0025498882 0.0000000000 0.5000000000 0.0025498882 0.0000000000 0.5000000000 0.0036347697 0.0000000000 0.6000000000 0.0036347697 0.0000000000 0.5000000000 0.0025498882 0.0000000000 0.6000000000 0.0036347697 0.0000000000 0.6000000000 0.0025498882 0.0000000000 0.6000000000 0.0025498882 0.0000000000 0.6000000000 0.0036347697 0.0000000000 0.7000000000 0.0036347697 0.0000000000 0.6000000000 0.0025498882 0.0000000000 0.7000000000 0.0036347697 0.0000000000 0.7000000000 0.0025498882 0.0000000000 0.7000000000 0.0025498882 0.0000000000 0.7000000000 0.0036347697 0.0000000000 0.8000000000 0.0036347697 0.0000000000 0.7000000000 0.0025498882 0.0000000000 0.8000000000 0.0036347697 0.0000000000 0.8000000000 0.0025498882 0.0000000000 0.8000000000 0.0025498882 0.0000000000 0.8000000000 0.0036347697 0.0000000000 0.9000000000 0.0036347697 0.0000000000 0.8000000000 0.0025498882 0.0000000000 0.9000000000 0.0036347697 0.0000000000 0.9000000000 0.0025498882 0.0000000000 0.9000000000 0.0025498882 0.0000000000 0.9000000000 0.0036347697 0.0000000000 1.0000000000 0.0036347697 0.0000000000 0.9000000000 0.0025498882 0.0000000000 1.0000000000 0.0036347697 0.0000000000 1.0000000000 0.0025498882 0.0000000000 0.0000000000 0.0036347697 0.0000000000 0.0000000000 0.0051351601 0.0000000000 0.1000000000 0.0051351601 0.0000000000 0.0000000000 0.0036347697 0.0000000000 0.1000000000 0.0051351601 0.0000000000 0.1000000000 0.0036347697 0.0000000000 0.1000000000 0.0036347697 0.0000000000 0.1000000000 0.0051351601 0.0000000000 0.2000000000 0.0051351601 0.0000000000 0.1000000000 0.0036347697 0.0000000000 0.2000000000 0.0051351601 0.0000000000 0.2000000000 0.0036347697 0.0000000000 0.2000000000 0.0036347697 0.0000000000 0.2000000000 0.0051351601 0.0000000000 0.3000000000 0.0051351601 0.0000000000 0.2000000000 0.0036347697 0.0000000000 0.3000000000 0.0051351601 0.0000000000 0.3000000000 0.0036347697 0.0000000000 0.3000000000 0.0036347697 0.0000000000 0.3000000000 0.0051351601 0.0000000000 0.4000000000 0.0051351601 0.0000000000 0.3000000000 0.0036347697 0.0000000000 0.4000000000 0.0051351601 0.0000000000 0.4000000000 0.0036347697 0.0000000000 0.4000000000 0.0036347697 0.0000000000 0.4000000000 0.0051351601 0.0000000000 0.5000000000 0.0051351601 0.0000000000 0.4000000000 0.0036347697 0.0000000000 0.5000000000 0.0051351601 0.0000000000 0.5000000000 0.0036347697 0.0000000000 0.5000000000 0.0036347697 0.0000000000 0.5000000000 0.0051351601 0.0000000000 0.6000000000 0.0051351601 0.0000000000 0.5000000000 0.0036347697 0.0000000000 0.6000000000 0.0051351601 0.0000000000 0.6000000000 0.0036347697 0.0000000000 0.6000000000 0.0036347697 0.0000000000 0.6000000000 0.0051351601 0.0000000000 0.7000000000 0.0051351601 0.0000000000 0.6000000000 0.0036347697 0.0000000000 0.7000000000 0.0051351601 0.0000000000 0.7000000000 0.0036347697 0.0000000000 0.7000000000 0.0036347697 0.0000000000 0.7000000000 0.0051351601 0.0000000000 0.8000000000 0.0051351601 0.0000000000 0.7000000000 0.0036347697 0.0000000000 0.8000000000 0.0051351601 0.0000000000 0.8000000000 0.0036347697 0.0000000000 0.8000000000 0.0036347697 0.0000000000 0.8000000000 0.0051351601 0.0000000000 0.9000000000 0.0051351601 0.0000000000 0.8000000000 0.0036347697 0.0000000000 0.9000000000 0.0051351601 0.0000000000 0.9000000000 0.0036347697 0.0000000000 0.9000000000 0.0036347697 0.0000000000 0.9000000000 0.0051351601 0.0000000000 1.0000000000 0.0051351601 0.0000000000 0.9000000000 0.0036347697 0.0000000000 1.0000000000 0.0051351601 0.0000000000 1.0000000000 0.0036347697 0.0000000000 0.0000000000 0.0051351601 0.0000000000 0.0000000000 0.0072101992 0.0000000000 0.1000000000 0.0072101992 0.0000000000 0.0000000000 0.0051351601 0.0000000000 0.1000000000 0.0072101992 0.0000000000 0.1000000000 0.0051351601 0.0000000000 0.1000000000 0.0051351601 0.0000000000 0.1000000000 0.0072101992 0.0000000000 0.2000000000 0.0072101992 0.0000000000 0.1000000000 0.0051351601 0.0000000000 0.2000000000 0.0072101992 0.0000000000 0.2000000000 0.0051351601 0.0000000000 0.2000000000 0.0051351601 0.0000000000 0.2000000000 0.0072101992 0.0000000000 0.3000000000 0.0072101992 0.0000000000 0.2000000000 0.0051351601 0.0000000000 0.3000000000 0.0072101992 0.0000000000 0.3000000000 0.0051351601 0.0000000000 0.3000000000 0.0051351601 0.0000000000 0.3000000000 0.0072101992 0.0000000000 0.4000000000 0.0072101992 0.0000000000 0.3000000000 0.0051351601 0.0000000000 0.4000000000 0.0072101992 0.0000000000 0.4000000000 0.0051351601 0.0000000000 0.4000000000 0.0051351601 0.0000000000 0.4000000000 0.0072101992 0.0000000000 0.5000000000 0.0072101992 0.0000000000 0.4000000000 0.0051351601 0.0000000000 0.5000000000 0.0072101992 0.0000000000 0.5000000000 0.0051351601 0.0000000000 0.5000000000 0.0051351601 0.0000000000 0.5000000000 0.0072101992 0.0000000000 0.6000000000 0.0072101992 0.0000000000 0.5000000000 0.0051351601 0.0000000000 0.6000000000 0.0072101992 0.0000000000 0.6000000000 0.0051351601 0.0000000000 0.6000000000 0.0051351601 0.0000000000 0.6000000000 0.0072101992 0.0000000000 0.7000000000 0.0072101992 0.0000000000 0.6000000000 0.0051351601 0.0000000000 0.7000000000 0.0072101992 0.0000000000 0.7000000000 0.0051351601 0.0000000000 0.7000000000 0.0051351601 0.0000000000 0.7000000000 0.0072101992 0.0000000000 0.8000000000 0.0072101992 0.0000000000 0.7000000000 0.0051351601 0.0000000000 0.8000000000 0.0072101992 0.0000000000 0.8000000000 0.0051351601 0.0000000000 0.8000000000 0.0051351601 0.0000000000 0.8000000000 0.0072101992 0.0000000000 0.9000000000 0.0072101992 0.0000000000 0.8000000000 0.0051351601 0.0000000000 0.9000000000 0.0072101992 0.0000000000 0.9000000000 0.0051351601 0.0000000000 0.9000000000 0.0051351601 0.0000000000 0.9000000000 0.0072101992 0.0000000000 1.0000000000 0.0072101992 0.0000000000 0.9000000000 0.0051351601 0.0000000000 1.0000000000 0.0072101992 0.0000000000 1.0000000000 0.0051351601 0.0000000000 0.0000000000 0.0072101992 0.0000000000 0.0000000000 0.0100799765 0.0000000000 0.1000000000 0.0100799765 0.0000000000 0.0000000000 0.0072101992 0.0000000000 0.1000000000 0.0100799765 0.0000000000 0.1000000000 0.0072101992 0.0000000000 0.1000000000 0.0072101992 0.0000000000 0.1000000000 0.0100799765 0.0000000000 0.2000000000 0.0100799765 0.0000000000 0.1000000000 0.0072101992 0.0000000000 0.2000000000 0.0100799765 0.0000000000 0.2000000000 0.0072101992 0.0000000000 0.2000000000 0.0072101992 0.0000000000 0.2000000000 0.0100799765 0.0000000000 0.3000000000 0.0100799765 0.0000000000 0.2000000000 0.0072101992 0.0000000000 0.3000000000 0.0100799765 0.0000000000 0.3000000000 0.0072101992 0.0000000000 0.3000000000 0.0072101992 0.0000000000 0.3000000000 0.0100799765 0.0000000000 0.4000000000 0.0100799765 0.0000000000 0.3000000000 0.0072101992 0.0000000000 0.4000000000 0.0100799765 0.0000000000 0.4000000000 0.0072101992 0.0000000000 0.4000000000 0.0072101992 0.0000000000 0.4000000000 0.0100799765 0.0000000000 0.5000000000 0.0100799765 0.0000000000 0.4000000000 0.0072101992 0.0000000000 0.5000000000 0.0100799765 0.0000000000 0.5000000000 0.0072101992 0.0000000000 0.5000000000 0.0072101992 0.0000000000 0.5000000000 0.0100799765 0.0000000000 0.6000000000 0.0100799765 0.0000000000 0.5000000000 0.0072101992 0.0000000000 0.6000000000 0.0100799765 0.0000000000 0.6000000000 0.0072101992 0.0000000000 0.6000000000 0.0072101992 0.0000000000 0.6000000000 0.0100799765 0.0000000000 0.7000000000 0.0100799765 0.0000000000 0.6000000000 0.0072101992 0.0000000000 0.7000000000 0.0100799765 0.0000000000 0.7000000000 0.0072101992 0.0000000000 0.7000000000 0.0072101992 0.0000000000 0.7000000000 0.0100799765 0.0000000000 0.8000000000 0.0100799765 0.0000000000 0.7000000000 0.0072101992 0.0000000000 0.8000000000 0.0100799765 0.0000000000 0.8000000000 0.0072101992 0.0000000000 0.8000000000 0.0072101992 0.0000000000 0.8000000000 0.0100799765 0.0000000000 0.9000000000 0.0100799765 0.0000000000 0.8000000000 0.0072101992 0.0000000000 0.9000000000 0.0100799765 0.0000000000 0.9000000000 0.0072101992 0.0000000000 0.9000000000 0.0072101992 0.0000000000 0.9000000000 0.0100799765 0.0000000000 1.0000000000 0.0100799765 0.0000000000 0.9000000000 0.0072101992 0.0000000000 1.0000000000 0.0100799765 0.0000000000 1.0000000000 0.0072101992 0.0000000000 0.0000000000 0.0100799765 0.0000000000 0.0000000000 0.0140488777 0.0000000000 0.1000000000 0.0140488777 0.0000000000 0.0000000000 0.0100799765 0.0000000000 0.1000000000 0.0140488777 0.0000000000 0.1000000000 0.0100799765 0.0000000000 0.1000000000 0.0100799765 0.0000000000 0.1000000000 0.0140488777 0.0000000000 0.2000000000 0.0140488777 0.0000000000 0.1000000000 0.0100799765 0.0000000000 0.2000000000 0.0140488777 0.0000000000 0.2000000000 0.0100799765 0.0000000000 0.2000000000 0.0100799765 0.0000000000 0.2000000000 0.0140488777 0.0000000000 0.3000000000 0.0140488777 0.0000000000 0.2000000000 0.0100799765 0.0000000000 0.3000000000 0.0140488777 0.0000000000 0.3000000000 0.0100799765 0.0000000000 0.3000000000 0.0100799765 0.0000000000 0.3000000000 0.0140488777 0.0000000000 0.4000000000 0.0140488777 0.0000000000 0.3000000000 0.0100799765 0.0000000000 0.4000000000 0.0140488777 0.0000000000 0.4000000000 0.0100799765 0.0000000000 0.4000000000 0.0100799765 0.0000000000 0.4000000000 0.0140488777 0.0000000000 0.5000000000 0.0140488777 0.0000000000 0.4000000000 0.0100799765 0.0000000000 0.5000000000 0.0140488777 0.0000000000 0.5000000000 0.0100799765 0.0000000000 0.5000000000 0.0100799765 0.0000000000 0.5000000000 0.0140488777 0.0000000000 0.6000000000 0.0140488777 0.0000000000 0.5000000000 0.0100799765 0.0000000000 0.6000000000 0.0140488777 0.0000000000 0.6000000000 0.0100799765 0.0000000000 0.6000000000 0.0100799765 0.0000000000 0.6000000000 0.0140488777 0.0000000000 0.7000000000 0.0140488777 0.0000000000 0.6000000000 0.0100799765 0.0000000000 0.7000000000 0.0140488777 0.0000000000 0.7000000000 0.0100799765 0.0000000000 0.7000000000 0.0100799765 0.0000000000 0.7000000000 0.0140488777 0.0000000000 0.8000000000 0.0140488777 0.0000000000 0.7000000000 0.0100799765 0.0000000000 0.8000000000 0.0140488777 0.0000000000 0.8000000000 0.0100799765 0.0000000000 0.8000000000 0.0100799765 0.0000000000 0.8000000000 0.0140488777 0.0000000000 0.9000000000 0.0140488777 0.0000000000 0.8000000000 0.0100799765 0.0000000000 0.9000000000 0.0140488777 0.0000000000 0.9000000000 0.0100799765 0.0000000000 0.9000000000 0.0100799765 0.0000000000 0.9000000000 0.0140488777 0.0000000000 1.0000000000 0.0140488777 0.0000000000 0.9000000000 0.0100799765 0.0000000000 1.0000000000 0.0140488777 0.0000000000 1.0000000000 0.0100799765 0.0000000000 0.0000000000 0.0140488777 0.0000000000 0.0000000000 0.0195378643 0.0000000000 0.1000000000 0.0195378643 0.0000000000 0.0000000000 0.0140488777 0.0000000000 0.1000000000 0.0195378643 0.0000000000 0.1000000000 0.0140488777 0.0000000000 0.1000000000 0.0140488777 0.0000000000 0.1000000000 0.0195378643 0.0000000000 0.2000000000 0.0195378643 0.0000000000 0.1000000000 0.0140488777 0.0000000000 0.2000000000 0.0195378643 0.0000000000 0.2000000000 0.0140488777 0.0000000000 0.2000000000 0.0140488777 0.0000000000 0.2000000000 0.0195378643 0.0000000000 0.3000000000 0.0195378643 0.0000000000 0.2000000000 0.0140488777 0.0000000000 0.3000000000 0.0195378643 0.0000000000 0.3000000000 0.0140488777 0.0000000000 0.3000000000 0.0140488777 0.0000000000 0.3000000000 0.0195378643 0.0000000000 0.4000000000 0.0195378643 0.0000000000 0.3000000000 0.0140488777 0.0000000000 0.4000000000 0.0195378643 0.0000000000 0.4000000000 0.0140488777 0.0000000000 0.4000000000 0.0140488777 0.0000000000 0.4000000000 0.0195378643 0.0000000000 0.5000000000 0.0195378643 0.0000000000 0.4000000000 0.0140488777 0.0000000000 0.5000000000 0.0195378643 0.0000000000 0.5000000000 0.0140488777 0.0000000000 0.5000000000 0.0140488777 0.0000000000 0.5000000000 0.0195378643 0.0000000000 0.6000000000 0.0195378643 0.0000000000 0.5000000000 0.0140488777 0.0000000000 0.6000000000 0.0195378643 0.0000000000 0.6000000000 0.0140488777 0.0000000000 0.6000000000 0.0140488777 0.0000000000 0.6000000000 0.0195378643 0.0000000000 0.7000000000 0.0195378643 0.0000000000 0.6000000000 0.0140488777 0.0000000000 0.7000000000 0.0195378643 0.0000000000 0.7000000000 0.0140488777 0.0000000000 0.7000000000 0.0140488777 0.0000000000 0.7000000000 0.0195378643 0.0000000000 0.8000000000 0.0195378643 0.0000000000 0.7000000000 0.0140488777 0.0000000000 0.8000000000 0.0195378643 0.0000000000 0.8000000000 0.0140488777 0.0000000000 0.8000000000 0.0140488777 0.0000000000 0.8000000000 0.0195378643 0.0000000000 0.9000000000 0.0195378643 0.0000000000 0.8000000000 0.0140488777 0.0000000000 0.9000000000 0.0195378643 0.0000000000 0.9000000000 0.0140488777 0.0000000000 0.9000000000 0.0140488777 0.0000000000 0.9000000000 0.0195378643 0.0000000000 1.0000000000 0.0195378643 0.0000000000 0.9000000000 0.0140488777 0.0000000000 1.0000000000 0.0195378643 0.0000000000 1.0000000000 0.0140488777 0.0000000000 0.0000000000 0.0195378643 0.0000000000 0.0000000000 0.0271291304 0.0000000000 0.1000000000 0.0271291304 0.0000000000 0.0000000000 0.0195378643 0.0000000000 0.1000000000 0.0271291304 0.0000000000 0.1000000000 0.0195378643 0.0000000000 0.1000000000 0.0195378643 0.0000000000 0.1000000000 0.0271291304 0.0000000000 0.2000000000 0.0271291304 0.0000000000 0.1000000000 0.0195378643 0.0000000000 0.2000000000 0.0271291304 0.0000000000 0.2000000000 0.0195378643 0.0000000000 0.2000000000 0.0195378643 0.0000000000 0.2000000000 0.0271291304 0.0000000000 0.3000000000 0.0271291304 0.0000000000 0.2000000000 0.0195378643 0.0000000000 0.3000000000 0.0271291304 0.0000000000 0.3000000000 0.0195378643 0.0000000000 0.3000000000 0.0195378643 0.0000000000 0.3000000000 0.0271291304 0.0000000000 0.4000000000 0.0271291304 0.0000000000 0.3000000000 0.0195378643 0.0000000000 0.4000000000 0.0271291304 0.0000000000 0.4000000000 0.0195378643 0.0000000000 0.4000000000 0.0195378643 0.0000000000 0.4000000000 0.0271291304 0.0000000000 0.5000000000 0.0271291304 0.0000000000 0.4000000000 0.0195378643 0.0000000000 0.5000000000 0.0271291304 0.0000000000 0.5000000000 0.0195378643 0.0000000000 0.5000000000 0.0195378643 0.0000000000 0.5000000000 0.0271291304 0.0000000000 0.6000000000 0.0271291304 0.0000000000 0.5000000000 0.0195378643 0.0000000000 0.6000000000 0.0271291304 0.0000000000 0.6000000000 0.0195378643 0.0000000000 0.6000000000 0.0195378643 0.0000000000 0.6000000000 0.0271291304 0.0000000000 0.7000000000 0.0271291304 0.0000000000 0.6000000000 0.0195378643 0.0000000000 0.7000000000 0.0271291304 0.0000000000 0.7000000000 0.0195378643 0.0000000000 0.7000000000 0.0195378643 0.0000000000 0.7000000000 0.0271291304 0.0000000000 0.8000000000 0.0271291304 0.0000000000 0.7000000000 0.0195378643 0.0000000000 0.8000000000 0.0271291304 0.0000000000 0.8000000000 0.0195378643 0.0000000000 0.8000000000 0.0195378643 0.0000000000 0.8000000000 0.0271291304 0.0000000000 0.9000000000 0.0271291304 0.0000000000 0.8000000000 0.0195378643 0.0000000000 0.9000000000 0.0271291304 0.0000000000 0.9000000000 0.0195378643 0.0000000000 0.9000000000 0.0195378643 0.0000000000 0.9000000000 0.0271291304 0.0000000000 1.0000000000 0.0271291304 0.0000000000 0.9000000000 0.0195378643 0.0000000000 1.0000000000 0.0271291304 0.0000000000 1.0000000000 0.0195378643 0.0000000000 0.0000000000 0.0271291304 0.0000000000 0.0000000000 0.0376278451 0.0000000000 0.1000000000 0.0376278451 0.0000000000 0.0000000000 0.0271291304 0.0000000000 0.1000000000 0.0376278451 0.0000000000 0.1000000000 0.0271291304 0.0000000000 0.1000000000 0.0271291304 0.0000000000 0.1000000000 0.0376278451 0.0000000000 0.2000000000 0.0376278451 0.0000000000 0.1000000000 0.0271291304 0.0000000000 0.2000000000 0.0376278451 0.0000000000 0.2000000000 0.0271291304 0.0000000000 0.2000000000 0.0271291304 0.0000000000 0.2000000000 0.0376278451 0.0000000000 0.3000000000 0.0376278451 0.0000000000 0.2000000000 0.0271291304 0.0000000000 0.3000000000 0.0376278451 0.0000000000 0.3000000000 0.0271291304 0.0000000000 0.3000000000 0.0271291304 0.0000000000 0.3000000000 0.0376278451 0.0000000000 0.4000000000 0.0376278451 0.0000000000 0.3000000000 0.0271291304 0.0000000000 0.4000000000 0.0376278451 0.0000000000 0.4000000000 0.0271291304 0.0000000000 0.4000000000 0.0271291304 0.0000000000 0.4000000000 0.0376278451 0.0000000000 0.5000000000 0.0376278451 0.0000000000 0.4000000000 0.0271291304 0.0000000000 0.5000000000 0.0376278451 0.0000000000 0.5000000000 0.0271291304 0.0000000000 0.5000000000 0.0271291304 0.0000000000 0.5000000000 0.0376278451 0.0000000000 0.6000000000 0.0376278451 0.0000000000 0.5000000000 0.0271291304 0.0000000000 0.6000000000 0.0376278451 0.0000000000 0.6000000000 0.0271291304 0.0000000000 0.6000000000 0.0271291304 0.0000000000 0.6000000000 0.0376278451 0.0000000000 0.7000000000 0.0376278451 0.0000000000 0.6000000000 0.0271291304 0.0000000000 0.7000000000 0.0376278451 0.0000000000 0.7000000000 0.0271291304 0.0000000000 0.7000000000 0.0271291304 0.0000000000 0.7000000000 0.0376278451 0.0000000000 0.8000000000 0.0376278451 0.0000000000 0.7000000000 0.0271291304 0.0000000000 0.8000000000 0.0376278451 0.0000000000 0.8000000000 0.0271291304 0.0000000000 0.8000000000 0.0271291304 0.0000000000 0.8000000000 0.0376278451 0.0000000000 0.9000000000 0.0376278451 0.0000000000 0.8000000000 0.0271291304 0.0000000000 0.9000000000 0.0376278451 0.0000000000 0.9000000000 0.0271291304 0.0000000000 0.9000000000 0.0271291304 0.0000000000 0.9000000000 0.0376278451 0.0000000000 1.0000000000 0.0376278451 0.0000000000 0.9000000000 0.0271291304 0.0000000000 1.0000000000 0.0376278451 0.0000000000 1.0000000000 0.0271291304 0.0000000000 0.0000000000 0.0376278451 0.0000000000 0.0000000000 0.0521475645 0.0000000000 0.1000000000 0.0521475645 0.0000000000 0.0000000000 0.0376278451 0.0000000000 0.1000000000 0.0521475645 0.0000000000 0.1000000000 0.0376278451 0.0000000000 0.1000000000 0.0376278451 0.0000000000 0.1000000000 0.0521475645 0.0000000000 0.2000000000 0.0521475645 0.0000000000 0.1000000000 0.0376278451 0.0000000000 0.2000000000 0.0521475645 0.0000000000 0.2000000000 0.0376278451 0.0000000000 0.2000000000 0.0376278451 0.0000000000 0.2000000000 0.0521475645 0.0000000000 0.3000000000 0.0521475645 0.0000000000 0.2000000000 0.0376278451 0.0000000000 0.3000000000 0.0521475645 0.0000000000 0.3000000000 0.0376278451 0.0000000000 0.3000000000 0.0376278451 0.0000000000 0.3000000000 0.0521475645 0.0000000000 0.4000000000 0.0521475645 0.0000000000 0.3000000000 0.0376278451 0.0000000000 0.4000000000 0.0521475645 0.0000000000 0.4000000000 0.0376278451 0.0000000000 0.4000000000 0.0376278451 0.0000000000 0.4000000000 0.0521475645 0.0000000000 0.5000000000 0.0521475645 0.0000000000 0.4000000000 0.0376278451 0.0000000000 0.5000000000 0.0521475645 0.0000000000 0.5000000000 0.0376278451 0.0000000000 0.5000000000 0.0376278451 0.0000000000 0.5000000000 0.0521475645 0.0000000000 0.6000000000 0.0521475645 0.0000000000 0.5000000000 0.0376278451 0.0000000000 0.6000000000 0.0521475645 0.0000000000 0.6000000000 0.0376278451 0.0000000000 0.6000000000 0.0376278451 0.0000000000 0.6000000000 0.0521475645 0.0000000000 0.7000000000 0.0521475645 0.0000000000 0.6000000000 0.0376278451 0.0000000000 0.7000000000 0.0521475645 0.0000000000 0.7000000000 0.0376278451 0.0000000000 0.7000000000 0.0376278451 0.0000000000 0.7000000000 0.0521475645 0.0000000000 0.8000000000 0.0521475645 0.0000000000 0.7000000000 0.0376278451 0.0000000000 0.8000000000 0.0521475645 0.0000000000 0.8000000000 0.0376278451 0.0000000000 0.8000000000 0.0376278451 0.0000000000 0.8000000000 0.0521475645 0.0000000000 0.9000000000 0.0521475645 0.0000000000 0.8000000000 0.0376278451 0.0000000000 0.9000000000 0.0521475645 0.0000000000 0.9000000000 0.0376278451 0.0000000000 0.9000000000 0.0376278451 0.0000000000 0.9000000000 0.0521475645 0.0000000000 1.0000000000 0.0521475645 0.0000000000 0.9000000000 0.0376278451 0.0000000000 1.0000000000 0.0521475645 0.0000000000 1.0000000000 0.0376278451 0.0000000000 0.0000000000 0.0521475645 0.0000000000 0.0000000000 0.0722283238 0.0000000000 0.1000000000 0.0722283238 0.0000000000 0.0000000000 0.0521475645 0.0000000000 0.1000000000 0.0722283238 0.0000000000 0.1000000000 0.0521475645 0.0000000000 0.1000000000 0.0521475645 0.0000000000 0.1000000000 0.0722283238 0.0000000000 0.2000000000 0.0722283238 0.0000000000 0.1000000000 0.0521475645 0.0000000000 0.2000000000 0.0722283238 0.0000000000 0.2000000000 0.0521475645 0.0000000000 0.2000000000 0.0521475645 0.0000000000 0.2000000000 0.0722283238 0.0000000000 0.3000000000 0.0722283238 0.0000000000 0.2000000000 0.0521475645 0.0000000000 0.3000000000 0.0722283238 0.0000000000 0.3000000000 0.0521475645 0.0000000000 0.3000000000 0.0521475645 0.0000000000 0.3000000000 0.0722283238 0.0000000000 0.4000000000 0.0722283238 0.0000000000 0.3000000000 0.0521475645 0.0000000000 0.4000000000 0.0722283238 0.0000000000 0.4000000000 0.0521475645 0.0000000000 0.4000000000 0.0521475645 0.0000000000 0.4000000000 0.0722283238 0.0000000000 0.5000000000 0.0722283238 0.0000000000 0.4000000000 0.0521475645 0.0000000000 0.5000000000 0.0722283238 0.0000000000 0.5000000000 0.0521475645 0.0000000000 0.5000000000 0.0521475645 0.0000000000 0.5000000000 0.0722283238 0.0000000000 0.6000000000 0.0722283238 0.0000000000 0.5000000000 0.0521475645 0.0000000000 0.6000000000 0.0722283238 0.0000000000 0.6000000000 0.0521475645 0.0000000000 0.6000000000 0.0521475645 0.0000000000 0.6000000000 0.0722283238 0.0000000000 0.7000000000 0.0722283238 0.0000000000 0.6000000000 0.0521475645 0.0000000000 0.7000000000 0.0722283238 0.0000000000 0.7000000000 0.0521475645 0.0000000000 0.7000000000 0.0521475645 0.0000000000 0.7000000000 0.0722283238 0.0000000000 0.8000000000 0.0722283238 0.0000000000 0.7000000000 0.0521475645 0.0000000000 0.8000000000 0.0722283238 0.0000000000 0.8000000000 0.0521475645 0.0000000000 0.8000000000 0.0521475645 0.0000000000 0.8000000000 0.0722283238 0.0000000000 0.9000000000 0.0722283238 0.0000000000 0.8000000000 0.0521475645 0.0000000000 0.9000000000 0.0722283238 0.0000000000 0.9000000000 0.0521475645 0.0000000000 0.9000000000 0.0521475645 0.0000000000 0.9000000000 0.0722283238 0.0000000000 1.0000000000 0.0722283238 0.0000000000 0.9000000000 0.0521475645 0.0000000000 1.0000000000 0.0722283238 0.0000000000 1.0000000000 0.0521475645 0.0000000000 0.0000000000 0.0722283238 0.0000000000 0.0000000000 0.1000000000 0.0000000000 0.1000000000 0.1000000000 0.0000000000 0.0000000000 0.0722283238 0.0000000000 0.1000000000 0.1000000000 0.0000000000 0.1000000000 0.0722283238 0.0000000000 0.1000000000 0.0722283238 0.0000000000 0.1000000000 0.1000000000 0.0000000000 0.2000000000 0.1000000000 0.0000000000 0.1000000000 0.0722283238 0.0000000000 0.2000000000 0.1000000000 0.0000000000 0.2000000000 0.0722283238 0.0000000000 0.2000000000 0.0722283238 0.0000000000 0.2000000000 0.1000000000 0.0000000000 0.3000000000 0.1000000000 0.0000000000 0.2000000000 0.0722283238 0.0000000000 0.3000000000 0.1000000000 0.0000000000 0.3000000000 0.0722283238 0.0000000000 0.3000000000 0.0722283238 0.0000000000 0.3000000000 0.1000000000 0.0000000000 0.4000000000 0.1000000000 0.0000000000 0.3000000000 0.0722283238 0.0000000000 0.4000000000 0.1000000000 0.0000000000 0.4000000000 0.0722283238 0.0000000000 0.4000000000 0.0722283238 0.0000000000 0.4000000000 0.1000000000 0.0000000000 0.5000000000 0.1000000000 0.0000000000 0.4000000000 0.0722283238 0.0000000000 0.5000000000 0.1000000000 0.0000000000 0.5000000000 0.0722283238 0.0000000000 0.5000000000 0.0722283238 0.0000000000 0.5000000000 0.1000000000 0.0000000000 0.6000000000 0.1000000000 0.0000000000 0.5000000000 0.0722283238 0.0000000000 0.6000000000 0.1000000000 0.0000000000 0.6000000000 0.0722283238 0.0000000000 0.6000000000 0.0722283238 0.0000000000 0.6000000000 0.1000000000 0.0000000000 0.7000000000 0.1000000000 0.0000000000 0.6000000000 0.0722283238 0.0000000000 0.7000000000 0.1000000000 0.0000000000 0.7000000000 0.0722283238 0.0000000000 0.7000000000 0.0722283238 0.0000000000 0.7000000000 0.1000000000 0.0000000000 0.8000000000 0.1000000000 0.0000000000 0.7000000000 0.0722283238 0.0000000000 0.8000000000 0.1000000000 0.0000000000 0.8000000000 0.0722283238 0.0000000000 0.8000000000 0.0722283238 0.0000000000 0.8000000000 0.1000000000 0.0000000000 0.9000000000 0.1000000000 0.0000000000 0.8000000000 0.0722283238 0.0000000000 0.9000000000 0.1000000000 0.0000000000 0.9000000000 0.0722283238 0.0000000000 0.9000000000 0.0722283238 0.0000000000 0.9000000000 0.1000000000 0.0000000000 1.0000000000 0.1000000000 0.0000000000 0.9000000000 0.0722283238 0.0000000000 1.0000000000 0.1000000000 0.0000000000 1.0000000000 0.0722283238 0.0000000000 
</DataArray>
</Points>
<Cells>
<DataArray type="UInt32" Name="connectivity" format="ascii">
0 1 2 3 4 5 6 7 8 9 10 11 12 13 14 15 16 17 18 19 20 21 22 23 24 25 26 27 28 29 30 31 32 33 34 35 36 37 38 39 40 41 42 43 44 45 46 47 48 49 50 51 52 53 54 55 56 57 58 59 60 61 62 63 64 65 66 67 68 69 70 71 72 73 74 75 76 77 78 79 80 81 82 83 84 85 86 87 88 89 90 91 92 93 94 95 96 97 98 99 100 101 102 103 104 105 106 107 108 109 110 111 112 113 114 115 116 117 118 119 120 121 122 123 124 125 126 127 128 129 130 131 132 133 134 135 136 137 138 139 140 141 142 143 144 145 146 147 148 149 150 151 152 153 154 155 156 157 158 159 160 161 162 163 164 165 166 167 168 169 170 171 172 173 174 175 176 177 178 179 180 181 182 183 184 185 186 187 188 189 190 191 192 193 194 195 196 197 198 199 200 201 202 203 204 205 206 207 208 209 210 211 212 213 214 215 216 217 218 219 220 221 222 223 224 225 226 227 228 229 230 231 232 233 234 235 236 237 238 239 240 241 242 243 244 245 246 247 248 249 250 251 252 253 254 255 256 257 258 259 260 261 262 263 264 265 266 267 268 269 270 271 272 273 274 275 276 277 278 279 280 281 282 283 284 285 286 287 288 289 290 291 292 293 294 295 296 297 298 299 300 301 302 303 304 305 306 307 308 309 310 311 312 313 314 315 316 317 318 319 320 321 322 323 324 325 326 327 328 329 330 331 332 333 334 335 336 337 338 339 340 341 342 343 344 345 346 347 348 349 350 351 352 353 354 355 356 357 358 359 360 361 362 363 364 365 366 367 368 369 370 371 372 373 374 375 376 377 378 379 380 381 382 383 384 385 386 387 388 389 390 391 392 393 394 395 396 397 398 399 400 401 402 403 404 405 406 407 408 409 410 411 412 413 414 415 416 417 418 419 420 421 422 423 424 425 426 427 428 429 430 431 432 433 434 435 436 437 438 439 440 441 442 443 444 445 446 447 448 449 450 451 452 453 454 455 456 457 458 459 460 461 462 463 464 465 466 467 468 469 470 471 472 473 474 475 476 477 478 479 480 481 482 483 484 485 486 487 488 489 490 491 492 493 494 495 496 497 498 499 500 501 502 503 504 505 506 507 508 509 510 511 512 513 514 515 516 517 518 519 520 521 522 523 524 525 526 527 528 529 530 531 532 533 534 535 536 537 538 539 540 541 542 543 544 545 546 547 548 549 550 551 552 553 554 555 556 557 558 559 560 561 562 563 564 565 566 567 568 569 570 571 572 573 574 575 576 577 578 579 580 581 582 583 584 585 586 587 588 589 590 591 592 593 594 595 596 597 598 599 600 601 602 603 604 605 606 607 608 609 610 611 612 613 614 615 616 617 618 619 620 621 622 623 624 625 626 627 628 629 630 631 632 633 634 635 636 637 638 639 640 641 642 643 644 645 646 647 648 649 650 651 652 653 654 655 656 657 658 659 660 661 662 663 664 665 666 667 668 669 670 671 672 673 674 675 676 677 678 679 680 681 682 683 684 685 686 687 688 689 690 691 692 693 694 695 696 697 698 699 700 701 702 703 704 705 706 707 708 709 710 711 712 713 714 715 716 717 718 719 720 721 722 723 724 725 726 727 728 729 730 731 732 733 734 735 736 737 738 739 740 741 742 743 744 745 746 747 748 749 750 751 752 753 754 755 756 757 758 759 760 761 762 763 764 765 766 767 768 769 770 771 772 773 774 775 776 777 778 779 780 781 782 783 784 785 786 787 788 789 790 791 792 793 794 795 796 797 798 799 800 801 802 803 804 805 806 807 808 809 810 811 812 813 814 815 816 817 818 819 820 821 822 823 824 825 826 827 828 829 830 831 832 833 834 835 836 837 838 839 840 841 842 843 844 845 846 847 848 849 850 851 852 853 854 855 856 857 858 859 860 861 862 863 864 865 866 867 868 869 870 871 872 873 874 875 876 877 878 879 880 881 882 883 884 885 886 887 888 889 890 891 892 893 894 895 896 897 898 899 900 901 902 903 904 905 906 907 908 909 910 911 912 913 914 915 916 917 918 919 920 921 922 923 924 925 926 927 928 929 930 931 932 933 934 935 936 937 938 939 940 941 942 943 944 945 946 947 948 949 950 951 952 953 954 955 956 957 958 959 960 961 962 963 964 965 966 967 968 969 970 971 972 973 974 975 976 977 978 979 980 981 982 983 984 985 986 987 988 989 990 991 992 993 994 995 996 997 998 999 1000 1001 1002 1003 1004 1005 1006 1007 1008 1009 1010 1011 1012 1013 1014 1015 1016 1017 1018 1019 1020 1021 1022 1023 1024 1025 1026 1027 1028 1029 1030 1031 1032 1033 1034 1035 1036 1037 1038 1039 1040 1041 1042 1043 1044 1045 1046 1047 1048 1049 1050 1051 1052 1053 1054 1055 1056 1057 1058 1059 1060 1061 1062 1063 1064 1065 1066 1067 1068 1069 1070 1071 1072 1073 1074 1075 1076 1077 1078 1079 1080 1081 1082 1083 1084 1085 1086 1087 1088 1089 1090 1091 1092 1093 1094 1095 1096 1097 1098 1099 1100 1101 1102 1103 1104 1105 1106 1107 1108 1109 1110 1111 1112 1113 1114 1115 1116 1117 1118 1119 1120 1121 1122 1123 1124 1125 1126 1127 1128 1129 1130 1131 1132 1133 1134 1135 1136 1137 1138 1139 1140 1141 1142 1143 1144 1145 1146 1147 1148 1149 1150 1151 1152 1153 1154 1155 1156 1157 1158 1159 
</DataArray>
<DataArray type="UInt32" Name="offsets" format="ascii">
2 4 6 8 10 12 14 16 18 20 23 26 29 32 35 38 41 44 47 50 53 56 59 62 65 68 71 74 77 80 83 86 89 92 95 98 101 104 107 110 113 116 119 122 125 128 131 134 137 140 143 146 149 152 155 158 161 164 167 170 173 176 179 182 185 188 191 194 197 200 203 206 209 212 215 218 221 224 227 230 233 236 239 242 245 248 251 254 257 260 263 266 269 272 275 278 281 284 287 290 293 296 299 302 305 308 311 314 317 320 323 326 329 332 335 338 341 344 347 350 353 356 359 362 365 368 371 374 377 380 383 386 389 392 395 398 401 404 407 410 413 416 419 422 425 428 431 434 437 440 443 446 449 452 455 458 461 464 467 470 473 476 479 482 485 488 491 494 497 500 503 506 509 512 515 518 521 524 527 530 533 536 539 542 545 548 551 554 557 560 563 566 569 572 575 578 581 584 587 590 593 596 599 602 605 608 611 614 617 620 623 626 629 632 635 638 641 644 647 650 653 656 659 662 665 668 671 674 677 680 683 686 689 692 695 698 701 704 707 710 713 716 719 722 725 728 731 734 737 740 743 746 749 752 755 758 761 764 767 770 773 776 779 782 785 788 791 794 797 800 803 806 809 812 815 818 821 824 827 830 833 836 839 842 845 848 851 854 857 860 863 866 869 872 875 878 881 884 887 890 893 896 899 902 905 908 911 914 917 920 923 926 929 932 935 938 941 944 947 950 953 956 959 962 965 968 971 974 977 980 983 986 989 992 995 998 1001 1004 1007 1010 1013 1016 1019 1022 1025 1028 1031 1034 1037 1040 1043 1046 1049 1052 1055 1058 1061 1064 1067 1070 1073 1076 1079 1082 1085 1088 1091 1094 1097 1100 1103 1106 1109 1112 1115 1118 1121 1124 1127 1130 1133 1136 1139 1142 1145 1148 1151 1154 1157 1160 
</DataArray>
<DataArray type="UInt32" Name="types" format="ascii">
3 3 3 3 3 3 3 3 3 3 5 5 5 5 5 5 5 5 5 5 5 5 5 5 5 5 5 5 5 5 5 5 5 5 5 5 5 5 5 5 5 5 5 5 5 5 5 5 5 5 5 5 5 5 5 5 5 5 5 5 5 5 5 5 5 5 5 5 5 5 5 5 5 5 5 5 5 5 5 5 5 5 5 5 5 5 5 5 5 5 5 5 5 5 5 5 5 5 5 5 5 5 5 5 5 5 5 5 5 5 5 5 5 5 5 5 5 5 5 5 5 5 5 5 5 5 5 5 5 5 5 5 5 5 5 5 5 5 5 5 5 5 5 5 5 5 5 5 5 5 5 5 5 5 5 5 5 5 5 5 5 5 5 5 5 5 5 5 5 5 5 5 5 5 5 5 5 5 5 5 5 5 5 5 5 5 5 5 5 5 5 5 5 5 5 5 5 5 5 5 5 5 5 5 5 5 5 5 5 5 5 5 5 5 5 5 5 5 5 5 5 5 5 5 5 5 5 5 5 5 5 5 5 5 5 5 5 5 5 5 5 5 5 5 5 5 5 5 5 5 5 5 5 5 5 5 5 5 5 5 5 5 5 5 5 5 5 5 5 5 5 5 5 5 5 5 5 5 5 5 5 5 5 5 5 5 5 5 5 5 5 5 5 5 5 5 5 5 5 5 5 5 5 5 5 5 5 5 5 5 5 5 5 5 5 5 5 5 5 5 5 5 5 5 5 5 5 5 5 5 5 5 5 5 5 5 5 5 5 5 5 5 5 5 5 5 5 5 5 5 5 5 5 5 5 5 5 5 5 5 5 5 5 5 5 5 5 5 5 5 5 5 5 5 5 5 5 5 5 5 5 5 5 5 5 5 5 5 5 5 
</DataArray>
</Cells>
<PointData Scalars="Ba-133_conc,region_id," Vectors="" Tensors="">
<DataArray type="Float64" Name="Ba-133_conc" format="ascii">
2583.6388513005 2533.2655063706 2533.1761085233 2385.8458457930 2385.9100289544 2154.9853305336 2154.9547619785 1859.0103241727 1859.0059134674 1527.0841220858 1527.0467770074 1186.8331110637 1186.7809004374 859.1397251915 859.0726461972 553.3260950986 553.2428076909 269.1297867343 269.0281029074 3.3483633770 2583.0210583630 876.5862328721 1160.8164768043 2583.0337920638 1160.7852569845 2532.9787723275 2532.9771375148 1160.7607326836 1328.6738027009 2532.9593040615 1328.6615753589 2385.9242738440 2385.9465012909 1328.6317006243 1497.9067483085 2385.9622248482 1497.8776559424 2155.3612460992 2155.3603039759 1497.8549992506 1658.5881608591 2155.3686162845 1658.5514588608 1859.6828398621 1859.6791852262 1658.5331434745 1799.6903915141 1859.7015693491 1799.6417123408 1527.9733872021 1527.9556858144 1799.6318992439 1915.3210386112 1527.9819477036 1915.2645332314 1187.8713374228 1187.8443518291 1915.2626338334 1997.6478446863 1187.8753021517 1997.5865121684 860.2634030472 860.2297228427 1997.5910341215 2043.2981976407 860.2619765483 2043.2383085249 554.4936504805 554.4553526929 2043.2494177499 2050.3081490370 554.4870708485 2050.2471566810 270.3267398211 270.2901017219 2050.2563988699 1922.3848660614 270.3036809906 1922.3529145213 4.6391628111 849.2826912424 -10.5140614531 -136.4236104416 875.3718199946 -155.8664434906 1160.3755806033 1140.9765851250 -134.9978990019 -150.3480255698 1159.6652892995 -166.8389852143 1328.2827732777 1312.3604018323 -148.8785293738 -161.1939217116 1327.7027945810 -173.2101733606 1497.8864900398 1487.0908971769 -159.9002829113 -167.7964573974 1497.1830125883 -173.4807527531 1659.0353712009 1655.1035879304 -166.6693743607 -168.3527949178 1658.2201501016 -166.0852380009 1800.6487630345 1805.0022845278 -167.4235077407 -161.5840942181 1799.7503944164 -150.1871594200 1916.8113762373 1930.3114189564 -160.8206064760 -146.7211389502 1915.8577449761 -125.7122600910 1999.6335695712 2022.4205406541 -146.0881099586 -123.4835480808 1998.6650264132 -93.1511385044 2045.6855029222 2076.9160801822 -122.7889356155 -92.1359197527 2044.7674560464 -55.2262339592 2053.0611716099 2092.5344933499 -95.2591528358 -129.2823723146 2052.1723498369 -70.5449036012 1924.7154742758 -9.7058802302 -0.6481168670 4.4889444446 -10.3238381382 5.3228225487 -126.6971452543 -122.8087808426 3.8220095673 9.9996894977 -126.3509424178 12.0405731555 -142.4286932101 -139.4224115323 10.2233371432 9.9939238209 -141.5552503293 11.2291473778 -155.5339700592 -154.3897953250 10.5561600982 10.0779868003 -154.6287676527 10.0210545215 -165.2979696829 -166.6362732593 10.8216328462 9.5939231002 -164.3317193699 7.8369969724 -169.8273099064 -174.2507520985 10.5158012107 8.4267874114 -168.8302372931 4.6120001053 -167.6055589305 -175.5431022286 9.4923558858 6.5022148122 -166.5857995621 0.3866405282 -157.5176573902 -169.1459613820 7.6559164869 3.7198124028 -156.4758632511 -4.8510266808 -138.9173294856 -154.0713761667 4.6745215696 1.2577867001 -138.0417059194 -8.6123713982 -110.1497515260 -128.6555556056 4.6117361459 -2.0961937043 -109.1125123524 -20.0544631258 -164.4558401084 -0.3787078582 0.0718952027 -0.1494538057 -0.4460763336 -0.2010387501 3.8996052071 3.3495757171 -0.0304296760 -0.9735958727 3.4690811596 -1.3952249851 8.8357566792 8.0111632356 -0.8273327210 -1.1373282947 8.7703385256 -1.6285492119 9.5493433836 8.9106133486 -1.0959364297 -1.1126735851 9.4449510725 -1.4453413072 10.2208861513 9.9368562230 -1.1377940804 -1.1202334153 10.1536493726 -1.1649612618 10.5249576440 10.7467762108 -1.1709850584 -1.0440707010 10.5010118434 -0.6893668394 10.3059504325 11.1972977379 -1.1302516044 -0.8694543239 10.3412483265 -0.0013808543 9.4295497228 11.1378949703 -0.9967333807 -0.5864539397 9.5343304953 0.9109437691 7.7838768548 10.4320341819 -0.7075170634 -0.0924236034 7.9869844050 1.9500994293 5.4535890768 9.1929031326 -0.7016213780 -0.2434279606 6.4576170558 3.7550604327 8.0217796107 0.0224606232 -0.0034697916 0.0009536982 0.0377363367 -0.0019410974 -0.0852124543 -0.0456974956 -0.0107806311 0.0462536813 -0.0543872246 0.0958380481 -0.6240016277 -0.4168988698 0.0189360001 0.0887652715 -0.5800220526 0.2164138589 -0.7946828940 -0.5586518117 0.0752539974 0.0990253769 -0.7701606157 0.2432311445 -0.8742148014 -0.6486836186 0.0926885906 0.1101554201 -0.8625058680 0.2565329735 -0.9752341013 -0.7661578855 0.1081443414 0.1238665602 -0.9670088524 0.2591831748 -1.0506252091 -0.8833797519 0.1244698005 0.1337253090 -1.0478161760 0.2424014497 -1.0849238062 -0.9916331159 0.1386307893 0.1400399808 -1.0903206075 0.2032912950 -1.0747870664 -1.0911119447 0.1531065380 0.1214784174 -1.0759205369 0.1054223393 -0.8276906686 -1.0055069988 0.1241036151 0.2482016967 -0.9639587271 0.1811786616 -2.0836547349 -0.0002545108 0.0000300379 0.0000576287 -0.0010063074 0.0004027983 0.0000907624 -0.0003650342 0.0003630260 -0.0005275800 -0.0014752628 -0.0019917434 0.0145032954 0.0046129541 0.0002064369 -0.0024000658 0.0101779131 -0.0111152516 0.0312160217 0.0113970242 -0.0014911152 -0.0032670917 0.0284677481 -0.0160487159 0.0389967040 0.0148087191 -0.0025528471 -0.0038479618 0.0362563176 -0.0194545814 0.0469524155 0.0187890483 -0.0032844310 -0.0048285359 0.0446566955 -0.0234481245 0.0570563390 0.0239449746 -0.0042045950 -0.0060201318 0.0545202105 -0.0277151349 0.0678484392 0.0300325407 -0.0053047724 -0.0074039390 0.0652458067 -0.0320855706 0.0797591792 0.0378234120 -0.0068182569 -0.0087009110 0.0778785045 -0.0352173695 0.0837707777 0.0384376143 -0.0057954729 -0.0140950824 0.0735879804 -0.0510547746 0.1809746827 0.0000004161 0.0000000237 -0.0000002713 0.0000047522 -0.0000037960 0.0000085621 0.0000039755 -0.0000012070 0.0000006084 0.0000350671 0.0000021206 -0.0000621371 -0.0000052628 -0.0000031435 0.0000084813 -0.0000127985 0.0000874031 -0.0003274593 -0.0000464245 0.0000019111 0.0000173317 -0.0002573311 0.0002041305 -0.0004839097 -0.0000724644 0.0000112897 0.0000221635 -0.0004112250 0.0002786254 -0.0006136254 -0.0000959703 0.0000165306 0.0000288863 -0.0005452928 0.0003649825 -0.0008039698 -0.0001301021 0.0000224383 0.0000389098 -0.0007219308 0.0004782390 -0.0010498327 -0.0001754334 0.0000305325 0.0000519965 -0.0009456434 0.0006198216 -0.0013584071 -0.0002377730 0.0000418775 0.0000689319 -0.0012533017 0.0007977269 -0.0017053977 -0.0002749980 0.0000443897 0.0000981721 -0.0012780595 0.0010521141 -0.0028749516 -0.0000000000 -0.0000000000 0.0000000001 -0.0000000011 0.0000000037 -0.0000000132 -0.0000000020 0.0000000004 0.0000000003 -0.0000000504 0.0000000174 0.0000000205 -0.0000000025 0.0000000025 -0.0000000027 -0.0000000825 -0.0000000653 0.0000003947 0.0000000177 0.0000000019 -0.0000000111 0.0000002164 -0.0000003448 0.0000008886 0.0000000466 -0.0000000054 -0.0000000167 0.0000006801 -0.0000005638 0.0000012220 0.0000000665 -0.0000000111 -0.0000000218 0.0000009900 -0.0000007761 0.0000016474 0.0000000924 -0.0000000157 -0.0000000305 0.0000013728 -0.0000010744 0.0000022776 0.0000001306 -0.0000000223 -0.0000000429 0.0000019060 -0.0000014818 0.0000031305 0.0000001846 -0.0000000317 -0.0000000603 0.0000026616 -0.0000020477 0.0000042862 0.0000002395 -0.0000000409 -0.0000000825 0.0000031262 -0.0000026781 0.0000062534 -0.0000000000 0.0000000000 -0.0000000000 -0.0000000000 -0.0000000000 0.0000000000 0.0000000000 -0.0000000000 -0.0000000000 0.0000000000 -0.0000000000 0.0000000000 0.0000000000 -0.0000000000 0.0000000000 0.0000000000 -0.0000000000 -0.0000000000 -0.0000000000 -0.0000000000 0.0000000000 0.0000000000 0.0000000001 -0.0000000002 -0.0000000000 0.0000000000 0.0000000000 -0.0000000001 0.0000000001 -0.0000000003 -0.0000000000 0.0000000000 0.0000000000 -0.0000000002 0.0000000002 -0.0000000004 -0.0000000000 0.0000000000 0.0000000000 -0.0000000003 0.0000000003 -0.0000000006 -0.0000000000 0.0000000000 0.0000000000 -0.0000000005 0.0000000004 -0.0000000009 -0.0000000000 0.0000000000 0.0000000000 -0.0000000007 0.0000000006 -0.0000000012 -0.0000000000 0.0000000000 0.0000000000 -0.0000000009 0.0000000008 -0.0000000017 0.0000000000 -0.0000000000 0.0000000000 0.0000000000 -0.0000000000 -0.0000000000 -0.0000000000 -0.0000000000 0.0000000000 -0.0000000000 0.0000000000 -0.0000000000 -0.0000000000 0.0000000000 0.0000000000 -0.0000000000 0.0000000000 0.0000000000 -0.0000000000 0.0000000000 -0.0000000000 -0.0000000000 -0.0000000000 0.0000000000 0.0000000000 0.0000000000 -0.0000000000 0.0000000000 -0.0000000000 0.0000000000 0.0000000000 -0.0000000000 -0.0000000000 0.0000000000 -0.0000000000 0.0000000000 0.0000000000 -0.0000000000 -0.0000000000 0.0000000000 -0.0000000000 0.0000000000 0.0000000000 -0.0000000000 -0.0000000000 0.0000000000 -0.0000000000 0.0000000000 0.0000000000 -0.0000000000 -0.0000000000 0.0000000000 -0.0000000000 0.0000000000 0.0000000000 -0.0000000000 -0.0000000000 0.0000000000 -0.0000000000 0.0000000000 -0.0000000000 0.0000000000 0.0000000000 -0.0000000000 0.0000000000 0.0000000000 -0.0000000000 0.0000000000 -0.0000000000 -0.0000000000 -0.0000000000 0.0000000000 0.0000000000 -0.0000000000 -0.0000000000 0.0000000000 -0.0000000000 0.0000000000 0.0000000000 -0.0000000000 0.0000000000 0.0000000000 -0.0000000000 -0.0000000000 -0.0000000000 -0.0000000000 0.0000000000 0.0000000000 0.0000000000 -0.0000000000 -0.0000000000 -0.0000000000 0.0000000000 -0.0000000000 0.0000000000 -0.0000000000 -0.0000000000 0.0000000000 0.0000000000 -0.0000000000 0.0000000000 -0.0000000000 -0.0000000000 0.0000000000 0.0000000000 -0.0000000000 0.0000000000 -0.0000000000 -0.0000000000 0.0000000000 0.0000000000 -0.0000000000 0.0000000000 -0.0000000000 -0.0000000000 0.0000000000 0.0000000000 -0.0000000000 0.0000000000 -0.0000000000 0.0000000000 0.0000000000 -0.0000000000 0.0000000000 -0.0000000000 0.0000000000 0.0000000000 -0.0000000000 0.0000000000 0.0000000000 -0.0000000000 -0.0000000000 -0.0000000000 -0.0000000000 0.0000000000 -0.0000000000 0.0000000000 -0.0000000000 -0.0000000000 0.0000000000 0.0000000000 -0.0000000000 0.0000000000 -0.0000000000 -0.0000000000 0.0000000000 -0.0000000000 -0.0000000000 -0.0000000000 0.0000000000 0.0000000000 0.0000000000 -0.0000000000 0.0000000000 -0.0000000000 0.0000000000 0.0000000000 -0.0000000000 -0.0000000000 0.0000000000 -0.0000000000 0.0000000000 0.0000000000 -0.0000000000 -0.0000000000 0.0000000000 -0.0000000000 0.0000000000 0.0000000000 -0.0000000000 -0.0000000000 0.0000000000 -0.0000000000 0.0000000000 0.0000000000 -0.0000000000 -0.0000000000 0.0000000000 -0.0000000000 0.0000000000 0.0000000000 -0.0000000000 0.0000000000 0.0000000000 0.0000000000 -0.0000000000 -0.0000000000 0.0000000000 0.0000000000 -0.0000000000 0.0000000000 0.0000000000 -0.0000000000 0.0000000000 -0.0000000000 -0.0000000000 -0.0000000000 0.0000000000 0.0000000000 0.0000000000 -0.0000000000 0.0000000000 -0.0000000000 0.0000000000 0.0000000000 -0.0000000000 -0.0000000000 0.0000000000 -0.0000000000 -0.0000000000 0.0000000000 -0.0000000000 0.0000000000 0.0000000000 0.0000000000 -0.0000000000 -0.0000000000 -0.0000000000 0.0000000000 -0.0000000000 0.0000000000 -0.0000000000 -0.0000000000 0.0000000000 0.0000000000 -0.0000000000 0.0000000000 -0.0000000000 -0.0000000000 0.0000000000 0.0000000000 -0.0000000000 0.0000000000 -0.0000000000 -0.0000000000 0.0000000000 0.0000000000 -0.0000000000 0.0000000000 -0.0000000000 -0.0000000000 0.0000000000 0.0000000000 -0.0000000000 -0.0000000000 0.0000000000 0.0000000000 0.0000000000 -0.0000000000 0.0000000000 -0.0000000000 0.0000000000 0.0000000000 -0.0000000000 -0.0000000000 0.0000000000 -0.0000000000 -0.0000000000 -0.0000000000 -0.0000000000 0.0000000000 0.0000000000 0.0000000000 -0.0000000000 -0.0000000000 0.0000000000 0.0000000000 -0.0000000000 0.0000000000 -0.0000000000 -0.0000000000 0.0000000000 0.0000000000 -0.0000000000 0.0000000000 0.0000000000 0.0000000000 0.0000000000 -0.0000000000 -0.0000000000 -0.0000000000 0.0000000000 0.0000000000 -0.0000000000 -0.0000000000 0.0000000000 -0.0000000000 0.0000000000 0.0000000000 -0.0000000000 -0.0000000000 0.0000000000 -0.0000000000 0.0000000000 0.0000000000 -0.0000000000 -0.0000000000 0.0000000000 -0.0000000000 0.0000000000 -0.0000000000 0.0000000000 -0.0000000000 0.0000000000 -0.0000000000 -0.0000000000 0.0000000000 -0.0000000000 -0.0000000000 0.0000000000 0.0000000000 -0.0000000000 -0.0000000000 -0.0000000000 0.0000000000 -0.0000000000 0.0000000000 -0.0000000000 -0.0000000000 0.0000000000 0.0000000000 -0.0000000000 0.0000000000 0.0000000000 0.0000000000 0.0000000000 -0.0000000000 -0.0000000000 -0.0000000000 0.0000000000 0.0000000000 -0.0000000000 -0.0000000000 0.0000000000 -0.0000000000 -0.0000000000 0.0000000000 -0.0000000000 0.0000000000 0.0000000000 0.0000000000 -0.0000000000 -0.0000000000 -0.0000000000 0.0000000000 0.0000000000 0.0000000000 -0.0000000000 -0.0000000000 0.0000000000 0.0000000000 -0.0000000000 0.0000000000 -0.0000000000 -0.0000000000 0.0000000000 0.0000000000 -0.0000000000 0.0000000000 -0.0000000000 -0.0000000000 0.0000000000 -0.0000000000 -0.0000000000 -0.0000000000 -0.0000000000 0.0000000000 -0.0000000000 -0.0000000000 0.0000000000 0.0000000000 -0.0000000000 0.0000000000 -0.0000000000 0.0000000000 0.0000000000 0.0000000000 0.0000000000 -0.0000000000 0.0000000000 0.0000000000 -0.0000000000 -0.0000000000 0.0000000000 -0.0000000000 0.0000000000 0.0000000000 -0.0000000000 -0.0000000000 -0.0000000000 0.0000000000 -0.0000000000 -0.0000000000 0.0000000000 0.0000000000 -0.0000000000 0.0000000000 -0.0000000000 0.0000000000 0.0000000000 0.0000000000 0.0000000000 -0.0000000000 0.0000000000 -0.0000000000 -0.0000000000 0.0000000000 0.0000000000 0.0000000000 0.0000000000 -0.0000000000 0.0000000000 -0.0000000000 -0.0000000000 0.0000000000 -0.0000000000 -0.0000000000 0.0000000000 -0.0000000000 -0.0000000000 -0.0000000000 0.0000000000 -0.0000000000 -0.0000000000 0.0000000000 -0.0000000000 0.0000000000 -0.0000000000 -0.0000000000 0.0000000000 0.0000000000 -0.0000000000 0.0000000000 -0.0000000000 0.0000000000 0.0000000000 -0.0000000000 0.0000000000 -0.0000000000 0.0000000000 0.0000000000 -0.0000000000 -0.0000000000 0.0000000000 -0.0000000000 0.0000000000 0.0000000000 -0.0000000000 -0.0000000000 0.0000000000 0.0000000000 -0.0000000000 -0.0000000000 0.0000000000 0.0000000000 -0.0000000000 0.0000000000 -0.0000000000 -0.0000000000 0.0000000000 -0.0000000000 -0.0000000000 -0.0000000000 0.0000000000 0.0000000000 0.0000000000 -0.0000000000 -0.0000000000 -0.0000000000 -0.0000000000 -0.0000000000 -0.0000000000 0.0000000000 0.0000000000 -0.0000000000 -0.0000000000 -0.0000000000 -0.0000000000 0.0000000000 0.0000000000 -0.0000000000 0.0000000000 -0.0000000000 -0.0000000000 0.0000000000 -0.0000000000 0.0000000000 -0.0000000000 -0.0000000000 0.0000000000 0.0000000000 -0.0000000000 0.0000000000 -0.0000000000 0.0000000000 0.0000000000 -0.0000000000 0.0000000000 -0.0000000000 0.0000000000 0.0000000000 -0.0000000000 -0.0000000000 0.0000000000 -0.0000000000 0.0000000000 -0.0000000000 -0.0000000000 0.0000000000 0.0000000000 0.0000000000 -0.0000000000 -0.0000000000 0.0000000000 0.0000000000 -0.0000000000 0.0000000000 -0.0000000000 -0.0000000000 0.0000000000 0.0000000000 -0.0000000000 -0.0000000000 0.0000000000 0.0000000000 -0.0000000000 0.0000000000 0.0000000000 -0.0000000000 0.0000000000 -0.0000000000 -0.0000000000 0.0000000000 0.0000000000 -0.0000000000 0.0000000000 -0.0000000000 -0.0000000000 0.0000000000 -0.0000000000 -0.0000000000 0.0000000000 -0.0000000000 -0.0000000000 0.0000000000 -0.0000000000 0.0000000000 -0.0000000000 -0.0000000000 0.0000000000 0.0000000000 -0.0000000000 0.0000000000 -0.0000000000 0.0000000000 0.0000000000 -0.0000000000 0.0000000000 -0.0000000000 0.0000000000 0.0000000000 -0.0000000000 -0.0000000000 0.0000000000 -0.0000000000 0.0000000000 -0.0000000000 -0.0000000000 0.0000000000 0.0000000000 0.0000000000 -0.0000000000 -0.0000000000 0.0000000000 0.0000000000 -0.0000000000 0.0000000000 -0.0000000000 0.0000000000 0.0000000000 -0.0000000000 -0.0000000000 -0.0000000000 0.0000000000 0.0000000000 -0.0000000000 0.0000000000 0.0000000000 -0.0000000000 0.0000000000 -0.0000000000 -0.0000000000 0.0000000000 -0.0000000000 -0.0000000000 0.0000000000 -0.0000000000 -0.0000000000 0.0000000000 -0.0000000000 
</DataArray>
<DataArray type="Int32" Name="region_id" format="ascii">
2 2 2 2 2 2 2 2 2 2 2 2 2 2 2 2 2 2 2 2 1 1 1 1 1 1 1 1 1 1 1 1 1 1 1 1 1 1 1 1 1 1 1 1 1 1 1 1 1 1 1 1 1 1 1 1 1 1 1 1 1 1 1 1 1 1 1 1 1 1 1 1 1 1 1 1 1 1 1 1 1 1 1 1 1 1 1 1 1 1 1 1 1 1 1 1 1 1 1 1 1 1 1 1 1 1 1 1 1 1 1 1 1 1 1 1 1 1 1 1 1 1 1 1 1 1 1 1 1 1 1 1 1 1 1 1 1 1 1 1 1 1 1 1 1 1 1 1 1 1 1 1 1 1 1 1 1 1 1 1 1 1 1 1 1 1 1 1 1 1 1 1 1 1 1 1 1 1 1 1 1 1 1 1 1 1 1 1 1 1 1 1 1 1 1 1 1 1 1 1 1 1 1 1 1 1 1 1 1 1 1 1 1 1 1 1 1 1 1 1 1 1 1 1 1 1 1 1 1 1 1 1 1 1 1 1 1 1 1 1 1 1 1 1 1 1 1 1 1 1 1 1 1 1 1 1 1 1 1 1 1 1 1 1 1 1 1 1 1 1 1 1 1 1 1 1 1 1 1 1 1 1 1 1 1 1 1 1 1 1 1 1 1 1 1 1 1 1 1 1 1 1 1 1 1 1 1 1 1 1 1 1 1 1 1 1 1 1 1 1 1 1 1 1 1 1 1 1 1 1 1 1 1 1 1 1 1 1 1 1 1 1 1 1 1 1 1 1 1 1 1 1 1 1 1 1 1 1 1 1 1 1 1 1 1 1 1 1 1 1 1 1 1 1 1 1 1 1 1 1 1 1 1 1 1 1 1 1 1 1 1 1 1 1 1 1 1 1 1 1 1 1 1 1 1 1 1 1 1 1 1 1 1 1 1 1 1 1 1 1 1 1 1 1 1 1 1 1 1 1 1 1 1 1 1 1 1 1 1 1 1 1 1 1 1 1 1 1 1 1 1 1 1 1 1 1 1 1 1 1 1 1 1 1 1 1 1 1 1 1 1 1 1 1 1 1 1 1 1 1 1 1 1 1 1 1 1 1 1 1 1 1 1 1 1 1 1 1 1 1 1 1 1 1 1 1 1 1 1 1 1 1 1 1 1 1 1 1 1 1 1 1 1 1 1 1 1 1 1 1 1 1 1 1 1 1 1 1 1 1 1 1 1 1 1 1 1 1 1 1 1 1 1 1 1 1 1 1 1 1 1 1 1 1 1 1 1 1 1 1 1 1 1 1 1 1 1 1 1 1 1 1 1 1 1 1 1 1 1 1 1 1 1 1 1 1 1 1 1 1 1 1 1 1 1 1 1 1 1 1 1 1 1 1 1 1 1 1 1 1 1 1 1 1 1 1 1 1 1 1 1 1 1 1 1 1 1 1 1 1 1 1 1 1 1 1 1 1 1 1 1 1 1 1 1 1 1 1 1 1 1 1 1 1 1 1 1 1 1 1 1 1 1 1 1 1 1 1 1 1 1 1 1 1 1 1 1 1 1 1 1 1 1 1 1 1 1 1 1 1 1 1 1 1 1 1 1 1 1 1 1 1 1 1 1 1 1 1 1 1 1 1 1 1 1 1 1 1 1 1 1 1 1 1 1 1 1 1 1 1 1 1 1 1 1 1 1 1 1 1 1 1 1 1 1 1 1 1 1 1 1 1 1 1 1 1 1 1 1 1 1 1 1 1 1 1 1 1 1 1 1 1 1 1 1 1 1 1 1 1 1 1 1 1 1 1 1 1 1 1 1 1 1 1 1 1 1 1 1 1 1 1 1 1 1 1 1 1 1 1 1 1 1 1 1 1 1 1 1 1 1 1 1 1 1 1 1 1 1 1 1 1 1 1 1 1 1 1 1 1 1 1 1 1 1 1 1 1 1 1 1 1 1 1 1 1 1 1 1 1 1 1 1 1 1 1 1 1 1 1 1 1 1 1 1 1 1 1 1 1 1 1 1 1 1 1 1 1 1 1 1 1 1 1 1 1 1 1 1 1 1 1 1 1 1 1 1 1 1 1 1 1 1 1 1 1 1 1 1 1 1 1 1 1 1 1 1 1 1 1 1 1 1 1 1 1 1 1 1 1 1 1 1 1 1 1 1 1 1 1 1 1 1 1 1 1 1 1 1 1 1 1 1 1 1 1 1 1 1 1 1 1 1 1 1 1 1 1 1 1 1 1 1 1 1 1 1 1 1 1 1 1 1 1 1 1 1 1 1 1 1 1 1 1 1 1 1 1 1 1 1 1 1 1 1 1 1 1 1 1 1 1 1 1 1 1 1 1 1 1 1 1 1 1 1 1 1 1 1 1 1 1 1 1 1 1 1 1 1 1 1 1 1 1 1 1 1 1 1 1 1 1 1 1 1 1 1 1 1 1 1 1 1 1 1 1 1 1 1 1 1 1 1 1 1 1 1 1 1 1 1 1 1 1 1 1 1 1 1 1 1 1 1 1 1 1 1 1 1 1 1 1 1 1 1 1 1 1 1 1 1 1 1 1 1 1 1 1 1 1 1 1 1 1 1 1 1 1 1 1 1 1 1 1 1 1 1 1 1 1 
</DataArray>
</PointData>
</Piece>
</UnstructuredGrid>
</VTKFile>
