<?xml version="1.0"?>
<VTKFile type="UnstructuredGrid" version="0.1" byte_order="LittleEndian">
<UnstructuredGrid>
<Piece NumberOfPoints="1160" NumberOfCells="390">
<Points>
<DataArray type="Float64" NumberOfComponents="3" format="ascii">
0.0000000000 0.0000000000 0.0000000000 0.1000000000 0.0000000000 0.0000000000 0.1000000000 0.0000000000 0.0000000000 0.2000000000 0.0000000000 0.0000000000 0.2000000000 0.0000000000 0.0000000000 0.3000000000 0.0000000000 0.0000000000 0.3000000000 0.0000000000 0.0000000000 0.4000000000 0.0000000000 0.0000000000 0.4000000000 0.0000000000 0.0000000000 0.5000000000 0.0000000000 0.0000000000 0.5000000000 0.0000000000 0.0000000000 0.6000000000 0.0000000000 0.0000000000 0.6000000000 0.0000000000 0.0000000000 0.7000000000 0.0000000000 0.0000000000 0.7000000000 0.0000000000 0.0000000000 0.8000000000 0.0000000000 0.0000000000 0.8000000000 0.0000000000 0.0000000000 0.9000000000 0.0000000000 0.0000000000 0.9000000000 0.0000000000 0.0000000000 1.0000000000 0.0000000000 0.0000000000 0.0000000000 0.0000000000 0.0000000000 0.0000000000 0.0000100000 0.0000000000 0.1000000000 0.0000100000 0.0000000000 0.0000000000 0.0000000000 0.0000000000 0.1000000000 0.0000100000 0.0000000000 0.1000000000 0.0000000000 0.0000000000 0.1000000000 0.0000000000 0.0000000000 0.1000000000 0.0000100000 0.0000000000 0.2000000000 0.0000100000 0.0000000000 0.1000000000 0.0000000000 0.0000000000 0.2000000000 0.0000100000 0.0000000000 0.2000000000 0.0000000000 0.0000000000 0.2000000000 0.0000000000 0.0000000000 0.2000000000 0.0000100000 0.0000000000 0.3000000000 0.0000100000 0.0000000000 0.2000000000 0.0000000000 0.0000000000 0.3000000000 0.0000100000 0.0000000000 0.3000000000 0.0000000000 0.0000000000 0.3000000000 0.0000000000 0.0000000000 0.3000000000 0.0000100000 0.0000000000 0.4000000000 0.0000100000 0.0000000000 0.3000000000 0.0000000000 0.0000000000 0.4000000000 0.0000100000 0.0000000000 0.4000000000 0.0000000000 0.0000000000 0.4000000000 0.0000000000 0.0000000000 0.4000000000 0.0000100000 0.0000000000 0.5000000000 0.0000100000 0.0000000000 0.4000000000 0.0000000000 0.0000000000 0.5000000000 0.0000100000 0.0000000000 0.5000000000 0.0000000000 0.0000000000 0.5000000000 0.0000000000 0.0000000000 0.5000000000 0.0000100000 0.0000000000 0.6000000000 0.0000100000 0.0000000000 0.5000000000 0.0000000000 0.0000000000 0.6000000000 0.0000100000 0.0000000000 0.6000000000 0.0000000000 0.0000000000 0.6000000000 0.0000000000 0.0000000000 0.6000000000 0.0000100000 0.0000000000 0.7000000000 0.0000100000 0.0000000000 0.6000000000 0.0000000000 0.0000000000 0.7000000000 0.0000100000 0.0000000000 0.7000000000 0.0000000000 0.0000000000 0.7000000000 0.0000000000 0.0000000000 0.7000000000 0.0000100000 0.0000000000 0.8000000000 0.0000100000 0.0000000000 0.7000000000 0.0000000000 0.0000000000 0.8000000000 0.0000100000 0.0000000000 0.8000000000 0.0000000000 0.0000000000 0.8000000000 0.0000000000 0.0000000000 0.8000000000 0.0000100000 0.0000000000 0.9000000000 0.0000100000 0.0000000000 0.8000000000 0.0000000000 0.0000000000 0.9000000000 0.0000100000 0.0000000000 0.9000000000 0.0000000000 0.0000000000 0.9000000000 0.0000000000 0.0000000000 0.9000000000 0.0000100000 0.0000000000 1.0000000000 0.0000100000 0.0000000000 0.9000000000 0.0000000000 0.0000000000 1.0000000000 0.0000100000 0.0000000000 1.0000000000 0.0000000000 0.0000000000 0.0000000000 0.0000100000 0.0000000000 0.0000000000 0.0001221059 0.0000000000 0.1000000000 0.0001221059 0.0000000000 0.0000000000 0.0000100000 0.0000000000 0.1000000000 0.0001221059 0.0000000000 0.1000000000 0.0000100000 0.0000000000 0.1000000000 0.0000100000 0.0000000000 0.1000000000 0.0001221059 0.0000000000 0.2000000000 0.0001221059 0.0000000000 0.1000000000 0.0000100000 0.0000000000 0.2000000000 0.0001221059 0.0000000000 0.2000000000 0.0000100000 0.0000000000 0.2000000000 0.0000100000 0.0000000000 0.2000000000 0.0001221059 0.0000000000 0.3000000000 0.0001221059 0.0000000000 0.2000000000 0.0000100000 0.0000000000 0.3000000000 0.0001221059 0.0000000000 0.3000000000 0.0000100000 0.0000000000 0.3000000000 0.0000100000 0.0000000000 0.3000000000 0.0001221059 0.0000000000 0.4000000000 0.0001221059 0.0000000000 0.3000000000 0.0000100000 0.0000000000 0.4000000000 0.0001221059 0.0000000000 0.4000000000 0.0000100000 0.0000000000 0.4000000000 0.0000100000 0.0000000000 0.4000000000 0.0001221059 0.0000000000 0.5000000000 0.0001221059 0.0000000000 0.4000000000 0.0000100000 0.0000000000 0.5000000000 0.0001221059 0.0000000000 0.5000000000 0.0000100000 0.0000000000 0.5000000000 0.0000100000 0.0000000000 0.5000000000 0.0001221059 0.0000000000 0.6000000000 0.0001221059 0.0000000000 0.5000000000 0.0000100000 0.0000000000 0.6000000000 0.0001221059 0.0000000000 0.6000000000 0.0000100000 0.0000000000 0.6000000000 0.0000100000 0.0000000000 0.6000000000 0.0001221059 0.0000000000 0.7000000000 0.0001221059 0.0000000000 0.6000000000 0.0000100000 0.0000000000 0.7000000000 0.0001221059 0.0000000000 0.7000000000 0.0000100000 0.0000000000 0.7000000000 0.0000100000 0.0000000000 0.7000000000 0.0001221059 0.0000000000 0.8000000000 0.0001221059 0.0000000000 0.7000000000 0.0000100000 0.0000000000 0.8000000000 0.0001221059 0.0000000000 0.8000000000 0.0000100000 0.0000000000 0.8000000000 0.0000100000 0.0000000000 0.8000000000 0.0001221059 0.0000000000 0.9000000000 0.0001221059 0.0000000000 0.8000000000 0.0000100000 0.0000000000 0.9000000000 0.0001221059 0.0000000000 0.9000000000 0.0000100000 0.0000000000 0.9000000000 0.0000100000 0.0000000000 0.9000000000 0.0001221059 0.0000000000 1.0000000000 0.0001221059 0.0000000000 0.9000000000 0.0000100000 0.0000000000 1.0000000000 0.0001221059 0.0000000000 1.0000000000 0.0000100000 0.0000000000 0.0000000000 0.0001221059 0.0000000000 0.0000000000 0.0002771482 0.0000000000 0.1000000000 0.0002771482 0.0000000000 0.0000000000 0.0001221059 0.0000000000 0.1000000000 0.0002771482 0.0000000000 0.1000000000 0.0001221059 0.0000000000 0.1000000000 0.0001221059 0.0000000000 0.1000000000 0.0002771482 0.0000000000 0.2000000000 0.0002771482 0.0000000000 0.1000000000 0.0001221059 0.0000000000 0.2000000000 0.0002771482 0.0000000000 0.2000000000 0.0001221059 0.0000000000 0.2000000000 0.0001221059 0.0000000000 0.2000000000 0.0002771482 0.0000000000 0.3000000000 0.0002771482 0.0000000000 0.2000000000 0.0001221059 0.0000000000 0.3000000000 0.0002771482 0.0000000000 0.3000000000 0.0001221059 0.0000000000 0.3000000000 0.0001221059 0.0000000000 0.3000000000 0.0002771482 0.0000000000 0.4000000000 0.0002771482 0.0000000000 0.3000000000 0.0001221059 0.0000000000 0.4000000000 0.0002771482 0.0000000000 0.4000000000 0.0001221059 0.0000000000 0.4000000000 0.0001221059 0.0000000000 0.4000000000 0.0002771482 0.0000000000 0.5000000000 0.0002771482 0.0000000000 0.4000000000 0.0001221059 0.0000000000 0.5000000000 0.0002771482 0.0000000000 0.5000000000 0.0001221059 0.0000000000 0.5000000000 0.0001221059 0.0000000000 0.5000000000 0.0002771482 0.0000000000 0.6000000000 0.0002771482 0.0000000000 0.5000000000 0.0001221059 0.0000000000 0.6000000000 0.0002771482 0.0000000000 0.6000000000 0.0001221059 0.0000000000 0.6000000000 0.0001221059 0.0000000000 0.6000000000 0.0002771482 0.0000000000 0.7000000000 0.0002771482 0.0000000000 0.6000000000 0.0001221059 0.0000000000 0.7000000000 0.0002771482 0.0000000000 0.7000000000 0.0001221059 0.0000000000 0.7000000000 0.0001221059 0.0000000000 0.7000000000 0.0002771482 0.0000000000 0.8000000000 0.0002771482 0.0000000000 0.7000000000 0.0001221059 0.0000000000 0.8000000000 0.0002771482 0.0000000000 0.8000000000 0.0001221059 0.0000000000 0.8000000000 0.0001221059 0.0000000000 0.8000000000 0.0002771482 0.0000000000 0.9000000000 0.0002771482 0.0000000000 0.8000000000 0.0001221059 0.0000000000 0.9000000000 0.0002771482 0.0000000000 0.9000000000 0.0001221059 0.0000000000 0.9000000000 0.0001221059 0.0000000000 0.9000000000 0.0002771482 0.0000000000 1.0000000000 0.0002771482 0.0000000000 0.9000000000 0.0001221059 0.0000000000 1.0000000000 0.0002771482 0.0000000000 1.0000000000 0.0001221059 0.0000000000 0.0000000000 0.0002771482 0.0000000000 0.0000000000 0.0004915718 0.0000000000 0.1000000000 0.0004915718 0.0000000000 0.0000000000 0.0002771482 0.0000000000 0.1000000000 0.0004915718 0.0000000000 0.1000000000 0.0002771482 0.0000000000 0.1000000000 0.0002771482 0.0000000000 0.1000000000 0.0004915718 0.0000000000 0.2000000000 0.0004915718 0.0000000000 0.1000000000 0.0002771482 0.0000000000 0.2000000000 0.0004915718 0.0000000000 0.2000000000 0.0002771482 0.0000000000 0.2000000000 0.0002771482 0.0000000000 0.2000000000 0.0004915718 0.0000000000 0.3000000000 0.0004915718 0.0000000000 0.2000000000 0.0002771482 0.0000000000 0.3000000000 0.0004915718 0.0000000000 0.3000000000 0.0002771482 0.0000000000 0.3000000000 0.0002771482 0.0000000000 0.3000000000 0.0004915718 0.0000000000 0.4000000000 0.0004915718 0.0000000000 0.3000000000 0.0002771482 0.0000000000 0.4000000000 0.0004915718 0.0000000000 0.4000000000 0.0002771482 0.0000000000 0.4000000000 0.0002771482 0.0000000000 0.4000000000 0.0004915718 0.0000000000 0.5000000000 0.0004915718 0.0000000000 0.4000000000 0.0002771482 0.0000000000 0.5000000000 0.0004915718 0.0000000000 0.5000000000 0.0002771482 0.0000000000 0.5000000000 0.0002771482 0.0000000000 0.5000000000 0.0004915718 0.0000000000 0.6000000000 0.0004915718 0.0000000000 0.5000000000 0.0002771482 0.0000000000 0.6000000000 0.0004915718 0.0000000000 0.6000000000 0.0002771482 0.0000000000 0.6000000000 0.0002771482 0.0000000000 0.6000000000 0.0004915718 0.0000000000 0.7000000000 0.0004915718 0.0000000000 0.6000000000 0.0002771482 0.0000000000 0.7000000000 0.0004915718 0.0000000000 0.7000000000 0.0002771482 0.0000000000 0.7000000000 0.0002771482 0.0000000000 0.7000000000 0.0004915718 0.0000000000 0.8000000000 0.0004915718 0.0000000000 0.7000000000 0.0002771482 0.0000000000 0.8000000000 0.0004915718 0.0000000000 0.8000000000 0.0002771482 0.0000000000 0.8000000000 0.0002771482 0.0000000000 0.8000000000 0.0004915718 0.0000000000 0.9000000000 0.0004915718 0.0000000000 0.8000000000 0.0002771482 0.0000000000 0.9000000000 0.0004915718 0.0000000000 0.9000000000 0.0002771482 0.0000000000 0.9000000000 0.0002771482 0.0000000000 0.9000000000 0.0004915718 0.0000000000 1.0000000000 0.0004915718 0.0000000000 0.9000000000 0.0002771482 0.0000000000 1.0000000000 0.0004915718 0.0000000000 1.0000000000 0.0002771482 0.0000000000 0.0000000000 0.0004915718 0.0000000000 0.0000000000 0.0007881193 0.0000000000 0.1000000000 0.0007881193 0.0000000000 0.0000000000 0.0004915718 0.0000000000 0.1000000000 0.0007881193 0.0000000000 0.1000000000 0.0004915718 0.0000000000 0.1000000000 0.0004915718 0.0000000000 0.1000000000 0.0007881193 0.0000000000 0.2000000000 0.0007881193 0.0000000000 0.1000000000 0.0004915718 0.0000000000 0.2000000000 0.0007881193 0.0000000000 0.2000000000 0.0004915718 0.0000000000 0.2000000000 0.0004915718 0.0000000000 0.2000000000 0.0007881193 0.0000000000 0.3000000000 0.0007881193 0.0000000000 0.2000000000 0.0004915718 0.0000000000 0.3000000000 0.0007881193 0.0000000000 0.3000000000 0.0004915718 0.0000000000 0.3000000000 0.0004915718 0.0000000000 0.3000000000 0.0007881193 0.0000000000 0.4000000000 0.0007881193 0.0000000000 0.3000000000 0.0004915718 0.0000000000 0.4000000000 0.0007881193 0.0000000000 0.4000000000 0.0004915718 0.0000000000 0.4000000000 0.0004915718 0.0000000000 0.4000000000 0.0007881193 0.0000000000 0.5000000000 0.0007881193 0.0000000000 0.4000000000 0.0004915718 0.0000000000 0.5000000000 0.0007881193 0.0000000000 0.5000000000 0.0004915718 0.0000000000 0.5000000000 0.0004915718 0.0000000000 0.5000000000 0.0007881193 0.0000000000 0.6000000000 0.0007881193 0.0000000000 0.5000000000 0.0004915718 0.0000000000 0.6000000000 0.0007881193 0.0000000000 0.6000000000 0.0004915718 0.0000000000 0.6000000000 0.0004915718 0.0000000000 0.6000000000 0.0007881193 0.0000000000 0.7000000000 0.0007881193 0.0000000000 0.6000000000 0.0004915718 0.0000000000 0.7000000000 0.0007881193 0.0000000000 0.7000000000 0.0004915718 0.0000000000 0.7000000000 0.0004915718 0.0000000000 0.7000000000 0.0007881193 0.0000000000 0.8000000000 0.0007881193 0.0000000000 0.7000000000 0.0004915718 0.0000000000 0.8000000000 0.0007881193 0.0000000000 0.8000000000 0.0004915718 0.0000000000 0.8000000000 0.0004915718 0.0000000000 0.8000000000 0.0007881193 0.0000000000 0.9000000000 0.0007881193 0.0000000000 0.8000000000 0.0004915718 0.0000000000 0.9000000000 0.0007881193 0.0000000000 0.9000000000 0.0004915718 0.0000000000 0.9000000000 0.0004915718 0.0000000000 0.9000000000 0.0007881193 0.0000000000 1.0000000000 0.0007881193 0.0000000000 0.9000000000 0.0004915718 0.0000000000 1.0000000000 0.0007881193 0.0000000000 1.0000000000 0.0004915718 0.0000000000 0.0000000000 0.0007881193 0.0000000000 0.0000000000 0.0011982444 0.0000000000 0.1000000000 0.0011982444 0.0000000000 0.0000000000 0.0007881193 0.0000000000 0.1000000000 0.0011982444 0.0000000000 0.1000000000 0.0007881193 0.0000000000 0.1000000000 0.0007881193 0.0000000000 0.1000000000 0.0011982444 0.0000000000 0.2000000000 0.0011982444 0.0000000000 0.1000000000 0.0007881193 0.0000000000 0.2000000000 0.0011982444 0.0000000000 0.2000000000 0.0007881193 0.0000000000 0.2000000000 0.0007881193 0.0000000000 0.2000000000 0.0011982444 0.0000000000 0.3000000000 0.0011982444 0.0000000000 0.2000000000 0.0007881193 0.0000000000 0.3000000000 0.0011982444 0.0000000000 0.3000000000 0.0007881193 0.0000000000 0.3000000000 0.0007881193 0.0000000000 0.3000000000 0.0011982444 0.0000000000 0.4000000000 0.0011982444 0.0000000000 0.3000000000 0.0007881193 0.0000000000 0.4000000000 0.0011982444 0.0000000000 0.4000000000 0.0007881193 0.0000000000 0.4000000000 0.0007881193 0.0000000000 0.4000000000 0.0011982444 0.0000000000 0.5000000000 0.0011982444 0.0000000000 0.4000000000 0.0007881193 0.0000000000 0.5000000000 0.0011982444 0.0000000000 0.5000000000 0.0007881193 0.0000000000 0.5000000000 0.0007881193 0.0000000000 0.5000000000 0.0011982444 0.0000000000 0.6000000000 0.0011982444 0.0000000000 0.5000000000 0.0007881193 0.0000000000 0.6000000000 0.0011982444 0.0000000000 0.6000000000 0.0007881193 0.0000000000 0.6000000000 0.0007881193 0.0000000000 0.6000000000 0.0011982444 0.0000000000 0.7000000000 0.0011982444 0.0000000000 0.6000000000 0.0007881193 0.0000000000 0.7000000000 0.0011982444 0.0000000000 0.7000000000 0.0007881193 0.0000000000 0.7000000000 0.0007881193 0.0000000000 0.7000000000 0.0011982444 0.0000000000 0.8000000000 0.0011982444 0.0000000000 0.7000000000 0.0007881193 0.0000000000 0.8000000000 0.0011982444 0.0000000000 0.8000000000 0.0007881193 0.0000000000 0.8000000000 0.0007881193 0.0000000000 0.8000000000 0.0011982444 0.0000000000 0.9000000000 0.0011982444 0.0000000000 0.8000000000 0.0007881193 0.0000000000 0.9000000000 0.0011982444 0.0000000000 0.9000000000 0.0007881193 0.0000000000 0.9000000000 0.0007881193 0.0000000000 0.9000000000 0.0011982444 0.0000000000 1.0000000000 0.0011982444 0.0000000000 0.9000000000 0.0007881193 0.0000000000 1.0000000000 0.0011982444 0.0000000000 1.0000000000 0.0007881193 0.0000000000 0.0000000000 0.0011982444 0.0000000000 0.0000000000 0.0017654472 0.0000000000 0.1000000000 0.0017654472 0.0000000000 0.0000000000 0.0011982444 0.0000000000 0.1000000000 0.0017654472 0.0000000000 0.1000000000 0.0011982444 0.0000000000 0.1000000000 0.0011982444 0.0000000000 0.1000000000 0.0017654472 0.0000000000 0.2000000000 0.0017654472 0.0000000000 0.1000000000 0.0011982444 0.0000000000 0.2000000000 0.0017654472 0.0000000000 0.2000000000 0.0011982444 0.0000000000 0.2000000000 0.0011982444 0.0000000000 0.2000000000 0.0017654472 0.0000000000 0.3000000000 0.0017654472 0.0000000000 0.2000000000 0.0011982444 0.0000000000 0.3000000000 0.0017654472 0.0000000000 0.3000000000 0.0011982444 0.0000000000 0.3000000000 0.0011982444 0.0000000000 0.3000000000 0.0017654472 0.0000000000 0.4000000000 0.0017654472 0.0000000000 0.3000000000 0.0011982444 0.0000000000 0.4000000000 0.0017654472 0.0000000000 0.4000000000 0.0011982444 0.0000000000 0.4000000000 0.0011982444 0.0000000000 0.4000000000 0.0017654472 0.0000000000 0.5000000000 0.0017654472 0.0000000000 0.4000000000 0.0011982444 0.0000000000 0.5000000000 0.0017654472 0.0000000000 0.5000000000 0.0011982444 0.0000000000 0.5000000000 0.0011982444 0.0000000000 0.5000000000 0.0017654472 0.0000000000 0.6000000000 0.0017654472 0.0000000000 0.5000000000 0.0011982444 0.0000000000 0.6000000000 0.0017654472 0.0000000000 0.6000000000 0.0011982444 0.0000000000 0.6000000000 0.0011982444 0.0000000000 0.6000000000 0.0017654472 0.0000000000 0.7000000000 0.0017654472 0.0000000000 0.6000000000 0.0011982444 0.0000000000 0.7000000000 0.0017654472 0.0000000000 0.7000000000 0.0011982444 0.0000000000 0.7000000000 0.0011982444 0.0000000000 0.7000000000 0.0017654472 0.0000000000 0.8000000000 0.0017654472 0.0000000000 0.7000000000 0.0011982444 0.0000000000 0.8000000000 0.0017654472 0.0000000000 0.8000000000 0.0011982444 0.0000000000 0.8000000000 0.0011982444 0.0000000000 0.8000000000 0.0017654472 0.0000000000 0.9000000000 0.0017654472 0.0000000000 0.8000000000 0.0011982444 0.0000000000 0.9000000000 0.0017654472 0.0000000000 0.9000000000 0.0011982444 0.0000000000 0.9000000000 0.0011982444 0.0000000000 0.9000000000 0.0017654472 0.0000000000 1.0000000000 0.0017654472 0.0000000000 0.9000000000 0.0011982444 0.0000000000 1.0000000000 0.0017654472 0.0000000000 1.0000000000 0.0011982444 0.0000000000 0.0000000000 0.0017654472 0.0000000000 0.0000000000 0.0025498882 0.0000000000 0.1000000000 0.0025498882 0.0000000000 0.0000000000 0.0017654472 0.0000000000 0.1000000000 0.0025498882 0.0000000000 0.1000000000 0.0017654472 0.0000000000 0.1000000000 0.0017654472 0.0000000000 0.1000000000 0.0025498882 0.0000000000 0.2000000000 0.0025498882 0.0000000000 0.1000000000 0.0017654472 0.0000000000 0.2000000000 0.0025498882 0.0000000000 0.2000000000 0.0017654472 0.0000000000 0.2000000000 0.0017654472 0.0000000000 0.2000000000 0.0025498882 0.0000000000 0.3000000000 0.0025498882 0.0000000000 0.2000000000 0.0017654472 0.0000000000 0.3000000000 0.0025498882 0.0000000000 0.3000000000 0.0017654472 0.0000000000 0.3000000000 0.0017654472 0.0000000000 0.3000000000 0.0025498882 0.0000000000 0.4000000000 0.0025498882 0.0000000000 0.3000000000 0.0017654472 0.0000000000 0.4000000000 0.0025498882 0.0000000000 0.4000000000 0.0017654472 0.0000000000 0.4000000000 0.0017654472 0.0000000000 0.4000000000 0.0025498882 0.0000000000 0.5000000000 0.0025498882 0.0000000000 0.4000000000 0.0017654472 0.0000000000 0.5000000000 0.0025498882 0.0000000000 0.5000000000 0.0017654472 0.0000000000 0.5000000000 0.0017654472 0.0000000000 0.5000000000 0.0025498882 0.0000000000 0.6000000000 0.0025498882 0.0000000000 0.5000000000 0.0017654472 0.0000000000 0.6000000000 0.0025498882 0.0000000000 0.6000000000 0.0017654472 0.0000000000 0.6000000000 0.0017654472 0.0000000000 0.6000000000 0.0025498882 0.0000000000 0.7000000000 0.0025498882 0.0000000000 0.6000000000 0.0017654472 0.0000000000 0.7000000000 0.0025498882 0.0000000000 0.7000000000 0.0017654472 0.0000000000 0.7000000000 0.0017654472 0.0000000000 0.7000000000 0.0025498882 0.0000000000 0.8000000000 0.0025498882 0.0000000000 0.7000000000 0.0017654472 0.0000000000 0.8000000000 0.0025498882 0.0000000000 0.8000000000 0.0017654472 0.0000000000 0.8000000000 0.0017654472 0.0000000000 0.8000000000 0.0025498882 0.0000000000 0.9000000000 0.0025498882 0.0000000000 0.8000000000 0.0017654472 0.0000000000 0.9000000000 0.0025498882 0.0000000000 0.9000000000 0.0017654472 0.0000000000 0.9000000000 0.0017654472 0.0000000000 0.9000000000 0.0025498882 0.0000000000 1.0000000000 0.0025498882 0.0000000000 0.9000000000 0.0017654472 0.0000000000 1.0000000000 0.0025498882 0.0000000000 1.0000000000 0.0017654472 0.0000000000 0.0000000000 0.0025498882 0.0000000000 0.0000000000 0.0036347697 0.0000000000 0.1000000000 0.0036347697 0.0000000000 0.0000000000 0.0025498882 0.0000000000 0.1000000000 0.0036347697 0.0000000000 0.1000000000 0.0025498882 0.0000000000 0.1000000000 0.0025498882 0.0000000000 0.1000000000 0.0036347697 0.0000000000 0.2000000000 0.0036347697 0.0000000000 0.1000000000 0.0025498882 0.0000000000 0.2000000000 0.0036347697 0.0000000000 0.2000000000 0.0025498882 0.0000000000 0.2000000000 0.0025498882 0.0000000000 0.2000000000 0.0036347697 0.0000000000 0.3000000000 0.0036347697 0.0000000000 0.2000000000 0.0025498882 0.0000000000 0.3000000000 0.0036347697 0.0000000000 0.3000000000 0.0025498882 0.0000000000 0.3000000000 0.0025498882 0.0000000000 0.3000000000 0.0036347697 0.0000000000 0.4000000000 0.0036347697 0.0000000000 0.3000000000 0.0025498882 0.0000000000 0.4000000000 0.0036347697 0.0000000000 0.4000000000 0.0025498882 0.0000000000 0.4000000000 0.0025498882 0.0000000000 0.4000000000 0.0036347697 0.0000000000 0.5000000000 0.0036347697 0.0000000000 0.4000000000 0.0025498882 0.0000000000 0.5000000000 0.0036347697 0.0000000000 0.5000000000 0.0025498882 0.0000000000 0.5000000000 0.0025498882 0.0000000000 0.5000000000 0.0036347697 0.0000000000 0.6000000000 0.0036347697 0.0000000000 0.5000000000 0.0025498882 0.0000000000 0.6000000000 0.0036347697 0.0000000000 0.6000000000 0.0025498882 0.0000000000 0.6000000000 0.0025498882 0.0000000000 0.6000000000 0.0036347697 0.0000000000 0.7000000000 0.0036347697 0.0000000000 0.6000000000 0.0025498882 0.0000000000 0.7000000000 0.0036347697 0.0000000000 0.7000000000 0.0025498882 0.0000000000 0.7000000000 0.0025498882 0.0000000000 0.7000000000 0.0036347697 0.0000000000 0.8000000000 0.0036347697 0.0000000000 0.7000000000 0.0025498882 0.0000000000 0.8000000000 0.0036347697 0.0000000000 0.8000000000 0.0025498882 0.0000000000 0.8000000000 0.0025498882 0.0000000000 0.8000000000 0.0036347697 0.0000000000 0.9000000000 0.0036347697 0.0000000000 0.8000000000 0.0025498882 0.0000000000 0.9000000000 0.0036347697 0.0000000000 0.9000000000 0.0025498882 0.0000000000 0.9000000000 0.0025498882 0.0000000000 0.9000000000 0.0036347697 0.0000000000 1.0000000000 0.0036347697 0.0000000000 0.9000000000 0.0025498882 0.0000000000 1.0000000000 0.0036347697 0.0000000000 1.0000000000 0.0025498882 0.0000000000 0.0000000000 0.0036347697 0.0000000000 0.0000000000 0.0051351601 0.0000000000 0.1000000000 0.0051351601 0.0000000000 0.0000000000 0.0036347697 0.0000000000 0.1000000000 0.0051351601 0.0000000000 0.1000000000 0.0036347697 0.0000000000 0.1000000000 0.0036347697 0.0000000000 0.1000000000 0.0051351601 0.0000000000 0.2000000000 0.0051351601 0.0000000000 0.1000000000 0.0036347697 0.0000000000 0.2000000000 0.0051351601 0.0000000000 0.2000000000 0.0036347697 0.0000000000 0.2000000000 0.0036347697 0.0000000000 0.2000000000 0.0051351601 0.0000000000 0.3000000000 0.0051351601 0.0000000000 0.2000000000 0.0036347697 0.0000000000 0.3000000000 0.0051351601 0.0000000000 0.3000000000 0.0036347697 0.0000000000 0.3000000000 0.0036347697 0.0000000000 0.3000000000 0.0051351601 0.0000000000 0.4000000000 0.0051351601 0.0000000000 0.3000000000 0.0036347697 0.0000000000 0.4000000000 0.0051351601 0.0000000000 0.4000000000 0.0036347697 0.0000000000 0.4000000000 0.0036347697 0.0000000000 0.4000000000 0.0051351601 0.0000000000 0.5000000000 0.0051351601 0.0000000000 0.4000000000 0.0036347697 0.0000000000 0.5000000000 0.0051351601 0.0000000000 0.5000000000 0.0036347697 0.0000000000 0.5000000000 0.0036347697 0.0000000000 0.5000000000 0.0051351601 0.0000000000 0.6000000000 0.0051351601 0.0000000000 0.5000000000 0.0036347697 0.0000000000 0.6000000000 0.0051351601 0.0000000000 0.6000000000 0.0036347697 0.0000000000 0.6000000000 0.0036347697 0.0000000000 0.6000000000 0.0051351601 0.0000000000 0.7000000000 0.0051351601 0.0000000000 0.6000000000 0.0036347697 0.0000000000 0.7000000000 0.0051351601 0.0000000000 0.7000000000 0.0036347697 0.0000000000 0.7000000000 0.0036347697 0.0000000000 0.7000000000 0.0051351601 0.0000000000 0.8000000000 0.0051351601 0.0000000000 0.7000000000 0.0036347697 0.0000000000 0.8000000000 0.0051351601 0.0000000000 0.8000000000 0.0036347697 0.0000000000 0.8000000000 0.0036347697 0.0000000000 0.8000000000 0.0051351601 0.0000000000 0.9000000000 0.0051351601 0.0000000000 0.8000000000 0.0036347697 0.0000000000 0.9000000000 0.0051351601 0.0000000000 0.9000000000 0.0036347697 0.0000000000 0.9000000000 0.0036347697 0.0000000000 0.9000000000 0.0051351601 0.0000000000 1.0000000000 0.0051351601 0.0000000000 0.9000000000 0.0036347697 0.0000000000 1.0000000000 0.0051351601 0.0000000000 1.0000000000 0.0036347697 0.0000000000 0.0000000000 0.0051351601 0.0000000000 0.0000000000 0.0072101992 0.0000000000 0.1000000000 0.0072101992 0.0000000000 0.0000000000 0.0051351601 0.0000000000 0.1000000000 0.0072101992 0.0000000000 0.1000000000 0.0051351601 0.0000000000 0.1000000000 0.0051351601 0.0000000000 0.1000000000 0.0072101992 0.0000000000 0.2000000000 0.0072101992 0.0000000000 0.1000000000 0.0051351601 0.0000000000 0.2000000000 0.0072101992 0.0000000000 0.2000000000 0.0051351601 0.0000000000 0.2000000000 0.0051351601 0.0000000000 0.2000000000 0.0072101992 0.0000000000 0.3000000000 0.0072101992 0.0000000000 0.2000000000 0.0051351601 0.0000000000 0.3000000000 0.0072101992 0.0000000000 0.3000000000 0.0051351601 0.0000000000 0.3000000000 0.0051351601 0.0000000000 0.3000000000 0.0072101992 0.0000000000 0.4000000000 0.0072101992 0.0000000000 0.3000000000 0.0051351601 0.0000000000 0.4000000000 0.0072101992 0.0000000000 0.4000000000 0.0051351601 0.0000000000 0.4000000000 0.0051351601 0.0000000000 0.4000000000 0.0072101992 0.0000000000 0.5000000000 0.0072101992 0.0000000000 0.4000000000 0.0051351601 0.0000000000 0.5000000000 0.0072101992 0.0000000000 0.5000000000 0.0051351601 0.0000000000 0.5000000000 0.0051351601 0.0000000000 0.5000000000 0.0072101992 0.0000000000 0.6000000000 0.0072101992 0.0000000000 0.5000000000 0.0051351601 0.0000000000 0.6000000000 0.0072101992 0.0000000000 0.6000000000 0.0051351601 0.0000000000 0.6000000000 0.0051351601 0.0000000000 0.6000000000 0.0072101992 0.0000000000 0.7000000000 0.0072101992 0.0000000000 0.6000000000 0.0051351601 0.0000000000 0.7000000000 0.0072101992 0.0000000000 0.7000000000 0.0051351601 0.0000000000 0.7000000000 0.0051351601 0.0000000000 0.7000000000 0.0072101992 0.0000000000 0.8000000000 0.0072101992 0.0000000000 0.7000000000 0.0051351601 0.0000000000 0.8000000000 0.0072101992 0.0000000000 0.8000000000 0.0051351601 0.0000000000 0.8000000000 0.0051351601 0.0000000000 0.8000000000 0.0072101992 0.0000000000 0.9000000000 0.0072101992 0.0000000000 0.8000000000 0.0051351601 0.0000000000 0.9000000000 0.0072101992 0.0000000000 0.9000000000 0.0051351601 0.0000000000 0.9000000000 0.0051351601 0.0000000000 0.9000000000 0.0072101992 0.0000000000 1.0000000000 0.0072101992 0.0000000000 0.9000000000 0.0051351601 0.0000000000 1.0000000000 0.0072101992 0.0000000000 1.0000000000 0.0051351601 0.0000000000 0.0000000000 0.0072101992 0.0000000000 0.0000000000 0.0100799765 0.0000000000 0.1000000000 0.0100799765 0.0000000000 0.0000000000 0.0072101992 0.0000000000 0.1000000000 0.0100799765 0.0000000000 0.1000000000 0.0072101992 0.0000000000 0.1000000000 0.0072101992 0.0000000000 0.1000000000 0.0100799765 0.0000000000 0.2000000000 0.0100799765 0.0000000000 0.1000000000 0.0072101992 0.0000000000 0.2000000000 0.0100799765 0.0000000000 0.2000000000 0.0072101992 0.0000000000 0.2000000000 0.0072101992 0.0000000000 0.2000000000 0.0100799765 0.0000000000 0.3000000000 0.0100799765 0.0000000000 0.2000000000 0.0072101992 0.0000000000 0.3000000000 0.0100799765 0.0000000000 0.3000000000 0.0072101992 0.0000000000 0.3000000000 0.0072101992 0.0000000000 0.3000000000 0.0100799765 0.0000000000 0.4000000000 0.0100799765 0.0000000000 0.3000000000 0.0072101992 0.0000000000 0.4000000000 0.0100799765 0.0000000000 0.4000000000 0.0072101992 0.0000000000 0.4000000000 0.0072101992 0.0000000000 0.4000000000 0.0100799765 0.0000000000 0.5000000000 0.0100799765 0.0000000000 0.4000000000 0.0072101992 0.0000000000 0.5000000000 0.0100799765 0.0000000000 0.5000000000 0.0072101992 0.0000000000 0.5000000000 0.0072101992 0.0000000000 0.5000000000 0.0100799765 0.0000000000 0.6000000000 0.0100799765 0.0000000000 0.5000000000 0.0072101992 0.0000000000 0.6000000000 0.0100799765 0.0000000000 0.6000000000 0.0072101992 0.0000000000 0.6000000000 0.0072101992 0.0000000000 0.6000000000 0.0100799765 0.0000000000 0.7000000000 0.0100799765 0.0000000000 0.6000000000 0.0072101992 0.0000000000 0.7000000000 0.0100799765 0.0000000000 0.7000000000 0.0072101992 0.0000000000 0.7000000000 0.0072101992 0.0000000000 0.7000000000 0.0100799765 0.0000000000 0.8000000000 0.0100799765 0.0000000000 0.7000000000 0.0072101992 0.0000000000 0.8000000000 0.0100799765 0.0000000000 0.8000000000 0.0072101992 0.0000000000 0.8000000000 0.0072101992 0.0000000000 0.8000000000 0.0100799765 0.0000000000 0.9000000000 0.0100799765 0.0000000000 0.8000000000 0.0072101992 0.0000000000 0.9000000000 0.0100799765 0.0000000000 0.9000000000 0.0072101992 0.0000000000 0.9000000000 0.0072101992 0.0000000000 0.9000000000 0.0100799765 0.0000000000 1.0000000000 0.0100799765 0.0000000000 0.9000000000 0.0072101992 0.0000000000 1.0000000000 0.0100799765 0.0000000000 1.0000000000 0.0072101992 0.0000000000 0.0000000000 0.0100799765 0.0000000000 0.0000000000 0.0140488777 0.0000000000 0.1000000000 0.0140488777 0.0000000000 0.0000000000 0.0100799765 0.0000000000 0.1000000000 0.0140488777 0.0000000000 0.1000000000 0.0100799765 0.0000000000 0.1000000000 0.0100799765 0.0000000000 0.1000000000 0.0140488777 0.0000000000 0.2000000000 0.0140488777 0.0000000000 0.1000000000 0.0100799765 0.0000000000 0.2000000000 0.0140488777 0.0000000000 0.2000000000 0.0100799765 0.0000000000 0.2000000000 0.0100799765 0.0000000000 0.2000000000 0.0140488777 0.0000000000 0.3000000000 0.0140488777 0.0000000000 0.2000000000 0.0100799765 0.0000000000 0.3000000000 0.0140488777 0.0000000000 0.3000000000 0.0100799765 0.0000000000 0.3000000000 0.0100799765 0.0000000000 0.3000000000 0.0140488777 0.0000000000 0.4000000000 0.0140488777 0.0000000000 0.3000000000 0.0100799765 0.0000000000 0.4000000000 0.0140488777 0.0000000000 0.4000000000 0.0100799765 0.0000000000 0.4000000000 0.0100799765 0.0000000000 0.4000000000 0.0140488777 0.0000000000 0.5000000000 0.0140488777 0.0000000000 0.4000000000 0.0100799765 0.0000000000 0.5000000000 0.0140488777 0.0000000000 0.5000000000 0.0100799765 0.0000000000 0.5000000000 0.0100799765 0.0000000000 0.5000000000 0.0140488777 0.0000000000 0.6000000000 0.0140488777 0.0000000000 0.5000000000 0.0100799765 0.0000000000 0.6000000000 0.0140488777 0.0000000000 0.6000000000 0.0100799765 0.0000000000 0.6000000000 0.0100799765 0.0000000000 0.6000000000 0.0140488777 0.0000000000 0.7000000000 0.0140488777 0.0000000000 0.6000000000 0.0100799765 0.0000000000 0.7000000000 0.0140488777 0.0000000000 0.7000000000 0.0100799765 0.0000000000 0.7000000000 0.0100799765 0.0000000000 0.7000000000 0.0140488777 0.0000000000 0.8000000000 0.0140488777 0.0000000000 0.7000000000 0.0100799765 0.0000000000 0.8000000000 0.0140488777 0.0000000000 0.8000000000 0.0100799765 0.0000000000 0.8000000000 0.0100799765 0.0000000000 0.8000000000 0.0140488777 0.0000000000 0.9000000000 0.0140488777 0.0000000000 0.8000000000 0.0100799765 0.0000000000 0.9000000000 0.0140488777 0.0000000000 0.9000000000 0.0100799765 0.0000000000 0.9000000000 0.0100799765 0.0000000000 0.9000000000 0.0140488777 0.0000000000 1.0000000000 0.0140488777 0.0000000000 0.9000000000 0.0100799765 0.0000000000 1.0000000000 0.0140488777 0.0000000000 1.0000000000 0.0100799765 0.0000000000 0.0000000000 0.0140488777 0.0000000000 0.0000000000 0.0195378643 0.0000000000 0.1000000000 0.0195378643 0.0000000000 0.0000000000 0.0140488777 0.0000000000 0.1000000000 0.0195378643 0.0000000000 0.1000000000 0.0140488777 0.0000000000 0.1000000000 0.0140488777 0.0000000000 0.1000000000 0.0195378643 0.0000000000 0.2000000000 0.0195378643 0.0000000000 0.1000000000 0.0140488777 0.0000000000 0.2000000000 0.0195378643 0.0000000000 0.2000000000 0.0140488777 0.0000000000 0.2000000000 0.0140488777 0.0000000000 0.2000000000 0.0195378643 0.0000000000 0.3000000000 0.0195378643 0.0000000000 0.2000000000 0.0140488777 0.0000000000 0.3000000000 0.0195378643 0.0000000000 0.3000000000 0.0140488777 0.0000000000 0.3000000000 0.0140488777 0.0000000000 0.3000000000 0.0195378643 0.0000000000 0.4000000000 0.0195378643 0.0000000000 0.3000000000 0.0140488777 0.0000000000 0.4000000000 0.0195378643 0.0000000000 0.4000000000 0.0140488777 0.0000000000 0.4000000000 0.0140488777 0.0000000000 0.4000000000 0.0195378643 0.0000000000 0.5000000000 0.0195378643 0.0000000000 0.4000000000 0.0140488777 0.0000000000 0.5000000000 0.0195378643 0.0000000000 0.5000000000 0.0140488777 0.0000000000 0.5000000000 0.0140488777 0.0000000000 0.5000000000 0.0195378643 0.0000000000 0.6000000000 0.0195378643 0.0000000000 0.5000000000 0.0140488777 0.0000000000 0.6000000000 0.0195378643 0.0000000000 0.6000000000 0.0140488777 0.0000000000 0.6000000000 0.0140488777 0.0000000000 0.6000000000 0.0195378643 0.0000000000 0.7000000000 0.0195378643 0.0000000000 0.6000000000 0.0140488777 0.0000000000 0.7000000000 0.0195378643 0.0000000000 0.7000000000 0.0140488777 0.0000000000 0.7000000000 0.0140488777 0.0000000000 0.7000000000 0.0195378643 0.0000000000 0.8000000000 0.0195378643 0.0000000000 0.7000000000 0.0140488777 0.0000000000 0.8000000000 0.0195378643 0.0000000000 0.8000000000 0.0140488777 0.0000000000 0.8000000000 0.0140488777 0.0000000000 0.8000000000 0.0195378643 0.0000000000 0.9000000000 0.0195378643 0.0000000000 0.8000000000 0.0140488777 0.0000000000 0.9000000000 0.0195378643 0.0000000000 0.9000000000 0.0140488777 0.0000000000 0.9000000000 0.0140488777 0.0000000000 0.9000000000 0.0195378643 0.0000000000 1.0000000000 0.0195378643 0.0000000000 0.9000000000 0.0140488777 0.0000000000 1.0000000000 0.0195378643 0.0000000000 1.0000000000 0.0140488777 0.0000000000 0.0000000000 0.0195378643 0.0000000000 0.0000000000 0.0271291304 0.0000000000 0.1000000000 0.0271291304 0.0000000000 0.0000000000 0.0195378643 0.0000000000 0.1000000000 0.0271291304 0.0000000000 0.1000000000 0.0195378643 0.0000000000 0.1000000000 0.0195378643 0.0000000000 0.1000000000 0.0271291304 0.0000000000 0.2000000000 0.0271291304 0.0000000000 0.1000000000 0.0195378643 0.0000000000 0.2000000000 0.0271291304 0.0000000000 0.2000000000 0.0195378643 0.0000000000 0.2000000000 0.0195378643 0.0000000000 0.2000000000 0.0271291304 0.0000000000 0.3000000000 0.0271291304 0.0000000000 0.2000000000 0.0195378643 0.0000000000 0.3000000000 0.0271291304 0.0000000000 0.3000000000 0.0195378643 0.0000000000 0.3000000000 0.0195378643 0.0000000000 0.3000000000 0.0271291304 0.0000000000 0.4000000000 0.0271291304 0.0000000000 0.3000000000 0.0195378643 0.0000000000 0.4000000000 0.0271291304 0.0000000000 0.4000000000 0.0195378643 0.0000000000 0.4000000000 0.0195378643 0.0000000000 0.4000000000 0.0271291304 0.0000000000 0.5000000000 0.0271291304 0.0000000000 0.4000000000 0.0195378643 0.0000000000 0.5000000000 0.0271291304 0.0000000000 0.5000000000 0.0195378643 0.0000000000 0.5000000000 0.0195378643 0.0000000000 0.5000000000 0.0271291304 0.0000000000 0.6000000000 0.0271291304 0.0000000000 0.5000000000 0.0195378643 0.0000000000 0.6000000000 0.0271291304 0.0000000000 0.6000000000 0.0195378643 0.0000000000 0.6000000000 0.0195378643 0.0000000000 0.6000000000 0.0271291304 0.0000000000 0.7000000000 0.0271291304 0.0000000000 0.6000000000 0.0195378643 0.0000000000 0.7000000000 0.0271291304 0.0000000000 0.7000000000 0.0195378643 0.0000000000 0.7000000000 0.0195378643 0.0000000000 0.7000000000 0.0271291304 0.0000000000 0.8000000000 0.0271291304 0.0000000000 0.7000000000 0.0195378643 0.0000000000 0.8000000000 0.0271291304 0.0000000000 0.8000000000 0.0195378643 0.0000000000 0.8000000000 0.0195378643 0.0000000000 0.8000000000 0.0271291304 0.0000000000 0.9000000000 0.0271291304 0.0000000000 0.8000000000 0.0195378643 0.0000000000 0.9000000000 0.0271291304 0.0000000000 0.9000000000 0.0195378643 0.0000000000 0.9000000000 0.0195378643 0.0000000000 0.9000000000 0.0271291304 0.0000000000 1.0000000000 0.0271291304 0.0000000000 0.9000000000 0.0195378643 0.0000000000 1.0000000000 0.0271291304 0.0000000000 1.0000000000 0.0195378643 0.0000000000 0.0000000000 0.0271291304 0.0000000000 0.0000000000 0.0376278451 0.0000000000 0.1000000000 0.0376278451 0.0000000000 0.0000000000 0.0271291304 0.0000000000 0.1000000000 0.0376278451 0.0000000000 0.1000000000 0.0271291304 0.0000000000 0.1000000000 0.0271291304 0.0000000000 0.1000000000 0.0376278451 0.0000000000 0.2000000000 0.0376278451 0.0000000000 0.1000000000 0.0271291304 0.0000000000 0.2000000000 0.0376278451 0.0000000000 0.2000000000 0.0271291304 0.0000000000 0.2000000000 0.0271291304 0.0000000000 0.2000000000 0.0376278451 0.0000000000 0.3000000000 0.0376278451 0.0000000000 0.2000000000 0.0271291304 0.0000000000 0.3000000000 0.0376278451 0.0000000000 0.3000000000 0.0271291304 0.0000000000 0.3000000000 0.0271291304 0.0000000000 0.3000000000 0.0376278451 0.0000000000 0.4000000000 0.0376278451 0.0000000000 0.3000000000 0.0271291304 0.0000000000 0.4000000000 0.0376278451 0.0000000000 0.4000000000 0.0271291304 0.0000000000 0.4000000000 0.0271291304 0.0000000000 0.4000000000 0.0376278451 0.0000000000 0.5000000000 0.0376278451 0.0000000000 0.4000000000 0.0271291304 0.0000000000 0.5000000000 0.0376278451 0.0000000000 0.5000000000 0.0271291304 0.0000000000 0.5000000000 0.0271291304 0.0000000000 0.5000000000 0.0376278451 0.0000000000 0.6000000000 0.0376278451 0.0000000000 0.5000000000 0.0271291304 0.0000000000 0.6000000000 0.0376278451 0.0000000000 0.6000000000 0.0271291304 0.0000000000 0.6000000000 0.0271291304 0.0000000000 0.6000000000 0.0376278451 0.0000000000 0.7000000000 0.0376278451 0.0000000000 0.6000000000 0.0271291304 0.0000000000 0.7000000000 0.0376278451 0.0000000000 0.7000000000 0.0271291304 0.0000000000 0.7000000000 0.0271291304 0.0000000000 0.7000000000 0.0376278451 0.0000000000 0.8000000000 0.0376278451 0.0000000000 0.7000000000 0.0271291304 0.0000000000 0.8000000000 0.0376278451 0.0000000000 0.8000000000 0.0271291304 0.0000000000 0.8000000000 0.0271291304 0.0000000000 0.8000000000 0.0376278451 0.0000000000 0.9000000000 0.0376278451 0.0000000000 0.8000000000 0.0271291304 0.0000000000 0.9000000000 0.0376278451 0.0000000000 0.9000000000 0.0271291304 0.0000000000 0.9000000000 0.0271291304 0.0000000000 0.9000000000 0.0376278451 0.0000000000 1.0000000000 0.0376278451 0.0000000000 0.9000000000 0.0271291304 0.0000000000 1.0000000000 0.0376278451 0.0000000000 1.0000000000 0.0271291304 0.0000000000 0.0000000000 0.0376278451 0.0000000000 0.0000000000 0.0521475645 0.0000000000 0.1000000000 0.0521475645 0.0000000000 0.0000000000 0.0376278451 0.0000000000 0.1000000000 0.0521475645 0.0000000000 0.1000000000 0.0376278451 0.0000000000 0.1000000000 0.0376278451 0.0000000000 0.1000000000 0.0521475645 0.0000000000 0.2000000000 0.0521475645 0.0000000000 0.1000000000 0.0376278451 0.0000000000 0.2000000000 0.0521475645 0.0000000000 0.2000000000 0.0376278451 0.0000000000 0.2000000000 0.0376278451 0.0000000000 0.2000000000 0.0521475645 0.0000000000 0.3000000000 0.0521475645 0.0000000000 0.2000000000 0.0376278451 0.0000000000 0.3000000000 0.0521475645 0.0000000000 0.3000000000 0.0376278451 0.0000000000 0.3000000000 0.0376278451 0.0000000000 0.3000000000 0.0521475645 0.0000000000 0.4000000000 0.0521475645 0.0000000000 0.3000000000 0.0376278451 0.0000000000 0.4000000000 0.0521475645 0.0000000000 0.4000000000 0.0376278451 0.0000000000 0.4000000000 0.0376278451 0.0000000000 0.4000000000 0.0521475645 0.0000000000 0.5000000000 0.0521475645 0.0000000000 0.4000000000 0.0376278451 0.0000000000 0.5000000000 0.0521475645 0.0000000000 0.5000000000 0.0376278451 0.0000000000 0.5000000000 0.0376278451 0.0000000000 0.5000000000 0.0521475645 0.0000000000 0.6000000000 0.0521475645 0.0000000000 0.5000000000 0.0376278451 0.0000000000 0.6000000000 0.0521475645 0.0000000000 0.6000000000 0.0376278451 0.0000000000 0.6000000000 0.0376278451 0.0000000000 0.6000000000 0.0521475645 0.0000000000 0.7000000000 0.0521475645 0.0000000000 0.6000000000 0.0376278451 0.0000000000 0.7000000000 0.0521475645 0.0000000000 0.7000000000 0.0376278451 0.0000000000 0.7000000000 0.0376278451 0.0000000000 0.7000000000 0.0521475645 0.0000000000 0.8000000000 0.0521475645 0.0000000000 0.7000000000 0.0376278451 0.0000000000 0.8000000000 0.0521475645 0.0000000000 0.8000000000 0.0376278451 0.0000000000 0.8000000000 0.0376278451 0.0000000000 0.8000000000 0.0521475645 0.0000000000 0.9000000000 0.0521475645 0.0000000000 0.8000000000 0.0376278451 0.0000000000 0.9000000000 0.0521475645 0.0000000000 0.9000000000 0.0376278451 0.0000000000 0.9000000000 0.0376278451 0.0000000000 0.9000000000 0.0521475645 0.0000000000 1.0000000000 0.0521475645 0.0000000000 0.9000000000 0.0376278451 0.0000000000 1.0000000000 0.0521475645 0.0000000000 1.0000000000 0.0376278451 0.0000000000 0.0000000000 0.0521475645 0.0000000000 0.0000000000 0.0722283238 0.0000000000 0.1000000000 0.0722283238 0.0000000000 0.0000000000 0.0521475645 0.0000000000 0.1000000000 0.0722283238 0.0000000000 0.1000000000 0.0521475645 0.0000000000 0.1000000000 0.0521475645 0.0000000000 0.1000000000 0.0722283238 0.0000000000 0.2000000000 0.0722283238 0.0000000000 0.1000000000 0.0521475645 0.0000000000 0.2000000000 0.0722283238 0.0000000000 0.2000000000 0.0521475645 0.0000000000 0.2000000000 0.0521475645 0.0000000000 0.2000000000 0.0722283238 0.0000000000 0.3000000000 0.0722283238 0.0000000000 0.2000000000 0.0521475645 0.0000000000 0.3000000000 0.0722283238 0.0000000000 0.3000000000 0.0521475645 0.0000000000 0.3000000000 0.0521475645 0.0000000000 0.3000000000 0.0722283238 0.0000000000 0.4000000000 0.0722283238 0.0000000000 0.3000000000 0.0521475645 0.0000000000 0.4000000000 0.0722283238 0.0000000000 0.4000000000 0.0521475645 0.0000000000 0.4000000000 0.0521475645 0.0000000000 0.4000000000 0.0722283238 0.0000000000 0.5000000000 0.0722283238 0.0000000000 0.4000000000 0.0521475645 0.0000000000 0.5000000000 0.0722283238 0.0000000000 0.5000000000 0.0521475645 0.0000000000 0.5000000000 0.0521475645 0.0000000000 0.5000000000 0.0722283238 0.0000000000 0.6000000000 0.0722283238 0.0000000000 0.5000000000 0.0521475645 0.0000000000 0.6000000000 0.0722283238 0.0000000000 0.6000000000 0.0521475645 0.0000000000 0.6000000000 0.0521475645 0.0000000000 0.6000000000 0.0722283238 0.0000000000 0.7000000000 0.0722283238 0.0000000000 0.6000000000 0.0521475645 0.0000000000 0.7000000000 0.0722283238 0.0000000000 0.7000000000 0.0521475645 0.0000000000 0.7000000000 0.0521475645 0.0000000000 0.7000000000 0.0722283238 0.0000000000 0.8000000000 0.0722283238 0.0000000000 0.7000000000 0.0521475645 0.0000000000 0.8000000000 0.0722283238 0.0000000000 0.8000000000 0.0521475645 0.0000000000 0.8000000000 0.0521475645 0.0000000000 0.8000000000 0.0722283238 0.0000000000 0.9000000000 0.0722283238 0.0000000000 0.8000000000 0.0521475645 0.0000000000 0.9000000000 0.0722283238 0.0000000000 0.9000000000 0.0521475645 0.0000000000 0.9000000000 0.0521475645 0.0000000000 0.9000000000 0.0722283238 0.0000000000 1.0000000000 0.0722283238 0.0000000000 0.9000000000 0.0521475645 0.0000000000 1.0000000000 0.0722283238 0.0000000000 1.0000000000 0.0521475645 0.0000000000 0.0000000000 0.0722283238 0.0000000000 0.0000000000 0.1000000000 0.0000000000 0.1000000000 0.1000000000 0.0000000000 0.0000000000 0.0722283238 0.0000000000 0.1000000000 0.1000000000 0.0000000000 0.1000000000 0.0722283238 0.0000000000 0.1000000000 0.0722283238 0.0000000000 0.1000000000 0.1000000000 0.0000000000 0.2000000000 0.1000000000 0.0000000000 0.1000000000 0.0722283238 0.0000000000 0.2000000000 0.1000000000 0.0000000000 0.2000000000 0.0722283238 0.0000000000 0.2000000000 0.0722283238 0.0000000000 0.2000000000 0.1000000000 0.0000000000 0.3000000000 0.1000000000 0.0000000000 0.2000000000 0.0722283238 0.0000000000 0.3000000000 0.1000000000 0.0000000000 0.3000000000 0.0722283238 0.0000000000 0.3000000000 0.0722283238 0.0000000000 0.3000000000 0.1000000000 0.0000000000 0.4000000000 0.1000000000 0.0000000000 0.3000000000 0.0722283238 0.0000000000 0.4000000000 0.1000000000 0.0000000000 0.4000000000 0.0722283238 0.0000000000 0.4000000000 0.0722283238 0.0000000000 0.4000000000 0.1000000000 0.0000000000 0.5000000000 0.1000000000 0.0000000000 0.4000000000 0.0722283238 0.0000000000 0.5000000000 0.1000000000 0.0000000000 0.5000000000 0.0722283238 0.0000000000 0.5000000000 0.0722283238 0.0000000000 0.5000000000 0.1000000000 0.0000000000 0.6000000000 0.1000000000 0.0000000000 0.5000000000 0.0722283238 0.0000000000 0.6000000000 0.1000000000 0.0000000000 0.6000000000 0.0722283238 0.0000000000 0.6000000000 0.0722283238 0.0000000000 0.6000000000 0.1000000000 0.0000000000 0.7000000000 0.1000000000 0.0000000000 0.6000000000 0.0722283238 0.0000000000 0.7000000000 0.1000000000 0.0000000000 0.7000000000 0.0722283238 0.0000000000 0.7000000000 0.0722283238 0.0000000000 0.7000000000 0.1000000000 0.0000000000 0.8000000000 0.1000000000 0.0000000000 0.7000000000 0.0722283238 0.0000000000 0.8000000000 0.1000000000 0.0000000000 0.8000000000 0.0722283238 0.0000000000 0.8000000000 0.0722283238 0.0000000000 0.8000000000 0.1000000000 0.0000000000 0.9000000000 0.1000000000 0.0000000000 0.8000000000 0.0722283238 0.0000000000 0.9000000000 0.1000000000 0.0000000000 0.9000000000 0.0722283238 0.0000000000 0.9000000000 0.0722283238 0.0000000000 0.9000000000 0.1000000000 0.0000000000 1.0000000000 0.1000000000 0.0000000000 0.9000000000 0.0722283238 0.0000000000 1.0000000000 0.1000000000 0.0000000000 1.0000000000 0.0722283238 0.0000000000 
</DataArray>
</Points>
<Cells>
<DataArray type="UInt32" Name="connectivity" format="ascii">
0 1 2 3 4 5 6 7 8 9 10 11 12 13 14 15 16 17 18 19 20 21 22 23 24 25 26 27 28 29 30 31 32 33 34 35 36 37 38 39 40 41 42 43 44 45 46 47 48 49 50 51 52 53 54 55 56 57 58 59 60 61 62 63 64 65 66 67 68 69 70 71 72 73 74 75 76 77 78 79 80 81 82 83 84 85 86 87 88 89 90 91 92 93 94 95 96 97 98 99 100 101 102 103 104 105 106 107 108 109 110 111 112 113 114 115 116 117 118 119 120 121 122 123 124 125 126 127 128 129 130 131 132 133 134 135 136 137 138 139 140 141 142 143 144 145 146 147 148 149 150 151 152 153 154 155 156 157 158 159 160 161 162 163 164 165 166 167 168 169 170 171 172 173 174 175 176 177 178 179 180 181 182 183 184 185 186 187 188 189 190 191 192 193 194 195 196 197 198 199 200 201 202 203 204 205 206 207 208 209 210 211 212 213 214 215 216 217 218 219 220 221 222 223 224 225 226 227 228 229 230 231 232 233 234 235 236 237 238 239 240 241 242 243 244 245 246 247 248 249 250 251 252 253 254 255 256 257 258 259 260 261 262 263 264 265 266 267 268 269 270 271 272 273 274 275 276 277 278 279 280 281 282 283 284 285 286 287 288 289 290 291 292 293 294 295 296 297 298 299 300 301 302 303 304 305 306 307 308 309 310 311 312 313 314 315 316 317 318 319 320 321 322 323 324 325 326 327 328 329 330 331 332 333 334 335 336 337 338 339 340 341 342 343 344 345 346 347 348 349 350 351 352 353 354 355 356 357 358 359 360 361 362 363 364 365 366 367 368 369 370 371 372 373 374 375 376 377 378 379 380 381 382 383 384 385 386 387 388 389 390 391 392 393 394 395 396 397 398 399 400 401 402 403 404 405 406 407 408 409 410 411 412 413 414 415 416 417 418 419 420 421 422 423 424 425 426 427 428 429 430 431 432 433 434 435 436 437 438 439 440 441 442 443 444 445 446 447 448 449 450 451 452 453 454 455 456 457 458 459 460 461 462 463 464 465 466 467 468 469 470 471 472 473 474 475 476 477 478 479 480 481 482 483 484 485 486 487 488 489 490 491 492 493 494 495 496 497 498 499 500 501 502 503 504 505 506 507 508 509 510 511 512 513 514 515 516 517 518 519 520 521 522 523 524 525 526 527 528 529 530 531 532 533 534 535 536 537 538 539 540 541 542 543 544 545 546 547 548 549 550 551 552 553 554 555 556 557 558 559 560 561 562 563 564 565 566 567 568 569 570 571 572 573 574 575 576 577 578 579 580 581 582 583 584 585 586 587 588 589 590 591 592 593 594 595 596 597 598 599 600 601 602 603 604 605 606 607 608 609 610 611 612 613 614 615 616 617 618 619 620 621 622 623 624 625 626 627 628 629 630 631 632 633 634 635 636 637 638 639 640 641 642 643 644 645 646 647 648 649 650 651 652 653 654 655 656 657 658 659 660 661 662 663 664 665 666 667 668 669 670 671 672 673 674 675 676 677 678 679 680 681 682 683 684 685 686 687 688 689 690 691 692 693 694 695 696 697 698 699 700 701 702 703 704 705 706 707 708 709 710 711 712 713 714 715 716 717 718 719 720 721 722 723 724 725 726 727 728 729 730 731 732 733 734 735 736 737 738 739 740 741 742 743 744 745 746 747 748 749 750 751 752 753 754 755 756 757 758 759 760 761 762 763 764 765 766 767 768 769 770 771 772 773 774 775 776 777 778 779 780 781 782 783 784 785 786 787 788 789 790 791 792 793 794 795 796 797 798 799 800 801 802 803 804 805 806 807 808 809 810 811 812 813 814 815 816 817 818 819 820 821 822 823 824 825 826 827 828 829 830 831 832 833 834 835 836 837 838 839 840 841 842 843 844 845 846 847 848 849 850 851 852 853 854 855 856 857 858 859 860 861 862 863 864 865 866 867 868 869 870 871 872 873 874 875 876 877 878 879 880 881 882 883 884 885 886 887 888 889 890 891 892 893 894 895 896 897 898 899 900 901 902 903 904 905 906 907 908 909 910 911 912 913 914 915 916 917 918 919 920 921 922 923 924 925 926 927 928 929 930 931 932 933 934 935 936 937 938 939 940 941 942 943 944 945 946 947 948 949 950 951 952 953 954 955 956 957 958 959 960 961 962 963 964 965 966 967 968 969 970 971 972 973 974 975 976 977 978 979 980 981 982 983 984 985 986 987 988 989 990 991 992 993 994 995 996 997 998 999 1000 1001 1002 1003 1004 1005 1006 1007 1008 1009 1010 1011 1012 1013 1014 1015 1016 1017 1018 1019 1020 1021 1022 1023 1024 1025 1026 1027 1028 1029 1030 1031 1032 1033 1034 1035 1036 1037 1038 1039 1040 1041 1042 1043 1044 1045 1046 1047 1048 1049 1050 1051 1052 1053 1054 1055 1056 1057 1058 1059 1060 1061 1062 1063 1064 1065 1066 1067 1068 1069 1070 1071 1072 1073 1074 1075 1076 1077 1078 1079 1080 1081 1082 1083 1084 1085 1086 1087 1088 1089 1090 1091 1092 1093 1094 1095 1096 1097 1098 1099 1100 1101 1102 1103 1104 1105 1106 1107 1108 1109 1110 1111 1112 1113 1114 1115 1116 1117 1118 1119 1120 1121 1122 1123 1124 1125 1126 1127 1128 1129 1130 1131 1132 1133 1134 1135 1136 1137 1138 1139 1140 1141 1142 1143 1144 1145 1146 1147 1148 1149 1150 1151 1152 1153 1154 1155 1156 1157 1158 1159 
</DataArray>
<DataArray type="UInt32" Name="offsets" format="ascii">
2 4 6 8 10 12 14 16 18 20 23 26 29 32 35 38 41 44 47 50 53 56 59 62 65 68 71 74 77 80 83 86 89 92 95 98 101 104 107 110 113 116 119 122 125 128 131 134 137 140 143 146 149 152 155 158 161 164 167 170 173 176 179 182 185 188 191 194 197 200 203 206 209 212 215 218 221 224 227 230 233 236 239 242 245 248 251 254 257 260 263 266 269 272 275 278 281 284 287 290 293 296 299 302 305 308 311 314 317 320 323 326 329 332 335 338 341 344 347 350 353 356 359 362 365 368 371 374 377 380 383 386 389 392 395 398 401 404 407 410 413 416 419 422 425 428 431 434 437 440 443 446 449 452 455 458 461 464 467 470 473 476 479 482 485 488 491 494 497 500 503 506 509 512 515 518 521 524 527 530 533 536 539 542 545 548 551 554 557 560 563 566 569 572 575 578 581 584 587 590 593 596 599 602 605 608 611 614 617 620 623 626 629 632 635 638 641 644 647 650 653 656 659 662 665 668 671 674 677 680 683 686 689 692 695 698 701 704 707 710 713 716 719 722 725 728 731 734 737 740 743 746 749 752 755 758 761 764 767 770 773 776 779 782 785 788 791 794 797 800 803 806 809 812 815 818 821 824 827 830 833 836 839 842 845 848 851 854 857 860 863 866 869 872 875 878 881 884 887 890 893 896 899 902 905 908 911 914 917 920 923 926 929 932 935 938 941 944 947 950 953 956 959 962 965 968 971 974 977 980 983 986 989 992 995 998 1001 1004 1007 1010 1013 1016 1019 1022 1025 1028 1031 1034 1037 1040 1043 1046 1049 1052 1055 1058 1061 1064 1067 1070 1073 1076 1079 1082 1085 1088 1091 1094 1097 1100 1103 1106 1109 1112 1115 1118 1121 1124 1127 1130 1133 1136 1139 1142 1145 1148 1151 1154 1157 1160 
</DataArray>
<DataArray type="UInt32" Name="types" format="ascii">
3 3 3 3 3 3 3 3 3 3 5 5 5 5 5 5 5 5 5 5 5 5 5 5 5 5 5 5 5 5 5 5 5 5 5 5 5 5 5 5 5 5 5 5 5 5 5 5 5 5 5 5 5 5 5 5 5 5 5 5 5 5 5 5 5 5 5 5 5 5 5 5 5 5 5 5 5 5 5 5 5 5 5 5 5 5 5 5 5 5 5 5 5 5 5 5 5 5 5 5 5 5 5 5 5 5 5 5 5 5 5 5 5 5 5 5 5 5 5 5 5 5 5 5 5 5 5 5 5 5 5 5 5 5 5 5 5 5 5 5 5 5 5 5 5 5 5 5 5 5 5 5 5 5 5 5 5 5 5 5 5 5 5 5 5 5 5 5 5 5 5 5 5 5 5 5 5 5 5 5 5 5 5 5 5 5 5 5 5 5 5 5 5 5 5 5 5 5 5 5 5 5 5 5 5 5 5 5 5 5 5 5 5 5 5 5 5 5 5 5 5 5 5 5 5 5 5 5 5 5 5 5 5 5 5 5 5 5 5 5 5 5 5 5 5 5 5 5 5 5 5 5 5 5 5 5 5 5 5 5 5 5 5 5 5 5 5 5 5 5 5 5 5 5 5 5 5 5 5 5 5 5 5 5 5 5 5 5 5 5 5 5 5 5 5 5 5 5 5 5 5 5 5 5 5 5 5 5 5 5 5 5 5 5 5 5 5 5 5 5 5 5 5 5 5 5 5 5 5 5 5 5 5 5 5 5 5 5 5 5 5 5 5 5 5 5 5 5 5 5 5 5 5 5 5 5 5 5 5 5 5 5 5 5 5 5 5 5 5 5 5 5 5 5 5 5 5 5 5 5 5 5 5 5 5 5 5 5 5 5 
</DataArray>
</Cells>
<PointData Scalars="Ba-133_conc,region_id," Vectors="" Tensors="">
<DataArray type="Float64" Name="Ba-133_conc" format="ascii">
3181.3585384344 3728.6036426325 3729.3514422667 4212.9063209652 4212.5173585273 4513.3333795818 4513.6434857471 4546.9516545044 4546.8345990886 4221.1637892083 4221.3623994712 3527.6110699007 3527.6238284911 2553.3529493283 2553.4653217245 1510.4619889234 1510.4149810607 635.7695236367 635.6615435713 7.5395392520 3179.0845087384 401.6094923170 619.8212423593 3179.0806576710 619.8179309750 3726.6264166324 3726.7594498856 619.7684923160 810.2834740331 3726.8486457684 810.2788476553 4210.6537432100 4210.6175362572 810.2632520213 1041.5726567080 4210.5174874306 1041.6166391641 4511.6931896852 4511.7955346914 1041.5513817219 1313.3506613139 4511.8083508782 1313.3677776500 4545.9436607991 4545.9822305699 1313.3027867203 1615.2437933828 4545.9152667991 1615.2732109528 4221.2946018582 4221.3925542582 1615.1809471100 1935.5608962681 4221.3866440497 1935.5572897428 3528.8763821191 3528.9284559189 1935.4735673645 2251.7445136942 3528.9130754613 2251.7103362304 2555.6731228168 2555.7086886328 2251.6434210084 2536.9342364124 2555.7534071343 2536.8439585606 1513.2725426950 1513.2276533174 2536.8297504454 2766.8606618945 1513.3009577762 2766.7181228623 638.4986474278 638.3972124582 2766.7509203304 3179.2306393856 638.4815671406 3179.1082425379 10.2663519489 366.5969967178 -6.4066033378 -87.0975384368 400.1076101567 -116.0365801735 618.3263852064 586.1646821130 -85.1380522453 -112.9622919302 618.0876396908 -147.4298347513 808.2539626189 770.2398492212 -110.3285155636 -143.2743093597 808.2300272911 -183.4163234891 1039.3638839283 996.0874000273 -140.4441683926 -177.6828860857 1039.1800922315 -222.0623930626 1311.0804646656 1264.5164389833 -174.7541052006 -214.2057986136 1310.6768193342 -260.0334219366 1613.2003777153 1566.9367277236 -211.4289636581 -249.7445877813 1612.5087051738 -292.5635212286 1934.0827688312 1893.3754187522 -247.4536169190 -280.1281249072 1933.0669453960 -313.8394459265 2251.2662156851 2222.7794142597 -278.6251623151 -300.4300557397 2249.9322711637 -317.9109621614 2537.8061952262 2528.3123320168 -299.7861975514 -292.3086578322 2536.2571664045 -288.5233850881 2769.3695861132 2785.4456215178 -296.8952672883 -590.9440130180 2767.6834965354 -547.3508394204 3182.8965610916 -4.8981977319 -0.6691621399 3.5392628709 -6.1689956080 5.3624415138 -72.7110519530 -65.1845936042 2.3347701557 7.6923732557 -72.6611569211 12.5171318650 -96.0221497834 -86.4358769163 7.1632663408 9.4442035451 -95.2659766381 15.3315856116 -123.6085632450 -112.5117058246 9.1116472258 11.8424504695 -122.7490850799 18.6012617198 -155.9401172189 -143.6888179911 11.6020356715 14.4256901562 -154.9071781391 21.7435172953 -191.7677801644 -179.2151576882 14.3845443358 16.9772936391 -190.5637323631 24.2516305680 -228.8381239852 -217.4063140593 17.2744966636 19.1547369417 -227.5012811573 25.4317986833 -263.7765533912 -255.4770751351 19.9493511591 20.6821518289 -262.3520540367 24.6227955027 -292.1818595365 -289.4930738640 22.0340978337 18.4832356078 -290.7797228332 18.9292145093 -294.4084201007 -300.3516913984 22.0785904191 43.8654809399 -293.2528598050 36.4406667556 -622.3064322468 -0.1746505955 0.0582610100 -0.0915945590 -0.2421165028 -0.1699075654 2.2265707706 1.5525996226 0.0097334076 -0.5943598385 1.9449637858 -1.2633889958 5.2335409709 3.8871048299 -0.4558498904 -0.8137744255 5.0987166660 -1.7935120549 6.8232333513 5.1298044715 -0.7030062335 -1.0081475173 6.6135128789 -2.2338218385 8.8232636941 6.7912353580 -0.9130724940 -1.2891502671 8.5831905981 -2.7414258562 11.1621178417 8.8223491490 -1.1845988905 -1.6018533351 10.8928419946 -3.2435332737 13.7493352513 11.2103864867 -1.4998769545 -1.9268423232 13.4658250076 -3.6619952941 16.4076707285 13.8811406211 -1.8413138590 -2.2594940591 16.1392534146 -3.9305962969 19.0254230665 16.8373477765 -2.2375275913 -2.2090166876 18.7610207551 -3.4299450646 18.4639441907 17.1536896750 -2.0243494051 -4.9525836452 18.7907217710 -6.0628520378 48.1700018675 0.0074526847 -0.0013631125 0.0005555145 0.0187756385 -0.0004355054 -0.0339924762 -0.0124754599 -0.0045606033 0.0170012240 -0.0176866160 0.0501746075 -0.2598921988 -0.1287093143 0.0052399904 0.0345776312 -0.2344415352 0.1194515647 -0.3782562268 -0.1937704551 0.0251813054 0.0451897731 -0.3531183802 0.1621679118 -0.4963550438 -0.2621222506 0.0359321465 0.0601242722 -0.4721907013 0.2136295431 -0.6603276121 -0.3593412919 0.0494251566 0.0806200435 -0.6311682193 0.2768178870 -0.8617732868 -0.4852719327 0.0674713051 0.1058655287 -0.8282254132 0.3499804021 -1.0997671749 -0.6439569784 0.0901861626 0.1372538047 -1.0634874493 0.4328131124 -1.3861135665 -0.8542353188 0.1241600909 0.1621237596 -1.3519448096 0.4885188224 -1.4980191473 -0.9044977092 0.0997707995 0.3146175082 -1.3880391109 0.8221016345 -3.8240128259 -0.0000456293 0.0000061715 0.0000100601 -0.0002663643 0.0001058167 0.0000558145 -0.0000735925 0.0000736906 -0.0000978033 -0.0004364687 -0.0005045813 0.0035529865 0.0007996226 0.0000547780 -0.0004595042 0.0023568399 -0.0029587268 0.0080897829 0.0020852160 -0.0002500047 -0.0006914639 0.0069850150 -0.0047294533 0.0114142301 0.0030154356 -0.0004717687 -0.0009301314 0.0100642166 -0.0065947112 0.0157663565 0.0042985327 -0.0006821510 -0.0013193581 0.0141626139 -0.0091780441 0.0219268541 0.0061463073 -0.0009842802 -0.0018618480 0.0197962661 -0.0126191421 0.0300580124 0.0086801472 -0.0014033741 -0.0026029367 0.0272608493 -0.0171334351 0.0409017113 0.0123967047 -0.0020569985 -0.0035384843 0.0381093124 -0.0226858030 0.0517182328 0.0139548471 -0.0018980600 -0.0058473820 0.0382008268 -0.0340536275 0.1084031159 0.0000000427 0.0000000020 -0.0000000277 0.0000006674 -0.0000005256 0.0000011008 0.0000004215 -0.0000001272 0.0000000589 0.0000051267 0.0000001905 -0.0000081843 -0.0000004543 -0.0000003472 0.0000008706 -0.0000006919 0.0000119074 -0.0000446190 -0.0000046112 0.0000001272 0.0000018779 -0.0000331109 0.0000292648 -0.0000717292 -0.0000077494 0.0000010628 0.0000026402 -0.0000573473 0.0000438814 -0.0001011581 -0.0000112605 0.0000016946 0.0000038045 -0.0000841201 0.0000637962 -0.0001469989 -0.0000167220 0.0000025220 0.0000056226 -0.0001233349 0.0000927785 -0.0002129655 -0.0000247127 0.0000037633 0.0000082556 -0.0001791695 0.0001337633 -0.0003063951 -0.0000368128 0.0000056747 0.0000120938 -0.0002649792 0.0001928957 -0.0004322014 -0.0000466378 0.0000066032 0.0000180246 -0.0002915228 0.0002688563 -0.0007398341 -0.0000000000 -0.0000000000 0.0000000000 -0.0000000001 0.0000000003 -0.0000000010 -0.0000000001 0.0000000000 0.0000000000 -0.0000000041 0.0000000015 0.0000000015 -0.0000000002 0.0000000002 -0.0000000002 -0.0000000072 -0.0000000048 0.0000000306 0.0000000010 0.0000000001 -0.0000000007 0.0000000152 -0.0000000271 0.0000000724 0.0000000029 -0.0000000003 -0.0000000011 0.0000000519 -0.0000000473 0.0000001077 0.0000000044 -0.0000000006 -0.0000000016 0.0000000815 -0.0000000707 0.0000001585 0.0000000066 -0.0000000010 -0.0000000024 0.0000001228 -0.0000001063 0.0000002381 0.0000000101 -0.0000000015 -0.0000000036 0.0000001851 -0.0000001593 0.0000003559 0.0000000154 -0.0000000023 -0.0000000055 0.0000002813 -0.0000002400 0.0000005322 0.0000000217 -0.0000000032 -0.0000000080 0.0000003585 -0.0000003352 0.0000008096 -0.0000000000 0.0000000000 -0.0000000000 -0.0000000000 -0.0000000000 0.0000000000 0.0000000000 -0.0000000000 -0.0000000000 0.0000000000 -0.0000000000 0.0000000000 0.0000000000 -0.0000000000 0.0000000000 0.0000000000 -0.0000000000 -0.0000000000 -0.0000000000 -0.0000000000 0.0000000000 0.0000000000 0.0000000000 -0.0000000000 -0.0000000000 0.0000000000 0.0000000000 -0.0000000000 0.0000000000 -0.0000000000 -0.0000000000 0.0000000000 0.0000000000 -0.0000000000 0.0000000000 -0.0000000000 -0.0000000000 0.0000000000 0.0000000000 -0.0000000000 0.0000000000 -0.0000000000 -0.0000000000 0.0000000000 0.0000000000 -0.0000000000 0.0000000000 -0.0000000001 -0.0000000000 0.0000000000 0.0000000000 -0.0000000000 0.0000000000 -0.0000000001 -0.0000000000 0.0000000000 0.0000000000 -0.0000000001 0.0000000001 -0.0000000001 0.0000000000 -0.0000000000 0.0000000000 0.0000000000 -0.0000000000 -0.0000000000 -0.0000000000 -0.0000000000 0.0000000000 -0.0000000000 0.0000000000 -0.0000000000 -0.0000000000 0.0000000000 0.0000000000 -0.0000000000 0.0000000000 0.0000000000 -0.0000000000 0.0000000000 -0.0000000000 -0.0000000000 -0.0000000000 0.0000000000 0.0000000000 0.0000000000 -0.0000000000 0.0000000000 -0.0000000000 0.0000000000 0.0000000000 -0.0000000000 -0.0000000000 0.0000000000 -0.0000000000 0.0000000000 0.0000000000 -0.0000000000 -0.0000000000 0.0000000000 -0.0000000000 0.0000000000 0.0000000000 -0.0000000000 -0.0000000000 0.0000000000 -0.0000000000 0.0000000000 0.0000000000 -0.0000000000 -0.0000000000 0.0000000000 -0.0000000000 0.0000000000 0.0000000000 -0.0000000000 -0.0000000000 0.0000000000 -0.0000000000 0.0000000000 -0.0000000000 0.0000000000 0.0000000000 -0.0000000000 0.0000000000 0.0000000000 -0.0000000000 0.0000000000 -0.0000000000 -0.0000000000 -0.0000000000 0.0000000000 0.0000000000 -0.0000000000 -0.0000000000 0.0000000000 -0.0000000000 0.0000000000 0.0000000000 -0.0000000000 -0.0000000000 0.0000000000 -0.0000000000 -0.0000000000 -0.0000000000 -0.0000000000 0.0000000000 0.0000000000 0.0000000000 -0.0000000000 -0.0000000000 -0.0000000000 0.0000000000 -0.0000000000 0.0000000000 -0.0000000000 -0.0000000000 0.0000000000 0.0000000000 -0.0000000000 0.0000000000 -0.0000000000 -0.0000000000 0.0000000000 0.0000000000 -0.0000000000 0.0000000000 -0.0000000000 -0.0000000000 0.0000000000 0.0000000000 -0.0000000000 0.0000000000 -0.0000000000 -0.0000000000 0.0000000000 0.0000000000 -0.0000000000 0.0000000000 -0.0000000000 0.0000000000 0.0000000000 -0.0000000000 0.0000000000 -0.0000000000 0.0000000000 0.0000000000 -0.0000000000 0.0000000000 0.0000000000 -0.0000000000 -0.0000000000 -0.0000000000 -0.0000000000 0.0000000000 -0.0000000000 0.0000000000 -0.0000000000 -0.0000000000 0.0000000000 0.0000000000 -0.0000000000 0.0000000000 -0.0000000000 -0.0000000000 0.0000000000 -0.0000000000 -0.0000000000 -0.0000000000 0.0000000000 0.0000000000 0.0000000000 -0.0000000000 0.0000000000 -0.0000000000 0.0000000000 0.0000000000 -0.0000000000 -0.0000000000 0.0000000000 -0.0000000000 0.0000000000 0.0000000000 -0.0000000000 -0.0000000000 0.0000000000 -0.0000000000 0.0000000000 0.0000000000 -0.0000000000 -0.0000000000 0.0000000000 -0.0000000000 0.0000000000 0.0000000000 -0.0000000000 -0.0000000000 0.0000000000 -0.0000000000 0.0000000000 0.0000000000 -0.0000000000 0.0000000000 0.0000000000 0.0000000000 -0.0000000000 -0.0000000000 0.0000000000 0.0000000000 -0.0000000000 0.0000000000 0.0000000000 -0.0000000000 0.0000000000 -0.0000000000 -0.0000000000 -0.0000000000 0.0000000000 0.0000000000 0.0000000000 -0.0000000000 0.0000000000 -0.0000000000 0.0000000000 0.0000000000 -0.0000000000 -0.0000000000 0.0000000000 -0.0000000000 -0.0000000000 0.0000000000 -0.0000000000 0.0000000000 0.0000000000 0.0000000000 -0.0000000000 -0.0000000000 -0.0000000000 0.0000000000 -0.0000000000 0.0000000000 -0.0000000000 -0.0000000000 0.0000000000 0.0000000000 -0.0000000000 0.0000000000 -0.0000000000 -0.0000000000 0.0000000000 0.0000000000 -0.0000000000 0.0000000000 -0.0000000000 -0.0000000000 0.0000000000 0.0000000000 -0.0000000000 0.0000000000 -0.0000000000 -0.0000000000 0.0000000000 0.0000000000 -0.0000000000 -0.0000000000 0.0000000000 0.0000000000 0.0000000000 -0.0000000000 0.0000000000 -0.0000000000 0.0000000000 0.0000000000 -0.0000000000 -0.0000000000 0.0000000000 -0.0000000000 -0.0000000000 -0.0000000000 -0.0000000000 0.0000000000 0.0000000000 0.0000000000 -0.0000000000 -0.0000000000 0.0000000000 0.0000000000 -0.0000000000 0.0000000000 -0.0000000000 -0.0000000000 0.0000000000 0.0000000000 -0.0000000000 0.0000000000 0.0000000000 0.0000000000 0.0000000000 -0.0000000000 -0.0000000000 -0.0000000000 0.0000000000 0.0000000000 -0.0000000000 -0.0000000000 0.0000000000 -0.0000000000 0.0000000000 0.0000000000 -0.0000000000 -0.0000000000 0.0000000000 -0.0000000000 0.0000000000 0.0000000000 -0.0000000000 -0.0000000000 0.0000000000 -0.0000000000 0.0000000000 -0.0000000000 0.0000000000 -0.0000000000 0.0000000000 -0.0000000000 -0.0000000000 0.0000000000 -0.0000000000 -0.0000000000 0.0000000000 0.0000000000 -0.0000000000 -0.0000000000 -0.0000000000 0.0000000000 -0.0000000000 0.0000000000 -0.0000000000 -0.0000000000 0.0000000000 0.0000000000 -0.0000000000 0.0000000000 0.0000000000 0.0000000000 0.0000000000 -0.0000000000 -0.0000000000 -0.0000000000 0.0000000000 0.0000000000 -0.0000000000 -0.0000000000 0.0000000000 -0.0000000000 -0.0000000000 0.0000000000 -0.0000000000 0.0000000000 0.0000000000 0.0000000000 -0.0000000000 -0.0000000000 -0.0000000000 0.0000000000 0.0000000000 0.0000000000 -0.0000000000 -0.0000000000 0.0000000000 0.0000000000 -0.0000000000 0.0000000000 -0.0000000000 -0.0000000000 0.0000000000 0.0000000000 -0.0000000000 0.0000000000 -0.0000000000 -0.0000000000 0.0000000000 -0.0000000000 -0.0000000000 -0.0000000000 -0.0000000000 0.0000000000 -0.0000000000 -0.0000000000 0.0000000000 0.0000000000 -0.0000000000 0.0000000000 -0.0000000000 0.0000000000 0.0000000000 0.0000000000 0.0000000000 -0.0000000000 0.0000000000 0.0000000000 -0.0000000000 -0.0000000000 0.0000000000 -0.0000000000 0.0000000000 0.0000000000 -0.0000000000 -0.0000000000 -0.0000000000 0.0000000000 -0.0000000000 -0.0000000000 0.0000000000 0.0000000000 -0.0000000000 0.0000000000 -0.0000000000 0.0000000000 0.0000000000 0.0000000000 0.0000000000 -0.0000000000 0.0000000000 -0.0000000000 -0.0000000000 0.0000000000 0.0000000000 0.0000000000 0.0000000000 -0.0000000000 0.0000000000 -0.0000000000 -0.0000000000 0.0000000000 -0.0000000000 -0.0000000000 0.0000000000 -0.0000000000 -0.0000000000 -0.0000000000 0.0000000000 -0.0000000000 -0.0000000000 0.0000000000 -0.0000000000 0.0000000000 -0.0000000000 -0.0000000000 0.0000000000 0.0000000000 -0.0000000000 0.0000000000 -0.0000000000 0.0000000000 0.0000000000 -0.0000000000 -0.0000000000 -0.0000000000 0.0000000000 0.0000000000 -0.0000000000 -0.0000000000 0.0000000000 -0.0000000000 0.0000000000 0.0000000000 -0.0000000000 -0.0000000000 0.0000000000 0.0000000000 -0.0000000000 -0.0000000000 0.0000000000 0.0000000000 -0.0000000000 0.0000000000 -0.0000000000 -0.0000000000 0.0000000000 -0.0000000000 -0.0000000000 0.0000000000 0.0000000000 0.0000000000 0.0000000000 -0.0000000000 -0.0000000000 -0.0000000000 -0.0000000000 -0.0000000000 -0.0000000000 -0.0000000000 -0.0000000000 -0.0000000000 -0.0000000000 -0.0000000000 -0.0000000000 0.0000000000 0.0000000000 -0.0000000000 0.0000000000 -0.0000000000 -0.0000000000 0.0000000000 -0.0000000000 0.0000000000 -0.0000000000 -0.0000000000 0.0000000000 0.0000000000 -0.0000000000 0.0000000000 -0.0000000000 0.0000000000 0.0000000000 -0.0000000000 0.0000000000 -0.0000000000 0.0000000000 0.0000000000 -0.0000000000 -0.0000000000 0.0000000000 -0.0000000000 0.0000000000 -0.0000000000 -0.0000000000 -0.0000000000 0.0000000000 0.0000000000 -0.0000000000 -0.0000000000 0.0000000000 0.0000000000 -0.0000000000 0.0000000000 -0.0000000000 -0.0000000000 0.0000000000 0.0000000000 -0.0000000000 -0.0000000000 0.0000000000 0.0000000000 -0.0000000000 0.0000000000 0.0000000000 -0.0000000000 0.0000000000 -0.0000000000 -0.0000000000 0.0000000000 0.0000000000 0.0000000000 0.0000000000 -0.0000000000 0.0000000000 0.0000000000 -0.0000000000 -0.0000000000 0.0000000000 -0.0000000000 -0.0000000000 0.0000000000 -0.0000000000 0.0000000000 -0.0000000000 -0.0000000000 0.0000000000 0.0000000000 -0.0000000000 0.0000000000 -0.0000000000 0.0000000000 0.0000000000 -0.0000000000 0.0000000000 -0.0000000000 0.0000000000 0.0000000000 -0.0000000000 -0.0000000000 0.0000000000 -0.0000000000 0.0000000000 -0.0000000000 -0.0000000000 0.0000000000 0.0000000000 0.0000000000 -0.0000000000 -0.0000000000 0.0000000000 0.0000000000 -0.0000000000 0.0000000000 -0.0000000000 0.0000000000 0.0000000000 -0.0000000000 -0.0000000000 -0.0000000000 0.0000000000 0.0000000000 -0.0000000000 0.0000000000 0.0000000000 -0.0000000000 0.0000000000 -0.0000000000 -0.0000000000 0.0000000000 -0.0000000000 0.0000000000 0.0000000000 -0.0000000000 0.0000000000 0.0000000000 -0.0000000000 
</DataArray>
<DataArray type="Int32" Name="region_id" format="ascii">
2 2 2 2 2 2 2 2 2 2 2 2 2 2 2 2 2 2 2 2 1 1 1 1 1 1 1 1 1 1 1 1 1 1 1 1 1 1 1 1 1 1 1 1 1 1 1 1 1 1 1 1 1 1 1 1 1 1 1 1 1 1 1 1 1 1 1 1 1 1 1 1 1 1 1 1 1 1 1 1 1 1 1 1 1 1 1 1 1 1 1 1 1 1 1 1 1 1 1 1 1 1 1 1 1 1 1 1 1 1 1 1 1 1 1 1 1 1 1 1 1 1 1 1 1 1 1 1 1 1 1 1 1 1 1 1 1 1 1 1 1 1 1 1 1 1 1 1 1 1 1 1 1 1 1 1 1 1 1 1 1 1 1 1 1 1 1 1 1 1 1 1 1 1 1 1 1 1 1 1 1 1 1 1 1 1 1 1 1 1 1 1 1 1 1 1 1 1 1 1 1 1 1 1 1 1 1 1 1 1 1 1 1 1 1 1 1 1 1 1 1 1 1 1 1 1 1 1 1 1 1 1 1 1 1 1 1 1 1 1 1 1 1 1 1 1 1 1 1 1 1 1 1 1 1 1 1 1 1 1 1 1 1 1 1 1 1 1 1 1 1 1 1 1 1 1 1 1 1 1 1 1 1 1 1 1 1 1 1 1 1 1 1 1 1 1 1 1 1 1 1 1 1 1 1 1 1 1 1 1 1 1 1 1 1 1 1 1 1 1 1 1 1 1 1 1 1 1 1 1 1 1 1 1 1 1 1 1 1 1 1 1 1 1 1 1 1 1 1 1 1 1 1 1 1 1 1 1 1 1 1 1 1 1 1 1 1 1 1 1 1 1 1 1 1 1 1 1 1 1 1 1 1 1 1 1 1 1 1 1 1 1 1 1 1 1 1 1 1 1 1 1 1 1 1 1 1 1 1 1 1 1 1 1 1 1 1 1 1 1 1 1 1 1 1 1 1 1 1 1 1 1 1 1 1 1 1 1 1 1 1 1 1 1 1 1 1 1 1 1 1 1 1 1 1 1 1 1 1 1 1 1 1 1 1 1 1 1 1 1 1 1 1 1 1 1 1 1 1 1 1 1 1 1 1 1 1 1 1 1 1 1 1 1 1 1 1 1 1 1 1 1 1 1 1 1 1 1 1 1 1 1 1 1 1 1 1 1 1 1 1 1 1 1 1 1 1 1 1 1 1 1 1 1 1 1 1 1 1 1 1 1 1 1 1 1 1 1 1 1 1 1 1 1 1 1 1 1 1 1 1 1 1 1 1 1 1 1 1 1 1 1 1 1 1 1 1 1 1 1 1 1 1 1 1 1 1 1 1 1 1 1 1 1 1 1 1 1 1 1 1 1 1 1 1 1 1 1 1 1 1 1 1 1 1 1 1 1 1 1 1 1 1 1 1 1 1 1 1 1 1 1 1 1 1 1 1 1 1 1 1 1 1 1 1 1 1 1 1 1 1 1 1 1 1 1 1 1 1 1 1 1 1 1 1 1 1 1 1 1 1 1 1 1 1 1 1 1 1 1 1 1 1 1 1 1 1 1 1 1 1 1 1 1 1 1 1 1 1 1 1 1 1 1 1 1 1 1 1 1 1 1 1 1 1 1 1 1 1 1 1 1 1 1 1 1 1 1 1 1 1 1 1 1 1 1 1 1 1 1 1 1 1 1 1 1 1 1 1 1 1 1 1 1 1 1 1 1 1 1 1 1 1 1 1 1 1 1 1 1 1 1 1 1 1 1 1 1 1 1 1 1 1 1 1 1 1 1 1 1 1 1 1 1 1 1 1 1 1 1 1 1 1 1 1 1 1 1 1 1 1 1 1 1 1 1 1 1 1 1 1 1 1 1 1 1 1 1 1 1 1 1 1 1 1 1 1 1 1 1 1 1 1 1 1 1 1 1 1 1 1 1 1 1 1 1 1 1 1 1 1 1 1 1 1 1 1 1 1 1 1 1 1 1 1 1 1 1 1 1 1 1 1 1 1 1 1 1 1 1 1 1 1 1 1 1 1 1 1 1 1 1 1 1 1 1 1 1 1 1 1 1 1 1 1 1 1 1 1 1 1 1 1 1 1 1 1 1 1 1 1 1 1 1 1 1 1 1 1 1 1 1 1 1 1 1 1 1 1 1 1 1 1 1 1 1 1 1 1 1 1 1 1 1 1 1 1 1 1 1 1 1 1 1 1 1 1 1 1 1 1 1 1 1 1 1 1 1 1 1 1 1 1 1 1 1 1 1 1 1 1 1 1 1 1 1 1 1 1 1 1 1 1 1 1 1 1 1 1 1 1 1 1 1 1 1 1 1 1 1 1 1 1 1 1 1 1 1 1 1 1 1 1 1 1 1 1 1 1 1 1 1 1 1 1 1 1 1 1 1 1 1 1 1 1 1 1 1 1 1 1 1 1 1 1 1 1 1 1 1 1 1 1 1 1 1 1 1 1 1 1 1 1 1 1 1 1 1 1 1 1 1 1 1 1 1 1 1 1 1 1 1 1 1 1 1 1 1 1 1 1 1 1 1 1 1 1 1 1 1 1 1 1 1 1 1 1 1 1 1 1 1 1 1 1 1 1 1 1 1 1 1 1 1 1 1 1 1 1 1 
</DataArray>
</PointData>
</Piece>
</UnstructuredGrid>
</VTKFile>
