<?xml version="1.0"?>
<VTKFile type="UnstructuredGrid" version="0.1" byte_order="LittleEndian">
<UnstructuredGrid>
<Piece NumberOfPoints="1160" NumberOfCells="390">
<Points>
<DataArray type="Float64" NumberOfComponents="3" format="ascii">
0.0000000000 0.0000000000 0.0000000000 0.1000000000 0.0000000000 0.0000000000 0.1000000000 0.0000000000 0.0000000000 0.2000000000 0.0000000000 0.0000000000 0.2000000000 0.0000000000 0.0000000000 0.3000000000 0.0000000000 0.0000000000 0.3000000000 0.0000000000 0.0000000000 0.4000000000 0.0000000000 0.0000000000 0.4000000000 0.0000000000 0.0000000000 0.5000000000 0.0000000000 0.0000000000 0.5000000000 0.0000000000 0.0000000000 0.6000000000 0.0000000000 0.0000000000 0.6000000000 0.0000000000 0.0000000000 0.7000000000 0.0000000000 0.0000000000 0.7000000000 0.0000000000 0.0000000000 0.8000000000 0.0000000000 0.0000000000 0.8000000000 0.0000000000 0.0000000000 0.9000000000 0.0000000000 0.0000000000 0.9000000000 0.0000000000 0.0000000000 1.0000000000 0.0000000000 0.0000000000 0.0000000000 0.0000000000 0.0000000000 0.0000000000 0.0000100000 0.0000000000 0.1000000000 0.0000100000 0.0000000000 0.0000000000 0.0000000000 0.0000000000 0.1000000000 0.0000100000 0.0000000000 0.1000000000 0.0000000000 0.0000000000 0.1000000000 0.0000000000 0.0000000000 0.1000000000 0.0000100000 0.0000000000 0.2000000000 0.0000100000 0.0000000000 0.1000000000 0.0000000000 0.0000000000 0.2000000000 0.0000100000 0.0000000000 0.2000000000 0.0000000000 0.0000000000 0.2000000000 0.0000000000 0.0000000000 0.2000000000 0.0000100000 0.0000000000 0.3000000000 0.0000100000 0.0000000000 0.2000000000 0.0000000000 0.0000000000 0.3000000000 0.0000100000 0.0000000000 0.3000000000 0.0000000000 0.0000000000 0.3000000000 0.0000000000 0.0000000000 0.3000000000 0.0000100000 0.0000000000 0.4000000000 0.0000100000 0.0000000000 0.3000000000 0.0000000000 0.0000000000 0.4000000000 0.0000100000 0.0000000000 0.4000000000 0.0000000000 0.0000000000 0.4000000000 0.0000000000 0.0000000000 0.4000000000 0.0000100000 0.0000000000 0.5000000000 0.0000100000 0.0000000000 0.4000000000 0.0000000000 0.0000000000 0.5000000000 0.0000100000 0.0000000000 0.5000000000 0.0000000000 0.0000000000 0.5000000000 0.0000000000 0.0000000000 0.5000000000 0.0000100000 0.0000000000 0.6000000000 0.0000100000 0.0000000000 0.5000000000 0.0000000000 0.0000000000 0.6000000000 0.0000100000 0.0000000000 0.6000000000 0.0000000000 0.0000000000 0.6000000000 0.0000000000 0.0000000000 0.6000000000 0.0000100000 0.0000000000 0.7000000000 0.0000100000 0.0000000000 0.6000000000 0.0000000000 0.0000000000 0.7000000000 0.0000100000 0.0000000000 0.7000000000 0.0000000000 0.0000000000 0.7000000000 0.0000000000 0.0000000000 0.7000000000 0.0000100000 0.0000000000 0.8000000000 0.0000100000 0.0000000000 0.7000000000 0.0000000000 0.0000000000 0.8000000000 0.0000100000 0.0000000000 0.8000000000 0.0000000000 0.0000000000 0.8000000000 0.0000000000 0.0000000000 0.8000000000 0.0000100000 0.0000000000 0.9000000000 0.0000100000 0.0000000000 0.8000000000 0.0000000000 0.0000000000 0.9000000000 0.0000100000 0.0000000000 0.9000000000 0.0000000000 0.0000000000 0.9000000000 0.0000000000 0.0000000000 0.9000000000 0.0000100000 0.0000000000 1.0000000000 0.0000100000 0.0000000000 0.9000000000 0.0000000000 0.0000000000 1.0000000000 0.0000100000 0.0000000000 1.0000000000 0.0000000000 0.0000000000 0.0000000000 0.0000100000 0.0000000000 0.0000000000 0.0001221059 0.0000000000 0.1000000000 0.0001221059 0.0000000000 0.0000000000 0.0000100000 0.0000000000 0.1000000000 0.0001221059 0.0000000000 0.1000000000 0.0000100000 0.0000000000 0.1000000000 0.0000100000 0.0000000000 0.1000000000 0.0001221059 0.0000000000 0.2000000000 0.0001221059 0.0000000000 0.1000000000 0.0000100000 0.0000000000 0.2000000000 0.0001221059 0.0000000000 0.2000000000 0.0000100000 0.0000000000 0.2000000000 0.0000100000 0.0000000000 0.2000000000 0.0001221059 0.0000000000 0.3000000000 0.0001221059 0.0000000000 0.2000000000 0.0000100000 0.0000000000 0.3000000000 0.0001221059 0.0000000000 0.3000000000 0.0000100000 0.0000000000 0.3000000000 0.0000100000 0.0000000000 0.3000000000 0.0001221059 0.0000000000 0.4000000000 0.0001221059 0.0000000000 0.3000000000 0.0000100000 0.0000000000 0.4000000000 0.0001221059 0.0000000000 0.4000000000 0.0000100000 0.0000000000 0.4000000000 0.0000100000 0.0000000000 0.4000000000 0.0001221059 0.0000000000 0.5000000000 0.0001221059 0.0000000000 0.4000000000 0.0000100000 0.0000000000 0.5000000000 0.0001221059 0.0000000000 0.5000000000 0.0000100000 0.0000000000 0.5000000000 0.0000100000 0.0000000000 0.5000000000 0.0001221059 0.0000000000 0.6000000000 0.0001221059 0.0000000000 0.5000000000 0.0000100000 0.0000000000 0.6000000000 0.0001221059 0.0000000000 0.6000000000 0.0000100000 0.0000000000 0.6000000000 0.0000100000 0.0000000000 0.6000000000 0.0001221059 0.0000000000 0.7000000000 0.0001221059 0.0000000000 0.6000000000 0.0000100000 0.0000000000 0.7000000000 0.0001221059 0.0000000000 0.7000000000 0.0000100000 0.0000000000 0.7000000000 0.0000100000 0.0000000000 0.7000000000 0.0001221059 0.0000000000 0.8000000000 0.0001221059 0.0000000000 0.7000000000 0.0000100000 0.0000000000 0.8000000000 0.0001221059 0.0000000000 0.8000000000 0.0000100000 0.0000000000 0.8000000000 0.0000100000 0.0000000000 0.8000000000 0.0001221059 0.0000000000 0.9000000000 0.0001221059 0.0000000000 0.8000000000 0.0000100000 0.0000000000 0.9000000000 0.0001221059 0.0000000000 0.9000000000 0.0000100000 0.0000000000 0.9000000000 0.0000100000 0.0000000000 0.9000000000 0.0001221059 0.0000000000 1.0000000000 0.0001221059 0.0000000000 0.9000000000 0.0000100000 0.0000000000 1.0000000000 0.0001221059 0.0000000000 1.0000000000 0.0000100000 0.0000000000 0.0000000000 0.0001221059 0.0000000000 0.0000000000 0.0002771482 0.0000000000 0.1000000000 0.0002771482 0.0000000000 0.0000000000 0.0001221059 0.0000000000 0.1000000000 0.0002771482 0.0000000000 0.1000000000 0.0001221059 0.0000000000 0.1000000000 0.0001221059 0.0000000000 0.1000000000 0.0002771482 0.0000000000 0.2000000000 0.0002771482 0.0000000000 0.1000000000 0.0001221059 0.0000000000 0.2000000000 0.0002771482 0.0000000000 0.2000000000 0.0001221059 0.0000000000 0.2000000000 0.0001221059 0.0000000000 0.2000000000 0.0002771482 0.0000000000 0.3000000000 0.0002771482 0.0000000000 0.2000000000 0.0001221059 0.0000000000 0.3000000000 0.0002771482 0.0000000000 0.3000000000 0.0001221059 0.0000000000 0.3000000000 0.0001221059 0.0000000000 0.3000000000 0.0002771482 0.0000000000 0.4000000000 0.0002771482 0.0000000000 0.3000000000 0.0001221059 0.0000000000 0.4000000000 0.0002771482 0.0000000000 0.4000000000 0.0001221059 0.0000000000 0.4000000000 0.0001221059 0.0000000000 0.4000000000 0.0002771482 0.0000000000 0.5000000000 0.0002771482 0.0000000000 0.4000000000 0.0001221059 0.0000000000 0.5000000000 0.0002771482 0.0000000000 0.5000000000 0.0001221059 0.0000000000 0.5000000000 0.0001221059 0.0000000000 0.5000000000 0.0002771482 0.0000000000 0.6000000000 0.0002771482 0.0000000000 0.5000000000 0.0001221059 0.0000000000 0.6000000000 0.0002771482 0.0000000000 0.6000000000 0.0001221059 0.0000000000 0.6000000000 0.0001221059 0.0000000000 0.6000000000 0.0002771482 0.0000000000 0.7000000000 0.0002771482 0.0000000000 0.6000000000 0.0001221059 0.0000000000 0.7000000000 0.0002771482 0.0000000000 0.7000000000 0.0001221059 0.0000000000 0.7000000000 0.0001221059 0.0000000000 0.7000000000 0.0002771482 0.0000000000 0.8000000000 0.0002771482 0.0000000000 0.7000000000 0.0001221059 0.0000000000 0.8000000000 0.0002771482 0.0000000000 0.8000000000 0.0001221059 0.0000000000 0.8000000000 0.0001221059 0.0000000000 0.8000000000 0.0002771482 0.0000000000 0.9000000000 0.0002771482 0.0000000000 0.8000000000 0.0001221059 0.0000000000 0.9000000000 0.0002771482 0.0000000000 0.9000000000 0.0001221059 0.0000000000 0.9000000000 0.0001221059 0.0000000000 0.9000000000 0.0002771482 0.0000000000 1.0000000000 0.0002771482 0.0000000000 0.9000000000 0.0001221059 0.0000000000 1.0000000000 0.0002771482 0.0000000000 1.0000000000 0.0001221059 0.0000000000 0.0000000000 0.0002771482 0.0000000000 0.0000000000 0.0004915718 0.0000000000 0.1000000000 0.0004915718 0.0000000000 0.0000000000 0.0002771482 0.0000000000 0.1000000000 0.0004915718 0.0000000000 0.1000000000 0.0002771482 0.0000000000 0.1000000000 0.0002771482 0.0000000000 0.1000000000 0.0004915718 0.0000000000 0.2000000000 0.0004915718 0.0000000000 0.1000000000 0.0002771482 0.0000000000 0.2000000000 0.0004915718 0.0000000000 0.2000000000 0.0002771482 0.0000000000 0.2000000000 0.0002771482 0.0000000000 0.2000000000 0.0004915718 0.0000000000 0.3000000000 0.0004915718 0.0000000000 0.2000000000 0.0002771482 0.0000000000 0.3000000000 0.0004915718 0.0000000000 0.3000000000 0.0002771482 0.0000000000 0.3000000000 0.0002771482 0.0000000000 0.3000000000 0.0004915718 0.0000000000 0.4000000000 0.0004915718 0.0000000000 0.3000000000 0.0002771482 0.0000000000 0.4000000000 0.0004915718 0.0000000000 0.4000000000 0.0002771482 0.0000000000 0.4000000000 0.0002771482 0.0000000000 0.4000000000 0.0004915718 0.0000000000 0.5000000000 0.0004915718 0.0000000000 0.4000000000 0.0002771482 0.0000000000 0.5000000000 0.0004915718 0.0000000000 0.5000000000 0.0002771482 0.0000000000 0.5000000000 0.0002771482 0.0000000000 0.5000000000 0.0004915718 0.0000000000 0.6000000000 0.0004915718 0.0000000000 0.5000000000 0.0002771482 0.0000000000 0.6000000000 0.0004915718 0.0000000000 0.6000000000 0.0002771482 0.0000000000 0.6000000000 0.0002771482 0.0000000000 0.6000000000 0.0004915718 0.0000000000 0.7000000000 0.0004915718 0.0000000000 0.6000000000 0.0002771482 0.0000000000 0.7000000000 0.0004915718 0.0000000000 0.7000000000 0.0002771482 0.0000000000 0.7000000000 0.0002771482 0.0000000000 0.7000000000 0.0004915718 0.0000000000 0.8000000000 0.0004915718 0.0000000000 0.7000000000 0.0002771482 0.0000000000 0.8000000000 0.0004915718 0.0000000000 0.8000000000 0.0002771482 0.0000000000 0.8000000000 0.0002771482 0.0000000000 0.8000000000 0.0004915718 0.0000000000 0.9000000000 0.0004915718 0.0000000000 0.8000000000 0.0002771482 0.0000000000 0.9000000000 0.0004915718 0.0000000000 0.9000000000 0.0002771482 0.0000000000 0.9000000000 0.0002771482 0.0000000000 0.9000000000 0.0004915718 0.0000000000 1.0000000000 0.0004915718 0.0000000000 0.9000000000 0.0002771482 0.0000000000 1.0000000000 0.0004915718 0.0000000000 1.0000000000 0.0002771482 0.0000000000 0.0000000000 0.0004915718 0.0000000000 0.0000000000 0.0007881193 0.0000000000 0.1000000000 0.0007881193 0.0000000000 0.0000000000 0.0004915718 0.0000000000 0.1000000000 0.0007881193 0.0000000000 0.1000000000 0.0004915718 0.0000000000 0.1000000000 0.0004915718 0.0000000000 0.1000000000 0.0007881193 0.0000000000 0.2000000000 0.0007881193 0.0000000000 0.1000000000 0.0004915718 0.0000000000 0.2000000000 0.0007881193 0.0000000000 0.2000000000 0.0004915718 0.0000000000 0.2000000000 0.0004915718 0.0000000000 0.2000000000 0.0007881193 0.0000000000 0.3000000000 0.0007881193 0.0000000000 0.2000000000 0.0004915718 0.0000000000 0.3000000000 0.0007881193 0.0000000000 0.3000000000 0.0004915718 0.0000000000 0.3000000000 0.0004915718 0.0000000000 0.3000000000 0.0007881193 0.0000000000 0.4000000000 0.0007881193 0.0000000000 0.3000000000 0.0004915718 0.0000000000 0.4000000000 0.0007881193 0.0000000000 0.4000000000 0.0004915718 0.0000000000 0.4000000000 0.0004915718 0.0000000000 0.4000000000 0.0007881193 0.0000000000 0.5000000000 0.0007881193 0.0000000000 0.4000000000 0.0004915718 0.0000000000 0.5000000000 0.0007881193 0.0000000000 0.5000000000 0.0004915718 0.0000000000 0.5000000000 0.0004915718 0.0000000000 0.5000000000 0.0007881193 0.0000000000 0.6000000000 0.0007881193 0.0000000000 0.5000000000 0.0004915718 0.0000000000 0.6000000000 0.0007881193 0.0000000000 0.6000000000 0.0004915718 0.0000000000 0.6000000000 0.0004915718 0.0000000000 0.6000000000 0.0007881193 0.0000000000 0.7000000000 0.0007881193 0.0000000000 0.6000000000 0.0004915718 0.0000000000 0.7000000000 0.0007881193 0.0000000000 0.7000000000 0.0004915718 0.0000000000 0.7000000000 0.0004915718 0.0000000000 0.7000000000 0.0007881193 0.0000000000 0.8000000000 0.0007881193 0.0000000000 0.7000000000 0.0004915718 0.0000000000 0.8000000000 0.0007881193 0.0000000000 0.8000000000 0.0004915718 0.0000000000 0.8000000000 0.0004915718 0.0000000000 0.8000000000 0.0007881193 0.0000000000 0.9000000000 0.0007881193 0.0000000000 0.8000000000 0.0004915718 0.0000000000 0.9000000000 0.0007881193 0.0000000000 0.9000000000 0.0004915718 0.0000000000 0.9000000000 0.0004915718 0.0000000000 0.9000000000 0.0007881193 0.0000000000 1.0000000000 0.0007881193 0.0000000000 0.9000000000 0.0004915718 0.0000000000 1.0000000000 0.0007881193 0.0000000000 1.0000000000 0.0004915718 0.0000000000 0.0000000000 0.0007881193 0.0000000000 0.0000000000 0.0011982444 0.0000000000 0.1000000000 0.0011982444 0.0000000000 0.0000000000 0.0007881193 0.0000000000 0.1000000000 0.0011982444 0.0000000000 0.1000000000 0.0007881193 0.0000000000 0.1000000000 0.0007881193 0.0000000000 0.1000000000 0.0011982444 0.0000000000 0.2000000000 0.0011982444 0.0000000000 0.1000000000 0.0007881193 0.0000000000 0.2000000000 0.0011982444 0.0000000000 0.2000000000 0.0007881193 0.0000000000 0.2000000000 0.0007881193 0.0000000000 0.2000000000 0.0011982444 0.0000000000 0.3000000000 0.0011982444 0.0000000000 0.2000000000 0.0007881193 0.0000000000 0.3000000000 0.0011982444 0.0000000000 0.3000000000 0.0007881193 0.0000000000 0.3000000000 0.0007881193 0.0000000000 0.3000000000 0.0011982444 0.0000000000 0.4000000000 0.0011982444 0.0000000000 0.3000000000 0.0007881193 0.0000000000 0.4000000000 0.0011982444 0.0000000000 0.4000000000 0.0007881193 0.0000000000 0.4000000000 0.0007881193 0.0000000000 0.4000000000 0.0011982444 0.0000000000 0.5000000000 0.0011982444 0.0000000000 0.4000000000 0.0007881193 0.0000000000 0.5000000000 0.0011982444 0.0000000000 0.5000000000 0.0007881193 0.0000000000 0.5000000000 0.0007881193 0.0000000000 0.5000000000 0.0011982444 0.0000000000 0.6000000000 0.0011982444 0.0000000000 0.5000000000 0.0007881193 0.0000000000 0.6000000000 0.0011982444 0.0000000000 0.6000000000 0.0007881193 0.0000000000 0.6000000000 0.0007881193 0.0000000000 0.6000000000 0.0011982444 0.0000000000 0.7000000000 0.0011982444 0.0000000000 0.6000000000 0.0007881193 0.0000000000 0.7000000000 0.0011982444 0.0000000000 0.7000000000 0.0007881193 0.0000000000 0.7000000000 0.0007881193 0.0000000000 0.7000000000 0.0011982444 0.0000000000 0.8000000000 0.0011982444 0.0000000000 0.7000000000 0.0007881193 0.0000000000 0.8000000000 0.0011982444 0.0000000000 0.8000000000 0.0007881193 0.0000000000 0.8000000000 0.0007881193 0.0000000000 0.8000000000 0.0011982444 0.0000000000 0.9000000000 0.0011982444 0.0000000000 0.8000000000 0.0007881193 0.0000000000 0.9000000000 0.0011982444 0.0000000000 0.9000000000 0.0007881193 0.0000000000 0.9000000000 0.0007881193 0.0000000000 0.9000000000 0.0011982444 0.0000000000 1.0000000000 0.0011982444 0.0000000000 0.9000000000 0.0007881193 0.0000000000 1.0000000000 0.0011982444 0.0000000000 1.0000000000 0.0007881193 0.0000000000 0.0000000000 0.0011982444 0.0000000000 0.0000000000 0.0017654472 0.0000000000 0.1000000000 0.0017654472 0.0000000000 0.0000000000 0.0011982444 0.0000000000 0.1000000000 0.0017654472 0.0000000000 0.1000000000 0.0011982444 0.0000000000 0.1000000000 0.0011982444 0.0000000000 0.1000000000 0.0017654472 0.0000000000 0.2000000000 0.0017654472 0.0000000000 0.1000000000 0.0011982444 0.0000000000 0.2000000000 0.0017654472 0.0000000000 0.2000000000 0.0011982444 0.0000000000 0.2000000000 0.0011982444 0.0000000000 0.2000000000 0.0017654472 0.0000000000 0.3000000000 0.0017654472 0.0000000000 0.2000000000 0.0011982444 0.0000000000 0.3000000000 0.0017654472 0.0000000000 0.3000000000 0.0011982444 0.0000000000 0.3000000000 0.0011982444 0.0000000000 0.3000000000 0.0017654472 0.0000000000 0.4000000000 0.0017654472 0.0000000000 0.3000000000 0.0011982444 0.0000000000 0.4000000000 0.0017654472 0.0000000000 0.4000000000 0.0011982444 0.0000000000 0.4000000000 0.0011982444 0.0000000000 0.4000000000 0.0017654472 0.0000000000 0.5000000000 0.0017654472 0.0000000000 0.4000000000 0.0011982444 0.0000000000 0.5000000000 0.0017654472 0.0000000000 0.5000000000 0.0011982444 0.0000000000 0.5000000000 0.0011982444 0.0000000000 0.5000000000 0.0017654472 0.0000000000 0.6000000000 0.0017654472 0.0000000000 0.5000000000 0.0011982444 0.0000000000 0.6000000000 0.0017654472 0.0000000000 0.6000000000 0.0011982444 0.0000000000 0.6000000000 0.0011982444 0.0000000000 0.6000000000 0.0017654472 0.0000000000 0.7000000000 0.0017654472 0.0000000000 0.6000000000 0.0011982444 0.0000000000 0.7000000000 0.0017654472 0.0000000000 0.7000000000 0.0011982444 0.0000000000 0.7000000000 0.0011982444 0.0000000000 0.7000000000 0.0017654472 0.0000000000 0.8000000000 0.0017654472 0.0000000000 0.7000000000 0.0011982444 0.0000000000 0.8000000000 0.0017654472 0.0000000000 0.8000000000 0.0011982444 0.0000000000 0.8000000000 0.0011982444 0.0000000000 0.8000000000 0.0017654472 0.0000000000 0.9000000000 0.0017654472 0.0000000000 0.8000000000 0.0011982444 0.0000000000 0.9000000000 0.0017654472 0.0000000000 0.9000000000 0.0011982444 0.0000000000 0.9000000000 0.0011982444 0.0000000000 0.9000000000 0.0017654472 0.0000000000 1.0000000000 0.0017654472 0.0000000000 0.9000000000 0.0011982444 0.0000000000 1.0000000000 0.0017654472 0.0000000000 1.0000000000 0.0011982444 0.0000000000 0.0000000000 0.0017654472 0.0000000000 0.0000000000 0.0025498882 0.0000000000 0.1000000000 0.0025498882 0.0000000000 0.0000000000 0.0017654472 0.0000000000 0.1000000000 0.0025498882 0.0000000000 0.1000000000 0.0017654472 0.0000000000 0.1000000000 0.0017654472 0.0000000000 0.1000000000 0.0025498882 0.0000000000 0.2000000000 0.0025498882 0.0000000000 0.1000000000 0.0017654472 0.0000000000 0.2000000000 0.0025498882 0.0000000000 0.2000000000 0.0017654472 0.0000000000 0.2000000000 0.0017654472 0.0000000000 0.2000000000 0.0025498882 0.0000000000 0.3000000000 0.0025498882 0.0000000000 0.2000000000 0.0017654472 0.0000000000 0.3000000000 0.0025498882 0.0000000000 0.3000000000 0.0017654472 0.0000000000 0.3000000000 0.0017654472 0.0000000000 0.3000000000 0.0025498882 0.0000000000 0.4000000000 0.0025498882 0.0000000000 0.3000000000 0.0017654472 0.0000000000 0.4000000000 0.0025498882 0.0000000000 0.4000000000 0.0017654472 0.0000000000 0.4000000000 0.0017654472 0.0000000000 0.4000000000 0.0025498882 0.0000000000 0.5000000000 0.0025498882 0.0000000000 0.4000000000 0.0017654472 0.0000000000 0.5000000000 0.0025498882 0.0000000000 0.5000000000 0.0017654472 0.0000000000 0.5000000000 0.0017654472 0.0000000000 0.5000000000 0.0025498882 0.0000000000 0.6000000000 0.0025498882 0.0000000000 0.5000000000 0.0017654472 0.0000000000 0.6000000000 0.0025498882 0.0000000000 0.6000000000 0.0017654472 0.0000000000 0.6000000000 0.0017654472 0.0000000000 0.6000000000 0.0025498882 0.0000000000 0.7000000000 0.0025498882 0.0000000000 0.6000000000 0.0017654472 0.0000000000 0.7000000000 0.0025498882 0.0000000000 0.7000000000 0.0017654472 0.0000000000 0.7000000000 0.0017654472 0.0000000000 0.7000000000 0.0025498882 0.0000000000 0.8000000000 0.0025498882 0.0000000000 0.7000000000 0.0017654472 0.0000000000 0.8000000000 0.0025498882 0.0000000000 0.8000000000 0.0017654472 0.0000000000 0.8000000000 0.0017654472 0.0000000000 0.8000000000 0.0025498882 0.0000000000 0.9000000000 0.0025498882 0.0000000000 0.8000000000 0.0017654472 0.0000000000 0.9000000000 0.0025498882 0.0000000000 0.9000000000 0.0017654472 0.0000000000 0.9000000000 0.0017654472 0.0000000000 0.9000000000 0.0025498882 0.0000000000 1.0000000000 0.0025498882 0.0000000000 0.9000000000 0.0017654472 0.0000000000 1.0000000000 0.0025498882 0.0000000000 1.0000000000 0.0017654472 0.0000000000 0.0000000000 0.0025498882 0.0000000000 0.0000000000 0.0036347697 0.0000000000 0.1000000000 0.0036347697 0.0000000000 0.0000000000 0.0025498882 0.0000000000 0.1000000000 0.0036347697 0.0000000000 0.1000000000 0.0025498882 0.0000000000 0.1000000000 0.0025498882 0.0000000000 0.1000000000 0.0036347697 0.0000000000 0.2000000000 0.0036347697 0.0000000000 0.1000000000 0.0025498882 0.0000000000 0.2000000000 0.0036347697 0.0000000000 0.2000000000 0.0025498882 0.0000000000 0.2000000000 0.0025498882 0.0000000000 0.2000000000 0.0036347697 0.0000000000 0.3000000000 0.0036347697 0.0000000000 0.2000000000 0.0025498882 0.0000000000 0.3000000000 0.0036347697 0.0000000000 0.3000000000 0.0025498882 0.0000000000 0.3000000000 0.0025498882 0.0000000000 0.3000000000 0.0036347697 0.0000000000 0.4000000000 0.0036347697 0.0000000000 0.3000000000 0.0025498882 0.0000000000 0.4000000000 0.0036347697 0.0000000000 0.4000000000 0.0025498882 0.0000000000 0.4000000000 0.0025498882 0.0000000000 0.4000000000 0.0036347697 0.0000000000 0.5000000000 0.0036347697 0.0000000000 0.4000000000 0.0025498882 0.0000000000 0.5000000000 0.0036347697 0.0000000000 0.5000000000 0.0025498882 0.0000000000 0.5000000000 0.0025498882 0.0000000000 0.5000000000 0.0036347697 0.0000000000 0.6000000000 0.0036347697 0.0000000000 0.5000000000 0.0025498882 0.0000000000 0.6000000000 0.0036347697 0.0000000000 0.6000000000 0.0025498882 0.0000000000 0.6000000000 0.0025498882 0.0000000000 0.6000000000 0.0036347697 0.0000000000 0.7000000000 0.0036347697 0.0000000000 0.6000000000 0.0025498882 0.0000000000 0.7000000000 0.0036347697 0.0000000000 0.7000000000 0.0025498882 0.0000000000 0.7000000000 0.0025498882 0.0000000000 0.7000000000 0.0036347697 0.0000000000 0.8000000000 0.0036347697 0.0000000000 0.7000000000 0.0025498882 0.0000000000 0.8000000000 0.0036347697 0.0000000000 0.8000000000 0.0025498882 0.0000000000 0.8000000000 0.0025498882 0.0000000000 0.8000000000 0.0036347697 0.0000000000 0.9000000000 0.0036347697 0.0000000000 0.8000000000 0.0025498882 0.0000000000 0.9000000000 0.0036347697 0.0000000000 0.9000000000 0.0025498882 0.0000000000 0.9000000000 0.0025498882 0.0000000000 0.9000000000 0.0036347697 0.0000000000 1.0000000000 0.0036347697 0.0000000000 0.9000000000 0.0025498882 0.0000000000 1.0000000000 0.0036347697 0.0000000000 1.0000000000 0.0025498882 0.0000000000 0.0000000000 0.0036347697 0.0000000000 0.0000000000 0.0051351601 0.0000000000 0.1000000000 0.0051351601 0.0000000000 0.0000000000 0.0036347697 0.0000000000 0.1000000000 0.0051351601 0.0000000000 0.1000000000 0.0036347697 0.0000000000 0.1000000000 0.0036347697 0.0000000000 0.1000000000 0.0051351601 0.0000000000 0.2000000000 0.0051351601 0.0000000000 0.1000000000 0.0036347697 0.0000000000 0.2000000000 0.0051351601 0.0000000000 0.2000000000 0.0036347697 0.0000000000 0.2000000000 0.0036347697 0.0000000000 0.2000000000 0.0051351601 0.0000000000 0.3000000000 0.0051351601 0.0000000000 0.2000000000 0.0036347697 0.0000000000 0.3000000000 0.0051351601 0.0000000000 0.3000000000 0.0036347697 0.0000000000 0.3000000000 0.0036347697 0.0000000000 0.3000000000 0.0051351601 0.0000000000 0.4000000000 0.0051351601 0.0000000000 0.3000000000 0.0036347697 0.0000000000 0.4000000000 0.0051351601 0.0000000000 0.4000000000 0.0036347697 0.0000000000 0.4000000000 0.0036347697 0.0000000000 0.4000000000 0.0051351601 0.0000000000 0.5000000000 0.0051351601 0.0000000000 0.4000000000 0.0036347697 0.0000000000 0.5000000000 0.0051351601 0.0000000000 0.5000000000 0.0036347697 0.0000000000 0.5000000000 0.0036347697 0.0000000000 0.5000000000 0.0051351601 0.0000000000 0.6000000000 0.0051351601 0.0000000000 0.5000000000 0.0036347697 0.0000000000 0.6000000000 0.0051351601 0.0000000000 0.6000000000 0.0036347697 0.0000000000 0.6000000000 0.0036347697 0.0000000000 0.6000000000 0.0051351601 0.0000000000 0.7000000000 0.0051351601 0.0000000000 0.6000000000 0.0036347697 0.0000000000 0.7000000000 0.0051351601 0.0000000000 0.7000000000 0.0036347697 0.0000000000 0.7000000000 0.0036347697 0.0000000000 0.7000000000 0.0051351601 0.0000000000 0.8000000000 0.0051351601 0.0000000000 0.7000000000 0.0036347697 0.0000000000 0.8000000000 0.0051351601 0.0000000000 0.8000000000 0.0036347697 0.0000000000 0.8000000000 0.0036347697 0.0000000000 0.8000000000 0.0051351601 0.0000000000 0.9000000000 0.0051351601 0.0000000000 0.8000000000 0.0036347697 0.0000000000 0.9000000000 0.0051351601 0.0000000000 0.9000000000 0.0036347697 0.0000000000 0.9000000000 0.0036347697 0.0000000000 0.9000000000 0.0051351601 0.0000000000 1.0000000000 0.0051351601 0.0000000000 0.9000000000 0.0036347697 0.0000000000 1.0000000000 0.0051351601 0.0000000000 1.0000000000 0.0036347697 0.0000000000 0.0000000000 0.0051351601 0.0000000000 0.0000000000 0.0072101992 0.0000000000 0.1000000000 0.0072101992 0.0000000000 0.0000000000 0.0051351601 0.0000000000 0.1000000000 0.0072101992 0.0000000000 0.1000000000 0.0051351601 0.0000000000 0.1000000000 0.0051351601 0.0000000000 0.1000000000 0.0072101992 0.0000000000 0.2000000000 0.0072101992 0.0000000000 0.1000000000 0.0051351601 0.0000000000 0.2000000000 0.0072101992 0.0000000000 0.2000000000 0.0051351601 0.0000000000 0.2000000000 0.0051351601 0.0000000000 0.2000000000 0.0072101992 0.0000000000 0.3000000000 0.0072101992 0.0000000000 0.2000000000 0.0051351601 0.0000000000 0.3000000000 0.0072101992 0.0000000000 0.3000000000 0.0051351601 0.0000000000 0.3000000000 0.0051351601 0.0000000000 0.3000000000 0.0072101992 0.0000000000 0.4000000000 0.0072101992 0.0000000000 0.3000000000 0.0051351601 0.0000000000 0.4000000000 0.0072101992 0.0000000000 0.4000000000 0.0051351601 0.0000000000 0.4000000000 0.0051351601 0.0000000000 0.4000000000 0.0072101992 0.0000000000 0.5000000000 0.0072101992 0.0000000000 0.4000000000 0.0051351601 0.0000000000 0.5000000000 0.0072101992 0.0000000000 0.5000000000 0.0051351601 0.0000000000 0.5000000000 0.0051351601 0.0000000000 0.5000000000 0.0072101992 0.0000000000 0.6000000000 0.0072101992 0.0000000000 0.5000000000 0.0051351601 0.0000000000 0.6000000000 0.0072101992 0.0000000000 0.6000000000 0.0051351601 0.0000000000 0.6000000000 0.0051351601 0.0000000000 0.6000000000 0.0072101992 0.0000000000 0.7000000000 0.0072101992 0.0000000000 0.6000000000 0.0051351601 0.0000000000 0.7000000000 0.0072101992 0.0000000000 0.7000000000 0.0051351601 0.0000000000 0.7000000000 0.0051351601 0.0000000000 0.7000000000 0.0072101992 0.0000000000 0.8000000000 0.0072101992 0.0000000000 0.7000000000 0.0051351601 0.0000000000 0.8000000000 0.0072101992 0.0000000000 0.8000000000 0.0051351601 0.0000000000 0.8000000000 0.0051351601 0.0000000000 0.8000000000 0.0072101992 0.0000000000 0.9000000000 0.0072101992 0.0000000000 0.8000000000 0.0051351601 0.0000000000 0.9000000000 0.0072101992 0.0000000000 0.9000000000 0.0051351601 0.0000000000 0.9000000000 0.0051351601 0.0000000000 0.9000000000 0.0072101992 0.0000000000 1.0000000000 0.0072101992 0.0000000000 0.9000000000 0.0051351601 0.0000000000 1.0000000000 0.0072101992 0.0000000000 1.0000000000 0.0051351601 0.0000000000 0.0000000000 0.0072101992 0.0000000000 0.0000000000 0.0100799765 0.0000000000 0.1000000000 0.0100799765 0.0000000000 0.0000000000 0.0072101992 0.0000000000 0.1000000000 0.0100799765 0.0000000000 0.1000000000 0.0072101992 0.0000000000 0.1000000000 0.0072101992 0.0000000000 0.1000000000 0.0100799765 0.0000000000 0.2000000000 0.0100799765 0.0000000000 0.1000000000 0.0072101992 0.0000000000 0.2000000000 0.0100799765 0.0000000000 0.2000000000 0.0072101992 0.0000000000 0.2000000000 0.0072101992 0.0000000000 0.2000000000 0.0100799765 0.0000000000 0.3000000000 0.0100799765 0.0000000000 0.2000000000 0.0072101992 0.0000000000 0.3000000000 0.0100799765 0.0000000000 0.3000000000 0.0072101992 0.0000000000 0.3000000000 0.0072101992 0.0000000000 0.3000000000 0.0100799765 0.0000000000 0.4000000000 0.0100799765 0.0000000000 0.3000000000 0.0072101992 0.0000000000 0.4000000000 0.0100799765 0.0000000000 0.4000000000 0.0072101992 0.0000000000 0.4000000000 0.0072101992 0.0000000000 0.4000000000 0.0100799765 0.0000000000 0.5000000000 0.0100799765 0.0000000000 0.4000000000 0.0072101992 0.0000000000 0.5000000000 0.0100799765 0.0000000000 0.5000000000 0.0072101992 0.0000000000 0.5000000000 0.0072101992 0.0000000000 0.5000000000 0.0100799765 0.0000000000 0.6000000000 0.0100799765 0.0000000000 0.5000000000 0.0072101992 0.0000000000 0.6000000000 0.0100799765 0.0000000000 0.6000000000 0.0072101992 0.0000000000 0.6000000000 0.0072101992 0.0000000000 0.6000000000 0.0100799765 0.0000000000 0.7000000000 0.0100799765 0.0000000000 0.6000000000 0.0072101992 0.0000000000 0.7000000000 0.0100799765 0.0000000000 0.7000000000 0.0072101992 0.0000000000 0.7000000000 0.0072101992 0.0000000000 0.7000000000 0.0100799765 0.0000000000 0.8000000000 0.0100799765 0.0000000000 0.7000000000 0.0072101992 0.0000000000 0.8000000000 0.0100799765 0.0000000000 0.8000000000 0.0072101992 0.0000000000 0.8000000000 0.0072101992 0.0000000000 0.8000000000 0.0100799765 0.0000000000 0.9000000000 0.0100799765 0.0000000000 0.8000000000 0.0072101992 0.0000000000 0.9000000000 0.0100799765 0.0000000000 0.9000000000 0.0072101992 0.0000000000 0.9000000000 0.0072101992 0.0000000000 0.9000000000 0.0100799765 0.0000000000 1.0000000000 0.0100799765 0.0000000000 0.9000000000 0.0072101992 0.0000000000 1.0000000000 0.0100799765 0.0000000000 1.0000000000 0.0072101992 0.0000000000 0.0000000000 0.0100799765 0.0000000000 0.0000000000 0.0140488777 0.0000000000 0.1000000000 0.0140488777 0.0000000000 0.0000000000 0.0100799765 0.0000000000 0.1000000000 0.0140488777 0.0000000000 0.1000000000 0.0100799765 0.0000000000 0.1000000000 0.0100799765 0.0000000000 0.1000000000 0.0140488777 0.0000000000 0.2000000000 0.0140488777 0.0000000000 0.1000000000 0.0100799765 0.0000000000 0.2000000000 0.0140488777 0.0000000000 0.2000000000 0.0100799765 0.0000000000 0.2000000000 0.0100799765 0.0000000000 0.2000000000 0.0140488777 0.0000000000 0.3000000000 0.0140488777 0.0000000000 0.2000000000 0.0100799765 0.0000000000 0.3000000000 0.0140488777 0.0000000000 0.3000000000 0.0100799765 0.0000000000 0.3000000000 0.0100799765 0.0000000000 0.3000000000 0.0140488777 0.0000000000 0.4000000000 0.0140488777 0.0000000000 0.3000000000 0.0100799765 0.0000000000 0.4000000000 0.0140488777 0.0000000000 0.4000000000 0.0100799765 0.0000000000 0.4000000000 0.0100799765 0.0000000000 0.4000000000 0.0140488777 0.0000000000 0.5000000000 0.0140488777 0.0000000000 0.4000000000 0.0100799765 0.0000000000 0.5000000000 0.0140488777 0.0000000000 0.5000000000 0.0100799765 0.0000000000 0.5000000000 0.0100799765 0.0000000000 0.5000000000 0.0140488777 0.0000000000 0.6000000000 0.0140488777 0.0000000000 0.5000000000 0.0100799765 0.0000000000 0.6000000000 0.0140488777 0.0000000000 0.6000000000 0.0100799765 0.0000000000 0.6000000000 0.0100799765 0.0000000000 0.6000000000 0.0140488777 0.0000000000 0.7000000000 0.0140488777 0.0000000000 0.6000000000 0.0100799765 0.0000000000 0.7000000000 0.0140488777 0.0000000000 0.7000000000 0.0100799765 0.0000000000 0.7000000000 0.0100799765 0.0000000000 0.7000000000 0.0140488777 0.0000000000 0.8000000000 0.0140488777 0.0000000000 0.7000000000 0.0100799765 0.0000000000 0.8000000000 0.0140488777 0.0000000000 0.8000000000 0.0100799765 0.0000000000 0.8000000000 0.0100799765 0.0000000000 0.8000000000 0.0140488777 0.0000000000 0.9000000000 0.0140488777 0.0000000000 0.8000000000 0.0100799765 0.0000000000 0.9000000000 0.0140488777 0.0000000000 0.9000000000 0.0100799765 0.0000000000 0.9000000000 0.0100799765 0.0000000000 0.9000000000 0.0140488777 0.0000000000 1.0000000000 0.0140488777 0.0000000000 0.9000000000 0.0100799765 0.0000000000 1.0000000000 0.0140488777 0.0000000000 1.0000000000 0.0100799765 0.0000000000 0.0000000000 0.0140488777 0.0000000000 0.0000000000 0.0195378643 0.0000000000 0.1000000000 0.0195378643 0.0000000000 0.0000000000 0.0140488777 0.0000000000 0.1000000000 0.0195378643 0.0000000000 0.1000000000 0.0140488777 0.0000000000 0.1000000000 0.0140488777 0.0000000000 0.1000000000 0.0195378643 0.0000000000 0.2000000000 0.0195378643 0.0000000000 0.1000000000 0.0140488777 0.0000000000 0.2000000000 0.0195378643 0.0000000000 0.2000000000 0.0140488777 0.0000000000 0.2000000000 0.0140488777 0.0000000000 0.2000000000 0.0195378643 0.0000000000 0.3000000000 0.0195378643 0.0000000000 0.2000000000 0.0140488777 0.0000000000 0.3000000000 0.0195378643 0.0000000000 0.3000000000 0.0140488777 0.0000000000 0.3000000000 0.0140488777 0.0000000000 0.3000000000 0.0195378643 0.0000000000 0.4000000000 0.0195378643 0.0000000000 0.3000000000 0.0140488777 0.0000000000 0.4000000000 0.0195378643 0.0000000000 0.4000000000 0.0140488777 0.0000000000 0.4000000000 0.0140488777 0.0000000000 0.4000000000 0.0195378643 0.0000000000 0.5000000000 0.0195378643 0.0000000000 0.4000000000 0.0140488777 0.0000000000 0.5000000000 0.0195378643 0.0000000000 0.5000000000 0.0140488777 0.0000000000 0.5000000000 0.0140488777 0.0000000000 0.5000000000 0.0195378643 0.0000000000 0.6000000000 0.0195378643 0.0000000000 0.5000000000 0.0140488777 0.0000000000 0.6000000000 0.0195378643 0.0000000000 0.6000000000 0.0140488777 0.0000000000 0.6000000000 0.0140488777 0.0000000000 0.6000000000 0.0195378643 0.0000000000 0.7000000000 0.0195378643 0.0000000000 0.6000000000 0.0140488777 0.0000000000 0.7000000000 0.0195378643 0.0000000000 0.7000000000 0.0140488777 0.0000000000 0.7000000000 0.0140488777 0.0000000000 0.7000000000 0.0195378643 0.0000000000 0.8000000000 0.0195378643 0.0000000000 0.7000000000 0.0140488777 0.0000000000 0.8000000000 0.0195378643 0.0000000000 0.8000000000 0.0140488777 0.0000000000 0.8000000000 0.0140488777 0.0000000000 0.8000000000 0.0195378643 0.0000000000 0.9000000000 0.0195378643 0.0000000000 0.8000000000 0.0140488777 0.0000000000 0.9000000000 0.0195378643 0.0000000000 0.9000000000 0.0140488777 0.0000000000 0.9000000000 0.0140488777 0.0000000000 0.9000000000 0.0195378643 0.0000000000 1.0000000000 0.0195378643 0.0000000000 0.9000000000 0.0140488777 0.0000000000 1.0000000000 0.0195378643 0.0000000000 1.0000000000 0.0140488777 0.0000000000 0.0000000000 0.0195378643 0.0000000000 0.0000000000 0.0271291304 0.0000000000 0.1000000000 0.0271291304 0.0000000000 0.0000000000 0.0195378643 0.0000000000 0.1000000000 0.0271291304 0.0000000000 0.1000000000 0.0195378643 0.0000000000 0.1000000000 0.0195378643 0.0000000000 0.1000000000 0.0271291304 0.0000000000 0.2000000000 0.0271291304 0.0000000000 0.1000000000 0.0195378643 0.0000000000 0.2000000000 0.0271291304 0.0000000000 0.2000000000 0.0195378643 0.0000000000 0.2000000000 0.0195378643 0.0000000000 0.2000000000 0.0271291304 0.0000000000 0.3000000000 0.0271291304 0.0000000000 0.2000000000 0.0195378643 0.0000000000 0.3000000000 0.0271291304 0.0000000000 0.3000000000 0.0195378643 0.0000000000 0.3000000000 0.0195378643 0.0000000000 0.3000000000 0.0271291304 0.0000000000 0.4000000000 0.0271291304 0.0000000000 0.3000000000 0.0195378643 0.0000000000 0.4000000000 0.0271291304 0.0000000000 0.4000000000 0.0195378643 0.0000000000 0.4000000000 0.0195378643 0.0000000000 0.4000000000 0.0271291304 0.0000000000 0.5000000000 0.0271291304 0.0000000000 0.4000000000 0.0195378643 0.0000000000 0.5000000000 0.0271291304 0.0000000000 0.5000000000 0.0195378643 0.0000000000 0.5000000000 0.0195378643 0.0000000000 0.5000000000 0.0271291304 0.0000000000 0.6000000000 0.0271291304 0.0000000000 0.5000000000 0.0195378643 0.0000000000 0.6000000000 0.0271291304 0.0000000000 0.6000000000 0.0195378643 0.0000000000 0.6000000000 0.0195378643 0.0000000000 0.6000000000 0.0271291304 0.0000000000 0.7000000000 0.0271291304 0.0000000000 0.6000000000 0.0195378643 0.0000000000 0.7000000000 0.0271291304 0.0000000000 0.7000000000 0.0195378643 0.0000000000 0.7000000000 0.0195378643 0.0000000000 0.7000000000 0.0271291304 0.0000000000 0.8000000000 0.0271291304 0.0000000000 0.7000000000 0.0195378643 0.0000000000 0.8000000000 0.0271291304 0.0000000000 0.8000000000 0.0195378643 0.0000000000 0.8000000000 0.0195378643 0.0000000000 0.8000000000 0.0271291304 0.0000000000 0.9000000000 0.0271291304 0.0000000000 0.8000000000 0.0195378643 0.0000000000 0.9000000000 0.0271291304 0.0000000000 0.9000000000 0.0195378643 0.0000000000 0.9000000000 0.0195378643 0.0000000000 0.9000000000 0.0271291304 0.0000000000 1.0000000000 0.0271291304 0.0000000000 0.9000000000 0.0195378643 0.0000000000 1.0000000000 0.0271291304 0.0000000000 1.0000000000 0.0195378643 0.0000000000 0.0000000000 0.0271291304 0.0000000000 0.0000000000 0.0376278451 0.0000000000 0.1000000000 0.0376278451 0.0000000000 0.0000000000 0.0271291304 0.0000000000 0.1000000000 0.0376278451 0.0000000000 0.1000000000 0.0271291304 0.0000000000 0.1000000000 0.0271291304 0.0000000000 0.1000000000 0.0376278451 0.0000000000 0.2000000000 0.0376278451 0.0000000000 0.1000000000 0.0271291304 0.0000000000 0.2000000000 0.0376278451 0.0000000000 0.2000000000 0.0271291304 0.0000000000 0.2000000000 0.0271291304 0.0000000000 0.2000000000 0.0376278451 0.0000000000 0.3000000000 0.0376278451 0.0000000000 0.2000000000 0.0271291304 0.0000000000 0.3000000000 0.0376278451 0.0000000000 0.3000000000 0.0271291304 0.0000000000 0.3000000000 0.0271291304 0.0000000000 0.3000000000 0.0376278451 0.0000000000 0.4000000000 0.0376278451 0.0000000000 0.3000000000 0.0271291304 0.0000000000 0.4000000000 0.0376278451 0.0000000000 0.4000000000 0.0271291304 0.0000000000 0.4000000000 0.0271291304 0.0000000000 0.4000000000 0.0376278451 0.0000000000 0.5000000000 0.0376278451 0.0000000000 0.4000000000 0.0271291304 0.0000000000 0.5000000000 0.0376278451 0.0000000000 0.5000000000 0.0271291304 0.0000000000 0.5000000000 0.0271291304 0.0000000000 0.5000000000 0.0376278451 0.0000000000 0.6000000000 0.0376278451 0.0000000000 0.5000000000 0.0271291304 0.0000000000 0.6000000000 0.0376278451 0.0000000000 0.6000000000 0.0271291304 0.0000000000 0.6000000000 0.0271291304 0.0000000000 0.6000000000 0.0376278451 0.0000000000 0.7000000000 0.0376278451 0.0000000000 0.6000000000 0.0271291304 0.0000000000 0.7000000000 0.0376278451 0.0000000000 0.7000000000 0.0271291304 0.0000000000 0.7000000000 0.0271291304 0.0000000000 0.7000000000 0.0376278451 0.0000000000 0.8000000000 0.0376278451 0.0000000000 0.7000000000 0.0271291304 0.0000000000 0.8000000000 0.0376278451 0.0000000000 0.8000000000 0.0271291304 0.0000000000 0.8000000000 0.0271291304 0.0000000000 0.8000000000 0.0376278451 0.0000000000 0.9000000000 0.0376278451 0.0000000000 0.8000000000 0.0271291304 0.0000000000 0.9000000000 0.0376278451 0.0000000000 0.9000000000 0.0271291304 0.0000000000 0.9000000000 0.0271291304 0.0000000000 0.9000000000 0.0376278451 0.0000000000 1.0000000000 0.0376278451 0.0000000000 0.9000000000 0.0271291304 0.0000000000 1.0000000000 0.0376278451 0.0000000000 1.0000000000 0.0271291304 0.0000000000 0.0000000000 0.0376278451 0.0000000000 0.0000000000 0.0521475645 0.0000000000 0.1000000000 0.0521475645 0.0000000000 0.0000000000 0.0376278451 0.0000000000 0.1000000000 0.0521475645 0.0000000000 0.1000000000 0.0376278451 0.0000000000 0.1000000000 0.0376278451 0.0000000000 0.1000000000 0.0521475645 0.0000000000 0.2000000000 0.0521475645 0.0000000000 0.1000000000 0.0376278451 0.0000000000 0.2000000000 0.0521475645 0.0000000000 0.2000000000 0.0376278451 0.0000000000 0.2000000000 0.0376278451 0.0000000000 0.2000000000 0.0521475645 0.0000000000 0.3000000000 0.0521475645 0.0000000000 0.2000000000 0.0376278451 0.0000000000 0.3000000000 0.0521475645 0.0000000000 0.3000000000 0.0376278451 0.0000000000 0.3000000000 0.0376278451 0.0000000000 0.3000000000 0.0521475645 0.0000000000 0.4000000000 0.0521475645 0.0000000000 0.3000000000 0.0376278451 0.0000000000 0.4000000000 0.0521475645 0.0000000000 0.4000000000 0.0376278451 0.0000000000 0.4000000000 0.0376278451 0.0000000000 0.4000000000 0.0521475645 0.0000000000 0.5000000000 0.0521475645 0.0000000000 0.4000000000 0.0376278451 0.0000000000 0.5000000000 0.0521475645 0.0000000000 0.5000000000 0.0376278451 0.0000000000 0.5000000000 0.0376278451 0.0000000000 0.5000000000 0.0521475645 0.0000000000 0.6000000000 0.0521475645 0.0000000000 0.5000000000 0.0376278451 0.0000000000 0.6000000000 0.0521475645 0.0000000000 0.6000000000 0.0376278451 0.0000000000 0.6000000000 0.0376278451 0.0000000000 0.6000000000 0.0521475645 0.0000000000 0.7000000000 0.0521475645 0.0000000000 0.6000000000 0.0376278451 0.0000000000 0.7000000000 0.0521475645 0.0000000000 0.7000000000 0.0376278451 0.0000000000 0.7000000000 0.0376278451 0.0000000000 0.7000000000 0.0521475645 0.0000000000 0.8000000000 0.0521475645 0.0000000000 0.7000000000 0.0376278451 0.0000000000 0.8000000000 0.0521475645 0.0000000000 0.8000000000 0.0376278451 0.0000000000 0.8000000000 0.0376278451 0.0000000000 0.8000000000 0.0521475645 0.0000000000 0.9000000000 0.0521475645 0.0000000000 0.8000000000 0.0376278451 0.0000000000 0.9000000000 0.0521475645 0.0000000000 0.9000000000 0.0376278451 0.0000000000 0.9000000000 0.0376278451 0.0000000000 0.9000000000 0.0521475645 0.0000000000 1.0000000000 0.0521475645 0.0000000000 0.9000000000 0.0376278451 0.0000000000 1.0000000000 0.0521475645 0.0000000000 1.0000000000 0.0376278451 0.0000000000 0.0000000000 0.0521475645 0.0000000000 0.0000000000 0.0722283238 0.0000000000 0.1000000000 0.0722283238 0.0000000000 0.0000000000 0.0521475645 0.0000000000 0.1000000000 0.0722283238 0.0000000000 0.1000000000 0.0521475645 0.0000000000 0.1000000000 0.0521475645 0.0000000000 0.1000000000 0.0722283238 0.0000000000 0.2000000000 0.0722283238 0.0000000000 0.1000000000 0.0521475645 0.0000000000 0.2000000000 0.0722283238 0.0000000000 0.2000000000 0.0521475645 0.0000000000 0.2000000000 0.0521475645 0.0000000000 0.2000000000 0.0722283238 0.0000000000 0.3000000000 0.0722283238 0.0000000000 0.2000000000 0.0521475645 0.0000000000 0.3000000000 0.0722283238 0.0000000000 0.3000000000 0.0521475645 0.0000000000 0.3000000000 0.0521475645 0.0000000000 0.3000000000 0.0722283238 0.0000000000 0.4000000000 0.0722283238 0.0000000000 0.3000000000 0.0521475645 0.0000000000 0.4000000000 0.0722283238 0.0000000000 0.4000000000 0.0521475645 0.0000000000 0.4000000000 0.0521475645 0.0000000000 0.4000000000 0.0722283238 0.0000000000 0.5000000000 0.0722283238 0.0000000000 0.4000000000 0.0521475645 0.0000000000 0.5000000000 0.0722283238 0.0000000000 0.5000000000 0.0521475645 0.0000000000 0.5000000000 0.0521475645 0.0000000000 0.5000000000 0.0722283238 0.0000000000 0.6000000000 0.0722283238 0.0000000000 0.5000000000 0.0521475645 0.0000000000 0.6000000000 0.0722283238 0.0000000000 0.6000000000 0.0521475645 0.0000000000 0.6000000000 0.0521475645 0.0000000000 0.6000000000 0.0722283238 0.0000000000 0.7000000000 0.0722283238 0.0000000000 0.6000000000 0.0521475645 0.0000000000 0.7000000000 0.0722283238 0.0000000000 0.7000000000 0.0521475645 0.0000000000 0.7000000000 0.0521475645 0.0000000000 0.7000000000 0.0722283238 0.0000000000 0.8000000000 0.0722283238 0.0000000000 0.7000000000 0.0521475645 0.0000000000 0.8000000000 0.0722283238 0.0000000000 0.8000000000 0.0521475645 0.0000000000 0.8000000000 0.0521475645 0.0000000000 0.8000000000 0.0722283238 0.0000000000 0.9000000000 0.0722283238 0.0000000000 0.8000000000 0.0521475645 0.0000000000 0.9000000000 0.0722283238 0.0000000000 0.9000000000 0.0521475645 0.0000000000 0.9000000000 0.0521475645 0.0000000000 0.9000000000 0.0722283238 0.0000000000 1.0000000000 0.0722283238 0.0000000000 0.9000000000 0.0521475645 0.0000000000 1.0000000000 0.0722283238 0.0000000000 1.0000000000 0.0521475645 0.0000000000 0.0000000000 0.0722283238 0.0000000000 0.0000000000 0.1000000000 0.0000000000 0.1000000000 0.1000000000 0.0000000000 0.0000000000 0.0722283238 0.0000000000 0.1000000000 0.1000000000 0.0000000000 0.1000000000 0.0722283238 0.0000000000 0.1000000000 0.0722283238 0.0000000000 0.1000000000 0.1000000000 0.0000000000 0.2000000000 0.1000000000 0.0000000000 0.1000000000 0.0722283238 0.0000000000 0.2000000000 0.1000000000 0.0000000000 0.2000000000 0.0722283238 0.0000000000 0.2000000000 0.0722283238 0.0000000000 0.2000000000 0.1000000000 0.0000000000 0.3000000000 0.1000000000 0.0000000000 0.2000000000 0.0722283238 0.0000000000 0.3000000000 0.1000000000 0.0000000000 0.3000000000 0.0722283238 0.0000000000 0.3000000000 0.0722283238 0.0000000000 0.3000000000 0.1000000000 0.0000000000 0.4000000000 0.1000000000 0.0000000000 0.3000000000 0.0722283238 0.0000000000 0.4000000000 0.1000000000 0.0000000000 0.4000000000 0.0722283238 0.0000000000 0.4000000000 0.0722283238 0.0000000000 0.4000000000 0.1000000000 0.0000000000 0.5000000000 0.1000000000 0.0000000000 0.4000000000 0.0722283238 0.0000000000 0.5000000000 0.1000000000 0.0000000000 0.5000000000 0.0722283238 0.0000000000 0.5000000000 0.0722283238 0.0000000000 0.5000000000 0.1000000000 0.0000000000 0.6000000000 0.1000000000 0.0000000000 0.5000000000 0.0722283238 0.0000000000 0.6000000000 0.1000000000 0.0000000000 0.6000000000 0.0722283238 0.0000000000 0.6000000000 0.0722283238 0.0000000000 0.6000000000 0.1000000000 0.0000000000 0.7000000000 0.1000000000 0.0000000000 0.6000000000 0.0722283238 0.0000000000 0.7000000000 0.1000000000 0.0000000000 0.7000000000 0.0722283238 0.0000000000 0.7000000000 0.0722283238 0.0000000000 0.7000000000 0.1000000000 0.0000000000 0.8000000000 0.1000000000 0.0000000000 0.7000000000 0.0722283238 0.0000000000 0.8000000000 0.1000000000 0.0000000000 0.8000000000 0.0722283238 0.0000000000 0.8000000000 0.0722283238 0.0000000000 0.8000000000 0.1000000000 0.0000000000 0.9000000000 0.1000000000 0.0000000000 0.8000000000 0.0722283238 0.0000000000 0.9000000000 0.1000000000 0.0000000000 0.9000000000 0.0722283238 0.0000000000 0.9000000000 0.0722283238 0.0000000000 0.9000000000 0.1000000000 0.0000000000 1.0000000000 0.1000000000 0.0000000000 0.9000000000 0.0722283238 0.0000000000 1.0000000000 0.1000000000 0.0000000000 1.0000000000 0.0722283238 0.0000000000 
</DataArray>
</Points>
<Cells>
<DataArray type="UInt32" Name="connectivity" format="ascii">
0 1 2 3 4 5 6 7 8 9 10 11 12 13 14 15 16 17 18 19 20 21 22 23 24 25 26 27 28 29 30 31 32 33 34 35 36 37 38 39 40 41 42 43 44 45 46 47 48 49 50 51 52 53 54 55 56 57 58 59 60 61 62 63 64 65 66 67 68 69 70 71 72 73 74 75 76 77 78 79 80 81 82 83 84 85 86 87 88 89 90 91 92 93 94 95 96 97 98 99 100 101 102 103 104 105 106 107 108 109 110 111 112 113 114 115 116 117 118 119 120 121 122 123 124 125 126 127 128 129 130 131 132 133 134 135 136 137 138 139 140 141 142 143 144 145 146 147 148 149 150 151 152 153 154 155 156 157 158 159 160 161 162 163 164 165 166 167 168 169 170 171 172 173 174 175 176 177 178 179 180 181 182 183 184 185 186 187 188 189 190 191 192 193 194 195 196 197 198 199 200 201 202 203 204 205 206 207 208 209 210 211 212 213 214 215 216 217 218 219 220 221 222 223 224 225 226 227 228 229 230 231 232 233 234 235 236 237 238 239 240 241 242 243 244 245 246 247 248 249 250 251 252 253 254 255 256 257 258 259 260 261 262 263 264 265 266 267 268 269 270 271 272 273 274 275 276 277 278 279 280 281 282 283 284 285 286 287 288 289 290 291 292 293 294 295 296 297 298 299 300 301 302 303 304 305 306 307 308 309 310 311 312 313 314 315 316 317 318 319 320 321 322 323 324 325 326 327 328 329 330 331 332 333 334 335 336 337 338 339 340 341 342 343 344 345 346 347 348 349 350 351 352 353 354 355 356 357 358 359 360 361 362 363 364 365 366 367 368 369 370 371 372 373 374 375 376 377 378 379 380 381 382 383 384 385 386 387 388 389 390 391 392 393 394 395 396 397 398 399 400 401 402 403 404 405 406 407 408 409 410 411 412 413 414 415 416 417 418 419 420 421 422 423 424 425 426 427 428 429 430 431 432 433 434 435 436 437 438 439 440 441 442 443 444 445 446 447 448 449 450 451 452 453 454 455 456 457 458 459 460 461 462 463 464 465 466 467 468 469 470 471 472 473 474 475 476 477 478 479 480 481 482 483 484 485 486 487 488 489 490 491 492 493 494 495 496 497 498 499 500 501 502 503 504 505 506 507 508 509 510 511 512 513 514 515 516 517 518 519 520 521 522 523 524 525 526 527 528 529 530 531 532 533 534 535 536 537 538 539 540 541 542 543 544 545 546 547 548 549 550 551 552 553 554 555 556 557 558 559 560 561 562 563 564 565 566 567 568 569 570 571 572 573 574 575 576 577 578 579 580 581 582 583 584 585 586 587 588 589 590 591 592 593 594 595 596 597 598 599 600 601 602 603 604 605 606 607 608 609 610 611 612 613 614 615 616 617 618 619 620 621 622 623 624 625 626 627 628 629 630 631 632 633 634 635 636 637 638 639 640 641 642 643 644 645 646 647 648 649 650 651 652 653 654 655 656 657 658 659 660 661 662 663 664 665 666 667 668 669 670 671 672 673 674 675 676 677 678 679 680 681 682 683 684 685 686 687 688 689 690 691 692 693 694 695 696 697 698 699 700 701 702 703 704 705 706 707 708 709 710 711 712 713 714 715 716 717 718 719 720 721 722 723 724 725 726 727 728 729 730 731 732 733 734 735 736 737 738 739 740 741 742 743 744 745 746 747 748 749 750 751 752 753 754 755 756 757 758 759 760 761 762 763 764 765 766 767 768 769 770 771 772 773 774 775 776 777 778 779 780 781 782 783 784 785 786 787 788 789 790 791 792 793 794 795 796 797 798 799 800 801 802 803 804 805 806 807 808 809 810 811 812 813 814 815 816 817 818 819 820 821 822 823 824 825 826 827 828 829 830 831 832 833 834 835 836 837 838 839 840 841 842 843 844 845 846 847 848 849 850 851 852 853 854 855 856 857 858 859 860 861 862 863 864 865 866 867 868 869 870 871 872 873 874 875 876 877 878 879 880 881 882 883 884 885 886 887 888 889 890 891 892 893 894 895 896 897 898 899 900 901 902 903 904 905 906 907 908 909 910 911 912 913 914 915 916 917 918 919 920 921 922 923 924 925 926 927 928 929 930 931 932 933 934 935 936 937 938 939 940 941 942 943 944 945 946 947 948 949 950 951 952 953 954 955 956 957 958 959 960 961 962 963 964 965 966 967 968 969 970 971 972 973 974 975 976 977 978 979 980 981 982 983 984 985 986 987 988 989 990 991 992 993 994 995 996 997 998 999 1000 1001 1002 1003 1004 1005 1006 1007 1008 1009 1010 1011 1012 1013 1014 1015 1016 1017 1018 1019 1020 1021 1022 1023 1024 1025 1026 1027 1028 1029 1030 1031 1032 1033 1034 1035 1036 1037 1038 1039 1040 1041 1042 1043 1044 1045 1046 1047 1048 1049 1050 1051 1052 1053 1054 1055 1056 1057 1058 1059 1060 1061 1062 1063 1064 1065 1066 1067 1068 1069 1070 1071 1072 1073 1074 1075 1076 1077 1078 1079 1080 1081 1082 1083 1084 1085 1086 1087 1088 1089 1090 1091 1092 1093 1094 1095 1096 1097 1098 1099 1100 1101 1102 1103 1104 1105 1106 1107 1108 1109 1110 1111 1112 1113 1114 1115 1116 1117 1118 1119 1120 1121 1122 1123 1124 1125 1126 1127 1128 1129 1130 1131 1132 1133 1134 1135 1136 1137 1138 1139 1140 1141 1142 1143 1144 1145 1146 1147 1148 1149 1150 1151 1152 1153 1154 1155 1156 1157 1158 1159 
</DataArray>
<DataArray type="UInt32" Name="offsets" format="ascii">
2 4 6 8 10 12 14 16 18 20 23 26 29 32 35 38 41 44 47 50 53 56 59 62 65 68 71 74 77 80 83 86 89 92 95 98 101 104 107 110 113 116 119 122 125 128 131 134 137 140 143 146 149 152 155 158 161 164 167 170 173 176 179 182 185 188 191 194 197 200 203 206 209 212 215 218 221 224 227 230 233 236 239 242 245 248 251 254 257 260 263 266 269 272 275 278 281 284 287 290 293 296 299 302 305 308 311 314 317 320 323 326 329 332 335 338 341 344 347 350 353 356 359 362 365 368 371 374 377 380 383 386 389 392 395 398 401 404 407 410 413 416 419 422 425 428 431 434 437 440 443 446 449 452 455 458 461 464 467 470 473 476 479 482 485 488 491 494 497 500 503 506 509 512 515 518 521 524 527 530 533 536 539 542 545 548 551 554 557 560 563 566 569 572 575 578 581 584 587 590 593 596 599 602 605 608 611 614 617 620 623 626 629 632 635 638 641 644 647 650 653 656 659 662 665 668 671 674 677 680 683 686 689 692 695 698 701 704 707 710 713 716 719 722 725 728 731 734 737 740 743 746 749 752 755 758 761 764 767 770 773 776 779 782 785 788 791 794 797 800 803 806 809 812 815 818 821 824 827 830 833 836 839 842 845 848 851 854 857 860 863 866 869 872 875 878 881 884 887 890 893 896 899 902 905 908 911 914 917 920 923 926 929 932 935 938 941 944 947 950 953 956 959 962 965 968 971 974 977 980 983 986 989 992 995 998 1001 1004 1007 1010 1013 1016 1019 1022 1025 1028 1031 1034 1037 1040 1043 1046 1049 1052 1055 1058 1061 1064 1067 1070 1073 1076 1079 1082 1085 1088 1091 1094 1097 1100 1103 1106 1109 1112 1115 1118 1121 1124 1127 1130 1133 1136 1139 1142 1145 1148 1151 1154 1157 1160 
</DataArray>
<DataArray type="UInt32" Name="types" format="ascii">
3 3 3 3 3 3 3 3 3 3 5 5 5 5 5 5 5 5 5 5 5 5 5 5 5 5 5 5 5 5 5 5 5 5 5 5 5 5 5 5 5 5 5 5 5 5 5 5 5 5 5 5 5 5 5 5 5 5 5 5 5 5 5 5 5 5 5 5 5 5 5 5 5 5 5 5 5 5 5 5 5 5 5 5 5 5 5 5 5 5 5 5 5 5 5 5 5 5 5 5 5 5 5 5 5 5 5 5 5 5 5 5 5 5 5 5 5 5 5 5 5 5 5 5 5 5 5 5 5 5 5 5 5 5 5 5 5 5 5 5 5 5 5 5 5 5 5 5 5 5 5 5 5 5 5 5 5 5 5 5 5 5 5 5 5 5 5 5 5 5 5 5 5 5 5 5 5 5 5 5 5 5 5 5 5 5 5 5 5 5 5 5 5 5 5 5 5 5 5 5 5 5 5 5 5 5 5 5 5 5 5 5 5 5 5 5 5 5 5 5 5 5 5 5 5 5 5 5 5 5 5 5 5 5 5 5 5 5 5 5 5 5 5 5 5 5 5 5 5 5 5 5 5 5 5 5 5 5 5 5 5 5 5 5 5 5 5 5 5 5 5 5 5 5 5 5 5 5 5 5 5 5 5 5 5 5 5 5 5 5 5 5 5 5 5 5 5 5 5 5 5 5 5 5 5 5 5 5 5 5 5 5 5 5 5 5 5 5 5 5 5 5 5 5 5 5 5 5 5 5 5 5 5 5 5 5 5 5 5 5 5 5 5 5 5 5 5 5 5 5 5 5 5 5 5 5 5 5 5 5 5 5 5 5 5 5 5 5 5 5 5 5 5 5 5 5 5 5 5 5 5 5 5 5 5 5 5 5 5 5 
</DataArray>
</Cells>
<PointData Scalars="Ba-133_conc,region_id," Vectors="" Tensors="">
<DataArray type="Float64" Name="Ba-133_conc" format="ascii">
1866.2570018637 1749.7420016192 1749.4725561418 1591.0026080959 1591.1328870052 1410.1692775872 1410.0413237979 1210.4356285993 1210.4524259613 1004.4802314850 1004.3911131066 795.6633925261 795.6247910114 589.1772336722 589.0948865908 386.1209842410 386.0551801110 188.8574362745 188.7588567139 2.0471943521 1866.1676168741 1044.0913345092 1272.5381190027 1866.1972308065 1272.4973924301 1749.8163124718 1749.7718352308 1272.4959469350 1382.9847401086 1749.7409791431 1382.9656080911 1591.3671320006 1591.3875276904 1382.9479642862 1483.5210433030 1591.4281482379 1483.4807587882 1410.6081532968 1410.5791117953 1483.4777719550 1567.9590629296 1410.5793314847 1567.9252972635 1211.0381438343 1211.0320160522 1567.9192215430 1631.0877453409 1211.0609199213 1631.0457466435 1005.1514218059 1005.1242505017 1631.0475626321 1671.0922143821 1005.1372157301 1671.0540466776 796.4266919717 796.4073184916 1671.0565326991 1685.0917604106 796.4301760800 1685.0529198789 589.9895532004 589.9619774960 1685.0598293680 1673.0956363509 589.9770780149 1673.0627342499 386.9855376755 386.9604627859 1673.0726124990 1634.3452221795 386.9785169691 1634.3123300562 189.7527618287 189.7259483888 1634.3219171525 1381.9983464402 189.7258259648 1381.9846180487 2.9372146509 1033.8775825519 -8.6790329253 -121.6219669527 1043.6075664062 -126.7781563700 1272.8550177168 1268.1996121321 -120.4852596093 -122.4540812730 1272.1955301423 -123.3391869252 1383.4580852059 1383.2981404601 -121.4970787478 -119.6134761220 1382.8575698633 -115.4937016266 1484.2919886536 1489.1937685257 -118.7153620693 -112.1698028954 1483.6429113255 -102.6058545172 1569.0459647275 1579.3607482135 -111.3688456411 -99.6388323540 1568.3668716505 -84.4944941483 1632.4528587296 1648.2009446532 -98.9519793366 -81.8384192924 1631.7732182999 -61.3091428241 1672.7109506568 1693.5984206022 -81.2579461930 -58.9222182674 1672.0500021839 -33.5437430041 1686.9061765599 1712.3614217435 -58.4771900068 -31.1895328342 1686.2926210018 -1.7238943248 1675.0400828770 1704.1534408660 -30.8051248687 -3.1946488135 1674.5121747968 28.3701164672 1636.4030502111 1669.0173635508 -5.3058207026 49.6761933432 1635.9402750571 94.3145801386 1383.4643679780 -9.2409153072 -0.2843834321 2.5079350847 -8.7618650110 1.9421169580 -119.0727130731 -120.0657311646 2.6938154652 6.8728744878 -118.4468613062 5.6411476529 -122.3124966589 -124.9418894405 7.3686330770 5.7645954588 -121.5385786880 3.4146417299 -121.9081974662 -126.4524063714 6.3834818281 4.6416103307 -121.0814256105 1.0101124279 -117.1718147304 -123.7759922697 5.2988595324 3.0507570822 -116.3137713903 -1.9191417976 -107.4004986563 -116.0643665887 3.7164005692 1.0078016132 -106.5359091334 -5.2681094662 -92.2410950292 -102.7985025160 1.6354528010 -1.4488348073 -91.3708480759 -8.8958800196 -71.6884165018 -83.8330791490 -0.9011087126 -4.4153238629 -70.8218974919 -12.8552528873 -45.9423404991 -59.2332144646 -4.1135500511 -5.4915011489 -45.2146723393 -13.9526070377 -18.4739040709 -32.5347899290 -3.8142143332 -19.1393050173 -17.6973272280 -32.3021509192 25.0516702058 -0.3908425634 0.0212218593 -0.0896768986 -0.4202520136 -0.0596413363 3.0468372801 3.0820347885 -0.0488188274 -0.6743726036 2.7180607408 -0.4585992310 7.3887531589 7.6786219926 -0.6118120884 -0.6982724518 7.4108880766 -0.3550905258 6.9217959698 7.5891335396 -0.7289965420 -0.5048744338 6.9526850873 0.1259330247 6.3593493637 7.4939415798 -0.5808315765 -0.3253098220 6.4402922982 0.6586212300 5.3599688360 7.0152305663 -0.4166585227 -0.0673614525 5.4971826968 1.3021688439 3.8795616808 6.0831526781 -0.1757220688 0.2614846798 4.0820314374 2.0279237365 1.9059186948 4.6470646629 0.1366348082 0.6723928264 2.1738878866 2.8429136986 -0.6425501232 2.5988579455 0.5932478580 1.0276615141 -0.2641450304 3.3413978196 -2.1106392542 1.6025703404 0.4209561353 2.3043870146 -1.2858092106 6.2385231164 -12.2349785001 0.0257242422 -0.0031034733 0.0000031787 0.0293230687 -0.0032915474 -0.0844398320 -0.0596001009 -0.0098584107 0.0469405213 -0.0584334826 0.0645054272 -0.6259634794 -0.5226054543 0.0225795773 0.0910551644 -0.5872159766 0.1507542505 -0.7342892502 -0.6560524587 0.0845294765 0.0908338713 -0.7255191789 0.1369897957 -0.7022544392 -0.6862372441 0.0939717817 0.0867015722 -0.7048946131 0.1008817427 -0.6745340995 -0.7319435858 0.0963228435 0.0828451614 -0.6817107817 0.0501620374 -0.5987078569 -0.7516194494 0.0960679479 0.0714988569 -0.6110401193 -0.0212471656 -0.4677947744 -0.7375437201 0.0897166907 0.0537705203 -0.4862460143 -0.1126448722 -0.2760649118 -0.6808756046 0.0754886243 0.0145811758 -0.2867808627 -0.2340602216 0.0215057437 -0.5456662481 0.0649834235 0.0594259027 -0.1527342714 -0.3575256058 0.0836485170 -0.0004604707 0.0000464594 0.0001092664 -0.0013341625 0.0005506523 -0.0001137801 -0.0006517614 0.0005922584 -0.0009213329 -0.0019878256 -0.0026995406 0.0210055919 0.0085447848 0.0002847411 -0.0041767513 0.0150545690 -0.0149270380 0.0447322153 0.0208056017 -0.0027446740 -0.0053794301 0.0419029841 -0.0203620087 0.0519394015 0.0254362586 -0.0044879237 -0.0058386792 0.0495222417 -0.0223918461 0.0572752649 0.0301308942 -0.0053777479 -0.0067926958 0.0560218020 -0.0243224274 0.0638491019 0.0359238240 -0.0064003528 -0.0078456217 0.0627323130 -0.0255922829 0.0690452472 0.0420359159 -0.0074913944 -0.0088992982 0.0684121565 -0.0259180891 0.0732956318 0.0491555396 -0.0088882186 -0.0094479828 0.0730980284 -0.0234307434 0.0657666632 0.0469683895 -0.0070588140 -0.0156313778 0.0665398107 -0.0348191664 0.1543181529 0.0000011015 0.0000000761 -0.0000007276 0.0000100660 -0.0000082225 0.0000199960 0.0000104253 -0.0000031475 0.0000016470 0.0000734021 0.0000051834 -0.0001394080 -0.0000152726 -0.0000080525 0.0000226330 -0.0000366890 0.0001911877 -0.0007268589 -0.0001269239 0.0000059258 0.0000451016 -0.0005854851 0.0004375807 -0.0010266925 -0.0001906227 0.0000313357 0.0000547549 -0.0008984568 0.0005666679 -0.0012259805 -0.0002397275 0.0000438050 0.0000673910 -0.0011244036 0.0006989294 -0.0015145945 -0.0003090078 0.0000564492 0.0000862565 -0.0014049007 0.0008628344 -0.0018659017 -0.0003963059 0.0000729641 0.0001094816 -0.0017358976 0.0010522352 -0.0022753336 -0.0005103826 0.0000950375 0.0001373509 -0.0021640300 0.0012677235 -0.0026682080 -0.0005606625 0.0000950081 0.0001927596 -0.0021069157 0.0016384834 -0.0045560419 -0.0000000000 -0.0000000002 0.0000000004 -0.0000000029 0.0000000116 -0.0000000424 -0.0000000076 0.0000000013 0.0000000011 -0.0000001580 0.0000000533 0.0000000679 -0.0000000086 0.0000000091 -0.0000000102 -0.0000002485 -0.0000002143 0.0000012705 0.0000000681 0.0000000066 -0.0000000414 0.0000007263 -0.0000011016 0.0000027958 0.0000001749 -0.0000000216 -0.0000000604 0.0000022065 -0.0000017416 0.0000036835 0.0000002400 -0.0000000426 -0.0000000751 0.0000030818 -0.0000022915 0.0000047296 0.0000003197 -0.0000000581 -0.0000001003 0.0000040819 -0.0000030305 0.0000062504 0.0000004334 -0.0000000790 -0.0000001353 0.0000054172 -0.0000039945 0.0000082118 0.0000005881 -0.0000001078 -0.0000001825 0.0000072274 -0.0000052692 0.0000107218 0.0000007294 -0.0000001320 -0.0000002429 0.0000081020 -0.0000066682 0.0000154094 -0.0000000000 0.0000000000 -0.0000000000 -0.0000000000 -0.0000000000 0.0000000000 0.0000000000 -0.0000000000 -0.0000000000 0.0000000000 -0.0000000000 0.0000000000 0.0000000000 -0.0000000000 0.0000000000 0.0000000001 -0.0000000000 -0.0000000002 -0.0000000000 -0.0000000000 0.0000000000 0.0000000000 0.0000000002 -0.0000000008 -0.0000000000 0.0000000000 0.0000000000 -0.0000000006 0.0000000006 -0.0000000013 -0.0000000000 0.0000000000 0.0000000000 -0.0000000010 0.0000000008 -0.0000000017 -0.0000000000 0.0000000000 0.0000000000 -0.0000000014 0.0000000011 -0.0000000024 -0.0000000001 0.0000000000 0.0000000000 -0.0000000019 0.0000000016 -0.0000000032 -0.0000000001 0.0000000000 0.0000000000 -0.0000000027 0.0000000022 -0.0000000045 -0.0000000001 0.0000000000 0.0000000000 -0.0000000034 0.0000000028 -0.0000000061 0.0000000000 -0.0000000000 0.0000000000 0.0000000000 -0.0000000000 -0.0000000000 -0.0000000000 -0.0000000000 0.0000000000 -0.0000000000 0.0000000000 -0.0000000000 -0.0000000000 0.0000000000 0.0000000000 -0.0000000000 0.0000000000 0.0000000000 -0.0000000000 0.0000000000 -0.0000000000 -0.0000000000 -0.0000000000 0.0000000000 0.0000000000 0.0000000000 -0.0000000000 0.0000000000 -0.0000000000 0.0000000000 0.0000000000 -0.0000000000 -0.0000000000 0.0000000000 -0.0000000000 0.0000000000 0.0000000000 -0.0000000000 -0.0000000000 0.0000000000 -0.0000000000 0.0000000000 0.0000000000 -0.0000000000 -0.0000000000 0.0000000000 -0.0000000000 0.0000000000 0.0000000000 -0.0000000000 -0.0000000000 0.0000000000 -0.0000000000 0.0000000000 0.0000000000 -0.0000000000 -0.0000000000 0.0000000000 -0.0000000000 0.0000000000 -0.0000000000 0.0000000000 0.0000000000 -0.0000000000 0.0000000000 0.0000000000 -0.0000000000 0.0000000000 -0.0000000000 -0.0000000000 -0.0000000000 0.0000000000 0.0000000000 -0.0000000000 -0.0000000000 0.0000000000 -0.0000000000 0.0000000000 0.0000000000 -0.0000000000 0.0000000000 0.0000000000 -0.0000000000 -0.0000000000 -0.0000000000 -0.0000000000 0.0000000000 0.0000000000 0.0000000000 -0.0000000000 -0.0000000000 0.0000000000 0.0000000000 -0.0000000000 0.0000000000 -0.0000000000 -0.0000000000 0.0000000000 0.0000000000 -0.0000000000 0.0000000000 -0.0000000000 -0.0000000000 0.0000000000 0.0000000000 -0.0000000000 0.0000000000 -0.0000000000 -0.0000000000 0.0000000000 0.0000000000 -0.0000000000 0.0000000000 -0.0000000000 -0.0000000000 0.0000000000 0.0000000000 -0.0000000000 0.0000000000 -0.0000000000 0.0000000000 0.0000000000 -0.0000000000 0.0000000000 -0.0000000000 0.0000000000 0.0000000000 -0.0000000000 0.0000000000 0.0000000000 -0.0000000000 -0.0000000000 -0.0000000000 -0.0000000000 0.0000000000 -0.0000000000 0.0000000000 -0.0000000000 -0.0000000000 0.0000000000 0.0000000000 -0.0000000000 0.0000000000 0.0000000000 -0.0000000000 0.0000000000 -0.0000000000 -0.0000000000 -0.0000000000 0.0000000000 0.0000000000 0.0000000000 -0.0000000000 0.0000000000 -0.0000000000 0.0000000000 0.0000000000 -0.0000000000 -0.0000000000 0.0000000000 -0.0000000000 0.0000000000 0.0000000000 -0.0000000000 -0.0000000000 0.0000000000 -0.0000000000 0.0000000000 0.0000000000 -0.0000000000 -0.0000000000 0.0000000000 -0.0000000000 0.0000000000 0.0000000000 -0.0000000000 -0.0000000000 0.0000000000 -0.0000000000 0.0000000000 0.0000000000 -0.0000000000 0.0000000000 0.0000000000 0.0000000000 -0.0000000000 -0.0000000000 0.0000000000 0.0000000000 -0.0000000000 0.0000000000 0.0000000000 -0.0000000000 0.0000000000 -0.0000000000 -0.0000000000 -0.0000000000 0.0000000000 0.0000000000 0.0000000000 -0.0000000000 0.0000000000 -0.0000000000 0.0000000000 0.0000000000 -0.0000000000 -0.0000000000 0.0000000000 -0.0000000000 -0.0000000000 0.0000000000 -0.0000000000 0.0000000000 0.0000000000 0.0000000000 -0.0000000000 -0.0000000000 -0.0000000000 0.0000000000 -0.0000000000 0.0000000000 -0.0000000000 -0.0000000000 0.0000000000 0.0000000000 -0.0000000000 0.0000000000 -0.0000000000 -0.0000000000 0.0000000000 0.0000000000 -0.0000000000 0.0000000000 -0.0000000000 -0.0000000000 0.0000000000 0.0000000000 -0.0000000000 0.0000000000 -0.0000000000 -0.0000000000 0.0000000000 0.0000000000 -0.0000000000 -0.0000000000 0.0000000000 0.0000000000 0.0000000000 -0.0000000000 0.0000000000 -0.0000000000 0.0000000000 0.0000000000 -0.0000000000 -0.0000000000 0.0000000000 -0.0000000000 -0.0000000000 -0.0000000000 -0.0000000000 0.0000000000 0.0000000000 0.0000000000 -0.0000000000 -0.0000000000 0.0000000000 0.0000000000 -0.0000000000 0.0000000000 -0.0000000000 -0.0000000000 0.0000000000 -0.0000000000 -0.0000000000 0.0000000000 0.0000000000 0.0000000000 0.0000000000 -0.0000000000 -0.0000000000 -0.0000000000 0.0000000000 0.0000000000 -0.0000000000 -0.0000000000 0.0000000000 -0.0000000000 0.0000000000 0.0000000000 -0.0000000000 -0.0000000000 0.0000000000 -0.0000000000 0.0000000000 0.0000000000 -0.0000000000 -0.0000000000 0.0000000000 -0.0000000000 0.0000000000 -0.0000000000 0.0000000000 -0.0000000000 0.0000000000 -0.0000000000 -0.0000000000 0.0000000000 -0.0000000000 -0.0000000000 0.0000000000 0.0000000000 -0.0000000000 -0.0000000000 -0.0000000000 0.0000000000 -0.0000000000 0.0000000000 -0.0000000000 -0.0000000000 0.0000000000 0.0000000000 -0.0000000000 0.0000000000 0.0000000000 0.0000000000 0.0000000000 -0.0000000000 -0.0000000000 -0.0000000000 0.0000000000 0.0000000000 -0.0000000000 -0.0000000000 0.0000000000 -0.0000000000 -0.0000000000 0.0000000000 -0.0000000000 0.0000000000 0.0000000000 0.0000000000 -0.0000000000 -0.0000000000 -0.0000000000 0.0000000000 0.0000000000 0.0000000000 -0.0000000000 -0.0000000000 0.0000000000 0.0000000000 -0.0000000000 0.0000000000 -0.0000000000 -0.0000000000 0.0000000000 0.0000000000 -0.0000000000 0.0000000000 -0.0000000000 -0.0000000000 0.0000000000 -0.0000000000 -0.0000000000 -0.0000000000 -0.0000000000 0.0000000000 -0.0000000000 -0.0000000000 0.0000000000 0.0000000000 -0.0000000000 0.0000000000 -0.0000000000 0.0000000000 0.0000000000 0.0000000000 0.0000000000 -0.0000000000 0.0000000000 0.0000000000 -0.0000000000 -0.0000000000 0.0000000000 -0.0000000000 0.0000000000 0.0000000000 -0.0000000000 -0.0000000000 -0.0000000000 0.0000000000 -0.0000000000 -0.0000000000 0.0000000000 0.0000000000 -0.0000000000 0.0000000000 -0.0000000000 0.0000000000 0.0000000000 0.0000000000 0.0000000000 -0.0000000000 0.0000000000 -0.0000000000 -0.0000000000 0.0000000000 0.0000000000 0.0000000000 0.0000000000 -0.0000000000 0.0000000000 -0.0000000000 -0.0000000000 0.0000000000 -0.0000000000 -0.0000000000 0.0000000000 -0.0000000000 -0.0000000000 -0.0000000000 0.0000000000 -0.0000000000 -0.0000000000 0.0000000000 -0.0000000000 0.0000000000 -0.0000000000 -0.0000000000 0.0000000000 0.0000000000 -0.0000000000 0.0000000000 -0.0000000000 0.0000000000 0.0000000000 -0.0000000000 0.0000000000 -0.0000000000 0.0000000000 0.0000000000 -0.0000000000 -0.0000000000 0.0000000000 -0.0000000000 0.0000000000 0.0000000000 -0.0000000000 -0.0000000000 0.0000000000 0.0000000000 -0.0000000000 -0.0000000000 0.0000000000 0.0000000000 -0.0000000000 0.0000000000 -0.0000000000 -0.0000000000 0.0000000000 -0.0000000000 -0.0000000000 -0.0000000000 0.0000000000 0.0000000000 0.0000000000 -0.0000000000 -0.0000000000 -0.0000000000 -0.0000000000 -0.0000000000 -0.0000000000 0.0000000000 0.0000000000 -0.0000000000 -0.0000000000 -0.0000000000 -0.0000000000 0.0000000000 0.0000000000 -0.0000000000 0.0000000000 -0.0000000000 -0.0000000000 0.0000000000 -0.0000000000 0.0000000000 -0.0000000000 -0.0000000000 0.0000000000 0.0000000000 -0.0000000000 0.0000000000 -0.0000000000 0.0000000000 0.0000000000 -0.0000000000 0.0000000000 -0.0000000000 0.0000000000 0.0000000000 -0.0000000000 -0.0000000000 0.0000000000 -0.0000000000 0.0000000000 -0.0000000000 -0.0000000000 0.0000000000 0.0000000000 0.0000000000 -0.0000000000 -0.0000000000 0.0000000000 0.0000000000 -0.0000000000 0.0000000000 -0.0000000000 -0.0000000000 0.0000000000 0.0000000000 -0.0000000000 -0.0000000000 0.0000000000 0.0000000000 -0.0000000000 0.0000000000 0.0000000000 -0.0000000000 0.0000000000 -0.0000000000 -0.0000000000 0.0000000000 0.0000000000 -0.0000000000 0.0000000000 -0.0000000000 -0.0000000000 0.0000000000 -0.0000000000 -0.0000000000 0.0000000000 -0.0000000000 -0.0000000000 0.0000000000 -0.0000000000 0.0000000000 -0.0000000000 -0.0000000000 0.0000000000 0.0000000000 -0.0000000000 0.0000000000 -0.0000000000 0.0000000000 0.0000000000 -0.0000000000 0.0000000000 -0.0000000000 0.0000000000 0.0000000000 -0.0000000000 -0.0000000000 0.0000000000 -0.0000000000 0.0000000000 -0.0000000000 -0.0000000000 0.0000000000 0.0000000000 0.0000000000 -0.0000000000 -0.0000000000 0.0000000000 0.0000000000 -0.0000000000 0.0000000000 -0.0000000000 0.0000000000 0.0000000000 -0.0000000000 -0.0000000000 -0.0000000000 0.0000000000 0.0000000000 -0.0000000000 0.0000000000 0.0000000000 -0.0000000000 0.0000000000 -0.0000000000 -0.0000000000 0.0000000000 -0.0000000000 -0.0000000000 0.0000000000 -0.0000000000 -0.0000000000 0.0000000000 -0.0000000000 
</DataArray>
<DataArray type="Int32" Name="region_id" format="ascii">
2 2 2 2 2 2 2 2 2 2 2 2 2 2 2 2 2 2 2 2 1 1 1 1 1 1 1 1 1 1 1 1 1 1 1 1 1 1 1 1 1 1 1 1 1 1 1 1 1 1 1 1 1 1 1 1 1 1 1 1 1 1 1 1 1 1 1 1 1 1 1 1 1 1 1 1 1 1 1 1 1 1 1 1 1 1 1 1 1 1 1 1 1 1 1 1 1 1 1 1 1 1 1 1 1 1 1 1 1 1 1 1 1 1 1 1 1 1 1 1 1 1 1 1 1 1 1 1 1 1 1 1 1 1 1 1 1 1 1 1 1 1 1 1 1 1 1 1 1 1 1 1 1 1 1 1 1 1 1 1 1 1 1 1 1 1 1 1 1 1 1 1 1 1 1 1 1 1 1 1 1 1 1 1 1 1 1 1 1 1 1 1 1 1 1 1 1 1 1 1 1 1 1 1 1 1 1 1 1 1 1 1 1 1 1 1 1 1 1 1 1 1 1 1 1 1 1 1 1 1 1 1 1 1 1 1 1 1 1 1 1 1 1 1 1 1 1 1 1 1 1 1 1 1 1 1 1 1 1 1 1 1 1 1 1 1 1 1 1 1 1 1 1 1 1 1 1 1 1 1 1 1 1 1 1 1 1 1 1 1 1 1 1 1 1 1 1 1 1 1 1 1 1 1 1 1 1 1 1 1 1 1 1 1 1 1 1 1 1 1 1 1 1 1 1 1 1 1 1 1 1 1 1 1 1 1 1 1 1 1 1 1 1 1 1 1 1 1 1 1 1 1 1 1 1 1 1 1 1 1 1 1 1 1 1 1 1 1 1 1 1 1 1 1 1 1 1 1 1 1 1 1 1 1 1 1 1 1 1 1 1 1 1 1 1 1 1 1 1 1 1 1 1 1 1 1 1 1 1 1 1 1 1 1 1 1 1 1 1 1 1 1 1 1 1 1 1 1 1 1 1 1 1 1 1 1 1 1 1 1 1 1 1 1 1 1 1 1 1 1 1 1 1 1 1 1 1 1 1 1 1 1 1 1 1 1 1 1 1 1 1 1 1 1 1 1 1 1 1 1 1 1 1 1 1 1 1 1 1 1 1 1 1 1 1 1 1 1 1 1 1 1 1 1 1 1 1 1 1 1 1 1 1 1 1 1 1 1 1 1 1 1 1 1 1 1 1 1 1 1 1 1 1 1 1 1 1 1 1 1 1 1 1 1 1 1 1 1 1 1 1 1 1 1 1 1 1 1 1 1 1 1 1 1 1 1 1 1 1 1 1 1 1 1 1 1 1 1 1 1 1 1 1 1 1 1 1 1 1 1 1 1 1 1 1 1 1 1 1 1 1 1 1 1 1 1 1 1 1 1 1 1 1 1 1 1 1 1 1 1 1 1 1 1 1 1 1 1 1 1 1 1 1 1 1 1 1 1 1 1 1 1 1 1 1 1 1 1 1 1 1 1 1 1 1 1 1 1 1 1 1 1 1 1 1 1 1 1 1 1 1 1 1 1 1 1 1 1 1 1 1 1 1 1 1 1 1 1 1 1 1 1 1 1 1 1 1 1 1 1 1 1 1 1 1 1 1 1 1 1 1 1 1 1 1 1 1 1 1 1 1 1 1 1 1 1 1 1 1 1 1 1 1 1 1 1 1 1 1 1 1 1 1 1 1 1 1 1 1 1 1 1 1 1 1 1 1 1 1 1 1 1 1 1 1 1 1 1 1 1 1 1 1 1 1 1 1 1 1 1 1 1 1 1 1 1 1 1 1 1 1 1 1 1 1 1 1 1 1 1 1 1 1 1 1 1 1 1 1 1 1 1 1 1 1 1 1 1 1 1 1 1 1 1 1 1 1 1 1 1 1 1 1 1 1 1 1 1 1 1 1 1 1 1 1 1 1 1 1 1 1 1 1 1 1 1 1 1 1 1 1 1 1 1 1 1 1 1 1 1 1 1 1 1 1 1 1 1 1 1 1 1 1 1 1 1 1 1 1 1 1 1 1 1 1 1 1 1 1 1 1 1 1 1 1 1 1 1 1 1 1 1 1 1 1 1 1 1 1 1 1 1 1 1 1 1 1 1 1 1 1 1 1 1 1 1 1 1 1 1 1 1 1 1 1 1 1 1 1 1 1 1 1 1 1 1 1 1 1 1 1 1 1 1 1 1 1 1 1 1 1 1 1 1 1 1 1 1 1 1 1 1 1 1 1 1 1 1 1 1 1 1 1 1 1 1 1 1 1 1 1 1 1 1 1 1 1 1 1 1 1 1 1 1 1 1 1 1 1 1 1 1 1 1 1 1 1 1 1 1 1 1 1 1 1 1 1 1 1 1 1 1 1 1 1 1 1 1 1 1 1 1 1 1 1 1 1 1 1 1 1 1 1 1 1 1 1 1 1 1 1 1 1 1 1 1 1 1 1 1 1 1 1 1 1 1 1 1 1 1 1 1 1 1 1 1 1 1 1 1 1 1 1 1 1 1 1 1 1 1 1 1 1 1 1 1 1 1 1 1 1 1 1 1 1 1 1 1 1 1 1 1 1 1 1 1 1 1 1 1 1 1 1 1 1 1 1 1 1 1 1 1 1 1 1 1 1 1 1 1 
</DataArray>
</PointData>
</Piece>
</UnstructuredGrid>
</VTKFile>
