<?xml version="1.0"?>
<VTKFile type="UnstructuredGrid" version="0.1" byte_order="LittleEndian">
<UnstructuredGrid>
<Piece NumberOfPoints="1160" NumberOfCells="390">
<Points>
<DataArray type="Float64" NumberOfComponents="3" format="ascii">
0.0000000000 0.0000000000 0.0000000000 0.1000000000 0.0000000000 0.0000000000 0.1000000000 0.0000000000 0.0000000000 0.2000000000 0.0000000000 0.0000000000 0.2000000000 0.0000000000 0.0000000000 0.3000000000 0.0000000000 0.0000000000 0.3000000000 0.0000000000 0.0000000000 0.4000000000 0.0000000000 0.0000000000 0.4000000000 0.0000000000 0.0000000000 0.5000000000 0.0000000000 0.0000000000 0.5000000000 0.0000000000 0.0000000000 0.6000000000 0.0000000000 0.0000000000 0.6000000000 0.0000000000 0.0000000000 0.7000000000 0.0000000000 0.0000000000 0.7000000000 0.0000000000 0.0000000000 0.8000000000 0.0000000000 0.0000000000 0.8000000000 0.0000000000 0.0000000000 0.9000000000 0.0000000000 0.0000000000 0.9000000000 0.0000000000 0.0000000000 1.0000000000 0.0000000000 0.0000000000 0.0000000000 0.0000000000 0.0000000000 0.0000000000 0.0000100000 0.0000000000 0.1000000000 0.0000100000 0.0000000000 0.0000000000 0.0000000000 0.0000000000 0.1000000000 0.0000100000 0.0000000000 0.1000000000 0.0000000000 0.0000000000 0.1000000000 0.0000000000 0.0000000000 0.1000000000 0.0000100000 0.0000000000 0.2000000000 0.0000100000 0.0000000000 0.1000000000 0.0000000000 0.0000000000 0.2000000000 0.0000100000 0.0000000000 0.2000000000 0.0000000000 0.0000000000 0.2000000000 0.0000000000 0.0000000000 0.2000000000 0.0000100000 0.0000000000 0.3000000000 0.0000100000 0.0000000000 0.2000000000 0.0000000000 0.0000000000 0.3000000000 0.0000100000 0.0000000000 0.3000000000 0.0000000000 0.0000000000 0.3000000000 0.0000000000 0.0000000000 0.3000000000 0.0000100000 0.0000000000 0.4000000000 0.0000100000 0.0000000000 0.3000000000 0.0000000000 0.0000000000 0.4000000000 0.0000100000 0.0000000000 0.4000000000 0.0000000000 0.0000000000 0.4000000000 0.0000000000 0.0000000000 0.4000000000 0.0000100000 0.0000000000 0.5000000000 0.0000100000 0.0000000000 0.4000000000 0.0000000000 0.0000000000 0.5000000000 0.0000100000 0.0000000000 0.5000000000 0.0000000000 0.0000000000 0.5000000000 0.0000000000 0.0000000000 0.5000000000 0.0000100000 0.0000000000 0.6000000000 0.0000100000 0.0000000000 0.5000000000 0.0000000000 0.0000000000 0.6000000000 0.0000100000 0.0000000000 0.6000000000 0.0000000000 0.0000000000 0.6000000000 0.0000000000 0.0000000000 0.6000000000 0.0000100000 0.0000000000 0.7000000000 0.0000100000 0.0000000000 0.6000000000 0.0000000000 0.0000000000 0.7000000000 0.0000100000 0.0000000000 0.7000000000 0.0000000000 0.0000000000 0.7000000000 0.0000000000 0.0000000000 0.7000000000 0.0000100000 0.0000000000 0.8000000000 0.0000100000 0.0000000000 0.7000000000 0.0000000000 0.0000000000 0.8000000000 0.0000100000 0.0000000000 0.8000000000 0.0000000000 0.0000000000 0.8000000000 0.0000000000 0.0000000000 0.8000000000 0.0000100000 0.0000000000 0.9000000000 0.0000100000 0.0000000000 0.8000000000 0.0000000000 0.0000000000 0.9000000000 0.0000100000 0.0000000000 0.9000000000 0.0000000000 0.0000000000 0.9000000000 0.0000000000 0.0000000000 0.9000000000 0.0000100000 0.0000000000 1.0000000000 0.0000100000 0.0000000000 0.9000000000 0.0000000000 0.0000000000 1.0000000000 0.0000100000 0.0000000000 1.0000000000 0.0000000000 0.0000000000 0.0000000000 0.0000100000 0.0000000000 0.0000000000 0.0001221059 0.0000000000 0.1000000000 0.0001221059 0.0000000000 0.0000000000 0.0000100000 0.0000000000 0.1000000000 0.0001221059 0.0000000000 0.1000000000 0.0000100000 0.0000000000 0.1000000000 0.0000100000 0.0000000000 0.1000000000 0.0001221059 0.0000000000 0.2000000000 0.0001221059 0.0000000000 0.1000000000 0.0000100000 0.0000000000 0.2000000000 0.0001221059 0.0000000000 0.2000000000 0.0000100000 0.0000000000 0.2000000000 0.0000100000 0.0000000000 0.2000000000 0.0001221059 0.0000000000 0.3000000000 0.0001221059 0.0000000000 0.2000000000 0.0000100000 0.0000000000 0.3000000000 0.0001221059 0.0000000000 0.3000000000 0.0000100000 0.0000000000 0.3000000000 0.0000100000 0.0000000000 0.3000000000 0.0001221059 0.0000000000 0.4000000000 0.0001221059 0.0000000000 0.3000000000 0.0000100000 0.0000000000 0.4000000000 0.0001221059 0.0000000000 0.4000000000 0.0000100000 0.0000000000 0.4000000000 0.0000100000 0.0000000000 0.4000000000 0.0001221059 0.0000000000 0.5000000000 0.0001221059 0.0000000000 0.4000000000 0.0000100000 0.0000000000 0.5000000000 0.0001221059 0.0000000000 0.5000000000 0.0000100000 0.0000000000 0.5000000000 0.0000100000 0.0000000000 0.5000000000 0.0001221059 0.0000000000 0.6000000000 0.0001221059 0.0000000000 0.5000000000 0.0000100000 0.0000000000 0.6000000000 0.0001221059 0.0000000000 0.6000000000 0.0000100000 0.0000000000 0.6000000000 0.0000100000 0.0000000000 0.6000000000 0.0001221059 0.0000000000 0.7000000000 0.0001221059 0.0000000000 0.6000000000 0.0000100000 0.0000000000 0.7000000000 0.0001221059 0.0000000000 0.7000000000 0.0000100000 0.0000000000 0.7000000000 0.0000100000 0.0000000000 0.7000000000 0.0001221059 0.0000000000 0.8000000000 0.0001221059 0.0000000000 0.7000000000 0.0000100000 0.0000000000 0.8000000000 0.0001221059 0.0000000000 0.8000000000 0.0000100000 0.0000000000 0.8000000000 0.0000100000 0.0000000000 0.8000000000 0.0001221059 0.0000000000 0.9000000000 0.0001221059 0.0000000000 0.8000000000 0.0000100000 0.0000000000 0.9000000000 0.0001221059 0.0000000000 0.9000000000 0.0000100000 0.0000000000 0.9000000000 0.0000100000 0.0000000000 0.9000000000 0.0001221059 0.0000000000 1.0000000000 0.0001221059 0.0000000000 0.9000000000 0.0000100000 0.0000000000 1.0000000000 0.0001221059 0.0000000000 1.0000000000 0.0000100000 0.0000000000 0.0000000000 0.0001221059 0.0000000000 0.0000000000 0.0002771482 0.0000000000 0.1000000000 0.0002771482 0.0000000000 0.0000000000 0.0001221059 0.0000000000 0.1000000000 0.0002771482 0.0000000000 0.1000000000 0.0001221059 0.0000000000 0.1000000000 0.0001221059 0.0000000000 0.1000000000 0.0002771482 0.0000000000 0.2000000000 0.0002771482 0.0000000000 0.1000000000 0.0001221059 0.0000000000 0.2000000000 0.0002771482 0.0000000000 0.2000000000 0.0001221059 0.0000000000 0.2000000000 0.0001221059 0.0000000000 0.2000000000 0.0002771482 0.0000000000 0.3000000000 0.0002771482 0.0000000000 0.2000000000 0.0001221059 0.0000000000 0.3000000000 0.0002771482 0.0000000000 0.3000000000 0.0001221059 0.0000000000 0.3000000000 0.0001221059 0.0000000000 0.3000000000 0.0002771482 0.0000000000 0.4000000000 0.0002771482 0.0000000000 0.3000000000 0.0001221059 0.0000000000 0.4000000000 0.0002771482 0.0000000000 0.4000000000 0.0001221059 0.0000000000 0.4000000000 0.0001221059 0.0000000000 0.4000000000 0.0002771482 0.0000000000 0.5000000000 0.0002771482 0.0000000000 0.4000000000 0.0001221059 0.0000000000 0.5000000000 0.0002771482 0.0000000000 0.5000000000 0.0001221059 0.0000000000 0.5000000000 0.0001221059 0.0000000000 0.5000000000 0.0002771482 0.0000000000 0.6000000000 0.0002771482 0.0000000000 0.5000000000 0.0001221059 0.0000000000 0.6000000000 0.0002771482 0.0000000000 0.6000000000 0.0001221059 0.0000000000 0.6000000000 0.0001221059 0.0000000000 0.6000000000 0.0002771482 0.0000000000 0.7000000000 0.0002771482 0.0000000000 0.6000000000 0.0001221059 0.0000000000 0.7000000000 0.0002771482 0.0000000000 0.7000000000 0.0001221059 0.0000000000 0.7000000000 0.0001221059 0.0000000000 0.7000000000 0.0002771482 0.0000000000 0.8000000000 0.0002771482 0.0000000000 0.7000000000 0.0001221059 0.0000000000 0.8000000000 0.0002771482 0.0000000000 0.8000000000 0.0001221059 0.0000000000 0.8000000000 0.0001221059 0.0000000000 0.8000000000 0.0002771482 0.0000000000 0.9000000000 0.0002771482 0.0000000000 0.8000000000 0.0001221059 0.0000000000 0.9000000000 0.0002771482 0.0000000000 0.9000000000 0.0001221059 0.0000000000 0.9000000000 0.0001221059 0.0000000000 0.9000000000 0.0002771482 0.0000000000 1.0000000000 0.0002771482 0.0000000000 0.9000000000 0.0001221059 0.0000000000 1.0000000000 0.0002771482 0.0000000000 1.0000000000 0.0001221059 0.0000000000 0.0000000000 0.0002771482 0.0000000000 0.0000000000 0.0004915718 0.0000000000 0.1000000000 0.0004915718 0.0000000000 0.0000000000 0.0002771482 0.0000000000 0.1000000000 0.0004915718 0.0000000000 0.1000000000 0.0002771482 0.0000000000 0.1000000000 0.0002771482 0.0000000000 0.1000000000 0.0004915718 0.0000000000 0.2000000000 0.0004915718 0.0000000000 0.1000000000 0.0002771482 0.0000000000 0.2000000000 0.0004915718 0.0000000000 0.2000000000 0.0002771482 0.0000000000 0.2000000000 0.0002771482 0.0000000000 0.2000000000 0.0004915718 0.0000000000 0.3000000000 0.0004915718 0.0000000000 0.2000000000 0.0002771482 0.0000000000 0.3000000000 0.0004915718 0.0000000000 0.3000000000 0.0002771482 0.0000000000 0.3000000000 0.0002771482 0.0000000000 0.3000000000 0.0004915718 0.0000000000 0.4000000000 0.0004915718 0.0000000000 0.3000000000 0.0002771482 0.0000000000 0.4000000000 0.0004915718 0.0000000000 0.4000000000 0.0002771482 0.0000000000 0.4000000000 0.0002771482 0.0000000000 0.4000000000 0.0004915718 0.0000000000 0.5000000000 0.0004915718 0.0000000000 0.4000000000 0.0002771482 0.0000000000 0.5000000000 0.0004915718 0.0000000000 0.5000000000 0.0002771482 0.0000000000 0.5000000000 0.0002771482 0.0000000000 0.5000000000 0.0004915718 0.0000000000 0.6000000000 0.0004915718 0.0000000000 0.5000000000 0.0002771482 0.0000000000 0.6000000000 0.0004915718 0.0000000000 0.6000000000 0.0002771482 0.0000000000 0.6000000000 0.0002771482 0.0000000000 0.6000000000 0.0004915718 0.0000000000 0.7000000000 0.0004915718 0.0000000000 0.6000000000 0.0002771482 0.0000000000 0.7000000000 0.0004915718 0.0000000000 0.7000000000 0.0002771482 0.0000000000 0.7000000000 0.0002771482 0.0000000000 0.7000000000 0.0004915718 0.0000000000 0.8000000000 0.0004915718 0.0000000000 0.7000000000 0.0002771482 0.0000000000 0.8000000000 0.0004915718 0.0000000000 0.8000000000 0.0002771482 0.0000000000 0.8000000000 0.0002771482 0.0000000000 0.8000000000 0.0004915718 0.0000000000 0.9000000000 0.0004915718 0.0000000000 0.8000000000 0.0002771482 0.0000000000 0.9000000000 0.0004915718 0.0000000000 0.9000000000 0.0002771482 0.0000000000 0.9000000000 0.0002771482 0.0000000000 0.9000000000 0.0004915718 0.0000000000 1.0000000000 0.0004915718 0.0000000000 0.9000000000 0.0002771482 0.0000000000 1.0000000000 0.0004915718 0.0000000000 1.0000000000 0.0002771482 0.0000000000 0.0000000000 0.0004915718 0.0000000000 0.0000000000 0.0007881193 0.0000000000 0.1000000000 0.0007881193 0.0000000000 0.0000000000 0.0004915718 0.0000000000 0.1000000000 0.0007881193 0.0000000000 0.1000000000 0.0004915718 0.0000000000 0.1000000000 0.0004915718 0.0000000000 0.1000000000 0.0007881193 0.0000000000 0.2000000000 0.0007881193 0.0000000000 0.1000000000 0.0004915718 0.0000000000 0.2000000000 0.0007881193 0.0000000000 0.2000000000 0.0004915718 0.0000000000 0.2000000000 0.0004915718 0.0000000000 0.2000000000 0.0007881193 0.0000000000 0.3000000000 0.0007881193 0.0000000000 0.2000000000 0.0004915718 0.0000000000 0.3000000000 0.0007881193 0.0000000000 0.3000000000 0.0004915718 0.0000000000 0.3000000000 0.0004915718 0.0000000000 0.3000000000 0.0007881193 0.0000000000 0.4000000000 0.0007881193 0.0000000000 0.3000000000 0.0004915718 0.0000000000 0.4000000000 0.0007881193 0.0000000000 0.4000000000 0.0004915718 0.0000000000 0.4000000000 0.0004915718 0.0000000000 0.4000000000 0.0007881193 0.0000000000 0.5000000000 0.0007881193 0.0000000000 0.4000000000 0.0004915718 0.0000000000 0.5000000000 0.0007881193 0.0000000000 0.5000000000 0.0004915718 0.0000000000 0.5000000000 0.0004915718 0.0000000000 0.5000000000 0.0007881193 0.0000000000 0.6000000000 0.0007881193 0.0000000000 0.5000000000 0.0004915718 0.0000000000 0.6000000000 0.0007881193 0.0000000000 0.6000000000 0.0004915718 0.0000000000 0.6000000000 0.0004915718 0.0000000000 0.6000000000 0.0007881193 0.0000000000 0.7000000000 0.0007881193 0.0000000000 0.6000000000 0.0004915718 0.0000000000 0.7000000000 0.0007881193 0.0000000000 0.7000000000 0.0004915718 0.0000000000 0.7000000000 0.0004915718 0.0000000000 0.7000000000 0.0007881193 0.0000000000 0.8000000000 0.0007881193 0.0000000000 0.7000000000 0.0004915718 0.0000000000 0.8000000000 0.0007881193 0.0000000000 0.8000000000 0.0004915718 0.0000000000 0.8000000000 0.0004915718 0.0000000000 0.8000000000 0.0007881193 0.0000000000 0.9000000000 0.0007881193 0.0000000000 0.8000000000 0.0004915718 0.0000000000 0.9000000000 0.0007881193 0.0000000000 0.9000000000 0.0004915718 0.0000000000 0.9000000000 0.0004915718 0.0000000000 0.9000000000 0.0007881193 0.0000000000 1.0000000000 0.0007881193 0.0000000000 0.9000000000 0.0004915718 0.0000000000 1.0000000000 0.0007881193 0.0000000000 1.0000000000 0.0004915718 0.0000000000 0.0000000000 0.0007881193 0.0000000000 0.0000000000 0.0011982444 0.0000000000 0.1000000000 0.0011982444 0.0000000000 0.0000000000 0.0007881193 0.0000000000 0.1000000000 0.0011982444 0.0000000000 0.1000000000 0.0007881193 0.0000000000 0.1000000000 0.0007881193 0.0000000000 0.1000000000 0.0011982444 0.0000000000 0.2000000000 0.0011982444 0.0000000000 0.1000000000 0.0007881193 0.0000000000 0.2000000000 0.0011982444 0.0000000000 0.2000000000 0.0007881193 0.0000000000 0.2000000000 0.0007881193 0.0000000000 0.2000000000 0.0011982444 0.0000000000 0.3000000000 0.0011982444 0.0000000000 0.2000000000 0.0007881193 0.0000000000 0.3000000000 0.0011982444 0.0000000000 0.3000000000 0.0007881193 0.0000000000 0.3000000000 0.0007881193 0.0000000000 0.3000000000 0.0011982444 0.0000000000 0.4000000000 0.0011982444 0.0000000000 0.3000000000 0.0007881193 0.0000000000 0.4000000000 0.0011982444 0.0000000000 0.4000000000 0.0007881193 0.0000000000 0.4000000000 0.0007881193 0.0000000000 0.4000000000 0.0011982444 0.0000000000 0.5000000000 0.0011982444 0.0000000000 0.4000000000 0.0007881193 0.0000000000 0.5000000000 0.0011982444 0.0000000000 0.5000000000 0.0007881193 0.0000000000 0.5000000000 0.0007881193 0.0000000000 0.5000000000 0.0011982444 0.0000000000 0.6000000000 0.0011982444 0.0000000000 0.5000000000 0.0007881193 0.0000000000 0.6000000000 0.0011982444 0.0000000000 0.6000000000 0.0007881193 0.0000000000 0.6000000000 0.0007881193 0.0000000000 0.6000000000 0.0011982444 0.0000000000 0.7000000000 0.0011982444 0.0000000000 0.6000000000 0.0007881193 0.0000000000 0.7000000000 0.0011982444 0.0000000000 0.7000000000 0.0007881193 0.0000000000 0.7000000000 0.0007881193 0.0000000000 0.7000000000 0.0011982444 0.0000000000 0.8000000000 0.0011982444 0.0000000000 0.7000000000 0.0007881193 0.0000000000 0.8000000000 0.0011982444 0.0000000000 0.8000000000 0.0007881193 0.0000000000 0.8000000000 0.0007881193 0.0000000000 0.8000000000 0.0011982444 0.0000000000 0.9000000000 0.0011982444 0.0000000000 0.8000000000 0.0007881193 0.0000000000 0.9000000000 0.0011982444 0.0000000000 0.9000000000 0.0007881193 0.0000000000 0.9000000000 0.0007881193 0.0000000000 0.9000000000 0.0011982444 0.0000000000 1.0000000000 0.0011982444 0.0000000000 0.9000000000 0.0007881193 0.0000000000 1.0000000000 0.0011982444 0.0000000000 1.0000000000 0.0007881193 0.0000000000 0.0000000000 0.0011982444 0.0000000000 0.0000000000 0.0017654472 0.0000000000 0.1000000000 0.0017654472 0.0000000000 0.0000000000 0.0011982444 0.0000000000 0.1000000000 0.0017654472 0.0000000000 0.1000000000 0.0011982444 0.0000000000 0.1000000000 0.0011982444 0.0000000000 0.1000000000 0.0017654472 0.0000000000 0.2000000000 0.0017654472 0.0000000000 0.1000000000 0.0011982444 0.0000000000 0.2000000000 0.0017654472 0.0000000000 0.2000000000 0.0011982444 0.0000000000 0.2000000000 0.0011982444 0.0000000000 0.2000000000 0.0017654472 0.0000000000 0.3000000000 0.0017654472 0.0000000000 0.2000000000 0.0011982444 0.0000000000 0.3000000000 0.0017654472 0.0000000000 0.3000000000 0.0011982444 0.0000000000 0.3000000000 0.0011982444 0.0000000000 0.3000000000 0.0017654472 0.0000000000 0.4000000000 0.0017654472 0.0000000000 0.3000000000 0.0011982444 0.0000000000 0.4000000000 0.0017654472 0.0000000000 0.4000000000 0.0011982444 0.0000000000 0.4000000000 0.0011982444 0.0000000000 0.4000000000 0.0017654472 0.0000000000 0.5000000000 0.0017654472 0.0000000000 0.4000000000 0.0011982444 0.0000000000 0.5000000000 0.0017654472 0.0000000000 0.5000000000 0.0011982444 0.0000000000 0.5000000000 0.0011982444 0.0000000000 0.5000000000 0.0017654472 0.0000000000 0.6000000000 0.0017654472 0.0000000000 0.5000000000 0.0011982444 0.0000000000 0.6000000000 0.0017654472 0.0000000000 0.6000000000 0.0011982444 0.0000000000 0.6000000000 0.0011982444 0.0000000000 0.6000000000 0.0017654472 0.0000000000 0.7000000000 0.0017654472 0.0000000000 0.6000000000 0.0011982444 0.0000000000 0.7000000000 0.0017654472 0.0000000000 0.7000000000 0.0011982444 0.0000000000 0.7000000000 0.0011982444 0.0000000000 0.7000000000 0.0017654472 0.0000000000 0.8000000000 0.0017654472 0.0000000000 0.7000000000 0.0011982444 0.0000000000 0.8000000000 0.0017654472 0.0000000000 0.8000000000 0.0011982444 0.0000000000 0.8000000000 0.0011982444 0.0000000000 0.8000000000 0.0017654472 0.0000000000 0.9000000000 0.0017654472 0.0000000000 0.8000000000 0.0011982444 0.0000000000 0.9000000000 0.0017654472 0.0000000000 0.9000000000 0.0011982444 0.0000000000 0.9000000000 0.0011982444 0.0000000000 0.9000000000 0.0017654472 0.0000000000 1.0000000000 0.0017654472 0.0000000000 0.9000000000 0.0011982444 0.0000000000 1.0000000000 0.0017654472 0.0000000000 1.0000000000 0.0011982444 0.0000000000 0.0000000000 0.0017654472 0.0000000000 0.0000000000 0.0025498882 0.0000000000 0.1000000000 0.0025498882 0.0000000000 0.0000000000 0.0017654472 0.0000000000 0.1000000000 0.0025498882 0.0000000000 0.1000000000 0.0017654472 0.0000000000 0.1000000000 0.0017654472 0.0000000000 0.1000000000 0.0025498882 0.0000000000 0.2000000000 0.0025498882 0.0000000000 0.1000000000 0.0017654472 0.0000000000 0.2000000000 0.0025498882 0.0000000000 0.2000000000 0.0017654472 0.0000000000 0.2000000000 0.0017654472 0.0000000000 0.2000000000 0.0025498882 0.0000000000 0.3000000000 0.0025498882 0.0000000000 0.2000000000 0.0017654472 0.0000000000 0.3000000000 0.0025498882 0.0000000000 0.3000000000 0.0017654472 0.0000000000 0.3000000000 0.0017654472 0.0000000000 0.3000000000 0.0025498882 0.0000000000 0.4000000000 0.0025498882 0.0000000000 0.3000000000 0.0017654472 0.0000000000 0.4000000000 0.0025498882 0.0000000000 0.4000000000 0.0017654472 0.0000000000 0.4000000000 0.0017654472 0.0000000000 0.4000000000 0.0025498882 0.0000000000 0.5000000000 0.0025498882 0.0000000000 0.4000000000 0.0017654472 0.0000000000 0.5000000000 0.0025498882 0.0000000000 0.5000000000 0.0017654472 0.0000000000 0.5000000000 0.0017654472 0.0000000000 0.5000000000 0.0025498882 0.0000000000 0.6000000000 0.0025498882 0.0000000000 0.5000000000 0.0017654472 0.0000000000 0.6000000000 0.0025498882 0.0000000000 0.6000000000 0.0017654472 0.0000000000 0.6000000000 0.0017654472 0.0000000000 0.6000000000 0.0025498882 0.0000000000 0.7000000000 0.0025498882 0.0000000000 0.6000000000 0.0017654472 0.0000000000 0.7000000000 0.0025498882 0.0000000000 0.7000000000 0.0017654472 0.0000000000 0.7000000000 0.0017654472 0.0000000000 0.7000000000 0.0025498882 0.0000000000 0.8000000000 0.0025498882 0.0000000000 0.7000000000 0.0017654472 0.0000000000 0.8000000000 0.0025498882 0.0000000000 0.8000000000 0.0017654472 0.0000000000 0.8000000000 0.0017654472 0.0000000000 0.8000000000 0.0025498882 0.0000000000 0.9000000000 0.0025498882 0.0000000000 0.8000000000 0.0017654472 0.0000000000 0.9000000000 0.0025498882 0.0000000000 0.9000000000 0.0017654472 0.0000000000 0.9000000000 0.0017654472 0.0000000000 0.9000000000 0.0025498882 0.0000000000 1.0000000000 0.0025498882 0.0000000000 0.9000000000 0.0017654472 0.0000000000 1.0000000000 0.0025498882 0.0000000000 1.0000000000 0.0017654472 0.0000000000 0.0000000000 0.0025498882 0.0000000000 0.0000000000 0.0036347697 0.0000000000 0.1000000000 0.0036347697 0.0000000000 0.0000000000 0.0025498882 0.0000000000 0.1000000000 0.0036347697 0.0000000000 0.1000000000 0.0025498882 0.0000000000 0.1000000000 0.0025498882 0.0000000000 0.1000000000 0.0036347697 0.0000000000 0.2000000000 0.0036347697 0.0000000000 0.1000000000 0.0025498882 0.0000000000 0.2000000000 0.0036347697 0.0000000000 0.2000000000 0.0025498882 0.0000000000 0.2000000000 0.0025498882 0.0000000000 0.2000000000 0.0036347697 0.0000000000 0.3000000000 0.0036347697 0.0000000000 0.2000000000 0.0025498882 0.0000000000 0.3000000000 0.0036347697 0.0000000000 0.3000000000 0.0025498882 0.0000000000 0.3000000000 0.0025498882 0.0000000000 0.3000000000 0.0036347697 0.0000000000 0.4000000000 0.0036347697 0.0000000000 0.3000000000 0.0025498882 0.0000000000 0.4000000000 0.0036347697 0.0000000000 0.4000000000 0.0025498882 0.0000000000 0.4000000000 0.0025498882 0.0000000000 0.4000000000 0.0036347697 0.0000000000 0.5000000000 0.0036347697 0.0000000000 0.4000000000 0.0025498882 0.0000000000 0.5000000000 0.0036347697 0.0000000000 0.5000000000 0.0025498882 0.0000000000 0.5000000000 0.0025498882 0.0000000000 0.5000000000 0.0036347697 0.0000000000 0.6000000000 0.0036347697 0.0000000000 0.5000000000 0.0025498882 0.0000000000 0.6000000000 0.0036347697 0.0000000000 0.6000000000 0.0025498882 0.0000000000 0.6000000000 0.0025498882 0.0000000000 0.6000000000 0.0036347697 0.0000000000 0.7000000000 0.0036347697 0.0000000000 0.6000000000 0.0025498882 0.0000000000 0.7000000000 0.0036347697 0.0000000000 0.7000000000 0.0025498882 0.0000000000 0.7000000000 0.0025498882 0.0000000000 0.7000000000 0.0036347697 0.0000000000 0.8000000000 0.0036347697 0.0000000000 0.7000000000 0.0025498882 0.0000000000 0.8000000000 0.0036347697 0.0000000000 0.8000000000 0.0025498882 0.0000000000 0.8000000000 0.0025498882 0.0000000000 0.8000000000 0.0036347697 0.0000000000 0.9000000000 0.0036347697 0.0000000000 0.8000000000 0.0025498882 0.0000000000 0.9000000000 0.0036347697 0.0000000000 0.9000000000 0.0025498882 0.0000000000 0.9000000000 0.0025498882 0.0000000000 0.9000000000 0.0036347697 0.0000000000 1.0000000000 0.0036347697 0.0000000000 0.9000000000 0.0025498882 0.0000000000 1.0000000000 0.0036347697 0.0000000000 1.0000000000 0.0025498882 0.0000000000 0.0000000000 0.0036347697 0.0000000000 0.0000000000 0.0051351601 0.0000000000 0.1000000000 0.0051351601 0.0000000000 0.0000000000 0.0036347697 0.0000000000 0.1000000000 0.0051351601 0.0000000000 0.1000000000 0.0036347697 0.0000000000 0.1000000000 0.0036347697 0.0000000000 0.1000000000 0.0051351601 0.0000000000 0.2000000000 0.0051351601 0.0000000000 0.1000000000 0.0036347697 0.0000000000 0.2000000000 0.0051351601 0.0000000000 0.2000000000 0.0036347697 0.0000000000 0.2000000000 0.0036347697 0.0000000000 0.2000000000 0.0051351601 0.0000000000 0.3000000000 0.0051351601 0.0000000000 0.2000000000 0.0036347697 0.0000000000 0.3000000000 0.0051351601 0.0000000000 0.3000000000 0.0036347697 0.0000000000 0.3000000000 0.0036347697 0.0000000000 0.3000000000 0.0051351601 0.0000000000 0.4000000000 0.0051351601 0.0000000000 0.3000000000 0.0036347697 0.0000000000 0.4000000000 0.0051351601 0.0000000000 0.4000000000 0.0036347697 0.0000000000 0.4000000000 0.0036347697 0.0000000000 0.4000000000 0.0051351601 0.0000000000 0.5000000000 0.0051351601 0.0000000000 0.4000000000 0.0036347697 0.0000000000 0.5000000000 0.0051351601 0.0000000000 0.5000000000 0.0036347697 0.0000000000 0.5000000000 0.0036347697 0.0000000000 0.5000000000 0.0051351601 0.0000000000 0.6000000000 0.0051351601 0.0000000000 0.5000000000 0.0036347697 0.0000000000 0.6000000000 0.0051351601 0.0000000000 0.6000000000 0.0036347697 0.0000000000 0.6000000000 0.0036347697 0.0000000000 0.6000000000 0.0051351601 0.0000000000 0.7000000000 0.0051351601 0.0000000000 0.6000000000 0.0036347697 0.0000000000 0.7000000000 0.0051351601 0.0000000000 0.7000000000 0.0036347697 0.0000000000 0.7000000000 0.0036347697 0.0000000000 0.7000000000 0.0051351601 0.0000000000 0.8000000000 0.0051351601 0.0000000000 0.7000000000 0.0036347697 0.0000000000 0.8000000000 0.0051351601 0.0000000000 0.8000000000 0.0036347697 0.0000000000 0.8000000000 0.0036347697 0.0000000000 0.8000000000 0.0051351601 0.0000000000 0.9000000000 0.0051351601 0.0000000000 0.8000000000 0.0036347697 0.0000000000 0.9000000000 0.0051351601 0.0000000000 0.9000000000 0.0036347697 0.0000000000 0.9000000000 0.0036347697 0.0000000000 0.9000000000 0.0051351601 0.0000000000 1.0000000000 0.0051351601 0.0000000000 0.9000000000 0.0036347697 0.0000000000 1.0000000000 0.0051351601 0.0000000000 1.0000000000 0.0036347697 0.0000000000 0.0000000000 0.0051351601 0.0000000000 0.0000000000 0.0072101992 0.0000000000 0.1000000000 0.0072101992 0.0000000000 0.0000000000 0.0051351601 0.0000000000 0.1000000000 0.0072101992 0.0000000000 0.1000000000 0.0051351601 0.0000000000 0.1000000000 0.0051351601 0.0000000000 0.1000000000 0.0072101992 0.0000000000 0.2000000000 0.0072101992 0.0000000000 0.1000000000 0.0051351601 0.0000000000 0.2000000000 0.0072101992 0.0000000000 0.2000000000 0.0051351601 0.0000000000 0.2000000000 0.0051351601 0.0000000000 0.2000000000 0.0072101992 0.0000000000 0.3000000000 0.0072101992 0.0000000000 0.2000000000 0.0051351601 0.0000000000 0.3000000000 0.0072101992 0.0000000000 0.3000000000 0.0051351601 0.0000000000 0.3000000000 0.0051351601 0.0000000000 0.3000000000 0.0072101992 0.0000000000 0.4000000000 0.0072101992 0.0000000000 0.3000000000 0.0051351601 0.0000000000 0.4000000000 0.0072101992 0.0000000000 0.4000000000 0.0051351601 0.0000000000 0.4000000000 0.0051351601 0.0000000000 0.4000000000 0.0072101992 0.0000000000 0.5000000000 0.0072101992 0.0000000000 0.4000000000 0.0051351601 0.0000000000 0.5000000000 0.0072101992 0.0000000000 0.5000000000 0.0051351601 0.0000000000 0.5000000000 0.0051351601 0.0000000000 0.5000000000 0.0072101992 0.0000000000 0.6000000000 0.0072101992 0.0000000000 0.5000000000 0.0051351601 0.0000000000 0.6000000000 0.0072101992 0.0000000000 0.6000000000 0.0051351601 0.0000000000 0.6000000000 0.0051351601 0.0000000000 0.6000000000 0.0072101992 0.0000000000 0.7000000000 0.0072101992 0.0000000000 0.6000000000 0.0051351601 0.0000000000 0.7000000000 0.0072101992 0.0000000000 0.7000000000 0.0051351601 0.0000000000 0.7000000000 0.0051351601 0.0000000000 0.7000000000 0.0072101992 0.0000000000 0.8000000000 0.0072101992 0.0000000000 0.7000000000 0.0051351601 0.0000000000 0.8000000000 0.0072101992 0.0000000000 0.8000000000 0.0051351601 0.0000000000 0.8000000000 0.0051351601 0.0000000000 0.8000000000 0.0072101992 0.0000000000 0.9000000000 0.0072101992 0.0000000000 0.8000000000 0.0051351601 0.0000000000 0.9000000000 0.0072101992 0.0000000000 0.9000000000 0.0051351601 0.0000000000 0.9000000000 0.0051351601 0.0000000000 0.9000000000 0.0072101992 0.0000000000 1.0000000000 0.0072101992 0.0000000000 0.9000000000 0.0051351601 0.0000000000 1.0000000000 0.0072101992 0.0000000000 1.0000000000 0.0051351601 0.0000000000 0.0000000000 0.0072101992 0.0000000000 0.0000000000 0.0100799765 0.0000000000 0.1000000000 0.0100799765 0.0000000000 0.0000000000 0.0072101992 0.0000000000 0.1000000000 0.0100799765 0.0000000000 0.1000000000 0.0072101992 0.0000000000 0.1000000000 0.0072101992 0.0000000000 0.1000000000 0.0100799765 0.0000000000 0.2000000000 0.0100799765 0.0000000000 0.1000000000 0.0072101992 0.0000000000 0.2000000000 0.0100799765 0.0000000000 0.2000000000 0.0072101992 0.0000000000 0.2000000000 0.0072101992 0.0000000000 0.2000000000 0.0100799765 0.0000000000 0.3000000000 0.0100799765 0.0000000000 0.2000000000 0.0072101992 0.0000000000 0.3000000000 0.0100799765 0.0000000000 0.3000000000 0.0072101992 0.0000000000 0.3000000000 0.0072101992 0.0000000000 0.3000000000 0.0100799765 0.0000000000 0.4000000000 0.0100799765 0.0000000000 0.3000000000 0.0072101992 0.0000000000 0.4000000000 0.0100799765 0.0000000000 0.4000000000 0.0072101992 0.0000000000 0.4000000000 0.0072101992 0.0000000000 0.4000000000 0.0100799765 0.0000000000 0.5000000000 0.0100799765 0.0000000000 0.4000000000 0.0072101992 0.0000000000 0.5000000000 0.0100799765 0.0000000000 0.5000000000 0.0072101992 0.0000000000 0.5000000000 0.0072101992 0.0000000000 0.5000000000 0.0100799765 0.0000000000 0.6000000000 0.0100799765 0.0000000000 0.5000000000 0.0072101992 0.0000000000 0.6000000000 0.0100799765 0.0000000000 0.6000000000 0.0072101992 0.0000000000 0.6000000000 0.0072101992 0.0000000000 0.6000000000 0.0100799765 0.0000000000 0.7000000000 0.0100799765 0.0000000000 0.6000000000 0.0072101992 0.0000000000 0.7000000000 0.0100799765 0.0000000000 0.7000000000 0.0072101992 0.0000000000 0.7000000000 0.0072101992 0.0000000000 0.7000000000 0.0100799765 0.0000000000 0.8000000000 0.0100799765 0.0000000000 0.7000000000 0.0072101992 0.0000000000 0.8000000000 0.0100799765 0.0000000000 0.8000000000 0.0072101992 0.0000000000 0.8000000000 0.0072101992 0.0000000000 0.8000000000 0.0100799765 0.0000000000 0.9000000000 0.0100799765 0.0000000000 0.8000000000 0.0072101992 0.0000000000 0.9000000000 0.0100799765 0.0000000000 0.9000000000 0.0072101992 0.0000000000 0.9000000000 0.0072101992 0.0000000000 0.9000000000 0.0100799765 0.0000000000 1.0000000000 0.0100799765 0.0000000000 0.9000000000 0.0072101992 0.0000000000 1.0000000000 0.0100799765 0.0000000000 1.0000000000 0.0072101992 0.0000000000 0.0000000000 0.0100799765 0.0000000000 0.0000000000 0.0140488777 0.0000000000 0.1000000000 0.0140488777 0.0000000000 0.0000000000 0.0100799765 0.0000000000 0.1000000000 0.0140488777 0.0000000000 0.1000000000 0.0100799765 0.0000000000 0.1000000000 0.0100799765 0.0000000000 0.1000000000 0.0140488777 0.0000000000 0.2000000000 0.0140488777 0.0000000000 0.1000000000 0.0100799765 0.0000000000 0.2000000000 0.0140488777 0.0000000000 0.2000000000 0.0100799765 0.0000000000 0.2000000000 0.0100799765 0.0000000000 0.2000000000 0.0140488777 0.0000000000 0.3000000000 0.0140488777 0.0000000000 0.2000000000 0.0100799765 0.0000000000 0.3000000000 0.0140488777 0.0000000000 0.3000000000 0.0100799765 0.0000000000 0.3000000000 0.0100799765 0.0000000000 0.3000000000 0.0140488777 0.0000000000 0.4000000000 0.0140488777 0.0000000000 0.3000000000 0.0100799765 0.0000000000 0.4000000000 0.0140488777 0.0000000000 0.4000000000 0.0100799765 0.0000000000 0.4000000000 0.0100799765 0.0000000000 0.4000000000 0.0140488777 0.0000000000 0.5000000000 0.0140488777 0.0000000000 0.4000000000 0.0100799765 0.0000000000 0.5000000000 0.0140488777 0.0000000000 0.5000000000 0.0100799765 0.0000000000 0.5000000000 0.0100799765 0.0000000000 0.5000000000 0.0140488777 0.0000000000 0.6000000000 0.0140488777 0.0000000000 0.5000000000 0.0100799765 0.0000000000 0.6000000000 0.0140488777 0.0000000000 0.6000000000 0.0100799765 0.0000000000 0.6000000000 0.0100799765 0.0000000000 0.6000000000 0.0140488777 0.0000000000 0.7000000000 0.0140488777 0.0000000000 0.6000000000 0.0100799765 0.0000000000 0.7000000000 0.0140488777 0.0000000000 0.7000000000 0.0100799765 0.0000000000 0.7000000000 0.0100799765 0.0000000000 0.7000000000 0.0140488777 0.0000000000 0.8000000000 0.0140488777 0.0000000000 0.7000000000 0.0100799765 0.0000000000 0.8000000000 0.0140488777 0.0000000000 0.8000000000 0.0100799765 0.0000000000 0.8000000000 0.0100799765 0.0000000000 0.8000000000 0.0140488777 0.0000000000 0.9000000000 0.0140488777 0.0000000000 0.8000000000 0.0100799765 0.0000000000 0.9000000000 0.0140488777 0.0000000000 0.9000000000 0.0100799765 0.0000000000 0.9000000000 0.0100799765 0.0000000000 0.9000000000 0.0140488777 0.0000000000 1.0000000000 0.0140488777 0.0000000000 0.9000000000 0.0100799765 0.0000000000 1.0000000000 0.0140488777 0.0000000000 1.0000000000 0.0100799765 0.0000000000 0.0000000000 0.0140488777 0.0000000000 0.0000000000 0.0195378643 0.0000000000 0.1000000000 0.0195378643 0.0000000000 0.0000000000 0.0140488777 0.0000000000 0.1000000000 0.0195378643 0.0000000000 0.1000000000 0.0140488777 0.0000000000 0.1000000000 0.0140488777 0.0000000000 0.1000000000 0.0195378643 0.0000000000 0.2000000000 0.0195378643 0.0000000000 0.1000000000 0.0140488777 0.0000000000 0.2000000000 0.0195378643 0.0000000000 0.2000000000 0.0140488777 0.0000000000 0.2000000000 0.0140488777 0.0000000000 0.2000000000 0.0195378643 0.0000000000 0.3000000000 0.0195378643 0.0000000000 0.2000000000 0.0140488777 0.0000000000 0.3000000000 0.0195378643 0.0000000000 0.3000000000 0.0140488777 0.0000000000 0.3000000000 0.0140488777 0.0000000000 0.3000000000 0.0195378643 0.0000000000 0.4000000000 0.0195378643 0.0000000000 0.3000000000 0.0140488777 0.0000000000 0.4000000000 0.0195378643 0.0000000000 0.4000000000 0.0140488777 0.0000000000 0.4000000000 0.0140488777 0.0000000000 0.4000000000 0.0195378643 0.0000000000 0.5000000000 0.0195378643 0.0000000000 0.4000000000 0.0140488777 0.0000000000 0.5000000000 0.0195378643 0.0000000000 0.5000000000 0.0140488777 0.0000000000 0.5000000000 0.0140488777 0.0000000000 0.5000000000 0.0195378643 0.0000000000 0.6000000000 0.0195378643 0.0000000000 0.5000000000 0.0140488777 0.0000000000 0.6000000000 0.0195378643 0.0000000000 0.6000000000 0.0140488777 0.0000000000 0.6000000000 0.0140488777 0.0000000000 0.6000000000 0.0195378643 0.0000000000 0.7000000000 0.0195378643 0.0000000000 0.6000000000 0.0140488777 0.0000000000 0.7000000000 0.0195378643 0.0000000000 0.7000000000 0.0140488777 0.0000000000 0.7000000000 0.0140488777 0.0000000000 0.7000000000 0.0195378643 0.0000000000 0.8000000000 0.0195378643 0.0000000000 0.7000000000 0.0140488777 0.0000000000 0.8000000000 0.0195378643 0.0000000000 0.8000000000 0.0140488777 0.0000000000 0.8000000000 0.0140488777 0.0000000000 0.8000000000 0.0195378643 0.0000000000 0.9000000000 0.0195378643 0.0000000000 0.8000000000 0.0140488777 0.0000000000 0.9000000000 0.0195378643 0.0000000000 0.9000000000 0.0140488777 0.0000000000 0.9000000000 0.0140488777 0.0000000000 0.9000000000 0.0195378643 0.0000000000 1.0000000000 0.0195378643 0.0000000000 0.9000000000 0.0140488777 0.0000000000 1.0000000000 0.0195378643 0.0000000000 1.0000000000 0.0140488777 0.0000000000 0.0000000000 0.0195378643 0.0000000000 0.0000000000 0.0271291304 0.0000000000 0.1000000000 0.0271291304 0.0000000000 0.0000000000 0.0195378643 0.0000000000 0.1000000000 0.0271291304 0.0000000000 0.1000000000 0.0195378643 0.0000000000 0.1000000000 0.0195378643 0.0000000000 0.1000000000 0.0271291304 0.0000000000 0.2000000000 0.0271291304 0.0000000000 0.1000000000 0.0195378643 0.0000000000 0.2000000000 0.0271291304 0.0000000000 0.2000000000 0.0195378643 0.0000000000 0.2000000000 0.0195378643 0.0000000000 0.2000000000 0.0271291304 0.0000000000 0.3000000000 0.0271291304 0.0000000000 0.2000000000 0.0195378643 0.0000000000 0.3000000000 0.0271291304 0.0000000000 0.3000000000 0.0195378643 0.0000000000 0.3000000000 0.0195378643 0.0000000000 0.3000000000 0.0271291304 0.0000000000 0.4000000000 0.0271291304 0.0000000000 0.3000000000 0.0195378643 0.0000000000 0.4000000000 0.0271291304 0.0000000000 0.4000000000 0.0195378643 0.0000000000 0.4000000000 0.0195378643 0.0000000000 0.4000000000 0.0271291304 0.0000000000 0.5000000000 0.0271291304 0.0000000000 0.4000000000 0.0195378643 0.0000000000 0.5000000000 0.0271291304 0.0000000000 0.5000000000 0.0195378643 0.0000000000 0.5000000000 0.0195378643 0.0000000000 0.5000000000 0.0271291304 0.0000000000 0.6000000000 0.0271291304 0.0000000000 0.5000000000 0.0195378643 0.0000000000 0.6000000000 0.0271291304 0.0000000000 0.6000000000 0.0195378643 0.0000000000 0.6000000000 0.0195378643 0.0000000000 0.6000000000 0.0271291304 0.0000000000 0.7000000000 0.0271291304 0.0000000000 0.6000000000 0.0195378643 0.0000000000 0.7000000000 0.0271291304 0.0000000000 0.7000000000 0.0195378643 0.0000000000 0.7000000000 0.0195378643 0.0000000000 0.7000000000 0.0271291304 0.0000000000 0.8000000000 0.0271291304 0.0000000000 0.7000000000 0.0195378643 0.0000000000 0.8000000000 0.0271291304 0.0000000000 0.8000000000 0.0195378643 0.0000000000 0.8000000000 0.0195378643 0.0000000000 0.8000000000 0.0271291304 0.0000000000 0.9000000000 0.0271291304 0.0000000000 0.8000000000 0.0195378643 0.0000000000 0.9000000000 0.0271291304 0.0000000000 0.9000000000 0.0195378643 0.0000000000 0.9000000000 0.0195378643 0.0000000000 0.9000000000 0.0271291304 0.0000000000 1.0000000000 0.0271291304 0.0000000000 0.9000000000 0.0195378643 0.0000000000 1.0000000000 0.0271291304 0.0000000000 1.0000000000 0.0195378643 0.0000000000 0.0000000000 0.0271291304 0.0000000000 0.0000000000 0.0376278451 0.0000000000 0.1000000000 0.0376278451 0.0000000000 0.0000000000 0.0271291304 0.0000000000 0.1000000000 0.0376278451 0.0000000000 0.1000000000 0.0271291304 0.0000000000 0.1000000000 0.0271291304 0.0000000000 0.1000000000 0.0376278451 0.0000000000 0.2000000000 0.0376278451 0.0000000000 0.1000000000 0.0271291304 0.0000000000 0.2000000000 0.0376278451 0.0000000000 0.2000000000 0.0271291304 0.0000000000 0.2000000000 0.0271291304 0.0000000000 0.2000000000 0.0376278451 0.0000000000 0.3000000000 0.0376278451 0.0000000000 0.2000000000 0.0271291304 0.0000000000 0.3000000000 0.0376278451 0.0000000000 0.3000000000 0.0271291304 0.0000000000 0.3000000000 0.0271291304 0.0000000000 0.3000000000 0.0376278451 0.0000000000 0.4000000000 0.0376278451 0.0000000000 0.3000000000 0.0271291304 0.0000000000 0.4000000000 0.0376278451 0.0000000000 0.4000000000 0.0271291304 0.0000000000 0.4000000000 0.0271291304 0.0000000000 0.4000000000 0.0376278451 0.0000000000 0.5000000000 0.0376278451 0.0000000000 0.4000000000 0.0271291304 0.0000000000 0.5000000000 0.0376278451 0.0000000000 0.5000000000 0.0271291304 0.0000000000 0.5000000000 0.0271291304 0.0000000000 0.5000000000 0.0376278451 0.0000000000 0.6000000000 0.0376278451 0.0000000000 0.5000000000 0.0271291304 0.0000000000 0.6000000000 0.0376278451 0.0000000000 0.6000000000 0.0271291304 0.0000000000 0.6000000000 0.0271291304 0.0000000000 0.6000000000 0.0376278451 0.0000000000 0.7000000000 0.0376278451 0.0000000000 0.6000000000 0.0271291304 0.0000000000 0.7000000000 0.0376278451 0.0000000000 0.7000000000 0.0271291304 0.0000000000 0.7000000000 0.0271291304 0.0000000000 0.7000000000 0.0376278451 0.0000000000 0.8000000000 0.0376278451 0.0000000000 0.7000000000 0.0271291304 0.0000000000 0.8000000000 0.0376278451 0.0000000000 0.8000000000 0.0271291304 0.0000000000 0.8000000000 0.0271291304 0.0000000000 0.8000000000 0.0376278451 0.0000000000 0.9000000000 0.0376278451 0.0000000000 0.8000000000 0.0271291304 0.0000000000 0.9000000000 0.0376278451 0.0000000000 0.9000000000 0.0271291304 0.0000000000 0.9000000000 0.0271291304 0.0000000000 0.9000000000 0.0376278451 0.0000000000 1.0000000000 0.0376278451 0.0000000000 0.9000000000 0.0271291304 0.0000000000 1.0000000000 0.0376278451 0.0000000000 1.0000000000 0.0271291304 0.0000000000 0.0000000000 0.0376278451 0.0000000000 0.0000000000 0.0521475645 0.0000000000 0.1000000000 0.0521475645 0.0000000000 0.0000000000 0.0376278451 0.0000000000 0.1000000000 0.0521475645 0.0000000000 0.1000000000 0.0376278451 0.0000000000 0.1000000000 0.0376278451 0.0000000000 0.1000000000 0.0521475645 0.0000000000 0.2000000000 0.0521475645 0.0000000000 0.1000000000 0.0376278451 0.0000000000 0.2000000000 0.0521475645 0.0000000000 0.2000000000 0.0376278451 0.0000000000 0.2000000000 0.0376278451 0.0000000000 0.2000000000 0.0521475645 0.0000000000 0.3000000000 0.0521475645 0.0000000000 0.2000000000 0.0376278451 0.0000000000 0.3000000000 0.0521475645 0.0000000000 0.3000000000 0.0376278451 0.0000000000 0.3000000000 0.0376278451 0.0000000000 0.3000000000 0.0521475645 0.0000000000 0.4000000000 0.0521475645 0.0000000000 0.3000000000 0.0376278451 0.0000000000 0.4000000000 0.0521475645 0.0000000000 0.4000000000 0.0376278451 0.0000000000 0.4000000000 0.0376278451 0.0000000000 0.4000000000 0.0521475645 0.0000000000 0.5000000000 0.0521475645 0.0000000000 0.4000000000 0.0376278451 0.0000000000 0.5000000000 0.0521475645 0.0000000000 0.5000000000 0.0376278451 0.0000000000 0.5000000000 0.0376278451 0.0000000000 0.5000000000 0.0521475645 0.0000000000 0.6000000000 0.0521475645 0.0000000000 0.5000000000 0.0376278451 0.0000000000 0.6000000000 0.0521475645 0.0000000000 0.6000000000 0.0376278451 0.0000000000 0.6000000000 0.0376278451 0.0000000000 0.6000000000 0.0521475645 0.0000000000 0.7000000000 0.0521475645 0.0000000000 0.6000000000 0.0376278451 0.0000000000 0.7000000000 0.0521475645 0.0000000000 0.7000000000 0.0376278451 0.0000000000 0.7000000000 0.0376278451 0.0000000000 0.7000000000 0.0521475645 0.0000000000 0.8000000000 0.0521475645 0.0000000000 0.7000000000 0.0376278451 0.0000000000 0.8000000000 0.0521475645 0.0000000000 0.8000000000 0.0376278451 0.0000000000 0.8000000000 0.0376278451 0.0000000000 0.8000000000 0.0521475645 0.0000000000 0.9000000000 0.0521475645 0.0000000000 0.8000000000 0.0376278451 0.0000000000 0.9000000000 0.0521475645 0.0000000000 0.9000000000 0.0376278451 0.0000000000 0.9000000000 0.0376278451 0.0000000000 0.9000000000 0.0521475645 0.0000000000 1.0000000000 0.0521475645 0.0000000000 0.9000000000 0.0376278451 0.0000000000 1.0000000000 0.0521475645 0.0000000000 1.0000000000 0.0376278451 0.0000000000 0.0000000000 0.0521475645 0.0000000000 0.0000000000 0.0722283238 0.0000000000 0.1000000000 0.0722283238 0.0000000000 0.0000000000 0.0521475645 0.0000000000 0.1000000000 0.0722283238 0.0000000000 0.1000000000 0.0521475645 0.0000000000 0.1000000000 0.0521475645 0.0000000000 0.1000000000 0.0722283238 0.0000000000 0.2000000000 0.0722283238 0.0000000000 0.1000000000 0.0521475645 0.0000000000 0.2000000000 0.0722283238 0.0000000000 0.2000000000 0.0521475645 0.0000000000 0.2000000000 0.0521475645 0.0000000000 0.2000000000 0.0722283238 0.0000000000 0.3000000000 0.0722283238 0.0000000000 0.2000000000 0.0521475645 0.0000000000 0.3000000000 0.0722283238 0.0000000000 0.3000000000 0.0521475645 0.0000000000 0.3000000000 0.0521475645 0.0000000000 0.3000000000 0.0722283238 0.0000000000 0.4000000000 0.0722283238 0.0000000000 0.3000000000 0.0521475645 0.0000000000 0.4000000000 0.0722283238 0.0000000000 0.4000000000 0.0521475645 0.0000000000 0.4000000000 0.0521475645 0.0000000000 0.4000000000 0.0722283238 0.0000000000 0.5000000000 0.0722283238 0.0000000000 0.4000000000 0.0521475645 0.0000000000 0.5000000000 0.0722283238 0.0000000000 0.5000000000 0.0521475645 0.0000000000 0.5000000000 0.0521475645 0.0000000000 0.5000000000 0.0722283238 0.0000000000 0.6000000000 0.0722283238 0.0000000000 0.5000000000 0.0521475645 0.0000000000 0.6000000000 0.0722283238 0.0000000000 0.6000000000 0.0521475645 0.0000000000 0.6000000000 0.0521475645 0.0000000000 0.6000000000 0.0722283238 0.0000000000 0.7000000000 0.0722283238 0.0000000000 0.6000000000 0.0521475645 0.0000000000 0.7000000000 0.0722283238 0.0000000000 0.7000000000 0.0521475645 0.0000000000 0.7000000000 0.0521475645 0.0000000000 0.7000000000 0.0722283238 0.0000000000 0.8000000000 0.0722283238 0.0000000000 0.7000000000 0.0521475645 0.0000000000 0.8000000000 0.0722283238 0.0000000000 0.8000000000 0.0521475645 0.0000000000 0.8000000000 0.0521475645 0.0000000000 0.8000000000 0.0722283238 0.0000000000 0.9000000000 0.0722283238 0.0000000000 0.8000000000 0.0521475645 0.0000000000 0.9000000000 0.0722283238 0.0000000000 0.9000000000 0.0521475645 0.0000000000 0.9000000000 0.0521475645 0.0000000000 0.9000000000 0.0722283238 0.0000000000 1.0000000000 0.0722283238 0.0000000000 0.9000000000 0.0521475645 0.0000000000 1.0000000000 0.0722283238 0.0000000000 1.0000000000 0.0521475645 0.0000000000 0.0000000000 0.0722283238 0.0000000000 0.0000000000 0.1000000000 0.0000000000 0.1000000000 0.1000000000 0.0000000000 0.0000000000 0.0722283238 0.0000000000 0.1000000000 0.1000000000 0.0000000000 0.1000000000 0.0722283238 0.0000000000 0.1000000000 0.0722283238 0.0000000000 0.1000000000 0.1000000000 0.0000000000 0.2000000000 0.1000000000 0.0000000000 0.1000000000 0.0722283238 0.0000000000 0.2000000000 0.1000000000 0.0000000000 0.2000000000 0.0722283238 0.0000000000 0.2000000000 0.0722283238 0.0000000000 0.2000000000 0.1000000000 0.0000000000 0.3000000000 0.1000000000 0.0000000000 0.2000000000 0.0722283238 0.0000000000 0.3000000000 0.1000000000 0.0000000000 0.3000000000 0.0722283238 0.0000000000 0.3000000000 0.0722283238 0.0000000000 0.3000000000 0.1000000000 0.0000000000 0.4000000000 0.1000000000 0.0000000000 0.3000000000 0.0722283238 0.0000000000 0.4000000000 0.1000000000 0.0000000000 0.4000000000 0.0722283238 0.0000000000 0.4000000000 0.0722283238 0.0000000000 0.4000000000 0.1000000000 0.0000000000 0.5000000000 0.1000000000 0.0000000000 0.4000000000 0.0722283238 0.0000000000 0.5000000000 0.1000000000 0.0000000000 0.5000000000 0.0722283238 0.0000000000 0.5000000000 0.0722283238 0.0000000000 0.5000000000 0.1000000000 0.0000000000 0.6000000000 0.1000000000 0.0000000000 0.5000000000 0.0722283238 0.0000000000 0.6000000000 0.1000000000 0.0000000000 0.6000000000 0.0722283238 0.0000000000 0.6000000000 0.0722283238 0.0000000000 0.6000000000 0.1000000000 0.0000000000 0.7000000000 0.1000000000 0.0000000000 0.6000000000 0.0722283238 0.0000000000 0.7000000000 0.1000000000 0.0000000000 0.7000000000 0.0722283238 0.0000000000 0.7000000000 0.0722283238 0.0000000000 0.7000000000 0.1000000000 0.0000000000 0.8000000000 0.1000000000 0.0000000000 0.7000000000 0.0722283238 0.0000000000 0.8000000000 0.1000000000 0.0000000000 0.8000000000 0.0722283238 0.0000000000 0.8000000000 0.0722283238 0.0000000000 0.8000000000 0.1000000000 0.0000000000 0.9000000000 0.1000000000 0.0000000000 0.8000000000 0.0722283238 0.0000000000 0.9000000000 0.1000000000 0.0000000000 0.9000000000 0.0722283238 0.0000000000 0.9000000000 0.0722283238 0.0000000000 0.9000000000 0.1000000000 0.0000000000 1.0000000000 0.1000000000 0.0000000000 0.9000000000 0.0722283238 0.0000000000 1.0000000000 0.1000000000 0.0000000000 1.0000000000 0.0722283238 0.0000000000 
</DataArray>
</Points>
<Cells>
<DataArray type="UInt32" Name="connectivity" format="ascii">
0 1 2 3 4 5 6 7 8 9 10 11 12 13 14 15 16 17 18 19 20 21 22 23 24 25 26 27 28 29 30 31 32 33 34 35 36 37 38 39 40 41 42 43 44 45 46 47 48 49 50 51 52 53 54 55 56 57 58 59 60 61 62 63 64 65 66 67 68 69 70 71 72 73 74 75 76 77 78 79 80 81 82 83 84 85 86 87 88 89 90 91 92 93 94 95 96 97 98 99 100 101 102 103 104 105 106 107 108 109 110 111 112 113 114 115 116 117 118 119 120 121 122 123 124 125 126 127 128 129 130 131 132 133 134 135 136 137 138 139 140 141 142 143 144 145 146 147 148 149 150 151 152 153 154 155 156 157 158 159 160 161 162 163 164 165 166 167 168 169 170 171 172 173 174 175 176 177 178 179 180 181 182 183 184 185 186 187 188 189 190 191 192 193 194 195 196 197 198 199 200 201 202 203 204 205 206 207 208 209 210 211 212 213 214 215 216 217 218 219 220 221 222 223 224 225 226 227 228 229 230 231 232 233 234 235 236 237 238 239 240 241 242 243 244 245 246 247 248 249 250 251 252 253 254 255 256 257 258 259 260 261 262 263 264 265 266 267 268 269 270 271 272 273 274 275 276 277 278 279 280 281 282 283 284 285 286 287 288 289 290 291 292 293 294 295 296 297 298 299 300 301 302 303 304 305 306 307 308 309 310 311 312 313 314 315 316 317 318 319 320 321 322 323 324 325 326 327 328 329 330 331 332 333 334 335 336 337 338 339 340 341 342 343 344 345 346 347 348 349 350 351 352 353 354 355 356 357 358 359 360 361 362 363 364 365 366 367 368 369 370 371 372 373 374 375 376 377 378 379 380 381 382 383 384 385 386 387 388 389 390 391 392 393 394 395 396 397 398 399 400 401 402 403 404 405 406 407 408 409 410 411 412 413 414 415 416 417 418 419 420 421 422 423 424 425 426 427 428 429 430 431 432 433 434 435 436 437 438 439 440 441 442 443 444 445 446 447 448 449 450 451 452 453 454 455 456 457 458 459 460 461 462 463 464 465 466 467 468 469 470 471 472 473 474 475 476 477 478 479 480 481 482 483 484 485 486 487 488 489 490 491 492 493 494 495 496 497 498 499 500 501 502 503 504 505 506 507 508 509 510 511 512 513 514 515 516 517 518 519 520 521 522 523 524 525 526 527 528 529 530 531 532 533 534 535 536 537 538 539 540 541 542 543 544 545 546 547 548 549 550 551 552 553 554 555 556 557 558 559 560 561 562 563 564 565 566 567 568 569 570 571 572 573 574 575 576 577 578 579 580 581 582 583 584 585 586 587 588 589 590 591 592 593 594 595 596 597 598 599 600 601 602 603 604 605 606 607 608 609 610 611 612 613 614 615 616 617 618 619 620 621 622 623 624 625 626 627 628 629 630 631 632 633 634 635 636 637 638 639 640 641 642 643 644 645 646 647 648 649 650 651 652 653 654 655 656 657 658 659 660 661 662 663 664 665 666 667 668 669 670 671 672 673 674 675 676 677 678 679 680 681 682 683 684 685 686 687 688 689 690 691 692 693 694 695 696 697 698 699 700 701 702 703 704 705 706 707 708 709 710 711 712 713 714 715 716 717 718 719 720 721 722 723 724 725 726 727 728 729 730 731 732 733 734 735 736 737 738 739 740 741 742 743 744 745 746 747 748 749 750 751 752 753 754 755 756 757 758 759 760 761 762 763 764 765 766 767 768 769 770 771 772 773 774 775 776 777 778 779 780 781 782 783 784 785 786 787 788 789 790 791 792 793 794 795 796 797 798 799 800 801 802 803 804 805 806 807 808 809 810 811 812 813 814 815 816 817 818 819 820 821 822 823 824 825 826 827 828 829 830 831 832 833 834 835 836 837 838 839 840 841 842 843 844 845 846 847 848 849 850 851 852 853 854 855 856 857 858 859 860 861 862 863 864 865 866 867 868 869 870 871 872 873 874 875 876 877 878 879 880 881 882 883 884 885 886 887 888 889 890 891 892 893 894 895 896 897 898 899 900 901 902 903 904 905 906 907 908 909 910 911 912 913 914 915 916 917 918 919 920 921 922 923 924 925 926 927 928 929 930 931 932 933 934 935 936 937 938 939 940 941 942 943 944 945 946 947 948 949 950 951 952 953 954 955 956 957 958 959 960 961 962 963 964 965 966 967 968 969 970 971 972 973 974 975 976 977 978 979 980 981 982 983 984 985 986 987 988 989 990 991 992 993 994 995 996 997 998 999 1000 1001 1002 1003 1004 1005 1006 1007 1008 1009 1010 1011 1012 1013 1014 1015 1016 1017 1018 1019 1020 1021 1022 1023 1024 1025 1026 1027 1028 1029 1030 1031 1032 1033 1034 1035 1036 1037 1038 1039 1040 1041 1042 1043 1044 1045 1046 1047 1048 1049 1050 1051 1052 1053 1054 1055 1056 1057 1058 1059 1060 1061 1062 1063 1064 1065 1066 1067 1068 1069 1070 1071 1072 1073 1074 1075 1076 1077 1078 1079 1080 1081 1082 1083 1084 1085 1086 1087 1088 1089 1090 1091 1092 1093 1094 1095 1096 1097 1098 1099 1100 1101 1102 1103 1104 1105 1106 1107 1108 1109 1110 1111 1112 1113 1114 1115 1116 1117 1118 1119 1120 1121 1122 1123 1124 1125 1126 1127 1128 1129 1130 1131 1132 1133 1134 1135 1136 1137 1138 1139 1140 1141 1142 1143 1144 1145 1146 1147 1148 1149 1150 1151 1152 1153 1154 1155 1156 1157 1158 1159 
</DataArray>
<DataArray type="UInt32" Name="offsets" format="ascii">
2 4 6 8 10 12 14 16 18 20 23 26 29 32 35 38 41 44 47 50 53 56 59 62 65 68 71 74 77 80 83 86 89 92 95 98 101 104 107 110 113 116 119 122 125 128 131 134 137 140 143 146 149 152 155 158 161 164 167 170 173 176 179 182 185 188 191 194 197 200 203 206 209 212 215 218 221 224 227 230 233 236 239 242 245 248 251 254 257 260 263 266 269 272 275 278 281 284 287 290 293 296 299 302 305 308 311 314 317 320 323 326 329 332 335 338 341 344 347 350 353 356 359 362 365 368 371 374 377 380 383 386 389 392 395 398 401 404 407 410 413 416 419 422 425 428 431 434 437 440 443 446 449 452 455 458 461 464 467 470 473 476 479 482 485 488 491 494 497 500 503 506 509 512 515 518 521 524 527 530 533 536 539 542 545 548 551 554 557 560 563 566 569 572 575 578 581 584 587 590 593 596 599 602 605 608 611 614 617 620 623 626 629 632 635 638 641 644 647 650 653 656 659 662 665 668 671 674 677 680 683 686 689 692 695 698 701 704 707 710 713 716 719 722 725 728 731 734 737 740 743 746 749 752 755 758 761 764 767 770 773 776 779 782 785 788 791 794 797 800 803 806 809 812 815 818 821 824 827 830 833 836 839 842 845 848 851 854 857 860 863 866 869 872 875 878 881 884 887 890 893 896 899 902 905 908 911 914 917 920 923 926 929 932 935 938 941 944 947 950 953 956 959 962 965 968 971 974 977 980 983 986 989 992 995 998 1001 1004 1007 1010 1013 1016 1019 1022 1025 1028 1031 1034 1037 1040 1043 1046 1049 1052 1055 1058 1061 1064 1067 1070 1073 1076 1079 1082 1085 1088 1091 1094 1097 1100 1103 1106 1109 1112 1115 1118 1121 1124 1127 1130 1133 1136 1139 1142 1145 1148 1151 1154 1157 1160 
</DataArray>
<DataArray type="UInt32" Name="types" format="ascii">
3 3 3 3 3 3 3 3 3 3 5 5 5 5 5 5 5 5 5 5 5 5 5 5 5 5 5 5 5 5 5 5 5 5 5 5 5 5 5 5 5 5 5 5 5 5 5 5 5 5 5 5 5 5 5 5 5 5 5 5 5 5 5 5 5 5 5 5 5 5 5 5 5 5 5 5 5 5 5 5 5 5 5 5 5 5 5 5 5 5 5 5 5 5 5 5 5 5 5 5 5 5 5 5 5 5 5 5 5 5 5 5 5 5 5 5 5 5 5 5 5 5 5 5 5 5 5 5 5 5 5 5 5 5 5 5 5 5 5 5 5 5 5 5 5 5 5 5 5 5 5 5 5 5 5 5 5 5 5 5 5 5 5 5 5 5 5 5 5 5 5 5 5 5 5 5 5 5 5 5 5 5 5 5 5 5 5 5 5 5 5 5 5 5 5 5 5 5 5 5 5 5 5 5 5 5 5 5 5 5 5 5 5 5 5 5 5 5 5 5 5 5 5 5 5 5 5 5 5 5 5 5 5 5 5 5 5 5 5 5 5 5 5 5 5 5 5 5 5 5 5 5 5 5 5 5 5 5 5 5 5 5 5 5 5 5 5 5 5 5 5 5 5 5 5 5 5 5 5 5 5 5 5 5 5 5 5 5 5 5 5 5 5 5 5 5 5 5 5 5 5 5 5 5 5 5 5 5 5 5 5 5 5 5 5 5 5 5 5 5 5 5 5 5 5 5 5 5 5 5 5 5 5 5 5 5 5 5 5 5 5 5 5 5 5 5 5 5 5 5 5 5 5 5 5 5 5 5 5 5 5 5 5 5 5 5 5 5 5 5 5 5 5 5 5 5 5 5 5 5 5 5 5 5 5 5 5 5 5 5 
</DataArray>
</Cells>
<PointData Scalars="Ba-133_conc,region_id," Vectors="" Tensors="">
<DataArray type="Float64" Name="Ba-133_conc" format="ascii">
674.7666767679 611.3169918902 611.2325977961 542.4384938810 542.4417612454 471.6686369737 471.6263355212 398.9115331374 398.9026450594 326.2026181760 326.1747264144 254.1636128928 254.1533165174 184.3409371989 184.3248449875 117.5694226578 117.5636366634 55.0062123668 54.9876396352 -0.0696001489 675.0131730324 935.3634386879 907.0414738318 675.0143602558 907.0428747733 611.5434291330 611.5274068748 907.0491002909 903.4649950866 611.5221938098 903.4609738491 542.7285815500 542.7263414149 903.4634376238 887.8719983510 542.7331314393 887.8673091794 471.9702862207 471.9599803351 887.8727342507 864.1483333394 471.9577650770 864.1477303960 399.2420181905 399.2377116435 864.1525675123 832.7675524049 399.2401938866 832.7679288465 326.5421302261 326.5346187775 832.7744902650 793.7700073324 326.5323701647 793.7738056603 254.5168956906 254.5127352823 793.7804053774 747.7651580936 254.5119982795 747.7710087469 184.6957610690 184.6908630215 747.7786263699 695.8420413916 184.6874269950 695.8510807962 117.9248919454 117.9221326559 695.8590325027 637.4304595014 117.9186205105 637.4411068274 55.3555881299 55.3544719350 637.4480430554 430.1229055123 55.3425714420 430.1370545342 0.1666944266 946.3832675537 7.5385234645 13.4027454999 935.8539726895 22.2754269465 907.4795513251 916.4131437885 13.4677463469 25.6656674415 907.5032814763 35.0604198820 904.0452867373 913.6536090656 25.4808978915 37.1548786159 903.9587160333 47.1158914710 888.4487411893 898.6814914598 36.8651394776 49.5227944918 888.4064719456 59.8745368871 864.7170061657 875.4233978305 49.0999924917 62.0666428966 864.7182519301 72.6385180130 833.3146109966 844.3235161138 61.5123409512 74.6168064094 833.3633126186 85.2246147302 794.2845245146 805.4174967474 73.9289538683 86.9048875967 794.3837109173 97.3576356647 748.2344883331 759.3044644955 86.0821174400 98.7613432736 748.3864898658 108.8732562377 696.2558489972 707.0655317298 97.8188049513 105.3773112368 696.4619558101 114.9549301950 637.7859669757 648.2551268729 104.3496914604 220.0583812826 638.0394217710 231.2005986032 430.0980012051 6.4171469260 0.4903057187 -4.0952963381 7.5176168883 -4.9882518384 9.0117495922 5.9825078321 -3.5287298256 -5.0114920518 9.6165847367 -6.9853879964 21.1137054032 17.9544086279 -4.9655713150 -5.7986811724 21.4338041032 -7.7123229295 32.3814262927 29.3706616845 -5.8688102996 -6.5376949930 32.6697347864 -8.2937818735 44.5906458588 41.8003770603 -6.6429009259 -7.2398650736 44.8274561525 -8.7801001543 57.0663832740 54.5820448170 -7.3821190071 -7.8465909819 57.2455119243 -9.1140533029 69.6415182292 67.5453789241 -8.0270366405 -8.3404036869 69.7551960652 -9.2819109233 82.0487484592 80.4184017358 -8.5602948908 -8.7596184130 82.0876932159 -9.3099859955 94.1107897591 93.0013800691 -8.9780996929 -7.9956212905 94.0782026779 -8.2918658065 101.0340039813 100.6561836987 -8.6964381784 -20.7013022721 100.8129290370 -20.2324826530 216.4825650550 0.1918518212 -0.0794583811 0.1873188919 0.2678898927 0.2453497972 -3.5133405736 -3.0505474115 0.0867251543 0.9155240738 -3.2301836459 1.3500923782 -4.1844839106 -3.4266992180 0.8076322716 0.9831853363 -3.9630312856 1.4698324365 -5.2033089722 -4.4828585732 0.9227212640 1.0594203096 -4.9291202965 1.4990832577 -6.0350834444 -5.4013805847 1.0249608080 1.1445001800 -5.7507679041 1.4980200217 -6.8601733382 -6.3374007128 1.1070940611 1.2131634257 -6.5645405991 1.4596764411 -7.6135740714 -7.2298732277 1.1750349647 1.2589324806 -7.3119926659 1.3776885442 -8.2735149279 -8.0547940602 1.2214124262 1.2959976181 -7.9705392186 1.2624510410 -8.8908604835 -8.8610322978 1.2420650914 1.1159003713 -8.5996931029 0.9476369509 -8.1344741515 -8.3575295361 1.1669694186 2.7353789427 -7.9910434192 2.1859187382 -21.9207369727 -0.0300469388 0.0059526791 -0.0037264682 -0.0477325332 0.0010086044 0.1173423079 0.0708016023 0.0121971288 -0.0654687948 0.0952147663 -0.1273297590 0.5754523941 0.3528026305 -0.0316411090 -0.0899706884 0.5610852268 -0.2371734010 0.6622774611 0.4157783522 -0.0805418162 -0.0968596282 0.6408261739 -0.2532271966 0.7871449025 0.5514462665 -0.0942407677 -0.1112350215 0.7736694253 -0.2688346490 0.9014988681 0.6752565002 -0.1117687302 -0.1249744494 0.8867265379 -0.2775166106 1.0142561934 0.8065505042 -0.1273741006 -0.1374613605 0.9979145766 -0.2789617030 1.1161083685 0.9370139305 -0.1418077283 -0.1502391372 1.0990944220 -0.2760994051 1.2228323097 1.0806026741 -0.1603806097 -0.1385610717 1.1953778778 -0.2266300085 1.1073388974 1.0168017261 -0.1208342476 -0.2942011674 1.1241940157 -0.4259379059 2.9701687738 0.0001370990 -0.0001044745 0.0000433455 0.0017481335 -0.0006080644 -0.0018090236 -0.0009827030 -0.0005153108 0.0006146820 -0.0002410588 0.0039075477 -0.0169571143 0.0001130767 0.0000087854 0.0008697899 -0.0135864589 0.0162162995 -0.0184630698 0.0100795685 0.0007477012 0.0012228014 -0.0171354140 0.0203229534 -0.0270671967 0.0071006638 0.0004932406 0.0025998518 -0.0247720844 0.0252179395 -0.0387512804 0.0008225677 0.0017589682 0.0041943949 -0.0365558027 0.0304810765 -0.0503546125 -0.0052928555 0.0032490191 0.0058651792 -0.0479950369 0.0357536172 -0.0630903769 -0.0129071435 0.0048986273 0.0077837653 -0.0604846495 0.0410414782 -0.0772221449 -0.0225685919 0.0070658903 0.0100111783 -0.0753729724 0.0453593996 -0.0839757027 -0.0247845812 0.0060142405 0.0140880072 -0.0693814152 0.0641732411 -0.1764705324 0.0000040893 0.0000011159 -0.0000038054 -0.0000005183 -0.0000077270 0.0000584132 0.0000506377 -0.0000120896 0.0000056503 0.0000626690 -0.0000097120 -0.0002024699 -0.0000953290 -0.0000362415 0.0001122820 -0.0000657648 0.0002083546 -0.0013864429 -0.0007787363 0.0000349393 0.0002266741 -0.0011399725 0.0006118693 -0.0017306554 -0.0010716358 0.0001872210 0.0002322299 -0.0016907779 0.0006095755 -0.0015312330 -0.0011174466 0.0002265783 0.0002246727 -0.0015735729 0.0004804601 -0.0013243339 -0.0011947743 0.0002389946 0.0002348781 -0.0014177543 0.0003335364 -0.0010852856 -0.0012729620 0.0002536567 0.0002413328 -0.0011965045 0.0001377377 -0.0007513546 -0.0013479057 0.0002710641 0.0002329044 -0.0008681060 -0.0001561573 -0.0000938995 -0.0011906288 0.0002002046 0.0003594735 -0.0005320707 -0.0000356229 -0.0015181484 0.0000000020 -0.0000000052 0.0000000102 0.0000000212 0.0000001296 -0.0000005685 -0.0000001879 0.0000000319 0.0000000270 -0.0000017296 0.0000005748 0.0000007433 -0.0000001964 0.0000002233 -0.0000002736 -0.0000027307 -0.0000028012 0.0000166545 0.0000019224 0.0000001365 -0.0000010947 0.0000101400 -0.0000141510 0.0000358738 0.0000047907 -0.0000006664 -0.0000014553 0.0000307030 -0.0000205888 0.0000415607 0.0000058538 -0.0000012021 -0.0000015423 0.0000377913 -0.0000233370 0.0000451516 0.0000067769 -0.0000014449 -0.0000017887 0.0000429191 -0.0000264578 0.0000514381 0.0000080708 -0.0000017145 -0.0000021205 0.0000490951 -0.0000299859 0.0000582888 0.0000096327 -0.0000020547 -0.0000024988 0.0000564674 -0.0000337718 0.0000646223 0.0000103078 -0.0000021096 -0.0000031417 0.0000535376 -0.0000396247 0.0000956218 -0.0000000000 0.0000000000 -0.0000000000 -0.0000000001 -0.0000000000 0.0000000004 0.0000000000 -0.0000000000 -0.0000000000 0.0000000012 -0.0000000009 0.0000000013 0.0000000002 -0.0000000001 0.0000000000 0.0000000061 0.0000000001 -0.0000000096 -0.0000000002 -0.0000000001 0.0000000003 -0.0000000007 0.0000000123 -0.0000000424 -0.0000000016 0.0000000001 0.0000000006 -0.0000000309 0.0000000284 -0.0000000609 -0.0000000024 0.0000000004 0.0000000007 -0.0000000503 0.0000000366 -0.0000000697 -0.0000000029 0.0000000006 0.0000000008 -0.0000000618 0.0000000441 -0.0000000839 -0.0000000036 0.0000000008 0.0000000010 -0.0000000757 0.0000000539 -0.0000001027 -0.0000000046 0.0000000009 0.0000000013 -0.0000000932 0.0000000661 -0.0000001254 -0.0000000054 0.0000000011 0.0000000016 -0.0000001039 0.0000000784 -0.0000001607 0.0000000000 -0.0000000000 0.0000000000 0.0000000000 -0.0000000000 -0.0000000000 -0.0000000000 -0.0000000000 0.0000000000 -0.0000000000 0.0000000000 -0.0000000000 -0.0000000000 0.0000000000 0.0000000000 -0.0000000000 0.0000000000 0.0000000000 -0.0000000000 0.0000000000 -0.0000000000 -0.0000000000 -0.0000000000 0.0000000000 0.0000000000 0.0000000000 -0.0000000000 0.0000000000 -0.0000000000 0.0000000000 0.0000000000 -0.0000000000 -0.0000000000 0.0000000000 -0.0000000000 0.0000000000 0.0000000000 -0.0000000000 -0.0000000000 0.0000000000 -0.0000000000 0.0000000000 0.0000000000 -0.0000000000 -0.0000000000 0.0000000000 -0.0000000000 0.0000000000 0.0000000000 -0.0000000000 -0.0000000000 0.0000000000 -0.0000000000 0.0000000000 0.0000000000 -0.0000000000 -0.0000000000 0.0000000000 -0.0000000000 0.0000000000 -0.0000000000 0.0000000000 0.0000000000 -0.0000000000 0.0000000000 0.0000000000 -0.0000000000 0.0000000000 -0.0000000000 -0.0000000000 -0.0000000000 0.0000000000 0.0000000000 -0.0000000000 -0.0000000000 0.0000000000 -0.0000000000 0.0000000000 0.0000000000 -0.0000000000 0.0000000000 0.0000000000 -0.0000000000 -0.0000000000 -0.0000000000 -0.0000000000 0.0000000000 0.0000000000 0.0000000000 -0.0000000000 -0.0000000000 0.0000000000 0.0000000000 -0.0000000000 0.0000000000 -0.0000000000 -0.0000000000 0.0000000000 0.0000000000 -0.0000000000 0.0000000000 -0.0000000000 -0.0000000000 0.0000000000 0.0000000000 -0.0000000000 0.0000000000 -0.0000000000 -0.0000000000 0.0000000000 0.0000000000 -0.0000000000 0.0000000000 -0.0000000000 -0.0000000000 0.0000000000 0.0000000000 -0.0000000000 0.0000000000 -0.0000000000 0.0000000000 0.0000000000 -0.0000000000 0.0000000000 -0.0000000000 0.0000000000 0.0000000000 -0.0000000000 0.0000000000 0.0000000000 -0.0000000000 -0.0000000000 -0.0000000000 -0.0000000000 0.0000000000 -0.0000000000 0.0000000000 -0.0000000000 -0.0000000000 0.0000000000 0.0000000000 -0.0000000000 0.0000000000 0.0000000000 -0.0000000000 0.0000000000 -0.0000000000 -0.0000000000 -0.0000000000 0.0000000000 0.0000000000 0.0000000000 -0.0000000000 0.0000000000 -0.0000000000 0.0000000000 0.0000000000 -0.0000000000 -0.0000000000 0.0000000000 -0.0000000000 0.0000000000 0.0000000000 -0.0000000000 -0.0000000000 0.0000000000 -0.0000000000 0.0000000000 0.0000000000 -0.0000000000 -0.0000000000 0.0000000000 -0.0000000000 0.0000000000 0.0000000000 -0.0000000000 -0.0000000000 0.0000000000 -0.0000000000 0.0000000000 0.0000000000 -0.0000000000 0.0000000000 0.0000000000 0.0000000000 -0.0000000000 -0.0000000000 0.0000000000 0.0000000000 -0.0000000000 0.0000000000 0.0000000000 -0.0000000000 0.0000000000 -0.0000000000 -0.0000000000 -0.0000000000 0.0000000000 0.0000000000 0.0000000000 -0.0000000000 0.0000000000 -0.0000000000 0.0000000000 0.0000000000 -0.0000000000 -0.0000000000 0.0000000000 -0.0000000000 -0.0000000000 -0.0000000000 -0.0000000000 0.0000000000 0.0000000000 0.0000000000 -0.0000000000 -0.0000000000 -0.0000000000 0.0000000000 -0.0000000000 0.0000000000 -0.0000000000 -0.0000000000 0.0000000000 0.0000000000 -0.0000000000 0.0000000000 -0.0000000000 -0.0000000000 0.0000000000 0.0000000000 -0.0000000000 0.0000000000 -0.0000000000 -0.0000000000 0.0000000000 0.0000000000 -0.0000000000 0.0000000000 -0.0000000000 -0.0000000000 0.0000000000 0.0000000000 -0.0000000000 -0.0000000000 0.0000000000 0.0000000000 0.0000000000 -0.0000000000 0.0000000000 -0.0000000000 0.0000000000 0.0000000000 -0.0000000000 -0.0000000000 0.0000000000 -0.0000000000 -0.0000000000 -0.0000000000 -0.0000000000 0.0000000000 0.0000000000 0.0000000000 -0.0000000000 -0.0000000000 0.0000000000 0.0000000000 -0.0000000000 0.0000000000 -0.0000000000 -0.0000000000 0.0000000000 -0.0000000000 -0.0000000000 -0.0000000000 0.0000000000 0.0000000000 0.0000000000 -0.0000000000 -0.0000000000 -0.0000000000 0.0000000000 0.0000000000 -0.0000000000 -0.0000000000 0.0000000000 -0.0000000000 0.0000000000 0.0000000000 -0.0000000000 -0.0000000000 0.0000000000 -0.0000000000 0.0000000000 0.0000000000 -0.0000000000 -0.0000000000 0.0000000000 -0.0000000000 0.0000000000 -0.0000000000 0.0000000000 -0.0000000000 0.0000000000 -0.0000000000 -0.0000000000 0.0000000000 -0.0000000000 -0.0000000000 0.0000000000 0.0000000000 -0.0000000000 -0.0000000000 -0.0000000000 0.0000000000 -0.0000000000 0.0000000000 -0.0000000000 -0.0000000000 0.0000000000 0.0000000000 -0.0000000000 0.0000000000 0.0000000000 0.0000000000 0.0000000000 -0.0000000000 -0.0000000000 -0.0000000000 0.0000000000 0.0000000000 -0.0000000000 -0.0000000000 0.0000000000 -0.0000000000 -0.0000000000 0.0000000000 -0.0000000000 0.0000000000 0.0000000000 0.0000000000 -0.0000000000 -0.0000000000 -0.0000000000 0.0000000000 0.0000000000 0.0000000000 -0.0000000000 -0.0000000000 0.0000000000 0.0000000000 -0.0000000000 0.0000000000 -0.0000000000 -0.0000000000 0.0000000000 0.0000000000 -0.0000000000 0.0000000000 -0.0000000000 -0.0000000000 0.0000000000 -0.0000000000 -0.0000000000 -0.0000000000 -0.0000000000 0.0000000000 -0.0000000000 -0.0000000000 0.0000000000 0.0000000000 -0.0000000000 0.0000000000 -0.0000000000 0.0000000000 0.0000000000 0.0000000000 0.0000000000 -0.0000000000 0.0000000000 0.0000000000 -0.0000000000 -0.0000000000 0.0000000000 -0.0000000000 0.0000000000 0.0000000000 -0.0000000000 -0.0000000000 -0.0000000000 0.0000000000 -0.0000000000 -0.0000000000 0.0000000000 0.0000000000 -0.0000000000 0.0000000000 -0.0000000000 0.0000000000 0.0000000000 0.0000000000 0.0000000000 -0.0000000000 0.0000000000 -0.0000000000 -0.0000000000 -0.0000000000 0.0000000000 0.0000000000 0.0000000000 -0.0000000000 0.0000000000 -0.0000000000 -0.0000000000 0.0000000000 -0.0000000000 -0.0000000000 0.0000000000 -0.0000000000 -0.0000000000 -0.0000000000 0.0000000000 -0.0000000000 -0.0000000000 0.0000000000 -0.0000000000 0.0000000000 -0.0000000000 -0.0000000000 0.0000000000 0.0000000000 -0.0000000000 0.0000000000 -0.0000000000 0.0000000000 0.0000000000 -0.0000000000 0.0000000000 -0.0000000000 0.0000000000 0.0000000000 -0.0000000000 -0.0000000000 0.0000000000 -0.0000000000 0.0000000000 0.0000000000 -0.0000000000 -0.0000000000 0.0000000000 0.0000000000 -0.0000000000 -0.0000000000 0.0000000000 0.0000000000 -0.0000000000 0.0000000000 -0.0000000000 -0.0000000000 0.0000000000 -0.0000000000 -0.0000000000 -0.0000000000 0.0000000000 0.0000000000 0.0000000000 -0.0000000000 -0.0000000000 -0.0000000000 -0.0000000000 0.0000000000 -0.0000000000 0.0000000000 0.0000000000 -0.0000000000 -0.0000000000 -0.0000000000 -0.0000000000 0.0000000000 0.0000000000 -0.0000000000 0.0000000000 -0.0000000000 -0.0000000000 0.0000000000 -0.0000000000 0.0000000000 -0.0000000000 -0.0000000000 0.0000000000 0.0000000000 -0.0000000000 0.0000000000 -0.0000000000 0.0000000000 0.0000000000 -0.0000000000 0.0000000000 -0.0000000000 0.0000000000 0.0000000000 -0.0000000000 -0.0000000000 0.0000000000 -0.0000000000 0.0000000000 -0.0000000000 -0.0000000000 0.0000000000 0.0000000000 0.0000000000 -0.0000000000 -0.0000000000 0.0000000000 0.0000000000 -0.0000000000 0.0000000000 -0.0000000000 -0.0000000000 0.0000000000 0.0000000000 -0.0000000000 -0.0000000000 0.0000000000 0.0000000000 -0.0000000000 0.0000000000 0.0000000000 -0.0000000000 0.0000000000 -0.0000000000 -0.0000000000 0.0000000000 0.0000000000 -0.0000000000 0.0000000000 -0.0000000000 -0.0000000000 0.0000000000 -0.0000000000 -0.0000000000 0.0000000000 -0.0000000000 -0.0000000000 0.0000000000 -0.0000000000 0.0000000000 -0.0000000000 -0.0000000000 0.0000000000 0.0000000000 -0.0000000000 0.0000000000 -0.0000000000 0.0000000000 0.0000000000 -0.0000000000 0.0000000000 -0.0000000000 0.0000000000 0.0000000000 -0.0000000000 -0.0000000000 0.0000000000 -0.0000000000 0.0000000000 -0.0000000000 -0.0000000000 0.0000000000 0.0000000000 0.0000000000 -0.0000000000 -0.0000000000 0.0000000000 0.0000000000 -0.0000000000 0.0000000000 -0.0000000000 0.0000000000 0.0000000000 -0.0000000000 -0.0000000000 -0.0000000000 0.0000000000 0.0000000000 -0.0000000000 0.0000000000 0.0000000000 -0.0000000000 0.0000000000 -0.0000000000 -0.0000000000 0.0000000000 -0.0000000000 -0.0000000000 0.0000000000 -0.0000000000 -0.0000000000 0.0000000000 -0.0000000000 
</DataArray>
<DataArray type="Int32" Name="region_id" format="ascii">
2 2 2 2 2 2 2 2 2 2 2 2 2 2 2 2 2 2 2 2 1 1 1 1 1 1 1 1 1 1 1 1 1 1 1 1 1 1 1 1 1 1 1 1 1 1 1 1 1 1 1 1 1 1 1 1 1 1 1 1 1 1 1 1 1 1 1 1 1 1 1 1 1 1 1 1 1 1 1 1 1 1 1 1 1 1 1 1 1 1 1 1 1 1 1 1 1 1 1 1 1 1 1 1 1 1 1 1 1 1 1 1 1 1 1 1 1 1 1 1 1 1 1 1 1 1 1 1 1 1 1 1 1 1 1 1 1 1 1 1 1 1 1 1 1 1 1 1 1 1 1 1 1 1 1 1 1 1 1 1 1 1 1 1 1 1 1 1 1 1 1 1 1 1 1 1 1 1 1 1 1 1 1 1 1 1 1 1 1 1 1 1 1 1 1 1 1 1 1 1 1 1 1 1 1 1 1 1 1 1 1 1 1 1 1 1 1 1 1 1 1 1 1 1 1 1 1 1 1 1 1 1 1 1 1 1 1 1 1 1 1 1 1 1 1 1 1 1 1 1 1 1 1 1 1 1 1 1 1 1 1 1 1 1 1 1 1 1 1 1 1 1 1 1 1 1 1 1 1 1 1 1 1 1 1 1 1 1 1 1 1 1 1 1 1 1 1 1 1 1 1 1 1 1 1 1 1 1 1 1 1 1 1 1 1 1 1 1 1 1 1 1 1 1 1 1 1 1 1 1 1 1 1 1 1 1 1 1 1 1 1 1 1 1 1 1 1 1 1 1 1 1 1 1 1 1 1 1 1 1 1 1 1 1 1 1 1 1 1 1 1 1 1 1 1 1 1 1 1 1 1 1 1 1 1 1 1 1 1 1 1 1 1 1 1 1 1 1 1 1 1 1 1 1 1 1 1 1 1 1 1 1 1 1 1 1 1 1 1 1 1 1 1 1 1 1 1 1 1 1 1 1 1 1 1 1 1 1 1 1 1 1 1 1 1 1 1 1 1 1 1 1 1 1 1 1 1 1 1 1 1 1 1 1 1 1 1 1 1 1 1 1 1 1 1 1 1 1 1 1 1 1 1 1 1 1 1 1 1 1 1 1 1 1 1 1 1 1 1 1 1 1 1 1 1 1 1 1 1 1 1 1 1 1 1 1 1 1 1 1 1 1 1 1 1 1 1 1 1 1 1 1 1 1 1 1 1 1 1 1 1 1 1 1 1 1 1 1 1 1 1 1 1 1 1 1 1 1 1 1 1 1 1 1 1 1 1 1 1 1 1 1 1 1 1 1 1 1 1 1 1 1 1 1 1 1 1 1 1 1 1 1 1 1 1 1 1 1 1 1 1 1 1 1 1 1 1 1 1 1 1 1 1 1 1 1 1 1 1 1 1 1 1 1 1 1 1 1 1 1 1 1 1 1 1 1 1 1 1 1 1 1 1 1 1 1 1 1 1 1 1 1 1 1 1 1 1 1 1 1 1 1 1 1 1 1 1 1 1 1 1 1 1 1 1 1 1 1 1 1 1 1 1 1 1 1 1 1 1 1 1 1 1 1 1 1 1 1 1 1 1 1 1 1 1 1 1 1 1 1 1 1 1 1 1 1 1 1 1 1 1 1 1 1 1 1 1 1 1 1 1 1 1 1 1 1 1 1 1 1 1 1 1 1 1 1 1 1 1 1 1 1 1 1 1 1 1 1 1 1 1 1 1 1 1 1 1 1 1 1 1 1 1 1 1 1 1 1 1 1 1 1 1 1 1 1 1 1 1 1 1 1 1 1 1 1 1 1 1 1 1 1 1 1 1 1 1 1 1 1 1 1 1 1 1 1 1 1 1 1 1 1 1 1 1 1 1 1 1 1 1 1 1 1 1 1 1 1 1 1 1 1 1 1 1 1 1 1 1 1 1 1 1 1 1 1 1 1 1 1 1 1 1 1 1 1 1 1 1 1 1 1 1 1 1 1 1 1 1 1 1 1 1 1 1 1 1 1 1 1 1 1 1 1 1 1 1 1 1 1 1 1 1 1 1 1 1 1 1 1 1 1 1 1 1 1 1 1 1 1 1 1 1 1 1 1 1 1 1 1 1 1 1 1 1 1 1 1 1 1 1 1 1 1 1 1 1 1 1 1 1 1 1 1 1 1 1 1 1 1 1 1 1 1 1 1 1 1 1 1 1 1 1 1 1 1 1 1 1 1 1 1 1 1 1 1 1 1 1 1 1 1 1 1 1 1 1 1 1 1 1 1 1 1 1 1 1 1 1 1 1 1 1 1 1 1 1 1 1 1 1 1 1 1 1 1 1 1 1 1 1 1 1 1 1 1 1 1 1 1 1 1 1 1 1 1 1 1 1 1 1 1 1 1 1 1 1 1 1 1 1 1 1 1 1 1 1 1 1 1 1 1 1 1 1 1 1 1 1 1 1 1 1 1 1 1 1 1 1 1 1 1 1 1 1 1 1 1 1 1 1 1 1 1 1 1 1 1 1 1 1 1 1 1 1 1 1 1 1 1 1 1 1 1 1 1 1 1 1 1 1 1 1 1 1 1 1 1 1 1 1 1 1 1 1 1 1 1 1 1 1 1 1 1 1 1 1 1 1 1 
</DataArray>
</PointData>
</Piece>
</UnstructuredGrid>
</VTKFile>
