<?xml version="1.0"?>
<VTKFile type="UnstructuredGrid" version="0.1" byte_order="LittleEndian">
<UnstructuredGrid>
<Piece NumberOfPoints="1160" NumberOfCells="390">
<Points>
<DataArray type="Float64" NumberOfComponents="3" format="ascii">
0.0000000000 0.0000000000 0.0000000000 0.1000000000 0.0000000000 0.0000000000 0.1000000000 0.0000000000 0.0000000000 0.2000000000 0.0000000000 0.0000000000 0.2000000000 0.0000000000 0.0000000000 0.3000000000 0.0000000000 0.0000000000 0.3000000000 0.0000000000 0.0000000000 0.4000000000 0.0000000000 0.0000000000 0.4000000000 0.0000000000 0.0000000000 0.5000000000 0.0000000000 0.0000000000 0.5000000000 0.0000000000 0.0000000000 0.6000000000 0.0000000000 0.0000000000 0.6000000000 0.0000000000 0.0000000000 0.7000000000 0.0000000000 0.0000000000 0.7000000000 0.0000000000 0.0000000000 0.8000000000 0.0000000000 0.0000000000 0.8000000000 0.0000000000 0.0000000000 0.9000000000 0.0000000000 0.0000000000 0.9000000000 0.0000000000 0.0000000000 1.0000000000 0.0000000000 0.0000000000 0.0000000000 0.0000000000 0.0000000000 0.0000000000 0.0000100000 0.0000000000 0.1000000000 0.0000100000 0.0000000000 0.0000000000 0.0000000000 0.0000000000 0.1000000000 0.0000100000 0.0000000000 0.1000000000 0.0000000000 0.0000000000 0.1000000000 0.0000000000 0.0000000000 0.1000000000 0.0000100000 0.0000000000 0.2000000000 0.0000100000 0.0000000000 0.1000000000 0.0000000000 0.0000000000 0.2000000000 0.0000100000 0.0000000000 0.2000000000 0.0000000000 0.0000000000 0.2000000000 0.0000000000 0.0000000000 0.2000000000 0.0000100000 0.0000000000 0.3000000000 0.0000100000 0.0000000000 0.2000000000 0.0000000000 0.0000000000 0.3000000000 0.0000100000 0.0000000000 0.3000000000 0.0000000000 0.0000000000 0.3000000000 0.0000000000 0.0000000000 0.3000000000 0.0000100000 0.0000000000 0.4000000000 0.0000100000 0.0000000000 0.3000000000 0.0000000000 0.0000000000 0.4000000000 0.0000100000 0.0000000000 0.4000000000 0.0000000000 0.0000000000 0.4000000000 0.0000000000 0.0000000000 0.4000000000 0.0000100000 0.0000000000 0.5000000000 0.0000100000 0.0000000000 0.4000000000 0.0000000000 0.0000000000 0.5000000000 0.0000100000 0.0000000000 0.5000000000 0.0000000000 0.0000000000 0.5000000000 0.0000000000 0.0000000000 0.5000000000 0.0000100000 0.0000000000 0.6000000000 0.0000100000 0.0000000000 0.5000000000 0.0000000000 0.0000000000 0.6000000000 0.0000100000 0.0000000000 0.6000000000 0.0000000000 0.0000000000 0.6000000000 0.0000000000 0.0000000000 0.6000000000 0.0000100000 0.0000000000 0.7000000000 0.0000100000 0.0000000000 0.6000000000 0.0000000000 0.0000000000 0.7000000000 0.0000100000 0.0000000000 0.7000000000 0.0000000000 0.0000000000 0.7000000000 0.0000000000 0.0000000000 0.7000000000 0.0000100000 0.0000000000 0.8000000000 0.0000100000 0.0000000000 0.7000000000 0.0000000000 0.0000000000 0.8000000000 0.0000100000 0.0000000000 0.8000000000 0.0000000000 0.0000000000 0.8000000000 0.0000000000 0.0000000000 0.8000000000 0.0000100000 0.0000000000 0.9000000000 0.0000100000 0.0000000000 0.8000000000 0.0000000000 0.0000000000 0.9000000000 0.0000100000 0.0000000000 0.9000000000 0.0000000000 0.0000000000 0.9000000000 0.0000000000 0.0000000000 0.9000000000 0.0000100000 0.0000000000 1.0000000000 0.0000100000 0.0000000000 0.9000000000 0.0000000000 0.0000000000 1.0000000000 0.0000100000 0.0000000000 1.0000000000 0.0000000000 0.0000000000 0.0000000000 0.0000100000 0.0000000000 0.0000000000 0.0001221059 0.0000000000 0.1000000000 0.0001221059 0.0000000000 0.0000000000 0.0000100000 0.0000000000 0.1000000000 0.0001221059 0.0000000000 0.1000000000 0.0000100000 0.0000000000 0.1000000000 0.0000100000 0.0000000000 0.1000000000 0.0001221059 0.0000000000 0.2000000000 0.0001221059 0.0000000000 0.1000000000 0.0000100000 0.0000000000 0.2000000000 0.0001221059 0.0000000000 0.2000000000 0.0000100000 0.0000000000 0.2000000000 0.0000100000 0.0000000000 0.2000000000 0.0001221059 0.0000000000 0.3000000000 0.0001221059 0.0000000000 0.2000000000 0.0000100000 0.0000000000 0.3000000000 0.0001221059 0.0000000000 0.3000000000 0.0000100000 0.0000000000 0.3000000000 0.0000100000 0.0000000000 0.3000000000 0.0001221059 0.0000000000 0.4000000000 0.0001221059 0.0000000000 0.3000000000 0.0000100000 0.0000000000 0.4000000000 0.0001221059 0.0000000000 0.4000000000 0.0000100000 0.0000000000 0.4000000000 0.0000100000 0.0000000000 0.4000000000 0.0001221059 0.0000000000 0.5000000000 0.0001221059 0.0000000000 0.4000000000 0.0000100000 0.0000000000 0.5000000000 0.0001221059 0.0000000000 0.5000000000 0.0000100000 0.0000000000 0.5000000000 0.0000100000 0.0000000000 0.5000000000 0.0001221059 0.0000000000 0.6000000000 0.0001221059 0.0000000000 0.5000000000 0.0000100000 0.0000000000 0.6000000000 0.0001221059 0.0000000000 0.6000000000 0.0000100000 0.0000000000 0.6000000000 0.0000100000 0.0000000000 0.6000000000 0.0001221059 0.0000000000 0.7000000000 0.0001221059 0.0000000000 0.6000000000 0.0000100000 0.0000000000 0.7000000000 0.0001221059 0.0000000000 0.7000000000 0.0000100000 0.0000000000 0.7000000000 0.0000100000 0.0000000000 0.7000000000 0.0001221059 0.0000000000 0.8000000000 0.0001221059 0.0000000000 0.7000000000 0.0000100000 0.0000000000 0.8000000000 0.0001221059 0.0000000000 0.8000000000 0.0000100000 0.0000000000 0.8000000000 0.0000100000 0.0000000000 0.8000000000 0.0001221059 0.0000000000 0.9000000000 0.0001221059 0.0000000000 0.8000000000 0.0000100000 0.0000000000 0.9000000000 0.0001221059 0.0000000000 0.9000000000 0.0000100000 0.0000000000 0.9000000000 0.0000100000 0.0000000000 0.9000000000 0.0001221059 0.0000000000 1.0000000000 0.0001221059 0.0000000000 0.9000000000 0.0000100000 0.0000000000 1.0000000000 0.0001221059 0.0000000000 1.0000000000 0.0000100000 0.0000000000 0.0000000000 0.0001221059 0.0000000000 0.0000000000 0.0002771482 0.0000000000 0.1000000000 0.0002771482 0.0000000000 0.0000000000 0.0001221059 0.0000000000 0.1000000000 0.0002771482 0.0000000000 0.1000000000 0.0001221059 0.0000000000 0.1000000000 0.0001221059 0.0000000000 0.1000000000 0.0002771482 0.0000000000 0.2000000000 0.0002771482 0.0000000000 0.1000000000 0.0001221059 0.0000000000 0.2000000000 0.0002771482 0.0000000000 0.2000000000 0.0001221059 0.0000000000 0.2000000000 0.0001221059 0.0000000000 0.2000000000 0.0002771482 0.0000000000 0.3000000000 0.0002771482 0.0000000000 0.2000000000 0.0001221059 0.0000000000 0.3000000000 0.0002771482 0.0000000000 0.3000000000 0.0001221059 0.0000000000 0.3000000000 0.0001221059 0.0000000000 0.3000000000 0.0002771482 0.0000000000 0.4000000000 0.0002771482 0.0000000000 0.3000000000 0.0001221059 0.0000000000 0.4000000000 0.0002771482 0.0000000000 0.4000000000 0.0001221059 0.0000000000 0.4000000000 0.0001221059 0.0000000000 0.4000000000 0.0002771482 0.0000000000 0.5000000000 0.0002771482 0.0000000000 0.4000000000 0.0001221059 0.0000000000 0.5000000000 0.0002771482 0.0000000000 0.5000000000 0.0001221059 0.0000000000 0.5000000000 0.0001221059 0.0000000000 0.5000000000 0.0002771482 0.0000000000 0.6000000000 0.0002771482 0.0000000000 0.5000000000 0.0001221059 0.0000000000 0.6000000000 0.0002771482 0.0000000000 0.6000000000 0.0001221059 0.0000000000 0.6000000000 0.0001221059 0.0000000000 0.6000000000 0.0002771482 0.0000000000 0.7000000000 0.0002771482 0.0000000000 0.6000000000 0.0001221059 0.0000000000 0.7000000000 0.0002771482 0.0000000000 0.7000000000 0.0001221059 0.0000000000 0.7000000000 0.0001221059 0.0000000000 0.7000000000 0.0002771482 0.0000000000 0.8000000000 0.0002771482 0.0000000000 0.7000000000 0.0001221059 0.0000000000 0.8000000000 0.0002771482 0.0000000000 0.8000000000 0.0001221059 0.0000000000 0.8000000000 0.0001221059 0.0000000000 0.8000000000 0.0002771482 0.0000000000 0.9000000000 0.0002771482 0.0000000000 0.8000000000 0.0001221059 0.0000000000 0.9000000000 0.0002771482 0.0000000000 0.9000000000 0.0001221059 0.0000000000 0.9000000000 0.0001221059 0.0000000000 0.9000000000 0.0002771482 0.0000000000 1.0000000000 0.0002771482 0.0000000000 0.9000000000 0.0001221059 0.0000000000 1.0000000000 0.0002771482 0.0000000000 1.0000000000 0.0001221059 0.0000000000 0.0000000000 0.0002771482 0.0000000000 0.0000000000 0.0004915718 0.0000000000 0.1000000000 0.0004915718 0.0000000000 0.0000000000 0.0002771482 0.0000000000 0.1000000000 0.0004915718 0.0000000000 0.1000000000 0.0002771482 0.0000000000 0.1000000000 0.0002771482 0.0000000000 0.1000000000 0.0004915718 0.0000000000 0.2000000000 0.0004915718 0.0000000000 0.1000000000 0.0002771482 0.0000000000 0.2000000000 0.0004915718 0.0000000000 0.2000000000 0.0002771482 0.0000000000 0.2000000000 0.0002771482 0.0000000000 0.2000000000 0.0004915718 0.0000000000 0.3000000000 0.0004915718 0.0000000000 0.2000000000 0.0002771482 0.0000000000 0.3000000000 0.0004915718 0.0000000000 0.3000000000 0.0002771482 0.0000000000 0.3000000000 0.0002771482 0.0000000000 0.3000000000 0.0004915718 0.0000000000 0.4000000000 0.0004915718 0.0000000000 0.3000000000 0.0002771482 0.0000000000 0.4000000000 0.0004915718 0.0000000000 0.4000000000 0.0002771482 0.0000000000 0.4000000000 0.0002771482 0.0000000000 0.4000000000 0.0004915718 0.0000000000 0.5000000000 0.0004915718 0.0000000000 0.4000000000 0.0002771482 0.0000000000 0.5000000000 0.0004915718 0.0000000000 0.5000000000 0.0002771482 0.0000000000 0.5000000000 0.0002771482 0.0000000000 0.5000000000 0.0004915718 0.0000000000 0.6000000000 0.0004915718 0.0000000000 0.5000000000 0.0002771482 0.0000000000 0.6000000000 0.0004915718 0.0000000000 0.6000000000 0.0002771482 0.0000000000 0.6000000000 0.0002771482 0.0000000000 0.6000000000 0.0004915718 0.0000000000 0.7000000000 0.0004915718 0.0000000000 0.6000000000 0.0002771482 0.0000000000 0.7000000000 0.0004915718 0.0000000000 0.7000000000 0.0002771482 0.0000000000 0.7000000000 0.0002771482 0.0000000000 0.7000000000 0.0004915718 0.0000000000 0.8000000000 0.0004915718 0.0000000000 0.7000000000 0.0002771482 0.0000000000 0.8000000000 0.0004915718 0.0000000000 0.8000000000 0.0002771482 0.0000000000 0.8000000000 0.0002771482 0.0000000000 0.8000000000 0.0004915718 0.0000000000 0.9000000000 0.0004915718 0.0000000000 0.8000000000 0.0002771482 0.0000000000 0.9000000000 0.0004915718 0.0000000000 0.9000000000 0.0002771482 0.0000000000 0.9000000000 0.0002771482 0.0000000000 0.9000000000 0.0004915718 0.0000000000 1.0000000000 0.0004915718 0.0000000000 0.9000000000 0.0002771482 0.0000000000 1.0000000000 0.0004915718 0.0000000000 1.0000000000 0.0002771482 0.0000000000 0.0000000000 0.0004915718 0.0000000000 0.0000000000 0.0007881193 0.0000000000 0.1000000000 0.0007881193 0.0000000000 0.0000000000 0.0004915718 0.0000000000 0.1000000000 0.0007881193 0.0000000000 0.1000000000 0.0004915718 0.0000000000 0.1000000000 0.0004915718 0.0000000000 0.1000000000 0.0007881193 0.0000000000 0.2000000000 0.0007881193 0.0000000000 0.1000000000 0.0004915718 0.0000000000 0.2000000000 0.0007881193 0.0000000000 0.2000000000 0.0004915718 0.0000000000 0.2000000000 0.0004915718 0.0000000000 0.2000000000 0.0007881193 0.0000000000 0.3000000000 0.0007881193 0.0000000000 0.2000000000 0.0004915718 0.0000000000 0.3000000000 0.0007881193 0.0000000000 0.3000000000 0.0004915718 0.0000000000 0.3000000000 0.0004915718 0.0000000000 0.3000000000 0.0007881193 0.0000000000 0.4000000000 0.0007881193 0.0000000000 0.3000000000 0.0004915718 0.0000000000 0.4000000000 0.0007881193 0.0000000000 0.4000000000 0.0004915718 0.0000000000 0.4000000000 0.0004915718 0.0000000000 0.4000000000 0.0007881193 0.0000000000 0.5000000000 0.0007881193 0.0000000000 0.4000000000 0.0004915718 0.0000000000 0.5000000000 0.0007881193 0.0000000000 0.5000000000 0.0004915718 0.0000000000 0.5000000000 0.0004915718 0.0000000000 0.5000000000 0.0007881193 0.0000000000 0.6000000000 0.0007881193 0.0000000000 0.5000000000 0.0004915718 0.0000000000 0.6000000000 0.0007881193 0.0000000000 0.6000000000 0.0004915718 0.0000000000 0.6000000000 0.0004915718 0.0000000000 0.6000000000 0.0007881193 0.0000000000 0.7000000000 0.0007881193 0.0000000000 0.6000000000 0.0004915718 0.0000000000 0.7000000000 0.0007881193 0.0000000000 0.7000000000 0.0004915718 0.0000000000 0.7000000000 0.0004915718 0.0000000000 0.7000000000 0.0007881193 0.0000000000 0.8000000000 0.0007881193 0.0000000000 0.7000000000 0.0004915718 0.0000000000 0.8000000000 0.0007881193 0.0000000000 0.8000000000 0.0004915718 0.0000000000 0.8000000000 0.0004915718 0.0000000000 0.8000000000 0.0007881193 0.0000000000 0.9000000000 0.0007881193 0.0000000000 0.8000000000 0.0004915718 0.0000000000 0.9000000000 0.0007881193 0.0000000000 0.9000000000 0.0004915718 0.0000000000 0.9000000000 0.0004915718 0.0000000000 0.9000000000 0.0007881193 0.0000000000 1.0000000000 0.0007881193 0.0000000000 0.9000000000 0.0004915718 0.0000000000 1.0000000000 0.0007881193 0.0000000000 1.0000000000 0.0004915718 0.0000000000 0.0000000000 0.0007881193 0.0000000000 0.0000000000 0.0011982444 0.0000000000 0.1000000000 0.0011982444 0.0000000000 0.0000000000 0.0007881193 0.0000000000 0.1000000000 0.0011982444 0.0000000000 0.1000000000 0.0007881193 0.0000000000 0.1000000000 0.0007881193 0.0000000000 0.1000000000 0.0011982444 0.0000000000 0.2000000000 0.0011982444 0.0000000000 0.1000000000 0.0007881193 0.0000000000 0.2000000000 0.0011982444 0.0000000000 0.2000000000 0.0007881193 0.0000000000 0.2000000000 0.0007881193 0.0000000000 0.2000000000 0.0011982444 0.0000000000 0.3000000000 0.0011982444 0.0000000000 0.2000000000 0.0007881193 0.0000000000 0.3000000000 0.0011982444 0.0000000000 0.3000000000 0.0007881193 0.0000000000 0.3000000000 0.0007881193 0.0000000000 0.3000000000 0.0011982444 0.0000000000 0.4000000000 0.0011982444 0.0000000000 0.3000000000 0.0007881193 0.0000000000 0.4000000000 0.0011982444 0.0000000000 0.4000000000 0.0007881193 0.0000000000 0.4000000000 0.0007881193 0.0000000000 0.4000000000 0.0011982444 0.0000000000 0.5000000000 0.0011982444 0.0000000000 0.4000000000 0.0007881193 0.0000000000 0.5000000000 0.0011982444 0.0000000000 0.5000000000 0.0007881193 0.0000000000 0.5000000000 0.0007881193 0.0000000000 0.5000000000 0.0011982444 0.0000000000 0.6000000000 0.0011982444 0.0000000000 0.5000000000 0.0007881193 0.0000000000 0.6000000000 0.0011982444 0.0000000000 0.6000000000 0.0007881193 0.0000000000 0.6000000000 0.0007881193 0.0000000000 0.6000000000 0.0011982444 0.0000000000 0.7000000000 0.0011982444 0.0000000000 0.6000000000 0.0007881193 0.0000000000 0.7000000000 0.0011982444 0.0000000000 0.7000000000 0.0007881193 0.0000000000 0.7000000000 0.0007881193 0.0000000000 0.7000000000 0.0011982444 0.0000000000 0.8000000000 0.0011982444 0.0000000000 0.7000000000 0.0007881193 0.0000000000 0.8000000000 0.0011982444 0.0000000000 0.8000000000 0.0007881193 0.0000000000 0.8000000000 0.0007881193 0.0000000000 0.8000000000 0.0011982444 0.0000000000 0.9000000000 0.0011982444 0.0000000000 0.8000000000 0.0007881193 0.0000000000 0.9000000000 0.0011982444 0.0000000000 0.9000000000 0.0007881193 0.0000000000 0.9000000000 0.0007881193 0.0000000000 0.9000000000 0.0011982444 0.0000000000 1.0000000000 0.0011982444 0.0000000000 0.9000000000 0.0007881193 0.0000000000 1.0000000000 0.0011982444 0.0000000000 1.0000000000 0.0007881193 0.0000000000 0.0000000000 0.0011982444 0.0000000000 0.0000000000 0.0017654472 0.0000000000 0.1000000000 0.0017654472 0.0000000000 0.0000000000 0.0011982444 0.0000000000 0.1000000000 0.0017654472 0.0000000000 0.1000000000 0.0011982444 0.0000000000 0.1000000000 0.0011982444 0.0000000000 0.1000000000 0.0017654472 0.0000000000 0.2000000000 0.0017654472 0.0000000000 0.1000000000 0.0011982444 0.0000000000 0.2000000000 0.0017654472 0.0000000000 0.2000000000 0.0011982444 0.0000000000 0.2000000000 0.0011982444 0.0000000000 0.2000000000 0.0017654472 0.0000000000 0.3000000000 0.0017654472 0.0000000000 0.2000000000 0.0011982444 0.0000000000 0.3000000000 0.0017654472 0.0000000000 0.3000000000 0.0011982444 0.0000000000 0.3000000000 0.0011982444 0.0000000000 0.3000000000 0.0017654472 0.0000000000 0.4000000000 0.0017654472 0.0000000000 0.3000000000 0.0011982444 0.0000000000 0.4000000000 0.0017654472 0.0000000000 0.4000000000 0.0011982444 0.0000000000 0.4000000000 0.0011982444 0.0000000000 0.4000000000 0.0017654472 0.0000000000 0.5000000000 0.0017654472 0.0000000000 0.4000000000 0.0011982444 0.0000000000 0.5000000000 0.0017654472 0.0000000000 0.5000000000 0.0011982444 0.0000000000 0.5000000000 0.0011982444 0.0000000000 0.5000000000 0.0017654472 0.0000000000 0.6000000000 0.0017654472 0.0000000000 0.5000000000 0.0011982444 0.0000000000 0.6000000000 0.0017654472 0.0000000000 0.6000000000 0.0011982444 0.0000000000 0.6000000000 0.0011982444 0.0000000000 0.6000000000 0.0017654472 0.0000000000 0.7000000000 0.0017654472 0.0000000000 0.6000000000 0.0011982444 0.0000000000 0.7000000000 0.0017654472 0.0000000000 0.7000000000 0.0011982444 0.0000000000 0.7000000000 0.0011982444 0.0000000000 0.7000000000 0.0017654472 0.0000000000 0.8000000000 0.0017654472 0.0000000000 0.7000000000 0.0011982444 0.0000000000 0.8000000000 0.0017654472 0.0000000000 0.8000000000 0.0011982444 0.0000000000 0.8000000000 0.0011982444 0.0000000000 0.8000000000 0.0017654472 0.0000000000 0.9000000000 0.0017654472 0.0000000000 0.8000000000 0.0011982444 0.0000000000 0.9000000000 0.0017654472 0.0000000000 0.9000000000 0.0011982444 0.0000000000 0.9000000000 0.0011982444 0.0000000000 0.9000000000 0.0017654472 0.0000000000 1.0000000000 0.0017654472 0.0000000000 0.9000000000 0.0011982444 0.0000000000 1.0000000000 0.0017654472 0.0000000000 1.0000000000 0.0011982444 0.0000000000 0.0000000000 0.0017654472 0.0000000000 0.0000000000 0.0025498882 0.0000000000 0.1000000000 0.0025498882 0.0000000000 0.0000000000 0.0017654472 0.0000000000 0.1000000000 0.0025498882 0.0000000000 0.1000000000 0.0017654472 0.0000000000 0.1000000000 0.0017654472 0.0000000000 0.1000000000 0.0025498882 0.0000000000 0.2000000000 0.0025498882 0.0000000000 0.1000000000 0.0017654472 0.0000000000 0.2000000000 0.0025498882 0.0000000000 0.2000000000 0.0017654472 0.0000000000 0.2000000000 0.0017654472 0.0000000000 0.2000000000 0.0025498882 0.0000000000 0.3000000000 0.0025498882 0.0000000000 0.2000000000 0.0017654472 0.0000000000 0.3000000000 0.0025498882 0.0000000000 0.3000000000 0.0017654472 0.0000000000 0.3000000000 0.0017654472 0.0000000000 0.3000000000 0.0025498882 0.0000000000 0.4000000000 0.0025498882 0.0000000000 0.3000000000 0.0017654472 0.0000000000 0.4000000000 0.0025498882 0.0000000000 0.4000000000 0.0017654472 0.0000000000 0.4000000000 0.0017654472 0.0000000000 0.4000000000 0.0025498882 0.0000000000 0.5000000000 0.0025498882 0.0000000000 0.4000000000 0.0017654472 0.0000000000 0.5000000000 0.0025498882 0.0000000000 0.5000000000 0.0017654472 0.0000000000 0.5000000000 0.0017654472 0.0000000000 0.5000000000 0.0025498882 0.0000000000 0.6000000000 0.0025498882 0.0000000000 0.5000000000 0.0017654472 0.0000000000 0.6000000000 0.0025498882 0.0000000000 0.6000000000 0.0017654472 0.0000000000 0.6000000000 0.0017654472 0.0000000000 0.6000000000 0.0025498882 0.0000000000 0.7000000000 0.0025498882 0.0000000000 0.6000000000 0.0017654472 0.0000000000 0.7000000000 0.0025498882 0.0000000000 0.7000000000 0.0017654472 0.0000000000 0.7000000000 0.0017654472 0.0000000000 0.7000000000 0.0025498882 0.0000000000 0.8000000000 0.0025498882 0.0000000000 0.7000000000 0.0017654472 0.0000000000 0.8000000000 0.0025498882 0.0000000000 0.8000000000 0.0017654472 0.0000000000 0.8000000000 0.0017654472 0.0000000000 0.8000000000 0.0025498882 0.0000000000 0.9000000000 0.0025498882 0.0000000000 0.8000000000 0.0017654472 0.0000000000 0.9000000000 0.0025498882 0.0000000000 0.9000000000 0.0017654472 0.0000000000 0.9000000000 0.0017654472 0.0000000000 0.9000000000 0.0025498882 0.0000000000 1.0000000000 0.0025498882 0.0000000000 0.9000000000 0.0017654472 0.0000000000 1.0000000000 0.0025498882 0.0000000000 1.0000000000 0.0017654472 0.0000000000 0.0000000000 0.0025498882 0.0000000000 0.0000000000 0.0036347697 0.0000000000 0.1000000000 0.0036347697 0.0000000000 0.0000000000 0.0025498882 0.0000000000 0.1000000000 0.0036347697 0.0000000000 0.1000000000 0.0025498882 0.0000000000 0.1000000000 0.0025498882 0.0000000000 0.1000000000 0.0036347697 0.0000000000 0.2000000000 0.0036347697 0.0000000000 0.1000000000 0.0025498882 0.0000000000 0.2000000000 0.0036347697 0.0000000000 0.2000000000 0.0025498882 0.0000000000 0.2000000000 0.0025498882 0.0000000000 0.2000000000 0.0036347697 0.0000000000 0.3000000000 0.0036347697 0.0000000000 0.2000000000 0.0025498882 0.0000000000 0.3000000000 0.0036347697 0.0000000000 0.3000000000 0.0025498882 0.0000000000 0.3000000000 0.0025498882 0.0000000000 0.3000000000 0.0036347697 0.0000000000 0.4000000000 0.0036347697 0.0000000000 0.3000000000 0.0025498882 0.0000000000 0.4000000000 0.0036347697 0.0000000000 0.4000000000 0.0025498882 0.0000000000 0.4000000000 0.0025498882 0.0000000000 0.4000000000 0.0036347697 0.0000000000 0.5000000000 0.0036347697 0.0000000000 0.4000000000 0.0025498882 0.0000000000 0.5000000000 0.0036347697 0.0000000000 0.5000000000 0.0025498882 0.0000000000 0.5000000000 0.0025498882 0.0000000000 0.5000000000 0.0036347697 0.0000000000 0.6000000000 0.0036347697 0.0000000000 0.5000000000 0.0025498882 0.0000000000 0.6000000000 0.0036347697 0.0000000000 0.6000000000 0.0025498882 0.0000000000 0.6000000000 0.0025498882 0.0000000000 0.6000000000 0.0036347697 0.0000000000 0.7000000000 0.0036347697 0.0000000000 0.6000000000 0.0025498882 0.0000000000 0.7000000000 0.0036347697 0.0000000000 0.7000000000 0.0025498882 0.0000000000 0.7000000000 0.0025498882 0.0000000000 0.7000000000 0.0036347697 0.0000000000 0.8000000000 0.0036347697 0.0000000000 0.7000000000 0.0025498882 0.0000000000 0.8000000000 0.0036347697 0.0000000000 0.8000000000 0.0025498882 0.0000000000 0.8000000000 0.0025498882 0.0000000000 0.8000000000 0.0036347697 0.0000000000 0.9000000000 0.0036347697 0.0000000000 0.8000000000 0.0025498882 0.0000000000 0.9000000000 0.0036347697 0.0000000000 0.9000000000 0.0025498882 0.0000000000 0.9000000000 0.0025498882 0.0000000000 0.9000000000 0.0036347697 0.0000000000 1.0000000000 0.0036347697 0.0000000000 0.9000000000 0.0025498882 0.0000000000 1.0000000000 0.0036347697 0.0000000000 1.0000000000 0.0025498882 0.0000000000 0.0000000000 0.0036347697 0.0000000000 0.0000000000 0.0051351601 0.0000000000 0.1000000000 0.0051351601 0.0000000000 0.0000000000 0.0036347697 0.0000000000 0.1000000000 0.0051351601 0.0000000000 0.1000000000 0.0036347697 0.0000000000 0.1000000000 0.0036347697 0.0000000000 0.1000000000 0.0051351601 0.0000000000 0.2000000000 0.0051351601 0.0000000000 0.1000000000 0.0036347697 0.0000000000 0.2000000000 0.0051351601 0.0000000000 0.2000000000 0.0036347697 0.0000000000 0.2000000000 0.0036347697 0.0000000000 0.2000000000 0.0051351601 0.0000000000 0.3000000000 0.0051351601 0.0000000000 0.2000000000 0.0036347697 0.0000000000 0.3000000000 0.0051351601 0.0000000000 0.3000000000 0.0036347697 0.0000000000 0.3000000000 0.0036347697 0.0000000000 0.3000000000 0.0051351601 0.0000000000 0.4000000000 0.0051351601 0.0000000000 0.3000000000 0.0036347697 0.0000000000 0.4000000000 0.0051351601 0.0000000000 0.4000000000 0.0036347697 0.0000000000 0.4000000000 0.0036347697 0.0000000000 0.4000000000 0.0051351601 0.0000000000 0.5000000000 0.0051351601 0.0000000000 0.4000000000 0.0036347697 0.0000000000 0.5000000000 0.0051351601 0.0000000000 0.5000000000 0.0036347697 0.0000000000 0.5000000000 0.0036347697 0.0000000000 0.5000000000 0.0051351601 0.0000000000 0.6000000000 0.0051351601 0.0000000000 0.5000000000 0.0036347697 0.0000000000 0.6000000000 0.0051351601 0.0000000000 0.6000000000 0.0036347697 0.0000000000 0.6000000000 0.0036347697 0.0000000000 0.6000000000 0.0051351601 0.0000000000 0.7000000000 0.0051351601 0.0000000000 0.6000000000 0.0036347697 0.0000000000 0.7000000000 0.0051351601 0.0000000000 0.7000000000 0.0036347697 0.0000000000 0.7000000000 0.0036347697 0.0000000000 0.7000000000 0.0051351601 0.0000000000 0.8000000000 0.0051351601 0.0000000000 0.7000000000 0.0036347697 0.0000000000 0.8000000000 0.0051351601 0.0000000000 0.8000000000 0.0036347697 0.0000000000 0.8000000000 0.0036347697 0.0000000000 0.8000000000 0.0051351601 0.0000000000 0.9000000000 0.0051351601 0.0000000000 0.8000000000 0.0036347697 0.0000000000 0.9000000000 0.0051351601 0.0000000000 0.9000000000 0.0036347697 0.0000000000 0.9000000000 0.0036347697 0.0000000000 0.9000000000 0.0051351601 0.0000000000 1.0000000000 0.0051351601 0.0000000000 0.9000000000 0.0036347697 0.0000000000 1.0000000000 0.0051351601 0.0000000000 1.0000000000 0.0036347697 0.0000000000 0.0000000000 0.0051351601 0.0000000000 0.0000000000 0.0072101992 0.0000000000 0.1000000000 0.0072101992 0.0000000000 0.0000000000 0.0051351601 0.0000000000 0.1000000000 0.0072101992 0.0000000000 0.1000000000 0.0051351601 0.0000000000 0.1000000000 0.0051351601 0.0000000000 0.1000000000 0.0072101992 0.0000000000 0.2000000000 0.0072101992 0.0000000000 0.1000000000 0.0051351601 0.0000000000 0.2000000000 0.0072101992 0.0000000000 0.2000000000 0.0051351601 0.0000000000 0.2000000000 0.0051351601 0.0000000000 0.2000000000 0.0072101992 0.0000000000 0.3000000000 0.0072101992 0.0000000000 0.2000000000 0.0051351601 0.0000000000 0.3000000000 0.0072101992 0.0000000000 0.3000000000 0.0051351601 0.0000000000 0.3000000000 0.0051351601 0.0000000000 0.3000000000 0.0072101992 0.0000000000 0.4000000000 0.0072101992 0.0000000000 0.3000000000 0.0051351601 0.0000000000 0.4000000000 0.0072101992 0.0000000000 0.4000000000 0.0051351601 0.0000000000 0.4000000000 0.0051351601 0.0000000000 0.4000000000 0.0072101992 0.0000000000 0.5000000000 0.0072101992 0.0000000000 0.4000000000 0.0051351601 0.0000000000 0.5000000000 0.0072101992 0.0000000000 0.5000000000 0.0051351601 0.0000000000 0.5000000000 0.0051351601 0.0000000000 0.5000000000 0.0072101992 0.0000000000 0.6000000000 0.0072101992 0.0000000000 0.5000000000 0.0051351601 0.0000000000 0.6000000000 0.0072101992 0.0000000000 0.6000000000 0.0051351601 0.0000000000 0.6000000000 0.0051351601 0.0000000000 0.6000000000 0.0072101992 0.0000000000 0.7000000000 0.0072101992 0.0000000000 0.6000000000 0.0051351601 0.0000000000 0.7000000000 0.0072101992 0.0000000000 0.7000000000 0.0051351601 0.0000000000 0.7000000000 0.0051351601 0.0000000000 0.7000000000 0.0072101992 0.0000000000 0.8000000000 0.0072101992 0.0000000000 0.7000000000 0.0051351601 0.0000000000 0.8000000000 0.0072101992 0.0000000000 0.8000000000 0.0051351601 0.0000000000 0.8000000000 0.0051351601 0.0000000000 0.8000000000 0.0072101992 0.0000000000 0.9000000000 0.0072101992 0.0000000000 0.8000000000 0.0051351601 0.0000000000 0.9000000000 0.0072101992 0.0000000000 0.9000000000 0.0051351601 0.0000000000 0.9000000000 0.0051351601 0.0000000000 0.9000000000 0.0072101992 0.0000000000 1.0000000000 0.0072101992 0.0000000000 0.9000000000 0.0051351601 0.0000000000 1.0000000000 0.0072101992 0.0000000000 1.0000000000 0.0051351601 0.0000000000 0.0000000000 0.0072101992 0.0000000000 0.0000000000 0.0100799765 0.0000000000 0.1000000000 0.0100799765 0.0000000000 0.0000000000 0.0072101992 0.0000000000 0.1000000000 0.0100799765 0.0000000000 0.1000000000 0.0072101992 0.0000000000 0.1000000000 0.0072101992 0.0000000000 0.1000000000 0.0100799765 0.0000000000 0.2000000000 0.0100799765 0.0000000000 0.1000000000 0.0072101992 0.0000000000 0.2000000000 0.0100799765 0.0000000000 0.2000000000 0.0072101992 0.0000000000 0.2000000000 0.0072101992 0.0000000000 0.2000000000 0.0100799765 0.0000000000 0.3000000000 0.0100799765 0.0000000000 0.2000000000 0.0072101992 0.0000000000 0.3000000000 0.0100799765 0.0000000000 0.3000000000 0.0072101992 0.0000000000 0.3000000000 0.0072101992 0.0000000000 0.3000000000 0.0100799765 0.0000000000 0.4000000000 0.0100799765 0.0000000000 0.3000000000 0.0072101992 0.0000000000 0.4000000000 0.0100799765 0.0000000000 0.4000000000 0.0072101992 0.0000000000 0.4000000000 0.0072101992 0.0000000000 0.4000000000 0.0100799765 0.0000000000 0.5000000000 0.0100799765 0.0000000000 0.4000000000 0.0072101992 0.0000000000 0.5000000000 0.0100799765 0.0000000000 0.5000000000 0.0072101992 0.0000000000 0.5000000000 0.0072101992 0.0000000000 0.5000000000 0.0100799765 0.0000000000 0.6000000000 0.0100799765 0.0000000000 0.5000000000 0.0072101992 0.0000000000 0.6000000000 0.0100799765 0.0000000000 0.6000000000 0.0072101992 0.0000000000 0.6000000000 0.0072101992 0.0000000000 0.6000000000 0.0100799765 0.0000000000 0.7000000000 0.0100799765 0.0000000000 0.6000000000 0.0072101992 0.0000000000 0.7000000000 0.0100799765 0.0000000000 0.7000000000 0.0072101992 0.0000000000 0.7000000000 0.0072101992 0.0000000000 0.7000000000 0.0100799765 0.0000000000 0.8000000000 0.0100799765 0.0000000000 0.7000000000 0.0072101992 0.0000000000 0.8000000000 0.0100799765 0.0000000000 0.8000000000 0.0072101992 0.0000000000 0.8000000000 0.0072101992 0.0000000000 0.8000000000 0.0100799765 0.0000000000 0.9000000000 0.0100799765 0.0000000000 0.8000000000 0.0072101992 0.0000000000 0.9000000000 0.0100799765 0.0000000000 0.9000000000 0.0072101992 0.0000000000 0.9000000000 0.0072101992 0.0000000000 0.9000000000 0.0100799765 0.0000000000 1.0000000000 0.0100799765 0.0000000000 0.9000000000 0.0072101992 0.0000000000 1.0000000000 0.0100799765 0.0000000000 1.0000000000 0.0072101992 0.0000000000 0.0000000000 0.0100799765 0.0000000000 0.0000000000 0.0140488777 0.0000000000 0.1000000000 0.0140488777 0.0000000000 0.0000000000 0.0100799765 0.0000000000 0.1000000000 0.0140488777 0.0000000000 0.1000000000 0.0100799765 0.0000000000 0.1000000000 0.0100799765 0.0000000000 0.1000000000 0.0140488777 0.0000000000 0.2000000000 0.0140488777 0.0000000000 0.1000000000 0.0100799765 0.0000000000 0.2000000000 0.0140488777 0.0000000000 0.2000000000 0.0100799765 0.0000000000 0.2000000000 0.0100799765 0.0000000000 0.2000000000 0.0140488777 0.0000000000 0.3000000000 0.0140488777 0.0000000000 0.2000000000 0.0100799765 0.0000000000 0.3000000000 0.0140488777 0.0000000000 0.3000000000 0.0100799765 0.0000000000 0.3000000000 0.0100799765 0.0000000000 0.3000000000 0.0140488777 0.0000000000 0.4000000000 0.0140488777 0.0000000000 0.3000000000 0.0100799765 0.0000000000 0.4000000000 0.0140488777 0.0000000000 0.4000000000 0.0100799765 0.0000000000 0.4000000000 0.0100799765 0.0000000000 0.4000000000 0.0140488777 0.0000000000 0.5000000000 0.0140488777 0.0000000000 0.4000000000 0.0100799765 0.0000000000 0.5000000000 0.0140488777 0.0000000000 0.5000000000 0.0100799765 0.0000000000 0.5000000000 0.0100799765 0.0000000000 0.5000000000 0.0140488777 0.0000000000 0.6000000000 0.0140488777 0.0000000000 0.5000000000 0.0100799765 0.0000000000 0.6000000000 0.0140488777 0.0000000000 0.6000000000 0.0100799765 0.0000000000 0.6000000000 0.0100799765 0.0000000000 0.6000000000 0.0140488777 0.0000000000 0.7000000000 0.0140488777 0.0000000000 0.6000000000 0.0100799765 0.0000000000 0.7000000000 0.0140488777 0.0000000000 0.7000000000 0.0100799765 0.0000000000 0.7000000000 0.0100799765 0.0000000000 0.7000000000 0.0140488777 0.0000000000 0.8000000000 0.0140488777 0.0000000000 0.7000000000 0.0100799765 0.0000000000 0.8000000000 0.0140488777 0.0000000000 0.8000000000 0.0100799765 0.0000000000 0.8000000000 0.0100799765 0.0000000000 0.8000000000 0.0140488777 0.0000000000 0.9000000000 0.0140488777 0.0000000000 0.8000000000 0.0100799765 0.0000000000 0.9000000000 0.0140488777 0.0000000000 0.9000000000 0.0100799765 0.0000000000 0.9000000000 0.0100799765 0.0000000000 0.9000000000 0.0140488777 0.0000000000 1.0000000000 0.0140488777 0.0000000000 0.9000000000 0.0100799765 0.0000000000 1.0000000000 0.0140488777 0.0000000000 1.0000000000 0.0100799765 0.0000000000 0.0000000000 0.0140488777 0.0000000000 0.0000000000 0.0195378643 0.0000000000 0.1000000000 0.0195378643 0.0000000000 0.0000000000 0.0140488777 0.0000000000 0.1000000000 0.0195378643 0.0000000000 0.1000000000 0.0140488777 0.0000000000 0.1000000000 0.0140488777 0.0000000000 0.1000000000 0.0195378643 0.0000000000 0.2000000000 0.0195378643 0.0000000000 0.1000000000 0.0140488777 0.0000000000 0.2000000000 0.0195378643 0.0000000000 0.2000000000 0.0140488777 0.0000000000 0.2000000000 0.0140488777 0.0000000000 0.2000000000 0.0195378643 0.0000000000 0.3000000000 0.0195378643 0.0000000000 0.2000000000 0.0140488777 0.0000000000 0.3000000000 0.0195378643 0.0000000000 0.3000000000 0.0140488777 0.0000000000 0.3000000000 0.0140488777 0.0000000000 0.3000000000 0.0195378643 0.0000000000 0.4000000000 0.0195378643 0.0000000000 0.3000000000 0.0140488777 0.0000000000 0.4000000000 0.0195378643 0.0000000000 0.4000000000 0.0140488777 0.0000000000 0.4000000000 0.0140488777 0.0000000000 0.4000000000 0.0195378643 0.0000000000 0.5000000000 0.0195378643 0.0000000000 0.4000000000 0.0140488777 0.0000000000 0.5000000000 0.0195378643 0.0000000000 0.5000000000 0.0140488777 0.0000000000 0.5000000000 0.0140488777 0.0000000000 0.5000000000 0.0195378643 0.0000000000 0.6000000000 0.0195378643 0.0000000000 0.5000000000 0.0140488777 0.0000000000 0.6000000000 0.0195378643 0.0000000000 0.6000000000 0.0140488777 0.0000000000 0.6000000000 0.0140488777 0.0000000000 0.6000000000 0.0195378643 0.0000000000 0.7000000000 0.0195378643 0.0000000000 0.6000000000 0.0140488777 0.0000000000 0.7000000000 0.0195378643 0.0000000000 0.7000000000 0.0140488777 0.0000000000 0.7000000000 0.0140488777 0.0000000000 0.7000000000 0.0195378643 0.0000000000 0.8000000000 0.0195378643 0.0000000000 0.7000000000 0.0140488777 0.0000000000 0.8000000000 0.0195378643 0.0000000000 0.8000000000 0.0140488777 0.0000000000 0.8000000000 0.0140488777 0.0000000000 0.8000000000 0.0195378643 0.0000000000 0.9000000000 0.0195378643 0.0000000000 0.8000000000 0.0140488777 0.0000000000 0.9000000000 0.0195378643 0.0000000000 0.9000000000 0.0140488777 0.0000000000 0.9000000000 0.0140488777 0.0000000000 0.9000000000 0.0195378643 0.0000000000 1.0000000000 0.0195378643 0.0000000000 0.9000000000 0.0140488777 0.0000000000 1.0000000000 0.0195378643 0.0000000000 1.0000000000 0.0140488777 0.0000000000 0.0000000000 0.0195378643 0.0000000000 0.0000000000 0.0271291304 0.0000000000 0.1000000000 0.0271291304 0.0000000000 0.0000000000 0.0195378643 0.0000000000 0.1000000000 0.0271291304 0.0000000000 0.1000000000 0.0195378643 0.0000000000 0.1000000000 0.0195378643 0.0000000000 0.1000000000 0.0271291304 0.0000000000 0.2000000000 0.0271291304 0.0000000000 0.1000000000 0.0195378643 0.0000000000 0.2000000000 0.0271291304 0.0000000000 0.2000000000 0.0195378643 0.0000000000 0.2000000000 0.0195378643 0.0000000000 0.2000000000 0.0271291304 0.0000000000 0.3000000000 0.0271291304 0.0000000000 0.2000000000 0.0195378643 0.0000000000 0.3000000000 0.0271291304 0.0000000000 0.3000000000 0.0195378643 0.0000000000 0.3000000000 0.0195378643 0.0000000000 0.3000000000 0.0271291304 0.0000000000 0.4000000000 0.0271291304 0.0000000000 0.3000000000 0.0195378643 0.0000000000 0.4000000000 0.0271291304 0.0000000000 0.4000000000 0.0195378643 0.0000000000 0.4000000000 0.0195378643 0.0000000000 0.4000000000 0.0271291304 0.0000000000 0.5000000000 0.0271291304 0.0000000000 0.4000000000 0.0195378643 0.0000000000 0.5000000000 0.0271291304 0.0000000000 0.5000000000 0.0195378643 0.0000000000 0.5000000000 0.0195378643 0.0000000000 0.5000000000 0.0271291304 0.0000000000 0.6000000000 0.0271291304 0.0000000000 0.5000000000 0.0195378643 0.0000000000 0.6000000000 0.0271291304 0.0000000000 0.6000000000 0.0195378643 0.0000000000 0.6000000000 0.0195378643 0.0000000000 0.6000000000 0.0271291304 0.0000000000 0.7000000000 0.0271291304 0.0000000000 0.6000000000 0.0195378643 0.0000000000 0.7000000000 0.0271291304 0.0000000000 0.7000000000 0.0195378643 0.0000000000 0.7000000000 0.0195378643 0.0000000000 0.7000000000 0.0271291304 0.0000000000 0.8000000000 0.0271291304 0.0000000000 0.7000000000 0.0195378643 0.0000000000 0.8000000000 0.0271291304 0.0000000000 0.8000000000 0.0195378643 0.0000000000 0.8000000000 0.0195378643 0.0000000000 0.8000000000 0.0271291304 0.0000000000 0.9000000000 0.0271291304 0.0000000000 0.8000000000 0.0195378643 0.0000000000 0.9000000000 0.0271291304 0.0000000000 0.9000000000 0.0195378643 0.0000000000 0.9000000000 0.0195378643 0.0000000000 0.9000000000 0.0271291304 0.0000000000 1.0000000000 0.0271291304 0.0000000000 0.9000000000 0.0195378643 0.0000000000 1.0000000000 0.0271291304 0.0000000000 1.0000000000 0.0195378643 0.0000000000 0.0000000000 0.0271291304 0.0000000000 0.0000000000 0.0376278451 0.0000000000 0.1000000000 0.0376278451 0.0000000000 0.0000000000 0.0271291304 0.0000000000 0.1000000000 0.0376278451 0.0000000000 0.1000000000 0.0271291304 0.0000000000 0.1000000000 0.0271291304 0.0000000000 0.1000000000 0.0376278451 0.0000000000 0.2000000000 0.0376278451 0.0000000000 0.1000000000 0.0271291304 0.0000000000 0.2000000000 0.0376278451 0.0000000000 0.2000000000 0.0271291304 0.0000000000 0.2000000000 0.0271291304 0.0000000000 0.2000000000 0.0376278451 0.0000000000 0.3000000000 0.0376278451 0.0000000000 0.2000000000 0.0271291304 0.0000000000 0.3000000000 0.0376278451 0.0000000000 0.3000000000 0.0271291304 0.0000000000 0.3000000000 0.0271291304 0.0000000000 0.3000000000 0.0376278451 0.0000000000 0.4000000000 0.0376278451 0.0000000000 0.3000000000 0.0271291304 0.0000000000 0.4000000000 0.0376278451 0.0000000000 0.4000000000 0.0271291304 0.0000000000 0.4000000000 0.0271291304 0.0000000000 0.4000000000 0.0376278451 0.0000000000 0.5000000000 0.0376278451 0.0000000000 0.4000000000 0.0271291304 0.0000000000 0.5000000000 0.0376278451 0.0000000000 0.5000000000 0.0271291304 0.0000000000 0.5000000000 0.0271291304 0.0000000000 0.5000000000 0.0376278451 0.0000000000 0.6000000000 0.0376278451 0.0000000000 0.5000000000 0.0271291304 0.0000000000 0.6000000000 0.0376278451 0.0000000000 0.6000000000 0.0271291304 0.0000000000 0.6000000000 0.0271291304 0.0000000000 0.6000000000 0.0376278451 0.0000000000 0.7000000000 0.0376278451 0.0000000000 0.6000000000 0.0271291304 0.0000000000 0.7000000000 0.0376278451 0.0000000000 0.7000000000 0.0271291304 0.0000000000 0.7000000000 0.0271291304 0.0000000000 0.7000000000 0.0376278451 0.0000000000 0.8000000000 0.0376278451 0.0000000000 0.7000000000 0.0271291304 0.0000000000 0.8000000000 0.0376278451 0.0000000000 0.8000000000 0.0271291304 0.0000000000 0.8000000000 0.0271291304 0.0000000000 0.8000000000 0.0376278451 0.0000000000 0.9000000000 0.0376278451 0.0000000000 0.8000000000 0.0271291304 0.0000000000 0.9000000000 0.0376278451 0.0000000000 0.9000000000 0.0271291304 0.0000000000 0.9000000000 0.0271291304 0.0000000000 0.9000000000 0.0376278451 0.0000000000 1.0000000000 0.0376278451 0.0000000000 0.9000000000 0.0271291304 0.0000000000 1.0000000000 0.0376278451 0.0000000000 1.0000000000 0.0271291304 0.0000000000 0.0000000000 0.0376278451 0.0000000000 0.0000000000 0.0521475645 0.0000000000 0.1000000000 0.0521475645 0.0000000000 0.0000000000 0.0376278451 0.0000000000 0.1000000000 0.0521475645 0.0000000000 0.1000000000 0.0376278451 0.0000000000 0.1000000000 0.0376278451 0.0000000000 0.1000000000 0.0521475645 0.0000000000 0.2000000000 0.0521475645 0.0000000000 0.1000000000 0.0376278451 0.0000000000 0.2000000000 0.0521475645 0.0000000000 0.2000000000 0.0376278451 0.0000000000 0.2000000000 0.0376278451 0.0000000000 0.2000000000 0.0521475645 0.0000000000 0.3000000000 0.0521475645 0.0000000000 0.2000000000 0.0376278451 0.0000000000 0.3000000000 0.0521475645 0.0000000000 0.3000000000 0.0376278451 0.0000000000 0.3000000000 0.0376278451 0.0000000000 0.3000000000 0.0521475645 0.0000000000 0.4000000000 0.0521475645 0.0000000000 0.3000000000 0.0376278451 0.0000000000 0.4000000000 0.0521475645 0.0000000000 0.4000000000 0.0376278451 0.0000000000 0.4000000000 0.0376278451 0.0000000000 0.4000000000 0.0521475645 0.0000000000 0.5000000000 0.0521475645 0.0000000000 0.4000000000 0.0376278451 0.0000000000 0.5000000000 0.0521475645 0.0000000000 0.5000000000 0.0376278451 0.0000000000 0.5000000000 0.0376278451 0.0000000000 0.5000000000 0.0521475645 0.0000000000 0.6000000000 0.0521475645 0.0000000000 0.5000000000 0.0376278451 0.0000000000 0.6000000000 0.0521475645 0.0000000000 0.6000000000 0.0376278451 0.0000000000 0.6000000000 0.0376278451 0.0000000000 0.6000000000 0.0521475645 0.0000000000 0.7000000000 0.0521475645 0.0000000000 0.6000000000 0.0376278451 0.0000000000 0.7000000000 0.0521475645 0.0000000000 0.7000000000 0.0376278451 0.0000000000 0.7000000000 0.0376278451 0.0000000000 0.7000000000 0.0521475645 0.0000000000 0.8000000000 0.0521475645 0.0000000000 0.7000000000 0.0376278451 0.0000000000 0.8000000000 0.0521475645 0.0000000000 0.8000000000 0.0376278451 0.0000000000 0.8000000000 0.0376278451 0.0000000000 0.8000000000 0.0521475645 0.0000000000 0.9000000000 0.0521475645 0.0000000000 0.8000000000 0.0376278451 0.0000000000 0.9000000000 0.0521475645 0.0000000000 0.9000000000 0.0376278451 0.0000000000 0.9000000000 0.0376278451 0.0000000000 0.9000000000 0.0521475645 0.0000000000 1.0000000000 0.0521475645 0.0000000000 0.9000000000 0.0376278451 0.0000000000 1.0000000000 0.0521475645 0.0000000000 1.0000000000 0.0376278451 0.0000000000 0.0000000000 0.0521475645 0.0000000000 0.0000000000 0.0722283238 0.0000000000 0.1000000000 0.0722283238 0.0000000000 0.0000000000 0.0521475645 0.0000000000 0.1000000000 0.0722283238 0.0000000000 0.1000000000 0.0521475645 0.0000000000 0.1000000000 0.0521475645 0.0000000000 0.1000000000 0.0722283238 0.0000000000 0.2000000000 0.0722283238 0.0000000000 0.1000000000 0.0521475645 0.0000000000 0.2000000000 0.0722283238 0.0000000000 0.2000000000 0.0521475645 0.0000000000 0.2000000000 0.0521475645 0.0000000000 0.2000000000 0.0722283238 0.0000000000 0.3000000000 0.0722283238 0.0000000000 0.2000000000 0.0521475645 0.0000000000 0.3000000000 0.0722283238 0.0000000000 0.3000000000 0.0521475645 0.0000000000 0.3000000000 0.0521475645 0.0000000000 0.3000000000 0.0722283238 0.0000000000 0.4000000000 0.0722283238 0.0000000000 0.3000000000 0.0521475645 0.0000000000 0.4000000000 0.0722283238 0.0000000000 0.4000000000 0.0521475645 0.0000000000 0.4000000000 0.0521475645 0.0000000000 0.4000000000 0.0722283238 0.0000000000 0.5000000000 0.0722283238 0.0000000000 0.4000000000 0.0521475645 0.0000000000 0.5000000000 0.0722283238 0.0000000000 0.5000000000 0.0521475645 0.0000000000 0.5000000000 0.0521475645 0.0000000000 0.5000000000 0.0722283238 0.0000000000 0.6000000000 0.0722283238 0.0000000000 0.5000000000 0.0521475645 0.0000000000 0.6000000000 0.0722283238 0.0000000000 0.6000000000 0.0521475645 0.0000000000 0.6000000000 0.0521475645 0.0000000000 0.6000000000 0.0722283238 0.0000000000 0.7000000000 0.0722283238 0.0000000000 0.6000000000 0.0521475645 0.0000000000 0.7000000000 0.0722283238 0.0000000000 0.7000000000 0.0521475645 0.0000000000 0.7000000000 0.0521475645 0.0000000000 0.7000000000 0.0722283238 0.0000000000 0.8000000000 0.0722283238 0.0000000000 0.7000000000 0.0521475645 0.0000000000 0.8000000000 0.0722283238 0.0000000000 0.8000000000 0.0521475645 0.0000000000 0.8000000000 0.0521475645 0.0000000000 0.8000000000 0.0722283238 0.0000000000 0.9000000000 0.0722283238 0.0000000000 0.8000000000 0.0521475645 0.0000000000 0.9000000000 0.0722283238 0.0000000000 0.9000000000 0.0521475645 0.0000000000 0.9000000000 0.0521475645 0.0000000000 0.9000000000 0.0722283238 0.0000000000 1.0000000000 0.0722283238 0.0000000000 0.9000000000 0.0521475645 0.0000000000 1.0000000000 0.0722283238 0.0000000000 1.0000000000 0.0521475645 0.0000000000 0.0000000000 0.0722283238 0.0000000000 0.0000000000 0.1000000000 0.0000000000 0.1000000000 0.1000000000 0.0000000000 0.0000000000 0.0722283238 0.0000000000 0.1000000000 0.1000000000 0.0000000000 0.1000000000 0.0722283238 0.0000000000 0.1000000000 0.0722283238 0.0000000000 0.1000000000 0.1000000000 0.0000000000 0.2000000000 0.1000000000 0.0000000000 0.1000000000 0.0722283238 0.0000000000 0.2000000000 0.1000000000 0.0000000000 0.2000000000 0.0722283238 0.0000000000 0.2000000000 0.0722283238 0.0000000000 0.2000000000 0.1000000000 0.0000000000 0.3000000000 0.1000000000 0.0000000000 0.2000000000 0.0722283238 0.0000000000 0.3000000000 0.1000000000 0.0000000000 0.3000000000 0.0722283238 0.0000000000 0.3000000000 0.0722283238 0.0000000000 0.3000000000 0.1000000000 0.0000000000 0.4000000000 0.1000000000 0.0000000000 0.3000000000 0.0722283238 0.0000000000 0.4000000000 0.1000000000 0.0000000000 0.4000000000 0.0722283238 0.0000000000 0.4000000000 0.0722283238 0.0000000000 0.4000000000 0.1000000000 0.0000000000 0.5000000000 0.1000000000 0.0000000000 0.4000000000 0.0722283238 0.0000000000 0.5000000000 0.1000000000 0.0000000000 0.5000000000 0.0722283238 0.0000000000 0.5000000000 0.0722283238 0.0000000000 0.5000000000 0.1000000000 0.0000000000 0.6000000000 0.1000000000 0.0000000000 0.5000000000 0.0722283238 0.0000000000 0.6000000000 0.1000000000 0.0000000000 0.6000000000 0.0722283238 0.0000000000 0.6000000000 0.0722283238 0.0000000000 0.6000000000 0.1000000000 0.0000000000 0.7000000000 0.1000000000 0.0000000000 0.6000000000 0.0722283238 0.0000000000 0.7000000000 0.1000000000 0.0000000000 0.7000000000 0.0722283238 0.0000000000 0.7000000000 0.0722283238 0.0000000000 0.7000000000 0.1000000000 0.0000000000 0.8000000000 0.1000000000 0.0000000000 0.7000000000 0.0722283238 0.0000000000 0.8000000000 0.1000000000 0.0000000000 0.8000000000 0.0722283238 0.0000000000 0.8000000000 0.0722283238 0.0000000000 0.8000000000 0.1000000000 0.0000000000 0.9000000000 0.1000000000 0.0000000000 0.8000000000 0.0722283238 0.0000000000 0.9000000000 0.1000000000 0.0000000000 0.9000000000 0.0722283238 0.0000000000 0.9000000000 0.0722283238 0.0000000000 0.9000000000 0.1000000000 0.0000000000 1.0000000000 0.1000000000 0.0000000000 0.9000000000 0.0722283238 0.0000000000 1.0000000000 0.1000000000 0.0000000000 1.0000000000 0.0722283238 0.0000000000 
</DataArray>
</Points>
<Cells>
<DataArray type="UInt32" Name="connectivity" format="ascii">
0 1 2 3 4 5 6 7 8 9 10 11 12 13 14 15 16 17 18 19 20 21 22 23 24 25 26 27 28 29 30 31 32 33 34 35 36 37 38 39 40 41 42 43 44 45 46 47 48 49 50 51 52 53 54 55 56 57 58 59 60 61 62 63 64 65 66 67 68 69 70 71 72 73 74 75 76 77 78 79 80 81 82 83 84 85 86 87 88 89 90 91 92 93 94 95 96 97 98 99 100 101 102 103 104 105 106 107 108 109 110 111 112 113 114 115 116 117 118 119 120 121 122 123 124 125 126 127 128 129 130 131 132 133 134 135 136 137 138 139 140 141 142 143 144 145 146 147 148 149 150 151 152 153 154 155 156 157 158 159 160 161 162 163 164 165 166 167 168 169 170 171 172 173 174 175 176 177 178 179 180 181 182 183 184 185 186 187 188 189 190 191 192 193 194 195 196 197 198 199 200 201 202 203 204 205 206 207 208 209 210 211 212 213 214 215 216 217 218 219 220 221 222 223 224 225 226 227 228 229 230 231 232 233 234 235 236 237 238 239 240 241 242 243 244 245 246 247 248 249 250 251 252 253 254 255 256 257 258 259 260 261 262 263 264 265 266 267 268 269 270 271 272 273 274 275 276 277 278 279 280 281 282 283 284 285 286 287 288 289 290 291 292 293 294 295 296 297 298 299 300 301 302 303 304 305 306 307 308 309 310 311 312 313 314 315 316 317 318 319 320 321 322 323 324 325 326 327 328 329 330 331 332 333 334 335 336 337 338 339 340 341 342 343 344 345 346 347 348 349 350 351 352 353 354 355 356 357 358 359 360 361 362 363 364 365 366 367 368 369 370 371 372 373 374 375 376 377 378 379 380 381 382 383 384 385 386 387 388 389 390 391 392 393 394 395 396 397 398 399 400 401 402 403 404 405 406 407 408 409 410 411 412 413 414 415 416 417 418 419 420 421 422 423 424 425 426 427 428 429 430 431 432 433 434 435 436 437 438 439 440 441 442 443 444 445 446 447 448 449 450 451 452 453 454 455 456 457 458 459 460 461 462 463 464 465 466 467 468 469 470 471 472 473 474 475 476 477 478 479 480 481 482 483 484 485 486 487 488 489 490 491 492 493 494 495 496 497 498 499 500 501 502 503 504 505 506 507 508 509 510 511 512 513 514 515 516 517 518 519 520 521 522 523 524 525 526 527 528 529 530 531 532 533 534 535 536 537 538 539 540 541 542 543 544 545 546 547 548 549 550 551 552 553 554 555 556 557 558 559 560 561 562 563 564 565 566 567 568 569 570 571 572 573 574 575 576 577 578 579 580 581 582 583 584 585 586 587 588 589 590 591 592 593 594 595 596 597 598 599 600 601 602 603 604 605 606 607 608 609 610 611 612 613 614 615 616 617 618 619 620 621 622 623 624 625 626 627 628 629 630 631 632 633 634 635 636 637 638 639 640 641 642 643 644 645 646 647 648 649 650 651 652 653 654 655 656 657 658 659 660 661 662 663 664 665 666 667 668 669 670 671 672 673 674 675 676 677 678 679 680 681 682 683 684 685 686 687 688 689 690 691 692 693 694 695 696 697 698 699 700 701 702 703 704 705 706 707 708 709 710 711 712 713 714 715 716 717 718 719 720 721 722 723 724 725 726 727 728 729 730 731 732 733 734 735 736 737 738 739 740 741 742 743 744 745 746 747 748 749 750 751 752 753 754 755 756 757 758 759 760 761 762 763 764 765 766 767 768 769 770 771 772 773 774 775 776 777 778 779 780 781 782 783 784 785 786 787 788 789 790 791 792 793 794 795 796 797 798 799 800 801 802 803 804 805 806 807 808 809 810 811 812 813 814 815 816 817 818 819 820 821 822 823 824 825 826 827 828 829 830 831 832 833 834 835 836 837 838 839 840 841 842 843 844 845 846 847 848 849 850 851 852 853 854 855 856 857 858 859 860 861 862 863 864 865 866 867 868 869 870 871 872 873 874 875 876 877 878 879 880 881 882 883 884 885 886 887 888 889 890 891 892 893 894 895 896 897 898 899 900 901 902 903 904 905 906 907 908 909 910 911 912 913 914 915 916 917 918 919 920 921 922 923 924 925 926 927 928 929 930 931 932 933 934 935 936 937 938 939 940 941 942 943 944 945 946 947 948 949 950 951 952 953 954 955 956 957 958 959 960 961 962 963 964 965 966 967 968 969 970 971 972 973 974 975 976 977 978 979 980 981 982 983 984 985 986 987 988 989 990 991 992 993 994 995 996 997 998 999 1000 1001 1002 1003 1004 1005 1006 1007 1008 1009 1010 1011 1012 1013 1014 1015 1016 1017 1018 1019 1020 1021 1022 1023 1024 1025 1026 1027 1028 1029 1030 1031 1032 1033 1034 1035 1036 1037 1038 1039 1040 1041 1042 1043 1044 1045 1046 1047 1048 1049 1050 1051 1052 1053 1054 1055 1056 1057 1058 1059 1060 1061 1062 1063 1064 1065 1066 1067 1068 1069 1070 1071 1072 1073 1074 1075 1076 1077 1078 1079 1080 1081 1082 1083 1084 1085 1086 1087 1088 1089 1090 1091 1092 1093 1094 1095 1096 1097 1098 1099 1100 1101 1102 1103 1104 1105 1106 1107 1108 1109 1110 1111 1112 1113 1114 1115 1116 1117 1118 1119 1120 1121 1122 1123 1124 1125 1126 1127 1128 1129 1130 1131 1132 1133 1134 1135 1136 1137 1138 1139 1140 1141 1142 1143 1144 1145 1146 1147 1148 1149 1150 1151 1152 1153 1154 1155 1156 1157 1158 1159 
</DataArray>
<DataArray type="UInt32" Name="offsets" format="ascii">
2 4 6 8 10 12 14 16 18 20 23 26 29 32 35 38 41 44 47 50 53 56 59 62 65 68 71 74 77 80 83 86 89 92 95 98 101 104 107 110 113 116 119 122 125 128 131 134 137 140 143 146 149 152 155 158 161 164 167 170 173 176 179 182 185 188 191 194 197 200 203 206 209 212 215 218 221 224 227 230 233 236 239 242 245 248 251 254 257 260 263 266 269 272 275 278 281 284 287 290 293 296 299 302 305 308 311 314 317 320 323 326 329 332 335 338 341 344 347 350 353 356 359 362 365 368 371 374 377 380 383 386 389 392 395 398 401 404 407 410 413 416 419 422 425 428 431 434 437 440 443 446 449 452 455 458 461 464 467 470 473 476 479 482 485 488 491 494 497 500 503 506 509 512 515 518 521 524 527 530 533 536 539 542 545 548 551 554 557 560 563 566 569 572 575 578 581 584 587 590 593 596 599 602 605 608 611 614 617 620 623 626 629 632 635 638 641 644 647 650 653 656 659 662 665 668 671 674 677 680 683 686 689 692 695 698 701 704 707 710 713 716 719 722 725 728 731 734 737 740 743 746 749 752 755 758 761 764 767 770 773 776 779 782 785 788 791 794 797 800 803 806 809 812 815 818 821 824 827 830 833 836 839 842 845 848 851 854 857 860 863 866 869 872 875 878 881 884 887 890 893 896 899 902 905 908 911 914 917 920 923 926 929 932 935 938 941 944 947 950 953 956 959 962 965 968 971 974 977 980 983 986 989 992 995 998 1001 1004 1007 1010 1013 1016 1019 1022 1025 1028 1031 1034 1037 1040 1043 1046 1049 1052 1055 1058 1061 1064 1067 1070 1073 1076 1079 1082 1085 1088 1091 1094 1097 1100 1103 1106 1109 1112 1115 1118 1121 1124 1127 1130 1133 1136 1139 1142 1145 1148 1151 1154 1157 1160 
</DataArray>
<DataArray type="UInt32" Name="types" format="ascii">
3 3 3 3 3 3 3 3 3 3 5 5 5 5 5 5 5 5 5 5 5 5 5 5 5 5 5 5 5 5 5 5 5 5 5 5 5 5 5 5 5 5 5 5 5 5 5 5 5 5 5 5 5 5 5 5 5 5 5 5 5 5 5 5 5 5 5 5 5 5 5 5 5 5 5 5 5 5 5 5 5 5 5 5 5 5 5 5 5 5 5 5 5 5 5 5 5 5 5 5 5 5 5 5 5 5 5 5 5 5 5 5 5 5 5 5 5 5 5 5 5 5 5 5 5 5 5 5 5 5 5 5 5 5 5 5 5 5 5 5 5 5 5 5 5 5 5 5 5 5 5 5 5 5 5 5 5 5 5 5 5 5 5 5 5 5 5 5 5 5 5 5 5 5 5 5 5 5 5 5 5 5 5 5 5 5 5 5 5 5 5 5 5 5 5 5 5 5 5 5 5 5 5 5 5 5 5 5 5 5 5 5 5 5 5 5 5 5 5 5 5 5 5 5 5 5 5 5 5 5 5 5 5 5 5 5 5 5 5 5 5 5 5 5 5 5 5 5 5 5 5 5 5 5 5 5 5 5 5 5 5 5 5 5 5 5 5 5 5 5 5 5 5 5 5 5 5 5 5 5 5 5 5 5 5 5 5 5 5 5 5 5 5 5 5 5 5 5 5 5 5 5 5 5 5 5 5 5 5 5 5 5 5 5 5 5 5 5 5 5 5 5 5 5 5 5 5 5 5 5 5 5 5 5 5 5 5 5 5 5 5 5 5 5 5 5 5 5 5 5 5 5 5 5 5 5 5 5 5 5 5 5 5 5 5 5 5 5 5 5 5 5 5 5 5 5 5 5 5 5 5 5 5 5 5 5 5 5 5 5 
</DataArray>
</Cells>
<PointData Scalars="Ba-133_conc,region_id," Vectors="" Tensors="">
<DataArray type="Float64" Name="Ba-133_conc" format="ascii">
892.4768515259 817.1610827036 817.0109666375 731.7801280205 731.8121153796 642.6924621564 642.6136240807 548.4523702593 548.4458686745 452.6262905171 452.5722869712 355.6328958929 355.6120451832 260.0810396253 260.0418994816 167.1721307684 167.1494991665 78.9645287760 78.9220291114 0.2400585406 892.6889282420 1037.9386561992 1064.7815049854 892.7012005785 1064.7706962534 817.3822482309 817.3537040304 1064.7786394939 1079.4145993924 817.3418116022 1079.4050366284 732.1098899922 732.1115525211 1079.4042552846 1080.3950417987 732.1285123445 1080.3804889261 643.0330244613 643.0147975518 1080.3859450588 1070.2259218784 643.0118236715 1070.2179549380 548.8494588153 548.8439562839 1070.2214671796 1048.9100886180 548.8527995732 1048.9015274648 453.0398445840 453.0259074694 1048.9084458314 1016.2525102320 453.0252649460 1016.2487826981 356.0783190929 356.0703676608 1016.2555094657 972.5437643281 356.0740226541 972.5419043589 260.5359857837 260.5249854261 972.5506787419 918.8935234964 260.5236856187 918.8961759745 167.6382911164 167.6303896055 918.9056850381 854.7737161206 167.6301025208 854.7779905247 79.4289651924 79.4217212773 854.7867343411 595.1016468061 79.4098572079 595.1122508874 0.5854076848 1048.4977303101 3.2825446882 -21.3458709806 1038.3876722707 -12.0305074594 1065.3780980430 1074.6009713921 -20.9075607998 -8.3307251819 1065.2352623506 2.2448858056 1080.1637996893 1090.7871848038 -8.2027231377 4.8618811096 1079.9273822695 16.7628083066 1081.1821847182 1093.1411220968 4.9075171710 19.8495544672 1080.9837883172 32.8374613417 1071.0431213421 1084.1542018782 19.7423329371 35.9203116474 1070.8878052014 49.7630083276 1049.7341706899 1063.7696276484 35.6555349580 52.8767181486 1049.6310556653 67.3111082272 1017.0687693569 1031.7802235508 52.4460648401 70.3835521564 1017.0238256019 85.1222507128 973.3305060860 988.4467809159 69.7737193118 88.1998494790 973.3507603000 102.9555380823 919.6323374995 934.8434456758 87.4334248256 100.3520883801 919.7242585513 114.6852378719 855.4602870251 870.6804757086 99.1564697579 223.7472897250 855.6142544769 241.2175491280 595.2994480539 1.6408435362 0.4011823183 -3.3711994599 3.1044500600 -4.7678007219 -26.0257691416 -30.2658333267 -2.5659258411 -3.2134405841 -25.2467298874 -6.1929848952 -13.6056507283 -18.3307617085 -3.0242980525 -4.4469691412 -13.1237989658 -7.5814648579 -0.9753445517 -5.8223160956 -4.3953987043 -5.6505312765 -0.4886848905 -8.8122840968 13.5041625904 8.6332623606 -5.6483226101 -6.8920290341 13.9542038305 -9.9842235499 29.1990248580 24.4457499396 -6.9408623596 -8.1007967904 29.6021881778 -11.0231048269 45.9164487425 41.4284409598 -8.2057416650 -9.2447907927 46.2641753379 -11.8950453654 63.3281186421 59.2513006293 -9.4085103588 -10.3994345007 63.6065713377 -12.6659300592 81.1864694017 77.6481208265 -10.5941458706 -9.6518857729 81.3803948484 -11.5365561590 93.6659240105 90.9353948985 -10.1606021809 -26.5455957192 93.6791763428 -28.2425209434 216.7614671003 -0.0085464537 -0.0942395890 0.1660922497 0.0547493110 0.2722934549 -2.2864658042 -1.5916573870 0.0454137276 0.7088602106 -2.1241719610 1.4676415232 -1.8368109947 -0.6348839422 0.6065081483 0.8108164413 -1.6351330013 1.6929846666 -3.2356247171 -1.9648968007 0.7413656073 0.9811470358 -2.9622926048 1.8968833806 -4.4658364895 -3.1863835272 0.9383097270 1.1563171503 -4.1653443881 2.0577320941 -5.7816200021 -4.5311914388 1.1127984871 1.3283582026 -5.4483474441 2.1801305005 -7.1136973843 -5.9410913049 1.2858283302 1.4849418080 -6.7513227734 2.2480958488 -8.4266558468 -7.3821645509 1.4436778217 1.6495005040 -8.0407386290 2.2869527045 -9.7995897503 -8.9321091933 1.6097143540 1.5156807731 -9.3886257710 1.9501457619 -9.1939764292 -8.5822745347 1.4338233276 3.6763881677 -8.8820356309 4.0562885860 -26.7516550067 -0.0117114306 0.0044945206 -0.0044318682 -0.0364201014 -0.0020637636 0.0631040606 0.0163144628 0.0081530954 -0.0388862571 0.0500752768 -0.1168866442 0.2479897556 -0.0008175128 -0.0144080578 -0.0436483192 0.2474773824 -0.2065047405 0.3300583740 0.0266601577 -0.0314275748 -0.0571701062 0.3105133449 -0.2468354081 0.5010935657 0.1715339309 -0.0478222027 -0.0799491203 0.4886830947 -0.2931838355 0.6642357032 0.3065261177 -0.0713991785 -0.1020803844 0.6505393222 -0.3351323364 0.8419490930 0.4647928703 -0.0950856103 -0.1258660413 0.8268036208 -0.3729437057 1.0240291178 0.6391426212 -0.1201779124 -0.1514190509 1.0083994565 -0.4080996588 1.2287557873 0.8469831795 -0.1540913863 -0.1605839447 1.2052780379 -0.3955874325 1.2101781621 0.8474398682 -0.1093352912 -0.3070146815 1.1860236271 -0.6743411964 3.2630884822 -0.0004032323 -0.0000268584 0.0001507291 0.0004882894 -0.0000798464 -0.0016257188 -0.0011512509 0.0001738003 -0.0005352132 -0.0012157198 0.0011380414 0.0024587267 0.0091576958 0.0001107382 -0.0033932096 0.0013270863 0.0029635029 0.0153893266 0.0264604979 -0.0023969717 -0.0037492933 0.0158253159 0.0044029229 0.0097638974 0.0268478018 -0.0038743834 -0.0025843387 0.0110390678 0.0094458329 -0.0004438606 0.0244345326 -0.0033186572 -0.0015831985 0.0016285119 0.0152403370 -0.0108049216 0.0221544393 -0.0025474092 -0.0004178599 -0.0084987548 0.0218174166 -0.0237122951 0.0182068204 -0.0015168646 0.0010996237 -0.0208849193 0.0291599930 -0.0387935186 0.0124561565 -0.0001139569 0.0034401959 -0.0372008036 0.0376303324 -0.0554102032 0.0066152943 0.0008615823 0.0031254065 -0.0357700992 0.0503192904 -0.0958368991 0.0000042998 0.0000006452 -0.0000032407 0.0000150303 -0.0000162244 0.0000613203 0.0000438886 -0.0000120854 0.0000064003 0.0001325729 0.0000058338 -0.0003214101 -0.0000785511 -0.0000320620 0.0000980389 -0.0001135624 0.0003938841 -0.0017807221 -0.0006130168 0.0000309755 0.0001912062 -0.0014827632 0.0009320426 -0.0022861044 -0.0008552952 0.0001507972 0.0002059583 -0.0021399945 0.0010483872 -0.0023146195 -0.0009476105 0.0001899704 0.0002177280 -0.0022750207 0.0010705649 -0.0024044180 -0.0010786264 0.0002146732 0.0002449537 -0.0024068253 0.0010891896 -0.0024860916 -0.0012236464 0.0002440098 0.0002726301 -0.0025010345 0.0010723423 -0.0025067716 -0.0013888323 0.0002797764 0.0002940895 -0.0025655709 0.0009801351 -0.0022325407 -0.0013319354 0.0002343929 0.0004221260 -0.0021612247 0.0013215670 -0.0047174921 0.0000000003 -0.0000000024 0.0000000049 -0.0000000032 0.0000000844 -0.0000003389 -0.0000000913 0.0000000159 0.0000000129 -0.0000011239 0.0000003681 0.0000005100 -0.0000000947 0.0000001086 -0.0000001298 -0.0000017032 -0.0000017197 0.0000100366 0.0000008959 0.0000000679 -0.0000005159 0.0000060916 -0.0000085643 0.0000214380 0.0000022246 -0.0000003044 -0.0000007010 0.0000179780 -0.0000126671 0.0000256991 0.0000028018 -0.0000005575 -0.0000007772 0.0000228899 -0.0000149945 0.0000293580 0.0000033755 -0.0000006941 -0.0000009389 0.0000272055 -0.0000178026 0.0000349382 0.0000041675 -0.0000008557 -0.0000011538 0.0000325026 -0.0000211076 0.0000413564 0.0000051534 -0.0000010628 -0.0000014126 0.0000390455 -0.0000249531 0.0000482369 0.0000057546 -0.0000011506 -0.0000017915 0.0000389885 -0.0000296993 0.0000695014 -0.0000000000 0.0000000000 -0.0000000000 -0.0000000000 -0.0000000000 0.0000000001 0.0000000000 -0.0000000000 -0.0000000000 0.0000000005 -0.0000000004 0.0000000005 0.0000000001 -0.0000000000 0.0000000000 0.0000000024 0.0000000000 -0.0000000036 -0.0000000001 -0.0000000000 0.0000000001 -0.0000000002 0.0000000047 -0.0000000162 -0.0000000005 0.0000000000 0.0000000002 -0.0000000116 0.0000000109 -0.0000000237 -0.0000000008 0.0000000001 0.0000000002 -0.0000000192 0.0000000144 -0.0000000282 -0.0000000010 0.0000000002 0.0000000003 -0.0000000244 0.0000000180 -0.0000000351 -0.0000000012 0.0000000002 0.0000000004 -0.0000000308 0.0000000228 -0.0000000444 -0.0000000016 0.0000000003 0.0000000005 -0.0000000392 0.0000000289 -0.0000000560 -0.0000000020 0.0000000004 0.0000000006 -0.0000000455 0.0000000352 -0.0000000726 0.0000000000 -0.0000000000 0.0000000000 0.0000000000 -0.0000000000 -0.0000000000 -0.0000000000 -0.0000000000 0.0000000000 -0.0000000000 0.0000000000 -0.0000000000 -0.0000000000 0.0000000000 0.0000000000 -0.0000000000 0.0000000000 0.0000000000 -0.0000000000 0.0000000000 -0.0000000000 -0.0000000000 -0.0000000000 0.0000000000 0.0000000000 0.0000000000 -0.0000000000 0.0000000000 -0.0000000000 0.0000000000 0.0000000000 -0.0000000000 -0.0000000000 0.0000000000 -0.0000000000 0.0000000000 0.0000000000 -0.0000000000 -0.0000000000 0.0000000000 -0.0000000000 0.0000000000 0.0000000000 -0.0000000000 -0.0000000000 0.0000000000 -0.0000000000 0.0000000000 0.0000000000 -0.0000000000 -0.0000000000 0.0000000000 -0.0000000000 0.0000000000 0.0000000000 -0.0000000000 -0.0000000000 0.0000000000 -0.0000000000 0.0000000000 -0.0000000000 0.0000000000 0.0000000000 -0.0000000000 0.0000000000 0.0000000000 -0.0000000000 0.0000000000 -0.0000000000 -0.0000000000 -0.0000000000 0.0000000000 0.0000000000 -0.0000000000 -0.0000000000 0.0000000000 -0.0000000000 0.0000000000 0.0000000000 -0.0000000000 0.0000000000 0.0000000000 -0.0000000000 -0.0000000000 -0.0000000000 -0.0000000000 0.0000000000 0.0000000000 0.0000000000 -0.0000000000 -0.0000000000 0.0000000000 0.0000000000 -0.0000000000 0.0000000000 -0.0000000000 -0.0000000000 0.0000000000 0.0000000000 -0.0000000000 0.0000000000 -0.0000000000 -0.0000000000 0.0000000000 0.0000000000 -0.0000000000 0.0000000000 -0.0000000000 -0.0000000000 0.0000000000 0.0000000000 -0.0000000000 0.0000000000 -0.0000000000 -0.0000000000 0.0000000000 0.0000000000 -0.0000000000 0.0000000000 -0.0000000000 0.0000000000 0.0000000000 -0.0000000000 0.0000000000 -0.0000000000 0.0000000000 0.0000000000 -0.0000000000 0.0000000000 0.0000000000 -0.0000000000 -0.0000000000 -0.0000000000 -0.0000000000 0.0000000000 -0.0000000000 0.0000000000 -0.0000000000 -0.0000000000 0.0000000000 0.0000000000 -0.0000000000 0.0000000000 0.0000000000 -0.0000000000 0.0000000000 -0.0000000000 -0.0000000000 -0.0000000000 0.0000000000 0.0000000000 0.0000000000 -0.0000000000 0.0000000000 -0.0000000000 0.0000000000 0.0000000000 -0.0000000000 -0.0000000000 0.0000000000 -0.0000000000 0.0000000000 0.0000000000 -0.0000000000 -0.0000000000 0.0000000000 -0.0000000000 0.0000000000 0.0000000000 -0.0000000000 -0.0000000000 0.0000000000 -0.0000000000 0.0000000000 0.0000000000 -0.0000000000 -0.0000000000 0.0000000000 -0.0000000000 0.0000000000 0.0000000000 -0.0000000000 0.0000000000 0.0000000000 0.0000000000 -0.0000000000 -0.0000000000 0.0000000000 0.0000000000 -0.0000000000 0.0000000000 0.0000000000 -0.0000000000 0.0000000000 -0.0000000000 -0.0000000000 -0.0000000000 0.0000000000 0.0000000000 0.0000000000 -0.0000000000 0.0000000000 -0.0000000000 0.0000000000 0.0000000000 -0.0000000000 -0.0000000000 0.0000000000 -0.0000000000 -0.0000000000 -0.0000000000 -0.0000000000 0.0000000000 0.0000000000 0.0000000000 -0.0000000000 -0.0000000000 -0.0000000000 0.0000000000 -0.0000000000 0.0000000000 -0.0000000000 -0.0000000000 0.0000000000 0.0000000000 -0.0000000000 0.0000000000 -0.0000000000 -0.0000000000 0.0000000000 0.0000000000 -0.0000000000 0.0000000000 -0.0000000000 -0.0000000000 0.0000000000 0.0000000000 -0.0000000000 0.0000000000 -0.0000000000 -0.0000000000 0.0000000000 0.0000000000 -0.0000000000 -0.0000000000 0.0000000000 0.0000000000 0.0000000000 -0.0000000000 0.0000000000 -0.0000000000 0.0000000000 0.0000000000 -0.0000000000 -0.0000000000 0.0000000000 -0.0000000000 -0.0000000000 -0.0000000000 -0.0000000000 0.0000000000 0.0000000000 0.0000000000 -0.0000000000 -0.0000000000 0.0000000000 0.0000000000 -0.0000000000 0.0000000000 -0.0000000000 -0.0000000000 0.0000000000 -0.0000000000 -0.0000000000 -0.0000000000 0.0000000000 0.0000000000 0.0000000000 -0.0000000000 -0.0000000000 -0.0000000000 0.0000000000 0.0000000000 -0.0000000000 -0.0000000000 0.0000000000 -0.0000000000 0.0000000000 0.0000000000 -0.0000000000 -0.0000000000 0.0000000000 -0.0000000000 0.0000000000 0.0000000000 -0.0000000000 -0.0000000000 0.0000000000 -0.0000000000 0.0000000000 -0.0000000000 0.0000000000 -0.0000000000 0.0000000000 -0.0000000000 -0.0000000000 0.0000000000 -0.0000000000 -0.0000000000 0.0000000000 0.0000000000 -0.0000000000 -0.0000000000 -0.0000000000 0.0000000000 -0.0000000000 0.0000000000 -0.0000000000 -0.0000000000 0.0000000000 0.0000000000 -0.0000000000 0.0000000000 0.0000000000 0.0000000000 0.0000000000 -0.0000000000 -0.0000000000 -0.0000000000 0.0000000000 0.0000000000 -0.0000000000 -0.0000000000 0.0000000000 -0.0000000000 -0.0000000000 0.0000000000 -0.0000000000 0.0000000000 0.0000000000 0.0000000000 -0.0000000000 -0.0000000000 -0.0000000000 0.0000000000 0.0000000000 0.0000000000 -0.0000000000 -0.0000000000 0.0000000000 0.0000000000 -0.0000000000 0.0000000000 -0.0000000000 -0.0000000000 0.0000000000 0.0000000000 -0.0000000000 0.0000000000 -0.0000000000 -0.0000000000 0.0000000000 -0.0000000000 -0.0000000000 -0.0000000000 -0.0000000000 0.0000000000 -0.0000000000 -0.0000000000 0.0000000000 0.0000000000 -0.0000000000 0.0000000000 -0.0000000000 0.0000000000 0.0000000000 0.0000000000 0.0000000000 -0.0000000000 0.0000000000 0.0000000000 -0.0000000000 -0.0000000000 0.0000000000 -0.0000000000 0.0000000000 0.0000000000 -0.0000000000 -0.0000000000 -0.0000000000 0.0000000000 -0.0000000000 -0.0000000000 0.0000000000 0.0000000000 -0.0000000000 0.0000000000 -0.0000000000 0.0000000000 0.0000000000 0.0000000000 0.0000000000 -0.0000000000 0.0000000000 -0.0000000000 -0.0000000000 0.0000000000 0.0000000000 0.0000000000 0.0000000000 -0.0000000000 0.0000000000 -0.0000000000 -0.0000000000 0.0000000000 -0.0000000000 -0.0000000000 0.0000000000 -0.0000000000 -0.0000000000 -0.0000000000 0.0000000000 -0.0000000000 -0.0000000000 0.0000000000 -0.0000000000 0.0000000000 -0.0000000000 -0.0000000000 0.0000000000 0.0000000000 -0.0000000000 0.0000000000 -0.0000000000 0.0000000000 0.0000000000 -0.0000000000 0.0000000000 -0.0000000000 0.0000000000 0.0000000000 -0.0000000000 -0.0000000000 0.0000000000 -0.0000000000 0.0000000000 0.0000000000 -0.0000000000 -0.0000000000 0.0000000000 0.0000000000 -0.0000000000 -0.0000000000 0.0000000000 0.0000000000 -0.0000000000 0.0000000000 -0.0000000000 -0.0000000000 0.0000000000 -0.0000000000 -0.0000000000 -0.0000000000 0.0000000000 0.0000000000 0.0000000000 -0.0000000000 -0.0000000000 -0.0000000000 -0.0000000000 0.0000000000 -0.0000000000 0.0000000000 0.0000000000 -0.0000000000 -0.0000000000 -0.0000000000 -0.0000000000 0.0000000000 0.0000000000 -0.0000000000 0.0000000000 -0.0000000000 -0.0000000000 0.0000000000 -0.0000000000 0.0000000000 -0.0000000000 -0.0000000000 0.0000000000 0.0000000000 -0.0000000000 0.0000000000 -0.0000000000 0.0000000000 0.0000000000 -0.0000000000 0.0000000000 -0.0000000000 0.0000000000 0.0000000000 -0.0000000000 -0.0000000000 0.0000000000 -0.0000000000 0.0000000000 -0.0000000000 -0.0000000000 0.0000000000 0.0000000000 0.0000000000 -0.0000000000 -0.0000000000 0.0000000000 0.0000000000 -0.0000000000 0.0000000000 -0.0000000000 -0.0000000000 0.0000000000 0.0000000000 -0.0000000000 -0.0000000000 0.0000000000 0.0000000000 -0.0000000000 0.0000000000 0.0000000000 -0.0000000000 0.0000000000 -0.0000000000 -0.0000000000 0.0000000000 0.0000000000 -0.0000000000 0.0000000000 -0.0000000000 -0.0000000000 0.0000000000 -0.0000000000 -0.0000000000 0.0000000000 -0.0000000000 -0.0000000000 0.0000000000 -0.0000000000 0.0000000000 -0.0000000000 -0.0000000000 0.0000000000 0.0000000000 -0.0000000000 0.0000000000 -0.0000000000 0.0000000000 0.0000000000 -0.0000000000 0.0000000000 -0.0000000000 0.0000000000 0.0000000000 -0.0000000000 -0.0000000000 0.0000000000 -0.0000000000 0.0000000000 -0.0000000000 -0.0000000000 0.0000000000 0.0000000000 0.0000000000 -0.0000000000 -0.0000000000 0.0000000000 0.0000000000 -0.0000000000 0.0000000000 -0.0000000000 0.0000000000 0.0000000000 -0.0000000000 -0.0000000000 -0.0000000000 0.0000000000 0.0000000000 -0.0000000000 0.0000000000 0.0000000000 -0.0000000000 0.0000000000 -0.0000000000 -0.0000000000 0.0000000000 -0.0000000000 -0.0000000000 0.0000000000 -0.0000000000 -0.0000000000 0.0000000000 -0.0000000000 
</DataArray>
<DataArray type="Int32" Name="region_id" format="ascii">
2 2 2 2 2 2 2 2 2 2 2 2 2 2 2 2 2 2 2 2 1 1 1 1 1 1 1 1 1 1 1 1 1 1 1 1 1 1 1 1 1 1 1 1 1 1 1 1 1 1 1 1 1 1 1 1 1 1 1 1 1 1 1 1 1 1 1 1 1 1 1 1 1 1 1 1 1 1 1 1 1 1 1 1 1 1 1 1 1 1 1 1 1 1 1 1 1 1 1 1 1 1 1 1 1 1 1 1 1 1 1 1 1 1 1 1 1 1 1 1 1 1 1 1 1 1 1 1 1 1 1 1 1 1 1 1 1 1 1 1 1 1 1 1 1 1 1 1 1 1 1 1 1 1 1 1 1 1 1 1 1 1 1 1 1 1 1 1 1 1 1 1 1 1 1 1 1 1 1 1 1 1 1 1 1 1 1 1 1 1 1 1 1 1 1 1 1 1 1 1 1 1 1 1 1 1 1 1 1 1 1 1 1 1 1 1 1 1 1 1 1 1 1 1 1 1 1 1 1 1 1 1 1 1 1 1 1 1 1 1 1 1 1 1 1 1 1 1 1 1 1 1 1 1 1 1 1 1 1 1 1 1 1 1 1 1 1 1 1 1 1 1 1 1 1 1 1 1 1 1 1 1 1 1 1 1 1 1 1 1 1 1 1 1 1 1 1 1 1 1 1 1 1 1 1 1 1 1 1 1 1 1 1 1 1 1 1 1 1 1 1 1 1 1 1 1 1 1 1 1 1 1 1 1 1 1 1 1 1 1 1 1 1 1 1 1 1 1 1 1 1 1 1 1 1 1 1 1 1 1 1 1 1 1 1 1 1 1 1 1 1 1 1 1 1 1 1 1 1 1 1 1 1 1 1 1 1 1 1 1 1 1 1 1 1 1 1 1 1 1 1 1 1 1 1 1 1 1 1 1 1 1 1 1 1 1 1 1 1 1 1 1 1 1 1 1 1 1 1 1 1 1 1 1 1 1 1 1 1 1 1 1 1 1 1 1 1 1 1 1 1 1 1 1 1 1 1 1 1 1 1 1 1 1 1 1 1 1 1 1 1 1 1 1 1 1 1 1 1 1 1 1 1 1 1 1 1 1 1 1 1 1 1 1 1 1 1 1 1 1 1 1 1 1 1 1 1 1 1 1 1 1 1 1 1 1 1 1 1 1 1 1 1 1 1 1 1 1 1 1 1 1 1 1 1 1 1 1 1 1 1 1 1 1 1 1 1 1 1 1 1 1 1 1 1 1 1 1 1 1 1 1 1 1 1 1 1 1 1 1 1 1 1 1 1 1 1 1 1 1 1 1 1 1 1 1 1 1 1 1 1 1 1 1 1 1 1 1 1 1 1 1 1 1 1 1 1 1 1 1 1 1 1 1 1 1 1 1 1 1 1 1 1 1 1 1 1 1 1 1 1 1 1 1 1 1 1 1 1 1 1 1 1 1 1 1 1 1 1 1 1 1 1 1 1 1 1 1 1 1 1 1 1 1 1 1 1 1 1 1 1 1 1 1 1 1 1 1 1 1 1 1 1 1 1 1 1 1 1 1 1 1 1 1 1 1 1 1 1 1 1 1 1 1 1 1 1 1 1 1 1 1 1 1 1 1 1 1 1 1 1 1 1 1 1 1 1 1 1 1 1 1 1 1 1 1 1 1 1 1 1 1 1 1 1 1 1 1 1 1 1 1 1 1 1 1 1 1 1 1 1 1 1 1 1 1 1 1 1 1 1 1 1 1 1 1 1 1 1 1 1 1 1 1 1 1 1 1 1 1 1 1 1 1 1 1 1 1 1 1 1 1 1 1 1 1 1 1 1 1 1 1 1 1 1 1 1 1 1 1 1 1 1 1 1 1 1 1 1 1 1 1 1 1 1 1 1 1 1 1 1 1 1 1 1 1 1 1 1 1 1 1 1 1 1 1 1 1 1 1 1 1 1 1 1 1 1 1 1 1 1 1 1 1 1 1 1 1 1 1 1 1 1 1 1 1 1 1 1 1 1 1 1 1 1 1 1 1 1 1 1 1 1 1 1 1 1 1 1 1 1 1 1 1 1 1 1 1 1 1 1 1 1 1 1 1 1 1 1 1 1 1 1 1 1 1 1 1 1 1 1 1 1 1 1 1 1 1 1 1 1 1 1 1 1 1 1 1 1 1 1 1 1 1 1 1 1 1 1 1 1 1 1 1 1 1 1 1 1 1 1 1 1 1 1 1 1 1 1 1 1 1 1 1 1 1 1 1 1 1 1 1 1 1 1 1 1 1 1 1 1 1 1 1 1 1 1 1 1 1 1 1 1 1 1 1 1 1 1 1 1 1 1 1 1 1 1 1 1 1 1 1 1 1 1 1 1 1 1 1 1 1 1 1 1 1 1 1 1 1 1 1 1 1 1 1 1 1 1 1 1 1 1 1 1 1 1 1 1 1 1 1 1 1 1 1 1 1 1 1 1 1 1 1 1 1 1 1 1 1 1 1 1 1 1 1 1 1 1 1 1 1 1 1 1 1 1 1 1 1 1 1 1 1 1 1 1 1 1 1 1 1 1 1 1 1 1 1 1 1 1 1 1 1 1 1 1 1 1 1 1 1 1 1 1 1 1 1 1 1 
</DataArray>
</PointData>
</Piece>
</UnstructuredGrid>
</VTKFile>
