<?xml version="1.0"?>
<VTKFile type="UnstructuredGrid" version="0.1" byte_order="LittleEndian">
<UnstructuredGrid>
<Piece NumberOfPoints="316" NumberOfCells="724">
<Points>
<DataArray type="Float64" NumberOfComponents="3" format="ascii">
0.000000000000000e+00 8.000000000000000e+00 0.000000000000000e+00 0.000000000000000e+00 7.000000000000000e-01 0.000000000000000e+00 6.000000000000000e-01 7.000000000000000e-01 0.000000000000000e+00 2.000000000000000e+00 3.000000000000000e+00 0.000000000000000e+00 0.000000000000000e+00 3.700000000000000e+00 0.000000000000000e+00 5.750000000000000e+00 7.000000000000000e-01 0.000000000000000e+00 8.500000000000000e+00 7.000000000000000e-01 0.000000000000000e+00 1.155000000000000e+01 1.100000000000000e+00 0.000000000000000e+00 1.275000000000000e+01 7.000000000000000e-01 0.000000000000000e+00 1.040000000000000e+01 2.300000000000000e+00 0.000000000000000e+00 7.500000000000000e+00 2.000000000000000e+00 0.000000000000000e+00 8.000000000000000e+00 2.500000000000000e+00 0.000000000000000e+00 7.000000000000000e+00 2.200000000000000e+00 0.000000000000000e+00 5.750000000000000e+00 2.500000000000000e+00 0.000000000000000e+00 5.000000000000000e+00 2.200000000000000e+00 0.000000000000000e+00 4.250000000000000e+00 1.500000000000000e+00 0.000000000000000e+00 4.750000000000000e+00 2.800000000000000e+00 0.000000000000000e+00 5.500000000000000e+00 2.800000000000000e+00 0.000000000000000e+00 6.750000000000000e+00 4.000000000000000e+00 0.000000000000000e+00 6.000000000000000e+00 3.800000000000000e+00 0.000000000000000e+00 5.250000000000000e+00 4.000000000000000e+00 0.000000000000000e+00 4.750000000000000e+00 4.000000000000000e+00 0.000000000000000e+00 4.250000000000000e+00 3.500000000000000e+00 0.000000000000000e+00 3.500000000000000e+00 4.000000000000000e+00 0.000000000000000e+00 2.750000000000000e+00 4.000000000000000e+00 0.000000000000000e+00 2.250000000000000e+00 4.800000000000000e+00 0.000000000000000e+00 1.750000000000000e+00 5.000000000000000e+00 0.000000000000000e+00 3.500000000000000e+00 5.000000000000000e+00 0.000000000000000e+00 4.250000000000000e+00 4.800000000000000e+00 0.000000000000000e+00 4.750000000000000e+00 4.700000000000000e+00 0.000000000000000e+00 5.250000000000000e+00 5.000000000000000e+00 0.000000000000000e+00 4.000000000000000e+00 5.700000000000000e+00 0.000000000000000e+00 3.250000000000000e+00 6.300000000000000e+00 0.000000000000000e+00 4.750000000000000e+00 7.200000000000000e+00 0.000000000000000e+00 5.000000000000000e+00 6.300000000000000e+00 0.000000000000000e+00 6.000000000000000e+00 6.400000000000000e+00 0.000000000000000e+00 7.250000000000000e+00 6.000000000000000e+00 0.000000000000000e+00 6.500000000000000e+00 5.300000000000000e+00 0.000000000000000e+00 9.000000000000000e+00 8.000000000000000e+00 0.000000000000000e+00 9.000000000000000e+00 5.500000000000000e+00 0.000000000000000e+00 9.750000000000000e+00 5.500000000000000e+00 0.000000000000000e+00 8.250000000000000e+00 5.000000000000000e+00 0.000000000000000e+00 8.250000000000000e+00 3.700000000000000e+00 0.000000000000000e+00 7.500000000000000e+00 3.700000000000000e+00 0.000000000000000e+00 9.750000000000000e+00 4.000000000000000e+00 0.000000000000000e+00 9.000000000000000e+00 2.700000000000000e+00 0.000000000000000e+00 1.125000000000000e+01 4.300000000000000e+00 0.000000000000000e+00 1.050000000000000e+01 4.800000000000000e+00 0.000000000000000e+00 1.275000000000000e+01 4.600000000000000e+00 0.000000000000000e+00 1.190000000000000e+01 7.000000000000000e+00 0.000000000000000e+00 1.275000000000000e+01 8.000000000000000e+00 0.000000000000000e+00 1.000000000000000e+00 6.200000000000000e+00 0.000000000000000e+00 7.500000000000000e+00 4.800000000000000e+00 0.000000000000000e+00 7.750000000000000e+00 5.500000000000000e+00 0.000000000000000e+00 1.200000000000000e+01 3.700000000000000e+00 0.000000000000000e+00 7.650000000000000e+00 6.200000000000000e+00 0.000000000000000e+00 9.499999999992372e-01 1.274999999998747e+00 0.000000000000000e+00 1.299999999998378e+00 1.849999999997335e+00 0.000000000000000e+00 1.649999999999066e+00 2.424999999998465e+00 0.000000000000000e+00 5.500000000000827e+00 1.199999999998346e+00 0.000000000000000e+00 5.250000000000705e+00 1.699999999998589e+00 0.000000000000000e+00 4.400000000000134e+00 2.359999999999964e+00 0.000000000000000e+00 3.800000000000203e+00 2.519999999999946e+00 0.000000000000000e+00 3.200000000000143e+00 2.679999999999962e+00 0.000000000000000e+00 2.600000000000082e+00 2.839999999999978e+00 0.000000000000000e+00 2.083333333332920e+00 3.599999999997022e+00 0.000000000000000e+00 2.166666666666273e+00 4.199999999997162e+00 0.000000000000000e+00 2.833333333333118e+00 5.099999999999890e+00 0.000000000000000e+00 3.416666666667265e+00 5.400000000000308e+00 0.000000000000000e+00 3.625000000007225e+00 5.999999999994220e+00 0.000000000000000e+00 4.499999999999542e+00 5.999999999999726e+00 0.000000000000000e+00 6.374999999999935e+00 3.899999999999983e+00 0.000000000000000e+00 5.625000000000065e+00 3.899999999999983e+00 0.000000000000000e+00 4.750000000000338e+00 4.399999999999729e+00 0.000000000000000e+00 3.083333333334594e+00 4.266666666665859e+00 0.000000000000000e+00 2.666666666668059e+00 4.533333333332442e+00 0.000000000000000e+00 3.874999999992375e+00 3.750000000005084e+00 0.000000000000000e+00 1.599999999997112e+00 6.100000000000482e+00 0.000000000000000e+00 2.199999999995692e+00 6.000000000000719e+00 0.000000000000000e+00 2.799999999997127e+00 5.900000000000479e+00 0.000000000000000e+00 3.399999999998564e+00 5.800000000000240e+00 0.000000000000000e+00 4.500000000000000e+00 6.699999999999999e+00 0.000000000000000e+00 4.250000000000000e+00 6.200000000000001e+00 0.000000000000000e+00 3.124999999988985e+00 4.000000000000000e+00 0.000000000000000e+00 5.249999999999616e+00 2.499999999999539e+00 0.000000000000000e+00 5.250000000000325e+00 3.199999999999480e+00 0.000000000000000e+00 5.000000000000298e+00 3.599999999999522e+00 0.000000000000000e+00 5.916666666666305e+00 3.199999999999653e+00 0.000000000000000e+00 6.333333333333001e+00 3.599999999999680e+00 0.000000000000000e+00 6.374999999999980e+00 2.350000000000005e+00 0.000000000000000e+00 7.499999999999977e+00 2.349999999999993e+00 0.000000000000000e+00 7.750000000000000e+00 2.250000000000000e+00 0.000000000000000e+00 8.166666666666181e+00 1.900000000001745e+00 0.000000000000000e+00 8.333333333332911e+00 1.300000000001518e+00 0.000000000000000e+00 8.499999999999950e+00 2.599999999999990e+00 0.000000000000000e+00 9.466666666664466e+00 2.566666666667295e+00 0.000000000000000e+00 9.933333333329530e+00 2.433333333334420e+00 0.000000000000000e+00 1.078333333333231e+01 1.900000000001070e+00 0.000000000000000e+00 1.116666666666699e+01 1.499999999999660e+00 0.000000000000000e+00 8.437500000000002e+00 2.875000000000001e+00 0.000000000000000e+00 8.875000000000004e+00 3.250000000000002e+00 0.000000000000000e+00 9.312500000000002e+00 3.625000000000002e+00 0.000000000000000e+00 9.250000000000073e+00 3.900000000000015e+00 0.000000000000000e+00 8.749999999999956e+00 3.799999999999991e+00 0.000000000000000e+00 7.749999999999754e+00 3.100000000000591e+00 0.000000000000000e+00 7.249999999989753e+00 4.333333333326502e+00 0.000000000000000e+00 7.749999999989754e+00 4.666666666659836e+00 0.000000000000000e+00 7.875000000013636e+00 4.900000000003637e+00 0.000000000000000e+00 8.750000000000000e+00 5.166666666666667e+00 0.000000000000000e+00 9.250000000000000e+00 5.333333333333333e+00 0.000000000000000e+00 8.625000000000000e+00 5.250000000000000e+00 0.000000000000000e+00 8.000000000000000e+00 5.250000000000000e+00 0.000000000000000e+00 9.250000000000000e+00 4.333333333333334e+00 0.000000000000000e+00 8.749999999999998e+00 4.666666666666668e+00 0.000000000000000e+00 1.024999999999999e+01 4.099999999999998e+00 0.000000000000000e+00 1.075000000000014e+01 4.200000000000029e+00 0.000000000000000e+00 1.087500000000000e+01 4.550000000000000e+00 0.000000000000000e+00 1.174999999999974e+01 4.399999999999949e+00 0.000000000000000e+00 1.224999999999979e+01 4.499999999999957e+00 0.000000000000000e+00 1.141249999999975e+01 4.974999999998960e+00 0.000000000000000e+00 1.157499999999913e+01 5.649999999996393e+00 0.000000000000000e+00 1.173749999999942e+01 6.324999999997594e+00 0.000000000000000e+00 1.061249999999995e+01 2.799999999999874e+00 0.000000000000000e+00 1.082499999999963e+01 3.299999999999124e+00 0.000000000000000e+00 1.103749999999963e+01 3.799999999999124e+00 0.000000000000000e+00 1.162500000000034e+01 3.999999999999729e+00 0.000000000000000e+00 4.416666666666864e+00 5.466666666666557e+00 0.000000000000000e+00 4.833333333333728e+00 5.233333333333112e+00 0.000000000000000e+00 5.749999999989753e+00 4.666666666673498e+00 0.000000000000000e+00 6.249999999989754e+00 4.333333333340164e+00 0.000000000000000e+00 3.749999999999261e+00 5.349999999998966e+00 0.000000000000000e+00 5.500000000000000e+00 6.350000000000001e+00 0.000000000000000e+00 6.624999999999850e+00 6.200000000000048e+00 0.000000000000000e+00 7.687500000000000e+00 6.500000000000000e+00 0.000000000000000e+00 8.125000000000000e+00 7.000000000000000e+00 0.000000000000000e+00 8.562500000000000e+00 7.500000000000000e+00 0.000000000000000e+00 6.875000000000779e+00 5.650000000000727e+00 0.000000000000000e+00 5.750000000000000e+00 5.250000000000000e+00 0.000000000000000e+00 6.250000000000000e+00 5.500000000000000e+00 0.000000000000000e+00 6.750000000000000e+00 5.750000000000000e+00 0.000000000000000e+00 4.625000000000497e+00 1.850000000000465e+00 0.000000000000000e+00 5.624999999982411e-01 3.974999999999140e+00 0.000000000000000e+00 1.124999999996417e+00 4.249999999998249e+00 0.000000000000000e+00 1.687499999999411e+00 4.524999999999712e+00 0.000000000000000e+00 1.170522597735573e+00 8.000000000000000e+00 0.000000000000000e+00 2.270782585693947e+00 8.000000000000000e+00 0.000000000000000e+00 3.304997541058108e+00 8.000000000000000e+00 0.000000000000000e+00 4.277131717100321e+00 8.000000000000000e+00 0.000000000000000e+00 5.190911880099487e+00 8.000000000000000e+00 0.000000000000000e+00 6.049840683362258e+00 8.000000000000000e+00 0.000000000000000e+00 6.857210746225150e+00 8.000000000000000e+00 0.000000000000000e+00 7.616117101574889e+00 8.000000000000000e+00 0.000000000000000e+00 8.329468477773469e+00 8.000000000000000e+00 0.000000000000000e+00 9.732276700011566e+00 8.000000000000000e+00 0.000000000000000e+00 1.058712006499414e+01 8.000000000000000e+00 0.000000000000000e+00 1.158504501385041e+01 8.000000000000000e+00 0.000000000000000e+00 1.275000000000000e+01 6.943774143906420e+00 0.000000000000000e+00 1.275000000000000e+01 6.038988862336077e+00 0.000000000000000e+00 1.275000000000000e+01 5.263930876136088e+00 0.000000000000000e+00 1.275000000000000e+01 4.000317408023246e+00 0.000000000000000e+00 1.275000000000000e+01 3.321597619569264e+00 0.000000000000000e+00 1.275000000000000e+01 2.553423725102871e+00 0.000000000000000e+00 1.275000000000000e+01 1.684005592221304e+00 0.000000000000000e+00 1.167768621522576e+01 7.000000000000000e-01 0.000000000000000e+00 1.073024337220659e+01 7.000000000000000e-01 0.000000000000000e+00 9.893130796663533e+00 7.000000000000000e-01 0.000000000000000e+00 9.153500259372114e+00 7.000000000000000e-01 0.000000000000000e+00 7.812500000000002e+00 7.000000000000000e-01 0.000000000000000e+00 7.125000000000004e+00 7.000000000000000e-01 0.000000000000000e+00 6.437500000000003e+00 7.000000000000000e-01 0.000000000000000e+00 5.106250000001214e+00 7.000000000000000e-01 0.000000000000000e+00 4.462500000002601e+00 7.000000000000000e-01 0.000000000000000e+00 3.818750000004510e+00 7.000000000000000e-01 0.000000000000000e+00 3.175000000006505e+00 7.000000000000000e-01 0.000000000000000e+00 2.531250000004942e+00 7.000000000000000e-01 0.000000000000000e+00 1.887500000003292e+00 7.000000000000000e-01 0.000000000000000e+00 1.243750000001385e+00 7.000000000000000e-01 0.000000000000000e+00 0.000000000000000e+00 1.631963993021993e+00 0.000000000000000e+00 0.000000000000000e+00 2.430303940964651e+00 0.000000000000000e+00 0.000000000000000e+00 3.114178636975627e+00 0.000000000000000e+00 0.000000000000000e+00 4.361188497557380e+00 0.000000000000000e+00 0.000000000000000e+00 5.109520570379017e+00 0.000000000000000e+00 0.000000000000000e+00 5.956481528910786e+00 0.000000000000000e+00 0.000000000000000e+00 6.915070759163043e+00 0.000000000000000e+00 4.125000000008933e+00 4.000000000000000e+00 0.000000000000000e+00 1.013301616169622e+00 3.612874171981110e+00 0.000000000000000e+00 7.099300850183076e-01 2.905418139696448e+00 0.000000000000000e+00 6.814229221775313e-01 2.106313194182027e+00 0.000000000000000e+00 1.593428957229921e+00 3.889703577445132e+00 0.000000000000000e+00 1.186467289461244e+00 2.488259157846338e+00 0.000000000000000e+00 1.451787781083937e+00 3.110226086666430e+00 0.000000000000000e+00 4.571463402372341e-01 3.461494189730465e+00 0.000000000000000e+00 2.534102842659171e+00 1.913880630096061e+00 0.000000000000000e+00 3.757799744899315e+00 1.759341836734688e+00 0.000000000000000e+00 1.626949751997165e+00 1.397804430461495e+00 0.000000000000000e+00 4.219831792094160e+00 1.108273596938623e+00 0.000000000000000e+00 4.773368827442858e+00 1.251181942419432e+00 0.000000000000000e+00 2.730231246675086e+00 1.459941733675083e+00 0.000000000000000e+00 3.502894345239071e+00 2.182577380952344e+00 0.000000000000000e+00 3.638214240926366e+00 1.265285427893069e+00 0.000000000000000e+00 3.163799007565490e+00 1.750659825629856e+00 0.000000000000000e+00 4.055949015023203e+00 2.028653202947901e+00 0.000000000000000e+00 2.885705984802781e+00 2.304389417342541e+00 0.000000000000000e+00 3.047698899035677e+00 1.175177397439602e+00 0.000000000000000e+00 1.942890303101708e+00 1.902499856841080e+00 0.000000000000000e+00 2.232849510603740e+00 1.369095413116082e+00 0.000000000000000e+00 2.268783188427135e+00 2.397628317379688e+00 0.000000000000000e+00 5.548611111111165e+00 3.416666666666439e+00 0.000000000000000e+00 1.036597949429223e+01 3.081071949098387e+00 0.000000000000000e+00 9.918142501448106e+00 2.833188223635065e+00 0.000000000000000e+00 1.051806933421500e+01 3.694433421516421e+00 0.000000000000000e+00 9.418653090093486e+00 3.112704842739701e+00 0.000000000000000e+00 9.924222424308921e+00 3.505352549970586e+00 0.000000000000000e+00 5.381944444444439e+00 5.744444444444404e+00 0.000000000000000e+00 4.896990740740763e+00 5.624074074073966e+00 0.000000000000000e+00 6.036706349206327e+00 5.884920634920635e+00 0.000000000000000e+00 1.042857142856084e+00 4.967005877250765e+00 0.000000000000000e+00 6.518953214484978e+00 6.770484377690131e+00 0.000000000000000e+00 7.258549753418953e+00 7.237831856532851e+00 0.000000000000000e+00 4.045228499335253e+00 7.201985163764344e+00 0.000000000000000e+00 5.959325396821029e-01 5.800870717852259e+00 0.000000000000000e+00 1.532738095236533e+00 5.657145571409940e+00 0.000000000000000e+00 5.460714285701485e-01 4.532542989036910e+00 0.000000000000000e+00 2.227678571427079e+00 5.409524261901837e+00 0.000000000000000e+00 3.330356150992435e+00 6.983052268058050e+00 0.000000000000000e+00 7.080182472770124e+00 6.580793650793663e+00 0.000000000000000e+00 2.580520851116443e+00 6.624422418466317e+00 0.000000000000000e+00 1.646932375870239e+00 6.613690034417289e+00 0.000000000000000e+00 2.644109419022838e+00 7.386731652266450e+00 0.000000000000000e+00 1.812819039518703e+00 7.353693098499105e+00 0.000000000000000e+00 7.970074339731143e+00 7.560935097451680e+00 0.000000000000000e+00 3.833430775055819e+00 6.564172905302769e+00 0.000000000000000e+00 9.383790021874193e-01 7.180408982013240e+00 0.000000000000000e+00 6.468421759358227e+00 7.353118988477670e+00 0.000000000000000e+00 5.128910835188125e+00 6.943051186131636e+00 0.000000000000000e+00 5.836719767499011e+00 7.116664936042777e+00 0.000000000000000e+00 6.684176430461126e+00 1.174631096497762e+00 0.000000000000000e+00 5.875802002770134e+00 1.829281458631685e+00 0.000000000000000e+00 6.123025317145589e+00 1.244060400583266e+00 0.000000000000000e+00 7.161361145147201e+00 1.376842251243350e+00 0.000000000000000e+00 7.164731898611551e+00 1.809291393235446e+00 0.000000000000000e+00 6.632588702243481e+00 1.710909809842298e+00 0.000000000000000e+00 7.681694590612799e+00 1.589474518685898e+00 0.000000000000000e+00 7.622777813818582e+00 1.133263353986153e+00 0.000000000000000e+00 5.425160400554091e+00 2.145856291725963e+00 0.000000000000000e+00 9.294553589509567e+00 1.321467402114873e+00 0.000000000000000e+00 8.800233465507517e+00 1.675827968638680e+00 0.000000000000000e+00 1.144640120743219e+01 2.117771264592709e+00 0.000000000000000e+00 1.038262763199583e+01 1.387320494671861e+00 0.000000000000000e+00 1.098709224116409e+01 2.493967219419530e+00 0.000000000000000e+00 9.385127393035864e+00 2.011307717983274e+00 0.000000000000000e+00 8.827920855615316e+00 2.218617929287419e+00 0.000000000000000e+00 1.204468705711444e+01 2.397006001356599e+00 0.000000000000000e+00 9.753682327822887e+00 1.476350104461625e+00 0.000000000000000e+00 1.155235714707381e+01 2.753014786725915e+00 0.000000000000000e+00 1.147885376845919e+01 3.375071256456070e+00 0.000000000000000e+00 1.201693014330492e+01 1.594025822909143e+00 0.000000000000000e+00 1.214367959673431e+01 3.023806657827713e+00 0.000000000000000e+00 1.010635066991940e+01 1.918051941742042e+00 0.000000000000000e+00 9.169928728828912e+00 2.374148078484497e+00 0.000000000000000e+00 1.109116063133933e+01 2.944410652520102e+00 0.000000000000000e+00 8.816324129544423e+00 1.139459074151014e+00 0.000000000000000e+00 9.103089076314005e+00 6.532181839660846e+00 0.000000000000000e+00 1.011683562520899e+01 7.195237622290078e+00 0.000000000000000e+00 1.075003341587618e+01 5.910745597717360e+00 0.000000000000000e+00 9.937831984448929e+00 4.534109585314415e+00 0.000000000000000e+00 7.357768419263053e+00 5.508694657674089e+00 0.000000000000000e+00 6.936160960427304e+00 4.896830784060330e+00 0.000000000000000e+00 1.005856639758412e+01 5.108842353990161e+00 0.000000000000000e+00 1.209626913265278e+01 5.008983680101273e+00 0.000000000000000e+00 9.381257493558389e+00 4.946591409877408e+00 0.000000000000000e+00 1.109889622188336e+01 7.011252247296733e+00 0.000000000000000e+00 9.681690003253665e+00 6.150993396921819e+00 0.000000000000000e+00 1.044528068387236e+01 6.418240889344212e+00 0.000000000000000e+00 1.031889512764974e+01 5.682904048370177e+00 0.000000000000000e+00 9.516423972222841e+00 6.834875090982705e+00 0.000000000000000e+00 1.218638392857108e+01 5.673954884577563e+00 0.000000000000000e+00 7.641793753687142e+00 5.165440258995801e+00 0.000000000000000e+00 6.282216950611491e+00 4.944248989672057e+00 0.000000000000000e+00 1.114723036767284e+01 6.246972554551412e+00 0.000000000000000e+00 7.007384696507460e+00 5.277894467606446e+00 0.000000000000000e+00 1.091727722308459e+01 5.481382724995097e+00 0.000000000000000e+00 8.612616401012415e+00 6.459527066714357e+00 0.000000000000000e+00 8.877928670958351e+00 7.132128921478285e+00 0.000000000000000e+00 9.436326070584878e+00 7.435846824857445e+00 0.000000000000000e+00 1.068037312471970e+01 5.099688187892400e+00 0.000000000000000e+00 8.970242172000809e+00 5.922635100699302e+00 0.000000000000000e+00 6.688775762392197e+00 4.512497654026809e+00 0.000000000000000e+00 7.963598686359973e+00 5.855288607768216e+00 0.000000000000000e+00 9.961821185893715e+00 6.659605584273726e+00 0.000000000000000e+00 1.046256639688981e+01 4.436821917062888e+00 0.000000000000000e+00 7.280200484645985e+00 5.117527877115639e+00 0.000000000000000e+00 7.612180670462922e+00 5.813786195553105e+00 0.000000000000000e+00 8.497287604446376e+00 5.831142214854104e+00 0.000000000000000e+00 9.330386435050894e+00 5.681392366190891e+00 0.000000000000000e+00 8.079628233778685e+00 6.311844367667188e+00 0.000000000000000e+00 8.180981048467725e+00 5.447738470437053e+00 0.000000000000000e+00 6.467623824220906e+00 2.885573349710158e+00 0.000000000000000e+00 7.928220072747203e+00 4.162017746910838e+00 0.000000000000000e+00 8.412499999999941e+00 3.345000000000117e+00 0.000000000000000e+00 6.730092592592428e+00 3.401388888888814e+00 0.000000000000000e+00 7.168274176954633e+00 2.947624559082957e+00 0.000000000000000e+00 8.240265376980968e+00 4.523877314812713e+00 0.000000000000000e+00 8.631212207104028e+00 4.155127865960509e+00 0.000000000000000e+00 2.942015881336273e+00 3.513947516439253e+00 0.000000000000000e+00 3.819005635626725e+00 3.245474975984805e+00 0.000000000000000e+00 4.353625677479040e+00 3.033716088246455e+00 0.000000000000000e+00 3.412636880282601e+00 3.613455857933284e+00 0.000000000000000e+00 3.284810052257657e+00 3.069945771578050e+00 0.000000000000000e+00 4.913104279579969e+00 3.163952681374203e+00 0.000000000000000e+00 4.565288326178041e+00 3.549611461603364e+00 0.000000000000000e+00 2.423669313555925e+00 3.525657919405569e+00 0.000000000000000e+00 5.281249999997500e+00 4.480555555557217e+00 0.000000000000000e+00 5.790178571425287e+00 4.154365079367263e+00 0.000000000000000e+00 3.625000000001803e+00 4.449999999999798e+00 0.000000000000000e+00 3.218750000001114e+00 4.562499999999525e+00 0.000000000000000e+00 
</DataArray>
</Points>
<Cells>
<DataArray type="UInt32" Name="connectivity" format="ascii">
2 56 56 57 57 58 58 3 5 59 59 60 60 14 14 61 61 62 62 63 63 64 64 3 3 65 65 66 66 25 25 26 25 67 67 68 68 31 31 69 69 32 31 70 70 34 19 71 71 18 19 72 72 20 28 73 73 20 21 20 23 74 74 75 75 25 23 76 76 22 51 77 77 78 78 79 79 80 80 31 33 81 81 82 82 31 24 83 83 23 14 16 14 84 84 17 17 85 85 86 86 21 17 87 87 88 88 18 17 13 13 89 89 12 12 90 90 11 10 91 91 11 11 92 92 93 93 6 11 94 94 45 45 95 95 96 96 9 9 97 97 98 98 7 11 99 99 100 100 101 101 44 44 102 102 103 103 42 43 104 104 11 18 105 105 106 106 41 52 107 107 41 41 108 108 109 109 40 41 110 110 39 53 111 111 41 44 112 112 113 113 41 44 114 114 115 115 46 46 116 116 47 46 117 117 118 118 48 46 119 119 120 120 121 121 49 9 122 122 123 123 124 124 46 54 125 125 46 31 126 126 127 127 30 30 128 128 129 129 18 30 29 27 130 130 31 34 131 131 35 35 132 132 36 36 133 133 134 134 135 135 38 36 136 136 37 30 137 137 138 138 139 139 36 55 36 14 140 140 15 4 141 141 142 142 143 143 25 1 177 2 2 177 56 66 143 25 185 141 142 179 186 178 187 57 56 177 187 56 188 143 66 65 188 66 188 142 143 188 185 142 178 187 177 187 178 186 186 189 187 190 185 188 190 65 3 188 65 190 57 189 58 57 187 189 58 190 3 58 189 190 185 190 186 189 186 190 191 141 185 186 191 185 191 4 141 4 191 179 191 186 179 170 59 5 176 2 56 60 140 14 140 61 14 56 194 176 194 175 176 57 194 56 172 195 171 60 196 140 198 63 62 172 199 195 193 200 198 61 201 62 202 63 198 201 198 62 193 198 201 196 15 140 195 15 196 202 200 192 198 200 202 140 201 61 193 15 199 15 195 199 201 140 15 193 201 15 202 64 63 192 200 197 173 199 172 199 200 193 171 195 196 170 171 196 199 203 200 203 199 173 203 197 200 197 205 192 174 203 173 174 197 203 58 204 57 204 194 57 205 204 192 205 175 194 205 194 204 205 197 174 175 205 174 64 206 3 206 64 202 192 206 202 192 204 206 206 58 3 204 58 206 196 59 170 59 196 60 88 71 18 88 19 71 86 21 20 207 17 85 87 17 207 19 88 87 207 19 87 207 72 19 207 85 86 20 207 86 20 72 207 11 99 94 94 99 45 45 99 100 124 115 46 122 208 123 210 114 115 124 210 115 209 96 95 123 210 124 208 210 123 208 212 210 114 212 44 114 210 212 212 101 44 211 101 212 212 208 209 209 211 212 211 100 101 100 211 45 209 95 211 211 95 45 9 96 209 209 122 9 208 122 209 126 70 31 139 36 132 214 126 127 70 126 214 215 132 35 139 132 215 139 215 138 215 35 131 213 215 131 215 137 138 137 215 213 137 213 30 213 131 34 214 127 30 34 70 214 214 213 34 214 30 213 4 180 141 143 26 25 67 79 68 68 80 31 68 79 80 31 82 70 31 80 69 80 32 69 80 79 32 70 81 34 70 82 81 135 152 38 218 150 151 181 220 216 220 181 182 221 77 78 222 181 216 181 222 180 142 222 216 67 223 79 223 78 79 143 142 216 26 143 216 35 217 132 142 141 222 141 180 222 25 223 67 26 223 25 78 223 221 223 26 221 221 26 216 221 51 77 221 220 51 221 216 220 82 31 69 147 33 219 33 81 219 218 134 133 225 132 217 225 218 133 218 225 217 226 79 78 77 227 78 146 228 145 227 226 78 226 32 79 229 144 145 36 132 225 133 36 225 32 226 224 224 226 228 151 230 218 230 151 152 230 134 218 231 82 69 232 0 144 0 232 183 32 231 69 32 224 231 231 81 82 81 231 219 231 224 219 135 134 230 152 135 230 228 229 145 229 226 227 228 226 229 146 224 228 224 146 219 147 219 146 51 227 77 33 234 81 234 34 81 234 131 34 150 233 149 233 150 218 217 233 218 131 235 35 235 131 234 235 217 35 233 217 235 149 233 235 51 232 227 227 232 229 144 229 232 234 148 235 148 234 33 147 148 33 149 235 148 51 183 232 51 182 183 51 220 182 6 167 93 92 91 11 10 90 91 10 12 90 91 90 11 13 84 17 169 236 168 237 59 60 89 237 13 236 239 168 169 238 236 169 5 238 237 238 59 5 59 238 10 240 12 89 241 237 241 238 237 12 241 89 242 240 10 239 240 242 92 93 242 92 10 91 92 242 10 167 243 93 242 243 239 243 242 93 168 243 167 168 239 243 241 236 238 239 236 241 240 241 12 241 240 239 60 244 237 244 13 237 244 84 13 244 60 14 84 244 14 163 7 164 160 159 54 125 117 46 159 48 118 246 92 93 248 98 97 166 165 245 46 124 125 165 164 248 164 7 98 164 98 248 251 92 246 245 165 253 253 165 248 254 249 247 250 245 253 254 247 252 250 96 95 246 245 250 45 94 251 246 250 251 9 249 122 97 249 9 94 11 92 251 94 92 256 252 247 257 161 160 252 161 257 257 160 54 255 257 54 255 54 125 125 124 255 163 256 7 256 8 162 8 256 163 254 252 257 257 255 254 247 249 97 7 256 98 256 247 98 97 98 247 162 161 252 162 252 256 250 253 258 258 96 250 255 124 123 95 45 259 251 250 259 259 45 251 259 250 95 260 255 123 260 249 254 254 255 260 260 123 122 249 260 122 258 9 96 248 258 253 97 258 248 97 9 258 261 246 93 245 246 261 6 166 261 261 93 6 261 166 245 159 118 54 54 118 117 125 54 117 115 46 116 46 117 119 105 106 52 128 137 30 106 41 107 106 107 52 113 108 41 107 41 111 41 108 110 108 109 39 108 39 110 37 136 139 37 139 138 136 36 139 36 55 133 157 156 121 121 156 49 112 44 265 109 108 270 270 108 113 263 154 153 267 105 52 269 120 119 270 113 112 112 265 270 268 40 270 265 268 270 48 269 118 158 269 48 116 46 119 265 44 114 49 155 271 273 271 263 262 272 275 276 121 120 157 121 276 120 269 276 277 52 107 279 120 121 136 37 280 280 37 267 280 266 136 158 157 276 158 276 269 119 120 281 273 264 279 53 266 277 40 268 274 274 272 40 274 264 273 274 273 272 270 40 109 271 273 279 274 281 264 154 271 155 263 271 154 53 277 111 107 111 277 278 128 129 278 267 37 120 279 264 120 264 281 284 263 153 275 263 284 285 274 268 281 274 285 283 275 284 285 268 47 283 38 135 153 38 284 283 284 38 278 37 138 283 135 134 282 283 134 283 262 275 262 283 282 49 271 121 121 271 279 136 266 36 269 119 117 117 118 269 137 128 278 137 278 138 287 278 129 267 278 287 289 273 263 289 275 272 272 273 289 263 275 289 287 129 18 18 105 287 287 105 267 47 268 265 285 47 116 116 119 285 285 119 281 290 265 114 114 115 290 47 265 290 291 267 52 291 277 266 52 277 291 291 266 280 267 291 280 116 47 290 116 290 115 272 262 286 286 262 282 292 288 55 55 36 292 53 288 292 286 282 293 40 272 294 294 272 286 294 109 40 39 109 294 39 294 286 292 36 266 53 292 266 293 110 39 286 293 39 295 133 55 55 288 295 134 133 295 134 295 282 293 282 295 293 295 288 293 288 296 296 110 293 110 296 41 41 296 111 111 296 53 53 296 288 49 156 50 50 155 49 11 99 104 104 42 43 100 101 103 101 44 102 101 102 103 102 44 112 298 105 43 106 105 298 299 103 42 100 103 299 42 104 299 299 104 99 99 100 299 104 90 11 298 43 42 18 88 300 301 90 104 300 297 301 104 43 301 300 43 18 18 43 105 300 301 43 88 87 297 300 88 297 113 41 302 302 41 106 298 302 106 90 301 12 12 301 297 89 12 297 303 42 103 298 42 303 298 303 302 303 112 113 113 302 303 102 303 103 102 112 303 13 297 87 13 87 17 89 297 13 14 16 61 22 184 76 76 184 23 23 74 83 83 74 24 24 74 75 24 75 66 66 75 25 83 24 304 305 22 76 307 23 83 304 307 83 76 23 307 305 76 307 306 22 305 61 16 306 308 64 63 308 307 304 308 63 62 308 305 307 62 306 305 305 308 62 306 62 61 64 308 304 309 85 86 306 16 309 84 16 14 310 309 86 86 21 310 310 22 306 309 310 306 184 22 310 184 310 21 311 304 24 24 66 311 311 66 65 64 304 311 311 3 64 65 3 311 309 16 85 85 16 84 17 85 84 71 129 18 20 21 73 21 184 73 73 28 29 75 25 67 29 127 30 29 28 127 28 126 127 27 68 130 130 68 31 312 30 128 312 20 73 72 313 19 312 29 30 73 29 312 313 128 129 313 312 128 313 72 20 20 312 313 19 129 71 313 129 19 23 74 314 73 184 28 314 184 23 67 68 27 184 314 28 315 27 314 74 315 314 74 75 315 28 27 130 27 28 314 130 126 28 31 126 130 315 67 27 75 67 315 
</DataArray>
<DataArray type="UInt32" Name="offsets" format="ascii">
2 4 6 8 10 12 14 16 18 20 22 24 26 28 30 32 34 36 38 40 42 44 46 48 50 52 54 56 58 60 62 64 66 68 70 72 74 76 78 80 82 84 86 88 90 92 94 96 98 100 102 104 106 108 110 112 114 116 118 120 122 124 126 128 130 132 134 136 138 140 142 144 146 148 150 152 154 156 158 160 162 164 166 168 170 172 174 176 178 180 182 184 186 188 190 192 194 196 198 200 202 204 206 208 210 212 214 216 218 220 222 224 226 228 230 232 234 236 238 240 242 244 246 248 250 252 254 256 258 260 262 264 266 268 270 272 274 276 278 280 282 284 286 288 291 294 297 300 303 306 309 312 315 318 321 324 327 330 333 336 339 342 345 348 351 354 357 360 363 366 369 372 375 378 381 384 387 390 393 396 399 402 405 408 411 414 417 420 423 426 429 432 435 438 441 444 447 450 453 456 459 462 465 468 471 474 477 480 483 486 489 492 495 498 501 504 507 510 513 516 519 522 525 528 531 534 537 540 543 546 549 552 555 558 561 564 567 570 573 576 579 582 585 588 591 594 597 600 603 606 609 612 615 618 621 624 627 630 633 636 639 642 645 648 651 654 657 660 663 666 669 672 675 678 681 684 687 690 693 696 699 702 705 708 711 714 717 720 723 726 729 732 735 738 741 744 747 750 753 756 759 762 765 768 771 774 777 780 783 786 789 792 795 798 801 804 807 810 813 816 819 822 825 828 831 834 837 840 843 846 849 852 855 858 861 864 867 870 873 876 879 882 885 888 891 894 897 900 903 906 909 912 915 918 921 924 927 930 933 936 939 942 945 948 951 954 957 960 963 966 969 972 975 978 981 984 987 990 993 996 999 1002 1005 1008 1011 1014 1017 1020 1023 1026 1029 1032 1035 1038 1041 1044 1047 1050 1053 1056 1059 1062 1065 1068 1071 1074 1077 1080 1083 1086 1089 1092 1095 1098 1101 1104 1107 1110 1113 1116 1119 1122 1125 1128 1131 1134 1137 1140 1143 1146 1149 1152 1155 1158 1161 1164 1167 1170 1173 1176 1179 1182 1185 1188 1191 1194 1197 1200 1203 1206 1209 1212 1215 1218 1221 1224 1227 1230 1233 1236 1239 1242 1245 1248 1251 1254 1257 1260 1263 1266 1269 1272 1275 1278 1281 1284 1287 1290 1293 1296 1299 1302 1305 1308 1311 1314 1317 1320 1323 1326 1329 1332 1335 1338 1341 1344 1347 1350 1353 1356 1359 1362 1365 1368 1371 1374 1377 1380 1383 1386 1389 1392 1395 1398 1401 1404 1407 1410 1413 1416 1419 1422 1425 1428 1431 1434 1437 1440 1443 1446 1449 1452 1455 1458 1461 1464 1467 1470 1473 1476 1479 1482 1485 1488 1491 1494 1497 1500 1503 1506 1509 1512 1515 1518 1521 1524 1527 1530 1533 1536 1539 1542 1545 1548 1551 1554 1557 1560 1563 1566 1569 1572 1575 1578 1581 1584 1587 1590 1593 1596 1599 1602 1605 1608 1611 1614 1617 1620 1623 1626 1629 1632 1635 1638 1641 1644 1647 1650 1653 1656 1659 1662 1665 1668 1671 1674 1677 1680 1683 1686 1689 1692 1695 1698 1701 1704 1707 1710 1713 1716 1719 1722 1725 1728 1731 1734 1737 1740 1743 1746 1749 1752 1755 1758 1761 1764 1767 1770 1773 1776 1779 1782 1785 1788 1791 1794 1797 1800 1803 1806 1809 1812 1815 1818 1821 1824 1827 1830 1833 1836 1839 1842 1845 1848 1851 1854 1857 1860 1863 1866 1869 1872 1875 1878 1881 1884 1887 1890 1893 1896 1899 1902 1905 1908 1911 1914 1917 1920 1923 1926 1929 1932 1935 1938 1941 1944 1947 1950 1953 1956 1959 1962 1965 1968 1971 1974 1977 1980 1983 1986 1989 1992 1995 1998 2001 2004 2007 2010 2013 2016 2019 2022 2025 2028 
</DataArray>
<DataArray type="UInt32" Name="types" format="ascii">
3 3 3 3 3 3 3 3 3 3 3 3 3 3 3 3 3 3 3 3 3 3 3 3 3 3 3 3 3 3 3 3 3 3 3 3 3 3 3 3 3 3 3 3 3 3 3 3 3 3 3 3 3 3 3 3 3 3 3 3 3 3 3 3 3 3 3 3 3 3 3 3 3 3 3 3 3 3 3 3 3 3 3 3 3 3 3 3 3 3 3 3 3 3 3 3 3 3 3 3 3 3 3 3 3 3 3 3 3 3 3 3 3 3 3 3 3 3 3 3 3 3 3 3 3 3 3 3 3 3 3 3 3 3 3 3 3 3 3 3 3 3 3 3 5 5 5 5 5 5 5 5 5 5 5 5 5 5 5 5 5 5 5 5 5 5 5 5 5 5 5 5 5 5 5 5 5 5 5 5 5 5 5 5 5 5 5 5 5 5 5 5 5 5 5 5 5 5 5 5 5 5 5 5 5 5 5 5 5 5 5 5 5 5 5 5 5 5 5 5 5 5 5 5 5 5 5 5 5 5 5 5 5 5 5 5 5 5 5 5 5 5 5 5 5 5 5 5 5 5 5 5 5 5 5 5 5 5 5 5 5 5 5 5 5 5 5 5 5 5 5 5 5 5 5 5 5 5 5 5 5 5 5 5 5 5 5 5 5 5 5 5 5 5 5 5 5 5 5 5 5 5 5 5 5 5 5 5 5 5 5 5 5 5 5 5 5 5 5 5 5 5 5 5 5 5 5 5 5 5 5 5 5 5 5 5 5 5 5 5 5 5 5 5 5 5 5 5 5 5 5 5 5 5 5 5 5 5 5 5 5 5 5 5 5 5 5 5 5 5 5 5 5 5 5 5 5 5 5 5 5 5 5 5 5 5 5 5 5 5 5 5 5 5 5 5 5 5 5 5 5 5 5 5 5 5 5 5 5 5 5 5 5 5 5 5 5 5 5 5 5 5 5 5 5 5 5 5 5 5 5 5 5 5 5 5 5 5 5 5 5 5 5 5 5 5 5 5 5 5 5 5 5 5 5 5 5 5 5 5 5 5 5 5 5 5 5 5 5 5 5 5 5 5 5 5 5 5 5 5 5 5 5 5 5 5 5 5 5 5 5 5 5 5 5 5 5 5 5 5 5 5 5 5 5 5 5 5 5 5 5 5 5 5 5 5 5 5 5 5 5 5 5 5 5 5 5 5 5 5 5 5 5 5 5 5 5 5 5 5 5 5 5 5 5 5 5 5 5 5 5 5 5 5 5 5 5 5 5 5 5 5 5 5 5 5 5 5 5 5 5 5 5 5 5 5 5 5 5 5 5 5 5 5 5 5 5 5 5 5 5 5 5 5 5 5 5 5 5 5 5 5 5 5 5 5 5 5 5 5 5 5 5 5 5 5 5 5 5 5 5 5 5 5 5 5 5 5 5 5 5 5 5 5 5 5 5 5 5 5 5 5 5 5 5 5 5 5 5 5 5 5 5 5 5 5 5 5 5 5 5 5 5 5 5 5 5 5 5 5 5 5 5 5 5 5 5 5 5 5 5 5 5 5 5 5 5 5 5 5 5 5 5 5 5 5 5 5 5 5 5 5 5 5 5 5 5 5 5 5 5 5 5 5 5 5 5 5 5 5 5 5 5 5 
</DataArray>
</Cells>
<CellData Scalars="A_conc,B_conc,region_id," Vectors="" Tensors="">
<DataArray type="Float64" Name="A_conc" format="ascii">
2.626802695797511e-03 1.660622883698049e-02 5.599690637957196e-02 1.308661746494487e-01 1.188638246041195e-06 5.502869288734981e-05 4.240157145900371e-04 3.673226520750610e-01 3.432430670309941e-01 3.130801416475538e-01 2.759295367656323e-01 2.328260318421378e-01 1.632117608922611e-01 9.881500435310391e-02 5.134788384453471e-02 4.982783434679410e-02 3.274555278071356e-01 3.469263788506507e-01 3.611233397321968e-01 1.754173537787793e-01 3.816255977222750e-02 2.848888568284671e-04 2.906964853930099e-04 6.074038330426257e-01 6.440570832710404e-01 5.332607389201482e-01 4.166559385828101e-01 7.519518717476223e-02 2.126953220662339e-01 7.336076880818199e-03 2.364062562371790e-04 7.455173672868472e-05 2.324732969534554e-05 4.458233207999171e-04 1.232033308396322e-03 6.257346170327807e-02 1.566462356716386e-01 2.483600168471303e-01 3.148059641771498e-01 3.512923458374547e-01 3.510377030317611e-06 1.338914682938030e-03 4.354884930203009e-02 1.149990702506108e-06 2.688111309577724e-06 6.877239829619179e-02 4.207916726930643e-01 4.390553967654049e-01 3.296572571715056e-01 1.749458059561654e-01 5.794938503623015e-02 1.051046147314842e-02 2.861902185744690e-02 8.735849362763717e-02 5.045667339267714e-01 5.209403540956463e-01 5.389341189564678e-01 5.516820644409481e-01 5.614578965151200e-01 1.024487725836374e-01 3.373651560076969e-01 5.095461803935156e-05 9.401875687149712e-06 1.105286331961965e-05 5.202407744468927e-01 5.479709094925082e-01 5.720414761589672e-01 5.932959924085676e-01 6.133162084318986e-01 2.758410187421813e-01 4.201561098117932e-01 5.535844865351538e-01 6.897656209895245e-01 7.303751983040345e-01 7.810328071616607e-01 8.448029644354078e-01 8.385028386990550e-01 6.369731591491097e-01 2.896576467145814e-01 9.521933657496781e-02 3.283540302176878e-01 6.622233755771365e-01 6.999349272691571e-01 7.354915501481958e-01 4.149791079727564e-01 6.722791769444763e-01 5.021128293590615e-03 1.030605217620886e-02 2.400667195384514e-02 2.708072760066886e-01 1.838853238512336e-02 4.190953435323376e-01 6.786388950926480e-01 9.036917381809406e-01 8.879196632581030e-01 8.629356023752042e-01 9.150844702332895e-01 9.240021888932366e-01 9.271161344822392e-01 8.781404953492578e-01 6.759327675666948e-01 9.957301500780606e-01 9.990266759018380e-01 9.996173395834949e-01 3.425581721968910e-01 4.490472418658141e-01 5.302863618898435e-01 6.137904521845337e-01 7.504452958242760e-01 8.093413826418578e-01 8.588766745802647e-01 9.041016348764546e-01 7.037408208241147e-01 5.590820822431652e-01 5.365996647711309e-01 5.508834097035065e-01 5.601829362346908e-01 6.117884627441894e-01 6.383712856543990e-01 6.540293647117025e-01 3.009423192972944e-04 1.204846239339530e-05 1.500301129160358e-05 6.695667883448814e-04 1.329331859398719e-03 2.479155461100873e-03 4.898029793407813e-03 1.538475167969254e-03 4.452890596279792e-03 1.542994943769483e-02 4.038723851568172e-02 1.917416116065382e-02 1.141019902828939e-02 3.942455106647404e-04 6.976202335181900e-04 6.291374075065930e-04 1.053218172505379e-03 2.129366446440853e-02 1.628844062820052e-01 3.204780082562075e-02 1.552604636230446e-01 1.661368163494209e-01 1.763177630527942e-01 1.849223671166901e-01 3.221670979016353e-04 8.818999390027577e-04 2.456527690096359e-02 6.159794787619407e-04 3.242824714910493e-04 7.033362277963248e-03 2.106627684196082e-03 1.079435578546966e-02 3.582214898320188e-02 3.696767481617084e-03 1.953469646612080e-03 5.947099031973944e-04 1.588059159384012e-03 5.233097779884465e-03 9.740270836618926e-03 7.685484655430584e-02 2.642593879704496e-02 2.970157787762091e-02 1.234756152283382e-02 6.683191638329986e-02 3.326536861698817e-02 3.347575187764554e-03 1.241876557215356e-02 2.178212208257562e-04 1.153187306385114e-03 6.345237915722580e-05 7.049916141111465e-05 3.333717639703935e-04 1.057821916841970e-07 5.758538176139218e-14 1.902949496795837e-02 1.220355917606965e-01 1.139819545901636e-12 1.755429136694216e-11 2.606479445721650e-12 9.225965977604598e-06 3.147966375486237e-03 1.401990158323231e-02 3.066052378275989e-05 4.571088622671446e-04 4.908395334044761e-02 4.063398711496487e-03 1.935882934594108e-02 2.243325268820947e-03 5.120641524979852e-03 1.784106378988067e-03 1.323314046790718e-05 8.303869073778910e-05 5.151710223797927e-02 5.702852815330239e-04 4.715222309338912e-04 1.299382425374293e-02 4.755029883186583e-03 9.850443765320697e-04 6.546148986051412e-07 5.081060142065817e-06 1.192430318276700e-04 4.914271681398958e-05 2.762219962144710e-08 1.652131073191107e-05 8.988006746400146e-07 3.680831998824730e-06 7.680112594620272e-08 1.108057879666211e-07 2.453396547220474e-07 1.207845616660574e-09 5.406860240392924e-11 8.332678893742863e-09 2.579890032784170e-10 6.813089815609202e-10 3.418518629935135e-08 3.075889837121602e-09 2.730884534046717e-05 1.661615381112129e-04 1.832293977167735e-06 1.785563247531478e-07 2.350974982444498e-06 1.822208768330806e-08 2.561856186344538e-07 4.772690404342157e-06 4.596720663699685e-02 8.914236984387303e-03 5.254543749673198e-09 4.538545586402614e-05 6.151651897747354e-04 3.785567859626368e-03 4.645962152209394e-04 4.980740185678632e-05 2.333988549453565e-06 1.212154128813023e-07 3.577034644462632e-06 3.502606764117668e-04 1.367245234559752e-03 4.274929599677358e-03 8.738628319539123e-01 7.064819428465247e-01 6.800625621605270e-01 8.067994439422772e-01 1.646105596763348e-01 7.589174969880801e-01 6.311436531128081e-01 4.248418751880956e-01 3.089809706169233e-01 4.588239355691570e-01 1.488087996571735e-01 5.867688632167130e-02 2.815708127651594e-01 1.453774088810061e-01 2.198289470191591e-02 1.253624878656106e-02 7.846773479793384e-02 3.532335750796610e-02 2.879447046233307e-01 4.138968007518049e-01 4.773050306900748e-01 7.040143749712997e-03 2.063087458305703e-04 8.405852142765557e-02 2.106784455272886e-02 1.499002832648963e-06 1.690279519479627e-05 6.531941166377769e-05 1.175331190219250e-07 5.437895131917593e-07 8.664371489388694e-05 8.927197930691059e-06 4.121613358226850e-05 5.342413846732995e-08 1.675999417953793e-01 4.019179275799174e-08 3.464084205579360e-07 5.085658893827873e-06 2.190879492652865e-02 6.856892084245314e-02 1.075531629739475e-01 2.355768868932320e-01 1.960797341959401e-01 3.954245753588908e-07 1.365979067102737e-01 5.098806858666097e-02 7.772779111743632e-02 8.159455267094065e-06 1.121159070727403e-06 5.398516532428784e-03 1.357921441025348e-06 1.644317590170699e-03 1.286092390879524e-03 8.118923853318158e-02 4.528488290441076e-03 3.014055211963764e-03 2.027903115097514e-02 4.315767537203947e-02 9.236683898119183e-02 3.493296322423649e-02 2.962682690134970e-02 7.186125637051249e-05 3.424629785298219e-02 1.827999705458615e-02 4.637222334009267e-02 2.372327028173843e-02 3.767568425173332e-02 1.631888561718088e-02 7.031603054368256e-03 4.826714990483619e-02 2.561008335285365e-02 5.609952514140423e-03 4.229487369795337e-02 3.539152995420462e-10 3.767215349898117e-07 3.520397454975957e-04 2.975343633398478e-05 3.858641106500002e-05 3.939818829285928e-06 6.110162040102506e-02 5.952041306692601e-02 6.672197329853352e-09 2.124612453733315e-02 2.991980776048182e-02 5.945850645543628e-07 2.284921845682878e-04 1.388190664765093e-04 1.339525120938509e-03 2.649313124890619e-04 1.649727250471918e-05 7.058306845917431e-05 2.042573704493426e-04 1.172647676410649e-02 2.417809781418344e-05 3.707005373139031e-04 9.632855594383403e-03 2.593337060676074e-03 2.529475916363102e-04 2.612028179884361e-05 4.809229605015775e-06 2.215073391788916e-03 7.037605782850993e-04 3.789289141567900e-06 3.757767851468963e-03 5.331629290302698e-05 5.143902996795544e-08 2.967919538765994e-07 2.356923365386868e-11 3.891898140098122e-02 1.598193898703065e-07 2.270603695892615e-06 2.180649665596244e-05 7.463914040169756e-09 1.032607349080355e-07 3.127448923839999e-07 4.297319142673491e-05 5.570765301750048e-06 7.293656387943415e-06 2.632726216836412e-08 1.480512291068660e-09 1.353782865060906e-02 1.114994133272717e-03 1.232504710183928e-04 1.964720199808817e-07 3.453518050741549e-08 3.279514553915749e-09 9.621352841739647e-11 4.519818294902057e-03 1.666275795262683e-03 1.026069391082216e-02 1.352093109752773e-06 6.663937905520487e-02 1.649196700040604e-01 1.393823253710702e-01 3.169787275718328e-01 5.602734332443516e-02 2.213308662087370e-07 6.196652099091800e-04 6.784796467322815e-02 1.183942646730046e-06 3.879760171693805e-06 7.069838646000958e-07 1.824857124829227e-03 1.095247266953158e-05 8.363887520874129e-02 5.020817488775202e-02 4.824867521337525e-03 9.430712284802054e-02 1.268949984665927e-02 4.247240599046005e-03 4.932409932186582e-04 4.965978518681607e-02 2.438571846060963e-02 6.805388375067614e-07 3.372461069086266e-05 1.229176869515331e-04 1.199368308315204e-07 4.451957687515194e-06 8.971400657001972e-05 3.361799319482049e-04 4.521315607228207e-02 1.442387147991888e-03 1.284126394014518e-02 4.203591461629352e-02 2.065542766747636e-02 5.262531983368283e-03 8.293903219395035e-03 9.261181914623225e-01 9.954838666441609e-01 9.466283072259689e-01 9.976543913911202e-01 1.418560947824101e-04 3.010892071792881e-01 1.268812336269563e-02 6.038123702243630e-01 2.772471301772987e-01 8.179035219730493e-01 5.942091508187689e-01 1.430983088986299e-03 4.871688101853704e-02 1.172835129261279e-01 8.280519450793120e-01 8.016487493431319e-03 9.144662452934778e-01 1.079814160104624e-01 2.212391559943786e-03 1.431607913245154e-02 5.014813480304147e-03 3.307014791924778e-01 4.579639392964706e-01 8.517249371608707e-04 2.650313514261170e-03 9.591029691481170e-01 9.971224484081614e-01 9.878976455388603e-01 9.889737045022400e-01 9.746526132641229e-01 9.471722574022488e-01 8.159424842872089e-01 9.674181019049807e-01 9.965600291122065e-01 9.746498847982661e-01 9.712812620615602e-01 9.055848705632045e-01 6.341033872286277e-01 8.901808952793666e-01 8.644632359233358e-01 7.438831946616433e-01 9.959258885304720e-01 9.831135525755204e-01 1.218484550814743e-02 8.866899965723390e-02 4.747366448953224e-01 6.308910462529806e-02 4.287815563339069e-02 3.375266240648879e-02 8.108116605251904e-02 6.827099105235118e-01 6.834663129600074e-01 8.283600813149685e-01 4.711040660311650e-01 5.333884833609109e-01 1.642696251827318e-01 4.283085016011669e-02 1.297465989838305e-01 7.112996879745662e-02 1.857843925663214e-04 7.818451965434295e-04 9.055646992918557e-04 1.848241937708361e-04 4.219974072971925e-03 9.902174439369700e-01 9.813430980684659e-01 9.746370678765049e-01 8.665936515291146e-01 7.938802536643339e-01 4.906567740029061e-01 6.803183501918510e-03 6.265328341928962e-01 4.593855601481541e-01 3.629156665532716e-02 6.382131625994001e-01 5.583272615840475e-05 3.152625668132542e-03 7.814844526177520e-04 5.003357198891111e-03 1.682274231486004e-02 5.975673353606541e-04 8.958126432602933e-04 9.831518817281535e-01 9.441377540018027e-01 4.605382620656016e-01 5.349070893854291e-02 7.769866376095849e-02 5.787690165725911e-01 3.927754708793526e-01 8.610062064575522e-01 1.522703235032138e-01 2.544054377771247e-01 1.587584225869358e-01 2.943178152126464e-01 9.912542513680709e-01 9.965083010035323e-01 4.184668855587699e-01 6.288080075375615e-01 9.558712382600220e-01 3.789996064181636e-01 5.755864341789196e-02 8.921473295767559e-01 9.533555508818354e-01 9.535295529491004e-01 4.362842780027733e-01 3.537156167425892e-01 8.149109736422372e-02 1.109094561809239e-01 1.627543187157022e-01 9.968556262238952e-01 9.858520319927520e-01 2.592397942233420e-01 1.927377469114511e-01 3.828288896077719e-01 1.219599960281118e-01 5.936647445585531e-02 1.052899132639301e-01 5.676079606652108e-02 1.171016777570802e-01 4.482689504730295e-01 7.012316821384888e-02 8.718888132393543e-01 7.468040545794320e-01 4.440354499285353e-01 5.919064701801471e-01 6.055465971339098e-02 7.326886034335242e-02 2.066432681963689e-01 1.275050327883091e-01 4.589381695318226e-01 2.063388850305952e-01 1.617952694849996e-01 1.201287615078731e-01 1.316516532004762e-01 4.005096681296004e-01 1.358257395866272e-01 3.191625571500194e-01 1.772198550525265e-01 4.562020909297895e-02 4.164662507009010e-02 1.064626814918727e-02 4.793826184162428e-02 2.364155864148550e-02 7.175221014266396e-01 6.044472126392278e-01 1.068544317419369e-01 8.902519823333965e-01 9.785212126639098e-01 2.312947609553047e-02 1.049551952134185e-02 1.252472438848319e-01 1.784496338790060e-01 3.061957165991051e-01 9.162357994389925e-02 1.034739971633924e-01 2.237105216491018e-01 2.261900502886945e-01 3.451491994386180e-01 2.985310894886297e-01 4.197978049843542e-01 4.682045514652533e-01 3.009222994275271e-01 1.891534864359642e-01 7.200894551255745e-01 8.183371342220659e-01 5.748877316340641e-01 2.702010725128863e-01 3.135272849527819e-01 3.839995577877325e-01 2.514288647561130e-01 1.991129692359644e-01 6.554344256497774e-01 8.367352050327070e-01 2.108948692782352e-02 1.116564525266045e-02 1.068374574635379e-01 8.847279711872741e-02 2.045488829320410e-01 4.746260721849518e-03 4.314944685495967e-02 2.489052076199830e-02 2.601983895364403e-02 1.453561991839469e-02 1.244191624179745e-02 1.743621669484942e-01 2.316807000392489e-01 4.402354712674390e-03 5.875902080802203e-03 1.335495729970148e-03 2.139528077866466e-03 1.481041816122827e-03 3.071645679346385e-03 1.994155749764468e-03 3.320361888936287e-03 1.072528606503023e-02 1.661008412168320e-02 1.530906336035255e-01 4.057432760436909e-01 3.761248338191640e-01 2.300295877892323e-01 9.913864164423898e-01 9.753970752135501e-01 9.375117025357979e-02 3.241896220755651e-02 2.760848513060155e-01 5.710072034789012e-01 4.518772632110384e-01 7.354822673870580e-01 1.718308094029036e-02 1.570213454483983e-02 1.467106238638334e-01 1.398989697853795e-01 7.107846148693356e-02 8.194003929376972e-02 1.902673182057394e-01 3.072163692953006e-01 3.487558170898104e-02 2.923235824327943e-03 1.887797752282973e-01 1.804120175081452e-02 6.531635535739719e-02 6.815296898857490e-03 7.176814359324680e-03 2.766149853934625e-02 2.372680296130845e-03 7.274533900725612e-03 9.606646794733213e-02 3.635293761070962e-02 4.432625961193298e-02 1.789147848835264e-01 8.280888041812989e-02 3.769366058386857e-02 2.673757268589784e-01 1.605051069355379e-01 8.732384702843377e-02 3.180696580663566e-01 1.933822941992518e-01 4.715830514191184e-01 4.943814394719596e-01 3.033719136073649e-03 1.199908599301151e-03 1.374202752614723e-02 8.745038124129154e-02 6.858122752704877e-03 2.962811616810422e-03 2.225949235270097e-08 1.799274276260379e-08 1.107242295135810e-06 1.845814897643028e-05 1.948692725781898e-06 3.871911301722959e-05 4.847825484221736e-03 7.554452947736439e-05 1.922734925128392e-04 4.604810412612940e-04 1.356687550896673e-03 9.882775482730359e-03 4.490432541883399e-02 6.203966106708313e-02 8.498372853045096e-04 7.210918939096456e-02 3.250664064000542e-03 2.564978151072537e-02 9.564119428107896e-03 5.340287290047216e-02 1.729517696968600e-02 1.103241667621494e-01 5.839128945207483e-02 8.822847652267404e-02 6.208807671630231e-02 3.260392644911048e-02 1.870433311777828e-02 3.092994732035150e-02 1.141200992855880e-02 1.838645425074529e-02 7.693469408791814e-04 1.222154048234838e-04 2.839278982145433e-04 4.731335635062753e-03 7.526708157537313e-03 2.154158594406078e-03 1.083748647713667e-01 1.446760329671932e-01 2.933735318383823e-01 4.257688653075773e-01 8.492979531592675e-02 4.688635656701336e-02 4.392662424485602e-02 1.439404561501406e-05 2.673835988794858e-05 1.923947208808090e-02 8.206098096533176e-03 1.657909667287266e-06 1.347012275060726e-06 5.686521592071916e-03 7.114934000283434e-02 2.569120631316414e-01 5.595392431994079e-03 3.281510862988285e-02 6.088991338019166e-02 2.137018229567462e-02 2.175582361869030e-01 7.307026912065004e-02 3.470818721855162e-01 1.792568130571562e-01 2.445315681770207e-03 3.394496897587167e-02 6.907157337759651e-03 1.544323861787141e-07 1.576970468007383e-02 1.324588025756103e-03 4.869587946403716e-04 1.137575938087211e-04 5.209652732306837e-04 2.982809667671376e-03 2.347932348381658e-03 4.830755360460835e-04 3.129988579071680e-04 7.036872036710107e-05 
</DataArray>
<DataArray type="Float64" Name="B_conc" format="ascii">
8.216006901378409e-04 1.104164497119012e-02 4.778396211993730e-02 1.238500457907566e-01 1.126127120582741e-07 5.353445372246024e-06 9.972871787298665e-05 3.673462790865354e-01 3.433271131850671e-01 3.128131255377140e-01 2.747139833375105e-01 2.300288832335836e-01 1.570296136244231e-01 8.973820668901497e-02 4.154381100785318e-02 4.617148781474391e-02 3.278630418136357e-01 3.470984628407457e-01 3.610295425401324e-01 1.722023657126644e-01 3.424521462886439e-02 6.999046996458305e-05 1.414662243390301e-05 6.074310621096453e-01 6.435613292034998e-01 5.333928122912870e-01 4.154858230852594e-01 6.895830003653380e-02 2.079453327812039e-01 4.797286904119038e-03 1.521137925339122e-05 2.116254979550127e-06 3.084585279899004e-07 2.850194437786330e-05 1.666687390766410e-04 5.573740077919684e-02 1.514037736059566e-01 2.463752626864262e-01 3.146199893316667e-01 3.513366710881268e-01 9.337130569913477e-07 7.193123178553129e-04 4.059623909052503e-02 1.143582301588017e-08 2.281625190026657e-08 6.455938906378307e-02 4.205473528391606e-01 4.386279193108792e-01 3.278406737327501e-01 1.695841687719826e-01 5.172217566401528e-02 8.356817108286462e-03 2.616066630004674e-02 8.510506989525654e-02 5.041195337599278e-01 5.202652448946576e-01 5.379360145966638e-01 5.504225491956292e-01 5.600566949774378e-01 9.736808207640510e-02 3.345316845926071e-01 4.694441523139607e-06 6.709614546974837e-07 3.465278619523690e-07 5.179982000055290e-01 5.456960609828043e-01 5.698677475568634e-01 5.913038232984484e-01 6.115394698711447e-01 2.717704560293684e-01 4.188979199877882e-01 5.539343071906664e-01 6.896843525051289e-01 7.298659716243182e-01 7.803368669691682e-01 8.442428716343324e-01 8.388346834671683e-01 6.371130692822169e-01 2.860700526796315e-01 9.021375626079325e-02 3.254646395376770e-01 6.613595975610098e-01 6.990971946634574e-01 7.347484282880186e-01 4.130372210335932e-01 6.721512097662528e-01 2.511469670233174e-03 6.664559089772336e-03 1.914629257064696e-02 2.674513858485895e-01 1.603163469411973e-02 4.172009788380631e-01 6.785229839117304e-01 9.035361643360020e-01 8.876675185426088e-01 8.625369536902390e-01 9.149585630537709e-01 9.239170936957740e-01 9.270390346382642e-01 8.783969730239641e-01 6.763171388326015e-01 9.957882242953842e-01 9.990319430701271e-01 9.996165242680783e-01 3.398784952035648e-01 4.479689975989848e-01 5.301245980961640e-01 6.142114870435883e-01 7.497333172556808e-01 8.090620203942386e-01 8.587455684253527e-01 9.040745746323505e-01 7.053658770268183e-01 5.596025169178936e-01 5.362406258404777e-01 5.504019894577594e-01 5.596184016184019e-01 6.110950089448002e-01 6.376181478467020e-01 6.532535023880965e-01 6.761345595050595e-05 4.157754020892705e-07 5.156415221195910e-07 6.469336452014355e-05 2.478343829260055e-04 9.249944361954410e-04 2.941695200654492e-03 3.023800006815366e-04 2.008162270793069e-03 1.079842476222627e-02 3.383315408499640e-02 1.496354296734705e-02 7.848743741900454e-03 8.718380864058366e-05 1.931196801903423e-04 1.872049706061066e-04 3.849338679742884e-04 1.764918729082164e-02 1.584621498073702e-01 2.769298879540954e-02 1.534846746742640e-01 1.643090528259172e-01 1.743741379193743e-01 1.828620656049305e-01 1.557288439360057e-05 9.949193489439633e-05 1.922127548658731e-02 4.802615713692391e-05 9.091334049674195e-06 3.001373626098669e-03 3.335046309284069e-04 6.632604126056506e-03 2.722591531123199e-02 1.407184222197952e-03 3.618723716625150e-04 2.985319304015424e-05 1.433450192674317e-04 1.479243399360926e-03 4.702519785358862e-03 6.745269326953404e-02 1.868855496740034e-02 2.182973643285169e-02 6.547275882063004e-03 5.766979585538350e-02 2.460532060343054e-02 7.152760615293480e-04 6.504841399874070e-03 7.238147074491029e-06 8.846180076265045e-05 9.551043635430125e-07 7.074190131384601e-07 9.141252973650401e-06 4.667565300512060e-09 2.980077313219209e-18 1.620918674121104e-02 1.167933108317414e-01 1.366913874740192e-16 4.811938263969121e-15 4.668810200709892e-16 6.082586702304648e-07 1.736496445128272e-03 1.100625016218414e-02 2.060526813820390e-06 7.060375960451987e-05 4.422168589820919e-02 2.205157170523400e-03 1.520812077876496e-02 7.789433686705254e-04 3.176815951068179e-03 5.590796417914271e-04 4.361884043077035e-07 5.967547652199229e-06 4.555215849244687e-02 1.064492369162561e-04 6.939001454861048e-05 9.329393188435410e-03 2.291386803511198e-03 2.428514083095956e-04 6.602226173606757e-09 1.581056603479942e-07 9.336454732988701e-06 7.039030742699432e-06 2.862437293158690e-10 5.577523726350536e-07 1.319399410116646e-08 5.733503172078469e-08 3.549218998324595e-10 7.469524355304014e-10 1.705697244996463e-09 1.570250049955300e-12 2.230443538532016e-14 1.741831747579889e-11 1.607700143015149e-13 6.348341531225599e-13 1.078999297409134e-10 4.314483648640218e-12 1.396648463737698e-06 1.850706342498826e-05 2.730229589500383e-08 1.191928269392302e-09 5.472949279741352e-08 5.395278174990455e-11 5.510303682493608e-09 2.146435980607757e-07 4.269976849885174e-02 6.742519616364420e-03 1.034101431428798e-10 8.451455246183173e-06 2.360735155310676e-04 2.400775956253597e-03 1.401886285416506e-04 7.352429522312361e-06 2.098473250446030e-07 4.711164429162679e-09 2.629710806300399e-07 2.708432173240699e-05 2.486222345489522e-04 1.818573230730600e-03 8.739361144840733e-01 7.062412714219409e-01 6.810190674532579e-01 8.074594685151675e-01 1.592711609856476e-01 7.591101491870994e-01 6.312720247481511e-01 4.230543316624376e-01 3.054875518505170e-01 4.577083095973181e-01 1.426143935290142e-01 5.239359168955204e-02 2.775817782370402e-01 1.392850227702939e-01 1.701300995023073e-02 8.458695141523745e-03 7.218239066288593e-02 2.962259342524071e-02 2.841815088926753e-01 4.114164040125747e-01 4.758584254535596e-01 4.677752028367746e-03 4.603039863783824e-05 8.013959506559479e-02 1.809753132768835e-02 6.054676580533446e-08 1.558450373678722e-06 8.487057091230029e-06 2.099535778700942e-09 1.213972254224017e-08 1.044527572650413e-05 4.605665911388778e-07 3.902060763013386e-06 5.353642426384023e-10 1.657880777699751e-01 3.491710168719306e-10 6.471718754640445e-09 2.105299707915182e-07 1.864638161768245e-02 6.502960534162869e-02 1.020068782256519e-01 2.332714508104909e-01 1.925924677257561e-01 4.174861311054565e-08 1.325306706052075e-01 4.649626613443424e-02 7.352791770108102e-02 1.570743891754788e-07 9.170660987879893e-09 2.998544921884083e-03 2.822178137793538e-08 2.876774954936288e-04 2.322105271828478e-04 7.398214466026891e-02 2.610158592721581e-03 1.327322771383266e-03 1.670029866878742e-02 3.748158519073035e-02 8.699512508627144e-02 3.146552536963224e-02 2.602940476991621e-02 9.808742432637522e-06 3.087974257435377e-02 1.477976297617829e-02 4.225049177530811e-02 1.988045057391757e-02 3.209336469435835e-02 1.199950602249991e-02 3.753159005700329e-03 4.106143374199735e-02 1.899154985414381e-02 2.494503967603722e-03 3.839519982397571e-02 4.178910053448510e-13 5.444733874557046e-08 5.765186697091816e-05 3.189939443515132e-06 2.378980462740785e-06 9.612682869076254e-08 5.647374162821411e-02 5.326357392601649e-02 8.472762164748262e-11 1.703241105977711e-02 2.557425498447693e-02 1.328430301157637e-08 5.698564547251360e-05 9.936570748674299e-06 4.653260080774728e-04 4.860434354876804e-05 8.366945013647936e-07 6.752059399165109e-06 2.671612906477923e-05 8.786130671960119e-03 1.189364732038698e-06 5.565279440768455e-05 6.892773788774223e-03 1.134279257176306e-03 7.121588753395203e-05 4.093608132314608e-06 4.092396288360089e-07 7.506659415315221e-04 1.632062901280987e-04 1.766402344030382e-07 2.035719254192905e-03 4.925283362175897e-06 1.259793240822221e-09 1.364623100422676e-08 1.217173533833657e-14 3.226517858640023e-02 1.080228336938932e-09 3.666937578066596e-08 8.475414789697198e-07 2.683592319318148e-11 8.866535610332842e-10 3.079574494191904e-09 3.241073022818977e-06 1.763394473655008e-07 4.150593123416952e-07 1.074470044918936e-10 2.491464953658259e-12 9.160493573960210e-03 2.724692892678691e-04 1.372889505012732e-05 2.670336582055224e-09 2.117720181735663e-10 8.740598127990184e-12 6.911371498637120e-14 1.827863122182042e-03 3.030826218184079e-04 5.515463873448314e-03 1.890773100051971e-08 6.447342736509271e-02 1.603809791516725e-01 1.344325290471917e-01 3.139323160729123e-01 5.258633949868297e-02 2.855148842539599e-09 1.296512646161674e-04 6.399281235697654e-02 3.257108064113372e-08 6.456831139879901e-08 5.301382980009555e-09 7.986522664046585e-04 2.281261401850817e-06 7.845377591407471e-02 4.607032900379375e-02 3.581886353368822e-03 9.034511591263106e-02 8.968768866780203e-03 1.949524677662388e-03 2.178730509731722e-04 4.582935486368797e-02 2.032992001788658e-02 5.524220655757635e-08 3.789204760937483e-06 2.747530489982956e-05 4.955823594396724e-09 2.499093400615814e-07 3.319959163500697e-06 2.849830790939648e-05 4.007528287708256e-02 2.831567986106496e-04 9.852938914063997e-03 3.790377418058657e-02 1.664509272009086e-02 2.912248986448031e-03 5.167634997106959e-03 9.279035235223063e-01 9.955517397586453e-01 9.483415468805041e-01 9.976573139088558e-01 2.130196212069518e-05 2.976255825827231e-01 8.854511079988140e-03 6.055957007482802e-01 2.734292146493312e-01 8.207898431293383e-01 5.957442389973602e-01 4.895881755332369e-04 4.259407839283450e-02 1.110565523440261e-01 8.312396233372601e-01 5.050465749105927e-03 9.166204396719141e-01 1.039978523191068e-01 7.156405318000236e-04 1.070629949914278e-02 3.339098643886705e-03 3.276932518934239e-01 4.577157705200662e-01 1.812099149940097e-04 1.194158444854785e-03 9.602586680699704e-01 9.971385978708583e-01 9.881959642737992e-01 9.892384645824472e-01 9.754156557562013e-01 9.487811864826847e-01 8.189087105313935e-01 9.682434330425946e-01 9.965934226578117e-01 9.752744310798740e-01 9.721354531202195e-01 9.077866500191476e-01 6.364795605481619e-01 8.922800462992416e-01 8.669955557275197e-01 7.468536901509708e-01 9.959796359165665e-01 9.835585085018127e-01 8.601608085616552e-03 8.457798893874841e-02 4.745078792819400e-01 5.877348114680379e-02 3.837206150304352e-02 2.939233481062650e-02 7.686653926591633e-02 6.856892456598238e-01 6.864811458055373e-01 8.314858586443739e-01 4.711319911917209e-01 5.346827251508197e-01 1.601739612643487e-01 3.704201823860546e-02 1.234930423141593e-01 6.500093721528763e-02 1.373090673267306e-05 1.302154724430174e-04 1.643978535265754e-04 1.411394426196065e-05 1.890206536021280e-03 9.904355262181979e-01 9.818799706764449e-01 9.754253457118987e-01 8.669505145149724e-01 7.968360888548279e-01 4.892597736171223e-01 3.856217339991867e-03 6.264392664627987e-01 4.579732035456450e-01 3.002391917877418e-02 6.382802429268413e-01 2.656180358567106e-06 1.061958952781645e-03 1.014792673402066e-04 2.253546298588160e-03 1.184615984307142e-02 1.017243128112744e-04 1.343141547225526e-04 9.835171818655302e-01 9.453096278418773e-01 4.595572563289633e-01 4.645586858559589e-02 7.077133853140938e-02 5.802887489678913e-01 3.905740076812931e-01 8.635652853836573e-01 1.459587693187223e-01 2.498724178541150e-01 1.529097740054247e-01 2.906268020388744e-01 9.914421742253675e-01 9.965433417017895e-01 4.159558879329242e-01 6.296075401730375e-01 9.568756985790194e-01 3.768531543027842e-01 5.084524366140949e-02 8.940763368549054e-01 9.543137773935558e-01 9.547848279242794e-01 4.348800698804199e-01 3.511457825091645e-01 7.344897381337936e-02 1.033542105487519e-01 1.560101851749614e-01 9.968797529545035e-01 9.862133646961022e-01 2.550664625659269e-01 1.872596968027670e-01 3.809059908300370e-01 1.164203714805495e-01 5.317551980773001e-02 9.872108552279266e-02 5.004108956672602e-02 1.103361009180349e-01 4.474011765322444e-01 6.328644796265194e-02 8.741651682014643e-01 7.495799934942249e-01 4.427356708215869e-01 5.920930400176945e-01 5.442711099733087e-02 6.619678765403862e-02 2.014202287631029e-01 1.211390827737049e-01 4.586883798112076e-01 2.006014620832963e-01 1.567910730578896e-01 1.143235300399640e-01 1.243542358760430e-01 3.987291960067767e-01 1.284302439298910e-01 3.158463177542368e-01 1.707732109692708e-01 3.878146422947716e-02 3.593134072322508e-02 6.168850738590795e-03 4.099591839386525e-02 1.777863841153169e-02 7.186902796192796e-01 6.053633627323930e-01 9.996114949350937e-02 8.924214108151518e-01 9.791726950577228e-01 1.818708169003638e-02 6.773416575814850e-03 1.193475216253493e-01 1.729134640436504e-01 3.027005597892577e-01 8.517322442080313e-02 9.741553100459563e-02 2.183823560641845e-01 2.219704039962158e-01 3.421927872155437e-01 2.950790530000762e-01 4.183707054448396e-01 4.668722232932032e-01 2.975472359980970e-01 1.842281423983152e-01 7.212066749641846e-01 8.191937541414540e-01 5.751268815867352e-01 2.661897876225139e-01 3.104725423706085e-01 3.820867476141070e-01 2.470036348342319e-01 1.934138999973080e-01 6.559040087512047e-01 8.373913904685182e-01 1.565260148861142e-02 6.640464446705805e-03 1.039230326888881e-01 8.447150283988988e-02 2.016446370614167e-01 1.663874435682114e-03 3.704652913208320e-02 1.928751889886821e-02 2.034066914340568e-02 9.594063247552779e-03 7.773827985118860e-03 1.695594081737057e-01 2.283528019003946e-01 2.500691608622443e-03 2.439393647813186e-03 3.161296362534222e-04 9.133679083780800e-04 1.926675083361645e-04 9.007747259771558e-04 2.818611441072632e-04 1.928403846364511e-03 8.702011125888998e-03 1.459143197912526e-02 1.484328420623825e-01 4.037202067281374e-01 3.739477321837229e-01 2.275165534830228e-01 9.915192352987497e-01 9.759007746598265e-01 8.985841571634332e-02 2.731616748596563e-02 2.721379797195105e-01 5.703189962492288e-01 4.503813603097649e-01 7.360227083375566e-01 1.291996255421428e-02 1.105455226905566e-02 1.412909666543240e-01 1.343719634913610e-01 6.551799853666204e-02 7.722202233961528e-02 1.860265361050291e-01 3.040721050791468e-01 2.989420921474569e-02 9.970080511062947e-04 1.837649120315808e-01 1.395423186193604e-02 5.978877795092854e-02 3.973751583668448e-03 4.056657194393436e-03 2.267072196181064e-02 7.476515559701371e-04 4.377748858149266e-03 8.946119096359896e-02 3.052120966901634e-02 3.792032874985057e-02 1.739095736715685e-01 7.716818230973566e-02 3.267062280210697e-02 2.634789283698675e-01 1.548273045121751e-01 8.073053819867854e-02 3.146642385375151e-01 1.879302135106145e-01 4.703954876039332e-01 4.933008426690199e-01 1.313754234322604e-03 2.537907440508527e-04 1.002937703126168e-02 8.309563661717452e-02 2.983862945288204e-03 6.296578891283716e-04 7.640940989422746e-11 7.732453412876022e-11 1.274412984837889e-08 5.489097299080408e-07 2.302570802431423e-08 9.762043782031738e-07 1.545741910262614e-03 1.601851315871039e-06 1.138909964511916e-05 2.335612166896806e-05 1.644566740538014e-04 5.240923022819132e-03 3.932872205228276e-02 5.640770673941858e-02 1.219963285472724e-04 6.765149465068712e-02 1.187292531031483e-03 2.111731737422448e-02 6.149955208977427e-03 4.863462278074737e-02 1.295216359829603e-02 1.033983097864941e-01 5.086734819544639e-02 8.367404024115138e-02 5.453638148887181e-02 2.653509312133348e-02 1.246107628662347e-02 2.396920524669773e-02 6.830852330752986e-03 1.330200197784855e-02 1.469891567750489e-04 9.065460131156608e-06 4.971458703508380e-05 2.244156525493790e-03 5.571072727972499e-03 9.181431633779201e-04 1.015480801229065e-01 1.388358661651527e-01 2.908283226612294e-01 4.240423247116551e-01 8.023978737545900e-02 4.163561721069961e-02 3.784510756727254e-02 2.010522118851802e-07 2.496664752127131e-06 1.451947132851522e-02 4.622141859487723e-03 2.337234157909882e-08 1.828986570881159e-08 3.094727370511315e-03 6.499313807645039e-02 2.529187874089115e-01 3.126975394245520e-03 2.715872937293352e-02 5.511023615481903e-02 1.676123075792732e-02 2.125932005347101e-01 6.677940379714847e-02 3.444572318052181e-01 1.739507220110924e-01 5.241125161981138e-04 2.826691919992312e-02 3.436396237610715e-03 9.020817647144077e-10 1.103701663011943e-02 2.464189202491493e-04 4.013753294407663e-05 3.909086914437411e-06 5.018685863560792e-05 1.198893182503491e-03 5.766348754174385e-04 4.604745116604595e-05 2.401814898946843e-05 2.287119927845771e-06 
</DataArray>
<DataArray type="Int32" Name="region_id" format="ascii">
1 1 1 1 1 1 1 1 1 1 1 1 1 1 1 1 1 1 1 1 1 1 1 1 1 1 1 1 1 1 1 1 1 1 1 1 1 1 1 1 1 1 1 1 1 1 1 1 1 1 1 1 1 1 1 1 1 1 1 1 1 1 1 1 1 1 1 1 1 1 1 1 1 1 1 1 1 1 1 1 1 1 1 1 1 1 1 1 1 1 1 1 1 1 1 1 1 1 1 1 1 1 1 1 1 1 1 1 1 1 1 1 1 1 1 1 1 1 1 1 1 1 1 1 1 1 1 1 1 1 1 1 1 1 1 1 1 1 1 1 1 1 1 1 4 4 4 4 4 4 4 4 4 4 4 4 4 4 4 4 4 4 4 4 4 4 4 4 4 4 4 4 4 4 4 4 4 4 4 4 4 4 4 4 4 4 4 4 4 4 4 4 4 4 4 4 4 4 4 4 4 4 4 4 4 4 4 4 4 4 4 4 4 4 4 4 4 4 4 4 4 4 4 4 4 4 4 4 4 4 4 4 4 4 4 4 4 4 4 4 4 4 4 4 4 4 4 4 4 4 4 4 4 4 4 4 4 4 4 4 4 4 4 4 4 4 4 4 4 4 4 4 4 4 4 4 4 4 4 4 4 4 4 4 4 4 4 4 4 4 4 4 4 4 4 4 4 4 4 4 4 4 4 4 4 4 4 4 4 4 4 4 4 4 4 4 4 4 4 4 4 4 4 4 4 4 4 4 4 4 4 4 4 4 4 4 4 4 4 4 4 4 4 4 4 4 4 4 4 4 4 4 4 4 4 4 4 4 4 4 4 4 4 4 4 4 4 4 4 4 4 4 4 4 4 4 4 4 4 4 4 4 4 4 4 4 4 4 4 4 4 4 4 4 4 4 4 4 4 4 4 4 4 4 4 4 4 4 4 4 4 4 4 4 4 4 4 4 4 4 4 4 4 4 4 4 4 4 4 4 4 4 4 4 4 4 4 4 4 4 4 4 4 4 4 4 4 4 4 4 4 4 4 4 4 4 4 4 4 4 4 4 4 4 4 4 4 4 4 4 4 4 4 4 4 4 4 4 4 4 4 4 4 4 4 4 4 4 4 4 4 4 4 4 4 4 4 4 4 4 4 4 4 4 4 4 4 4 4 4 4 4 4 4 4 4 4 4 4 4 4 4 4 4 4 4 4 4 4 4 4 4 4 4 4 4 4 4 4 4 4 4 4 4 4 4 4 4 4 4 4 4 4 4 4 4 4 4 4 4 4 4 4 4 4 4 4 4 4 4 4 4 4 4 4 4 4 4 4 4 4 4 4 4 4 4 4 4 4 4 4 4 4 4 4 4 4 4 4 4 4 4 4 4 4 4 4 4 4 4 4 4 4 4 4 4 4 4 4 4 4 4 4 4 4 4 4 4 4 4 4 4 4 4 4 4 4 4 4 4 4 4 4 4 4 4 4 4 4 4 4 4 4 4 4 4 4 4 4 4 4 4 4 4 4 4 4 4 4 4 4 4 4 4 4 4 4 4 4 4 4 4 4 4 4 4 4 4 4 4 4 4 4 4 4 4 4 4 4 4 4 4 4 4 4 4 4 4 4 4 4 4 4 4 4 4 4 4 4 4 4 4 4 4 
</DataArray>
</CellData>
</Piece>
</UnstructuredGrid>
</VTKFile>
